"time","theta3d","omega3d","alpha3d"
"0","[26.94552114  0.         10.        ]","[-0.05447886  0.          0.        ]","[-0.05447886 -0.         -0.        ]"
"1","[26.83666511  0.         10.        ]","[-0.10885603  0.          0.        ]","[-0.05437717 -0.         -0.        ]"
"2","[26.67363524  0.         10.        ]","[-0.16302987  0.          0.        ]","[-0.05417384 -0.         -0.        ]"
"3","[26.45673643  0.         10.        ]","[-0.21689881  0.          0.        ]","[-0.05386894 -0.         -0.        ]"
"4","[26.18637499  0.         10.        ]","[-0.27036144  0.          0.        ]","[-0.05346263 -0.         -0.        ]"
"5","[25.86305845  0.         10.        ]","[-0.32331654  0.          0.        ]","[-0.0529551 -0.        -0.       ]"
"6","[25.4873953  0.        10.       ]","[-0.37566314  0.          0.        ]","[-0.0523466 -0.        -0.       ]"
"7","[25.06009466  0.         10.        ]","[-0.42730065  0.          0.        ]","[-0.0516375 -0.        -0.       ]"
"8","[24.58196578  0.         10.        ]","[-0.47812888  0.          0.        ]","[-0.05082823 -0.         -0.        ]"
"9","[24.05391755  0.         10.        ]","[-0.52804823  0.          0.        ]","[-0.04991935 -0.         -0.        ]"
"10","[23.47695778  0.         10.        ]","[-0.57695977  0.          0.        ]","[-0.04891154 -0.         -0.        ]"
"11","[22.85219238  0.         10.        ]","[-0.6247654  0.         0.       ]","[-0.04780563 -0.         -0.        ]"
"12","[22.18082437  0.         10.        ]","[-0.67136802  0.          0.        ]","[-0.04660262 -0.         -0.        ]"
"13","[21.46415264  0.         10.        ]","[-0.71667172  0.          0.        ]","[-0.04530371 -0.         -0.        ]"
"14","[20.70357063  0.         10.        ]","[-0.76058201  0.          0.        ]","[-0.04391028 -0.         -0.        ]"
"15","[19.90056465  0.         10.        ]","[-0.80300598  0.          0.        ]","[-0.04242398 -0.         -0.        ]"
"16","[19.05671201  0.         10.        ]","[-0.84385264  0.          0.        ]","[-0.04084666 -0.         -0.        ]"
"17","[18.1736789  0.        10.       ]","[-0.88303311  0.          0.        ]","[-0.03918047 -0.         -0.        ]"
"18","[17.25321797  0.         10.        ]","[-0.92046093  0.          0.        ]","[-0.03742782 -0.         -0.        ]"
"19","[16.29716562  0.         10.        ]","[-0.95605235  0.          0.        ]","[-0.03559143 -0.         -0.        ]"
"20","[15.30743896  0.         10.        ]","[-0.98972666  0.          0.        ]","[-0.03367431 -0.         -0.        ]"
"21","[14.28603251  0.         10.        ]","[-1.02140645  0.          0.        ]","[-0.03167979 -0.         -0.        ]"
"22","[13.23501452  0.         10.        ]","[-1.05101799  0.          0.        ]","[-0.02961153 -0.         -0.        ]"
"23","[12.15652304  0.         10.        ]","[-1.07849148  0.          0.        ]","[-0.0274735 -0.        -0.       ]"
"24","[11.05276159  0.         10.        ]","[-1.10376145  0.          0.        ]","[-0.02526997 -0.         -0.        ]"
"25","[ 9.9259946  0.        10.       ]","[-1.12676699  0.          0.        ]","[-0.02300554 -0.         -0.        ]"
"26","[ 8.77854249  0.         10.        ]","[-1.14745211  0.          0.        ]","[-0.02068512 -0.         -0.        ]"
"27","[ 7.61277648  0.         10.        ]","[-1.165766  0.        0.      ]","[-0.01831389 -0.         -0.        ]"
"28","[ 6.43111319  0.         10.        ]","[-1.18166329  0.          0.        ]","[-0.01589729 -0.         -0.        ]"
"29","[ 5.23600887  0.         10.        ]","[-1.19510432  0.          0.        ]","[-0.01344103 -0.         -0.        ]"
"30","[ 4.02995354  0.         10.        ]","[-1.20605533  0.          0.        ]","[-0.01095101 -0.         -0.        ]"
"31","[ 2.81546485  0.         10.        ]","[-1.21448869  0.          0.        ]","[-0.00843336 -0.         -0.        ]"
"32","[ 1.59508184  0.         10.        ]","[-1.22038301  0.          0.        ]","[-0.00589432 -0.         -0.        ]"
"33","[ 0.37135852  0.         10.        ]","[-1.22372331  0.          0.        ]","[-0.0033403 -0.        -0.       ]"
"34","[-0.85314256  0.         10.        ]","[-1.22450108  0.          0.        ]","[-0.00077777 -0.         -0.        ]"
"35","[-2.07585688  0.         10.        ]","[-1.22271433  0.          0.        ]","[0.00178675 0.         0.        ]"
"36","[-3.2942245  0.        10.       ]","[-1.21836761  0.          0.        ]","[0.00434671 0.         0.        ]"
"37","[-4.50569651  0.         10.        ]","[-1.21147201  0.          0.        ]","[0.00689561 0.         0.        ]"
"38","[-5.70774153  0.         10.        ]","[-1.20204502  0.          0.        ]","[0.00942699 0.         0.        ]"
"39","[-6.89785205  0.         10.        ]","[-1.19011052  0.          0.        ]","[0.0119345 0.        0.       ]"
"40","[-8.07355061  0.         10.        ]","[-1.17569856  0.          0.        ]","[0.01441195 0.         0.        ]"
"41","[-9.23239587  0.         10.        ]","[-1.15884526  0.          0.        ]","[0.0168533 0.        0.       ]"
"42","[-10.37198842   0.          10.        ]","[-1.13959254  0.          0.        ]","[0.01925272 0.         0.        ]"
"43","[-11.48997637   0.          10.        ]","[-1.11798795  0.          0.        ]","[0.02160459 0.         0.        ]"
"44","[-12.58406074   0.          10.        ]","[-1.09408437  0.          0.        ]","[0.02390358 0.         0.        ]"
"45","[-13.65200051   0.          10.        ]","[-1.06793976  0.          0.        ]","[0.02614461 0.         0.        ]"
"46","[-14.69161737   0.          10.        ]","[-1.03961687  0.          0.        ]","[0.0283229 0.        0.       ]"
"47","[-15.70080027   0.          10.        ]","[-1.0091829  0.         0.       ]","[0.03043397 0.         0.        ]"
"48","[-16.6775095   0.         10.       ]","[-0.97670923  0.          0.        ]","[0.03247367 0.         0.        ]"
"49","[-17.61978058   0.          10.        ]","[-0.94227109  0.          0.        ]","[0.03443814 0.         0.        ]"
"50","[-18.5257278   0.         10.       ]","[-0.90594721  0.          0.        ]","[0.03632387 0.         0.        ]"
