"time","theta3d","omega3d","alpha3d"
"0","[ 39.98842982   0.         -10.        ]","[-0.01157018  0.          0.        ]","[-0.01157018 -0.         -0.        ]"
"1","[ 39.96529225   0.         -10.        ]","[-0.02313757  0.          0.        ]","[-0.01156739 -0.         -0.        ]"
"2","[ 39.93059286   0.         -10.        ]","[-0.03469939  0.          0.        ]","[-0.01156182 -0.         -0.        ]"
"3","[ 39.88434001   0.         -10.        ]","[-0.04625286  0.          0.        ]","[-0.01155346 -0.         -0.        ]"
"4","[ 39.82654483   0.         -10.        ]","[-0.05779517  0.          0.        ]","[-0.01154232 -0.         -0.        ]"
"5","[ 39.75722128   0.         -10.        ]","[-0.06932356  0.          0.        ]","[-0.01152838 -0.         -0.        ]"
"6","[ 39.67638607   0.         -10.        ]","[-0.0808352  0.         0.       ]","[-0.01151165 -0.         -0.        ]"
"7","[ 39.58405876   0.         -10.        ]","[-0.09232731  0.          0.        ]","[-0.01149211 -0.         -0.        ]"
"8","[ 39.48026168   0.         -10.        ]","[-0.10379709  0.          0.        ]","[-0.01146977 -0.         -0.        ]"
"9","[ 39.36501997   0.         -10.        ]","[-0.11524171  0.          0.        ]","[-0.01144462 -0.         -0.        ]"
"10","[ 39.2383616   0.        -10.       ]","[-0.12665836  0.          0.        ]","[-0.01141666 -0.         -0.        ]"
"11","[ 39.10031738   0.         -10.        ]","[-0.13804423  0.          0.        ]","[-0.01138586 -0.         -0.        ]"
"12","[ 38.95092091   0.         -10.        ]","[-0.14939647  0.          0.        ]","[-0.01135224 -0.         -0.        ]"
"13","[ 38.79020865   0.         -10.        ]","[-0.16071225  0.          0.        ]","[-0.01131578 -0.         -0.        ]"
"14","[ 38.61821993   0.         -10.        ]","[-0.17198872  0.          0.        ]","[-0.01127647 -0.         -0.        ]"
"15","[ 38.43499691   0.         -10.        ]","[-0.18322303  0.          0.        ]","[-0.01123431 -0.         -0.        ]"
"16","[ 38.24058461   0.         -10.        ]","[-0.1944123  0.         0.       ]","[-0.01118927 -0.         -0.        ]"
"17","[ 38.03503094   0.         -10.        ]","[-0.20555367  0.          0.        ]","[-0.01114137 -0.         -0.        ]"
"18","[ 37.81838669   0.         -10.        ]","[-0.21664425  0.          0.        ]","[-0.01109058 -0.         -0.        ]"
"19","[ 37.59070555   0.         -10.        ]","[-0.22768114  0.          0.        ]","[-0.01103689 -0.         -0.        ]"
"20","[ 37.35204412   0.         -10.        ]","[-0.23866144  0.          0.        ]","[-0.0109803 -0.        -0.       ]"
"21","[ 37.10246189   0.         -10.        ]","[-0.24958223  0.          0.        ]","[-0.01092079 -0.         -0.        ]"
"22","[ 36.8420213   0.        -10.       ]","[-0.26044059  0.          0.        ]","[-0.01085836 -0.         -0.        ]"
"23","[ 36.57078772   0.         -10.        ]","[-0.27123358  0.          0.        ]","[-0.01079299 -0.         -0.        ]"
"24","[ 36.28882946   0.         -10.        ]","[-0.28195826  0.          0.        ]","[-0.01072468 -0.         -0.        ]"
"25","[ 35.99621779   0.         -10.        ]","[-0.29261167  0.          0.        ]","[-0.01065341 -0.         -0.        ]"
"26","[ 35.69302694   0.         -10.        ]","[-0.30319084  0.          0.        ]","[-0.01057917 -0.         -0.        ]"
"27","[ 35.37933414   0.         -10.        ]","[-0.31369281  0.          0.        ]","[-0.01050196 -0.         -0.        ]"
"28","[ 35.05521956   0.         -10.        ]","[-0.32411457  0.          0.        ]","[-0.01042177 -0.         -0.        ]"
"29","[ 34.72076641   0.         -10.        ]","[-0.33445316  0.          0.        ]","[-0.01033858 -0.         -0.        ]"
"30","[ 34.37606086   0.         -10.        ]","[-0.34470555  0.          0.        ]","[-0.01025239 -0.         -0.        ]"
"31","[ 34.02119211   0.         -10.        ]","[-0.35486875  0.          0.        ]","[-0.0101632 -0.        -0.       ]"
"32","[ 33.65625237   0.         -10.        ]","[-0.36493974  0.          0.        ]","[-0.01007099 -0.         -0.        ]"
"33","[ 33.28133687   0.         -10.        ]","[-0.3749155  0.         0.       ]","[-0.00997576 -0.         -0.        ]"
"34","[ 32.89654385   0.         -10.        ]","[-0.38479301  0.          0.        ]","[-0.00987751 -0.         -0.        ]"
"35","[ 32.50197461   0.         -10.        ]","[-0.39456924  0.          0.        ]","[-0.00977623 -0.         -0.        ]"
"36","[ 32.09773345   0.         -10.        ]","[-0.40424116  0.          0.        ]","[-0.00967192 -0.         -0.        ]"
"37","[ 31.68392773   0.         -10.        ]","[-0.41380573  0.          0.        ]","[-0.00956457 -0.         -0.        ]"
"38","[ 31.2606678   0.        -10.       ]","[-0.42325992  0.          0.        ]","[-0.00945419 -0.         -0.        ]"
"39","[ 30.8280671   0.        -10.       ]","[-0.43260071  0.          0.        ]","[-0.00934078 -0.         -0.        ]"
"40","[ 30.38624205   0.         -10.        ]","[-0.44182505  0.          0.        ]","[-0.00922434 -0.         -0.        ]"
"41","[ 29.93531212   0.         -10.        ]","[-0.45092993  0.          0.        ]","[-0.00910488 -0.         -0.        ]"
"42","[ 29.47539979   0.         -10.        ]","[-0.45991232  0.          0.        ]","[-0.00898239 -0.         -0.        ]"
"43","[ 29.00663057   0.         -10.        ]","[-0.46876922  0.          0.        ]","[-0.0088569 -0.        -0.       ]"
"44","[ 28.52913296   0.         -10.        ]","[-0.47749762  0.          0.        ]","[-0.00872839 -0.         -0.        ]"
"45","[ 28.04303844   0.         -10.        ]","[-0.48609452  0.          0.        ]","[-0.0085969 -0.        -0.       ]"
"46","[ 27.5484815   0.        -10.       ]","[-0.49455694  0.          0.        ]","[-0.00846242 -0.         -0.        ]"
"47","[ 27.04559958   0.         -10.        ]","[-0.50288192  0.          0.        ]","[-0.00832498 -0.         -0.        ]"
"48","[ 26.53453307   0.         -10.        ]","[-0.51106651  0.          0.        ]","[-0.00818459 -0.         -0.        ]"
"49","[ 26.01542529   0.         -10.        ]","[-0.51910778  0.          0.        ]","[-0.00804127 -0.         -0.        ]"
"50","[ 25.48842247   0.         -10.        ]","[-0.52700282  0.          0.        ]","[-0.00789504 -0.         -0.        ]"
"51","[ 24.95367374   0.         -10.        ]","[-0.53474873  0.          0.        ]","[-0.00774592 -0.         -0.        ]"
"52","[ 24.41133107   0.         -10.        ]","[-0.54234267  0.          0.        ]","[-0.00759394 -0.         -0.        ]"
"53","[ 23.86154928   0.         -10.        ]","[-0.54978179  0.          0.        ]","[-0.00743912 -0.         -0.        ]"
"54","[ 23.30448598   0.         -10.        ]","[-0.55706329  0.          0.        ]","[-0.0072815 -0.        -0.       ]"
"55","[ 22.74030158   0.         -10.        ]","[-0.56418441  0.          0.        ]","[-0.00712111 -0.         -0.        ]"
"56","[ 22.16915918   0.         -10.        ]","[-0.57114239  0.          0.        ]","[-0.00695799 -0.         -0.        ]"
"57","[ 21.59122462   0.         -10.        ]","[-0.57793456  0.          0.        ]","[-0.00679216 -0.         -0.        ]"
"58","[ 21.00666639   0.         -10.        ]","[-0.58455824  0.          0.        ]","[-0.00662368 -0.         -0.        ]"
"59","[ 20.41565557   0.         -10.        ]","[-0.59101081  0.          0.        ]","[-0.00645258 -0.         -0.        ]"
"60","[ 19.81836585   0.         -10.        ]","[-0.59728972  0.          0.        ]","[-0.00627891 -0.         -0.        ]"
"61","[ 19.21497342   0.         -10.        ]","[-0.60339243  0.          0.        ]","[-0.00610271 -0.         -0.        ]"
"62","[ 18.60565695   0.         -10.        ]","[-0.60931647  0.          0.        ]","[-0.00592404 -0.         -0.        ]"
"63","[ 17.99059752   0.         -10.        ]","[-0.61505943  0.          0.        ]","[-0.00574295 -0.         -0.        ]"
"64","[ 17.3699786   0.        -10.       ]","[-0.62061892  0.          0.        ]","[-0.0055595 -0.        -0.       ]"
"65","[ 16.74398595   0.         -10.        ]","[-0.62599266  0.          0.        ]","[-0.00537373 -0.         -0.        ]"
"66","[ 16.11280757   0.         -10.        ]","[-0.63117838  0.          0.        ]","[-0.00518572 -0.         -0.        ]"
"67","[ 15.47663366   0.         -10.        ]","[-0.63617391  0.          0.        ]","[-0.00499553 -0.         -0.        ]"
"68","[ 14.83565654   0.         -10.        ]","[-0.64097712  0.          0.        ]","[-0.00480322 -0.         -0.        ]"
"69","[ 14.19007056   0.         -10.        ]","[-0.64558598  0.          0.        ]","[-0.00460885 -0.         -0.        ]"
"70","[ 13.54007207   0.         -10.        ]","[-0.64999849  0.          0.        ]","[-0.00441251 -0.         -0.        ]"
"71","[ 12.88585933   0.         -10.        ]","[-0.65421274  0.          0.        ]","[-0.00421426 -0.         -0.        ]"
"72","[ 12.22763241   0.         -10.        ]","[-0.65822691  0.          0.        ]","[-0.00401417 -0.         -0.        ]"
"73","[ 11.56559317   0.         -10.        ]","[-0.66203925  0.          0.        ]","[-0.00381233 -0.         -0.        ]"
"74","[ 10.89994511   0.         -10.        ]","[-0.66564806  0.          0.        ]","[-0.00360881 -0.         -0.        ]"
"75","[ 10.23089335   0.         -10.        ]","[-0.66905176  0.          0.        ]","[-0.0034037 -0.        -0.       ]"
"76","[  9.55864451   0.         -10.        ]","[-0.67224884  0.          0.        ]","[-0.00319708 -0.         -0.        ]"
"77","[  8.88340665   0.         -10.        ]","[-0.67523786  0.          0.        ]","[-0.00298903 -0.         -0.        ]"
"78","[  8.20538915   0.         -10.        ]","[-0.6780175  0.         0.       ]","[-0.00277964 -0.         -0.        ]"
"79","[  7.52480265   0.         -10.        ]","[-0.6805865  0.         0.       ]","[-0.002569 -0.       -0.      ]"
"80","[  6.84185896   0.         -10.        ]","[-0.68294369  0.          0.        ]","[-0.0023572 -0.        -0.       ]"
"81","[  6.15677094   0.         -10.        ]","[-0.68508802  0.          0.        ]","[-0.00214433 -0.         -0.        ]"
"82","[  5.46975243   0.         -10.        ]","[-0.68701851  0.          0.        ]","[-0.00193049 -0.         -0.        ]"
"83","[  4.78101815   0.         -10.        ]","[-0.68873427  0.          0.        ]","[-0.00171576 -0.         -0.        ]"
"84","[  4.09078362   0.         -10.        ]","[-0.69023453  0.          0.        ]","[-0.00150026 -0.         -0.        ]"
"85","[  3.39926502   0.         -10.        ]","[-0.6915186  0.         0.       ]","[-0.00128407 -0.         -0.        ]"
"86","[  2.70667914   0.         -10.        ]","[-0.69258588  0.          0.        ]","[-0.00106728 -0.         -0.        ]"
"87","[  2.01324325   0.         -10.        ]","[-0.69343589  0.          0.        ]","[-0.00085001 -0.         -0.        ]"
"88","[  1.31917501   0.         -10.        ]","[-0.69406824  0.          0.        ]","[-0.00063235 -0.         -0.        ]"
"89","[  0.62469237   0.         -10.        ]","[-0.69448264  0.          0.        ]","[-0.00041439 -0.         -0.        ]"
"90","[ -0.06998652   0.         -10.        ]","[-0.69467889  0.          0.        ]","[-0.00019625 -0.         -0.        ]"
"91","[ -0.76464342   0.         -10.        ]","[-0.6946569  0.         0.       ]","[2.19869075e-05 0.00000000e+00 0.00000000e+00]"
"92","[ -1.4590601   0.        -10.       ]","[-0.69441669  0.          0.        ]","[0.00024021 0.         0.        ]"
"93","[ -2.15301846   0.         -10.        ]","[-0.69395836  0.          0.        ]","[0.00045833 0.         0.        ]"
"94","[ -2.84630059   0.         -10.        ]","[-0.69328213  0.          0.        ]","[0.00067623 0.         0.        ]"
"95","[ -3.53868889   0.         -10.        ]","[-0.6923883  0.         0.       ]","[0.00089382 0.         0.        ]"
"96","[ -4.22996619   0.         -10.        ]","[-0.6912773  0.         0.       ]","[0.00111101 0.         0.        ]"
"97","[ -4.91991581   0.         -10.        ]","[-0.68994962  0.          0.        ]","[0.00132768 0.         0.        ]"
"98","[ -5.6083217   0.        -10.       ]","[-0.68840588  0.          0.        ]","[0.00154374 0.         0.        ]"
"99","[ -6.29496849   0.         -10.        ]","[-0.68664679  0.          0.        ]","[0.00175909 0.         0.        ]"
"100","[ -6.97964163   0.         -10.        ]","[-0.68467314  0.          0.        ]","[0.00197365 0.         0.        ]"
"101","[ -7.66212747   0.         -10.        ]","[-0.68248584  0.          0.        ]","[0.0021873 0.        0.       ]"
"102","[ -8.34221336   0.         -10.        ]","[-0.68008588  0.          0.        ]","[0.00239996 0.         0.        ]"
"103","[ -9.01968771   0.         -10.        ]","[-0.67747435  0.          0.        ]","[0.00261153 0.         0.        ]"
"104","[ -9.69434013   0.         -10.        ]","[-0.67465242  0.          0.        ]","[0.00282193 0.         0.        ]"
"105","[-10.36596149   0.         -10.        ]","[-0.67162136  0.          0.        ]","[0.00303106 0.         0.        ]"
"106","[-11.03434403   0.         -10.        ]","[-0.66838254  0.          0.        ]","[0.00323883 0.         0.        ]"
"107","[-11.69928141   0.         -10.        ]","[-0.66493739  0.          0.        ]","[0.00344515 0.         0.        ]"
"108","[-12.36056885   0.         -10.        ]","[-0.66128744  0.          0.        ]","[0.00364995 0.         0.        ]"
"109","[-13.01800315   0.         -10.        ]","[-0.6574343  0.         0.       ]","[0.00385314 0.         0.        ]"
"110","[-13.67138282   0.         -10.        ]","[-0.65337967  0.          0.        ]","[0.00405463 0.         0.        ]"
"111","[-14.32050813   0.         -10.        ]","[-0.64912532  0.          0.        ]","[0.00425435 0.         0.        ]"
"112","[-14.96518123   0.         -10.        ]","[-0.64467309  0.          0.        ]","[0.00445223 0.         0.        ]"
"113","[-15.60520614   0.         -10.        ]","[-0.64002492  0.          0.        ]","[0.00464818 0.         0.        ]"
"114","[-16.24038893   0.         -10.        ]","[-0.63518278  0.          0.        ]","[0.00484213 0.         0.        ]"
"115","[-16.87053769   0.         -10.        ]","[-0.63014876  0.          0.        ]","[0.00503402 0.         0.        ]"
"116","[-17.49546267   0.         -10.        ]","[-0.62492498  0.          0.        ]","[0.00522378 0.         0.        ]"
"117","[-18.1149763   0.        -10.       ]","[-0.61951363  0.          0.        ]","[0.00541134 0.         0.        ]"
"118","[-18.72889329   0.         -10.        ]","[-0.61391699  0.          0.        ]","[0.00559665 0.         0.        ]"
"119","[-19.33703064   0.         -10.        ]","[-0.60813735  0.          0.        ]","[0.00577963 0.         0.        ]"
"120","[-19.93920776   0.         -10.        ]","[-0.60217712  0.          0.        ]","[0.00596024 0.         0.        ]"
"121","[-20.53524646   0.         -10.        ]","[-0.5960387  0.         0.       ]","[0.00613841 0.         0.        ]"
"122","[-21.12497106   0.         -10.        ]","[-0.5897246  0.         0.       ]","[0.0063141 0.        0.       ]"
"123","[-21.7082084   0.        -10.       ]","[-0.58323734  0.          0.        ]","[0.00648726 0.         0.        ]"
"124","[-22.28478791   0.         -10.        ]","[-0.5765795  0.         0.       ]","[0.00665784 0.         0.        ]"
"125","[-22.85454162   0.         -10.        ]","[-0.56975371  0.          0.        ]","[0.00682579 0.         0.        ]"
"126","[-23.41730426   0.         -10.        ]","[-0.56276264  0.          0.        ]","[0.00699107 0.         0.        ]"
"127","[-23.97291325   0.         -10.        ]","[-0.55560899  0.          0.        ]","[0.00715365 0.         0.        ]"
"128","[-24.52120876   0.         -10.        ]","[-0.5482955  0.         0.       ]","[0.00731348 0.         0.        ]"
"129","[-25.06203372   0.         -10.        ]","[-0.54082496  0.          0.        ]","[0.00747054 0.         0.        ]"
"130","[-25.5952339   0.        -10.       ]","[-0.53320018  0.          0.        ]","[0.00762479 0.         0.        ]"
"131","[-26.12065788   0.         -10.        ]","[-0.52542398  0.          0.        ]","[0.00777619 0.         0.        ]"
"132","[-26.63815713   0.         -10.        ]","[-0.51749925  0.          0.        ]","[0.00792473 0.         0.        ]"
"133","[-27.147586   0.       -10.      ]","[-0.50942887  0.          0.        ]","[0.00807038 0.         0.        ]"
"134","[-27.64880176   0.         -10.        ]","[-0.50121576  0.          0.        ]","[0.00821311 0.         0.        ]"
"135","[-28.1416646   0.        -10.       ]","[-0.49286284  0.          0.        ]","[0.00835291 0.         0.        ]"
"136","[-28.62603769   0.         -10.        ]","[-0.48437309  0.          0.        ]","[0.00848976 0.         0.        ]"
"137","[-29.10178714   0.         -10.        ]","[-0.47574945  0.          0.        ]","[0.00862363 0.         0.        ]"
"138","[-29.56878207   0.         -10.        ]","[-0.46699492  0.          0.        ]","[0.00875453 0.         0.        ]"
"139","[-30.02689457   0.         -10.        ]","[-0.4581125  0.         0.       ]","[0.00888242 0.         0.        ]"
"140","[-30.47599975   0.         -10.        ]","[-0.44910518  0.          0.        ]","[0.00900732 0.         0.        ]"
"141","[-30.91597574   0.         -10.        ]","[-0.43997599  0.          0.        ]","[0.00912919 0.         0.        ]"
"142","[-31.34670368   0.         -10.        ]","[-0.43072794  0.          0.        ]","[0.00924805 0.         0.        ]"
"143","[-31.76806775   0.         -10.        ]","[-0.42136406  0.          0.        ]","[0.00936388 0.         0.        ]"
"144","[-32.17995514   0.         -10.        ]","[-0.41188739  0.          0.        ]","[0.00947668 0.         0.        ]"
"145","[-32.58225608   0.         -10.        ]","[-0.40230094  0.          0.        ]","[0.00958644 0.         0.        ]"
"146","[-32.97486384   0.         -10.        ]","[-0.39260777  0.          0.        ]","[0.00969318 0.         0.        ]"
"147","[-33.35767473   0.         -10.        ]","[-0.38281089  0.          0.        ]","[0.00979688 0.         0.        ]"
"148","[-33.73058807   0.         -10.        ]","[-0.37291334  0.          0.        ]","[0.00989755 0.         0.        ]"
"149","[-34.09350621   0.         -10.        ]","[-0.36291814  0.          0.        ]","[0.00999519 0.         0.        ]"
"150","[-34.44633455   0.         -10.        ]","[-0.35282833  0.          0.        ]","[0.01008981 0.         0.        ]"
"151","[-34.78898146   0.         -10.        ]","[-0.34264692  0.          0.        ]","[0.01018141 0.         0.        ]"
"152","[-35.12135838   0.         -10.        ]","[-0.33237692  0.          0.        ]","[0.01027 0.      0.     ]"
"153","[-35.44337971   0.         -10.        ]","[-0.32202133  0.          0.        ]","[0.01035558 0.         0.        ]"
"154","[-35.75496288   0.         -10.        ]","[-0.31158317  0.          0.        ]","[0.01043817 0.         0.        ]"
"155","[-36.05602829   0.         -10.        ]","[-0.30106541  0.          0.        ]","[0.01051776 0.         0.        ]"
"156","[-36.34649932   0.         -10.        ]","[-0.29047104  0.          0.        ]","[0.01059437 0.         0.        ]"
"157","[-36.62630236   0.         -10.        ]","[-0.27980303  0.          0.        ]","[0.01066801 0.         0.        ]"
"158","[-36.89536671   0.         -10.        ]","[-0.26906435  0.          0.        ]","[0.01073868 0.         0.        ]"
"159","[-37.15362466   0.         -10.        ]","[-0.25825795  0.          0.        ]","[0.0108064 0.        0.       ]"
"160","[-37.40101143   0.         -10.        ]","[-0.24738677  0.          0.        ]","[0.01087118 0.         0.        ]"
"161","[-37.63746519   0.         -10.        ]","[-0.23645376  0.          0.        ]","[0.01093302 0.         0.        ]"
"162","[-37.86292701   0.         -10.        ]","[-0.22546182  0.          0.        ]","[0.01099194 0.         0.        ]"
"163","[-38.07734089   0.         -10.        ]","[-0.21441388  0.          0.        ]","[0.01104794 0.         0.        ]"
"164","[-38.28065373   0.         -10.        ]","[-0.20331284  0.          0.        ]","[0.01110104 0.         0.        ]"
"165","[-38.47281531   0.         -10.        ]","[-0.19216159  0.          0.        ]","[0.01115125 0.         0.        ]"
"166","[-38.65377832   0.         -10.        ]","[-0.18096301  0.          0.        ]","[0.01119858 0.         0.        ]"
"167","[-38.82349829   0.         -10.        ]","[-0.16971997  0.          0.        ]","[0.01124303 0.         0.        ]"
"168","[-38.98193365   0.         -10.        ]","[-0.15843535  0.          0.        ]","[0.01128462 0.         0.        ]"
"169","[-39.12904565   0.         -10.        ]","[-0.147112  0.        0.      ]","[0.01132336 0.         0.        ]"
"170","[-39.2647984   0.        -10.       ]","[-0.13575275  0.          0.        ]","[0.01135924 0.         0.        ]"
"171","[-39.38915886   0.         -10.        ]","[-0.12436046  0.          0.        ]","[0.0113923 0.        0.       ]"
"172","[-39.5020968   0.        -10.       ]","[-0.11293794  0.          0.        ]","[0.01142252 0.         0.        ]"
"173","[-39.60358482   0.         -10.        ]","[-0.10148802  0.          0.        ]","[0.01144992 0.         0.        ]"
"174","[-39.69359835   0.         -10.        ]","[-0.09001353  0.          0.        ]","[0.0114745 0.        0.       ]"
"175","[-39.7721156   0.        -10.       ]","[-0.07851725  0.          0.        ]","[0.01149627 0.         0.        ]"
"176","[-39.83911761   0.         -10.        ]","[-0.06700201  0.          0.        ]","[0.01151524 0.         0.        ]"
"177","[-39.89458821   0.         -10.        ]","[-0.0554706  0.         0.       ]","[0.01153141 0.         0.        ]"
"178","[-39.93851401   0.         -10.        ]","[-0.04392581  0.          0.        ]","[0.01154479 0.         0.        ]"
"179","[-39.97088445   0.         -10.        ]","[-0.03237043  0.          0.        ]","[0.01155537 0.         0.        ]"
"180","[-39.99169171   0.         -10.        ]","[-0.02080726  0.          0.        ]","[0.01156317 0.         0.        ]"
"181","[-40.0009308   0.        -10.       ]","[-0.00923909  0.          0.        ]","[0.01156818 0.         0.        ]"
"182","[-39.99859948   0.         -10.        ]","[0.00233131 0.         0.        ]","[0.0115704 0.        0.       ]"
"183","[-39.98469833   0.         -10.        ]","[0.01390115 0.         0.        ]","[0.01156984 0.         0.        ]"
"184","[-39.95923068   0.         -10.        ]","[0.02546765 0.         0.        ]","[0.01156649 0.         0.        ]"
"185","[-39.92220267   0.         -10.        ]","[0.03702801 0.         0.        ]","[0.01156036 0.         0.        ]"
"186","[-39.87362322   0.         -10.        ]","[0.04857945 0.         0.        ]","[0.01155144 0.         0.        ]"
"187","[-39.81350403   0.         -10.        ]","[0.06011919 0.         0.        ]","[0.01153974 0.         0.        ]"
"188","[-39.74185961   0.         -10.        ]","[0.07164442 0.         0.        ]","[0.01152523 0.         0.        ]"
"189","[-39.65870725   0.         -10.        ]","[0.08315236 0.         0.        ]","[0.01150794 0.         0.        ]"
"190","[-39.56406706   0.         -10.        ]","[0.09464019 0.         0.        ]","[0.01148784 0.         0.        ]"
"191","[-39.45796193   0.         -10.        ]","[0.10610513 0.         0.        ]","[0.01146493 0.         0.        ]"
"192","[-39.34041759   0.         -10.        ]","[0.11754434 0.         0.        ]","[0.01143921 0.         0.        ]"
"193","[-39.21146257   0.         -10.        ]","[0.12895502 0.         0.        ]","[0.01141068 0.         0.        ]"
"194","[-39.07112823   0.         -10.        ]","[0.14033434 0.         0.        ]","[0.01137932 0.         0.        ]"
"195","[-38.91944877   0.         -10.        ]","[0.15167946 0.         0.        ]","[0.01134512 0.         0.        ]"
"196","[-38.75646122   0.         -10.        ]","[0.16298755 0.         0.        ]","[0.01130809 0.         0.        ]"
"197","[-38.58220547   0.         -10.        ]","[0.17425576 0.         0.        ]","[0.01126821 0.         0.        ]"
"198","[-38.39672425   0.         -10.        ]","[0.18548122 0.         0.        ]","[0.01122546 0.         0.        ]"
"199","[-38.20006317   0.         -10.        ]","[0.19666107 0.         0.        ]","[0.01117985 0.         0.        ]"
"200","[-37.99227074   0.         -10.        ]","[0.20779244 0.         0.        ]","[0.01113137 0.         0.        ]"
"201","[-37.7733983   0.        -10.       ]","[0.21887243 0.         0.        ]","[0.01107999 0.         0.        ]"
"202","[-37.54350015   0.         -10.        ]","[0.22989815 0.         0.        ]","[0.01102572 0.         0.        ]"
"203","[-37.30263345   0.         -10.        ]","[0.2408667 0.        0.       ]","[0.01096854 0.         0.        ]"
"204","[-37.0508583   0.        -10.       ]","[0.25177515 0.         0.        ]","[0.01090845 0.         0.        ]"
"205","[-36.78823772   0.         -10.        ]","[0.26262058 0.         0.        ]","[0.01084543 0.         0.        ]"
"206","[-36.51483768   0.         -10.        ]","[0.27340004 0.         0.        ]","[0.01077947 0.         0.        ]"
"207","[-36.23072709   0.         -10.        ]","[0.2841106 0.        0.       ]","[0.01071056 0.         0.        ]"
"208","[-35.9359778   0.        -10.       ]","[0.29474929 0.         0.        ]","[0.01063869 0.         0.        ]"
"209","[-35.63066465   0.         -10.        ]","[0.30531314 0.         0.        ]","[0.01056386 0.         0.        ]"
"210","[-35.31486547   0.         -10.        ]","[0.31579919 0.         0.        ]","[0.01048605 0.         0.        ]"
"211","[-34.98866103   0.         -10.        ]","[0.32620444 0.         0.        ]","[0.01040525 0.         0.        ]"
"212","[-34.65213513   0.         -10.        ]","[0.33652589 0.         0.        ]","[0.01032146 0.         0.        ]"
"213","[-34.30537457   0.         -10.        ]","[0.34676056 0.         0.        ]","[0.01023467 0.         0.        ]"
"214","[-33.94846915   0.         -10.        ]","[0.35690542 0.         0.        ]","[0.01014486 0.         0.        ]"
"215","[-33.58151168   0.         -10.        ]","[0.36695747 0.         0.        ]","[0.01005205 0.         0.        ]"
"216","[-33.204598   0.       -10.      ]","[0.37691368 0.         0.        ]","[0.00995621 0.         0.        ]"
"217","[-32.81782697   0.         -10.        ]","[0.38677103 0.         0.        ]","[0.00985735 0.         0.        ]"
"218","[-32.42130049   0.         -10.        ]","[0.39652648 0.         0.        ]","[0.00975545 0.         0.        ]"
"219","[-32.01512348   0.         -10.        ]","[0.40617701 0.         0.        ]","[0.00965053 0.         0.        ]"
"220","[-31.59940389   0.         -10.        ]","[0.41571959 0.         0.        ]","[0.00954258 0.         0.        ]"
"221","[-31.17425271   0.         -10.        ]","[0.42515118 0.         0.        ]","[0.00943159 0.         0.        ]"
"222","[-30.73978397   0.         -10.        ]","[0.43446874 0.         0.        ]","[0.00931757 0.         0.        ]"
"223","[-30.29611471   0.         -10.        ]","[0.44366926 0.         0.        ]","[0.00920052 0.         0.        ]"
"224","[-29.84336501   0.         -10.        ]","[0.4527497 0.        0.       ]","[0.00908044 0.         0.        ]"
"225","[-29.38165795   0.         -10.        ]","[0.46170705 0.         0.        ]","[0.00895735 0.         0.        ]"
"226","[-28.91111965   0.         -10.        ]","[0.4705383 0.        0.       ]","[0.00883125 0.         0.        ]"
"227","[-28.43187921   0.         -10.        ]","[0.47924044 0.         0.        ]","[0.00870214 0.         0.        ]"
"228","[-27.94406872   0.         -10.        ]","[0.48781049 0.         0.        ]","[0.00857004 0.         0.        ]"
"229","[-27.44782327   0.         -10.        ]","[0.49624546 0.         0.        ]","[0.00843497 0.         0.        ]"
"230","[-26.94328088   0.         -10.        ]","[0.50454239 0.         0.        ]","[0.00829693 0.         0.        ]"
"231","[-26.43058255   0.         -10.        ]","[0.51269834 0.         0.        ]","[0.00815595 0.         0.        ]"
"232","[-25.90987217   0.         -10.        ]","[0.52071037 0.         0.        ]","[0.00801204 0.         0.        ]"
"233","[-25.38129658   0.         -10.        ]","[0.5285756 0.        0.       ]","[0.00786522 0.         0.        ]"
"234","[-24.84500546   0.         -10.        ]","[0.53629112 0.         0.        ]","[0.00771552 0.         0.        ]"
"235","[-24.30115137   0.         -10.        ]","[0.54385409 0.         0.        ]","[0.00756297 0.         0.        ]"
"236","[-23.74988969   0.         -10.        ]","[0.55126168 0.         0.        ]","[0.00740759 0.         0.        ]"
"237","[-23.1913786   0.        -10.       ]","[0.55851109 0.         0.        ]","[0.00724941 0.         0.        ]"
"238","[-22.62577905   0.         -10.        ]","[0.56559955 0.         0.        ]","[0.00708846 0.         0.        ]"
"239","[-22.05325471   0.         -10.        ]","[0.57252434 0.         0.        ]","[0.00692479 0.         0.        ]"
"240","[-21.47397194   0.         -10.        ]","[0.57928277 0.         0.        ]","[0.00675843 0.         0.        ]"
"241","[-20.88809975   0.         -10.        ]","[0.58587218 0.         0.        ]","[0.00658941 0.         0.        ]"
"242","[-20.29580978   0.         -10.        ]","[0.59228998 0.         0.        ]","[0.00641779 0.         0.        ]"
"243","[-19.69727619   0.         -10.        ]","[0.59853358 0.         0.        ]","[0.00624361 0.         0.        ]"
"244","[-19.0926757   0.        -10.       ]","[0.60460049 0.         0.        ]","[0.00606691 0.         0.        ]"
"245","[-18.48218746   0.         -10.        ]","[0.61048824 0.         0.        ]","[0.00588775 0.         0.        ]"
"246","[-17.86599305   0.         -10.        ]","[0.61619442 0.         0.        ]","[0.00570618 0.         0.        ]"
"247","[-17.24427638   0.         -10.        ]","[0.62171667 0.         0.        ]","[0.00552225 0.         0.        ]"
"248","[-16.61722368   0.         -10.        ]","[0.6270527 0.        0.       ]","[0.00533603 0.         0.        ]"
"249","[-15.9850234   0.        -10.       ]","[0.63220028 0.         0.        ]","[0.00514758 0.         0.        ]"
"250","[-15.34786618   0.         -10.        ]","[0.63715722 0.         0.        ]","[0.00495695 0.         0.        ]"
"251","[-14.70594474   0.         -10.        ]","[0.64192144 0.         0.        ]","[0.00476422 0.         0.        ]"
"252","[-14.05945384   0.         -10.        ]","[0.64649089 0.         0.        ]","[0.00456945 0.         0.        ]"
"253","[-13.40859024   0.         -10.        ]","[0.65086361 0.         0.        ]","[0.00437271 0.         0.        ]"
"254","[-12.75355254   0.         -10.        ]","[0.65503769 0.         0.        ]","[0.00417409 0.         0.        ]"
"255","[-12.09454121   0.         -10.        ]","[0.65901134 0.         0.        ]","[0.00397364 0.         0.        ]"
"256","[-11.43175841   0.         -10.        ]","[0.66278279 0.         0.        ]","[0.00377146 0.         0.        ]"
"257","[-10.76540801   0.         -10.        ]","[0.66635041 0.         0.        ]","[0.00356761 0.         0.        ]"
"258","[-10.09569541   0.         -10.        ]","[0.66971259 0.         0.        ]","[0.00336219 0.         0.        ]"
"259","[ -9.42282755   0.         -10.        ]","[0.67286786 0.         0.        ]","[0.00315527 0.         0.        ]"
"260","[ -8.74701274   0.         -10.        ]","[0.67581481 0.         0.        ]","[0.00294694 0.         0.        ]"
"261","[ -8.06846064   0.         -10.        ]","[0.6785521 0.        0.       ]","[0.00273729 0.         0.        ]"
"262","[ -7.38738213   0.         -10.        ]","[0.68107851 0.         0.        ]","[0.00252641 0.         0.        ]"
"263","[ -6.70398923   0.         -10.        ]","[0.6833929 0.        0.       ]","[0.00231439 0.         0.        ]"
"264","[ -6.01849501   0.         -10.        ]","[0.68549422 0.         0.        ]","[0.00210132 0.         0.        ]"
"265","[ -5.3311135   0.        -10.       ]","[0.68738151 0.         0.        ]","[0.00188729 0.         0.        ]"
"266","[ -4.64205959   0.         -10.        ]","[0.68905391 0.         0.        ]","[0.0016724 0.        0.       ]"
"267","[ -3.95154892   0.         -10.        ]","[0.69051066 0.         0.        ]","[0.00145675 0.         0.        ]"
"268","[ -3.25979783   0.         -10.        ]","[0.6917511 0.        0.       ]","[0.00124043 0.         0.        ]"
"269","[ -2.56702319   0.         -10.        ]","[0.69277464 0.         0.        ]","[0.00102354 0.         0.        ]"
"270","[ -1.87344236   0.         -10.        ]","[0.69358082 0.         0.        ]","[0.00080618 0.         0.        ]"
"271","[ -1.17927308   0.         -10.        ]","[0.69416928 0.         0.        ]","[0.00058845 0.         0.        ]"
"272","[ -0.48473335   0.         -10.        ]","[0.69453973 0.         0.        ]","[0.00037045 0.         0.        ]"
"273","[  0.20995866   0.         -10.        ]","[0.69469201 0.         0.        ]","[0.00015228 0.         0.        ]"
"274","[  0.90458471   0.         -10.        ]","[0.69462605 0.         0.        ]","[-6.59603108e-05 -0.00000000e+00 -0.00000000e+00]"
"275","[  1.59892659   0.         -10.        ]","[0.69434188 0.         0.        ]","[-0.00028417 -0.         -0.        ]"
"276","[  2.29276622   0.         -10.        ]","[0.69383963 0.         0.        ]","[-0.00050225 -0.         -0.        ]"
"277","[  2.98588575   0.         -10.        ]","[0.69311953 0.         0.        ]","[-0.0007201 -0.        -0.       ]"
"278","[  3.67806766   0.         -10.        ]","[0.69218191 0.         0.        ]","[-0.00093762 -0.         -0.        ]"
"279","[  4.36909486   0.         -10.        ]","[0.6910272 0.        0.       ]","[-0.00115471 -0.         -0.        ]"
"280","[  5.0587508   0.        -10.       ]","[0.68965594 0.         0.        ]","[-0.00137126 -0.         -0.        ]"
"281","[  5.74681955   0.         -10.        ]","[0.68806875 0.         0.        ]","[-0.00158719 -0.         -0.        ]"
"282","[  6.43308591   0.         -10.        ]","[0.68626636 0.         0.        ]","[-0.00180239 -0.         -0.        ]"
"283","[  7.1173355   0.        -10.       ]","[0.68424959 0.         0.        ]","[-0.00201677 -0.         -0.        ]"
"284","[  7.79935486   0.         -10.        ]","[0.68201936 0.         0.        ]","[-0.00223023 -0.         -0.        ]"
"285","[  8.47893154   0.         -10.        ]","[0.67957668 0.         0.        ]","[-0.00244268 -0.         -0.        ]"
"286","[  9.1558542   0.        -10.       ]","[0.67692266 0.         0.        ]","[-0.00265402 -0.         -0.        ]"
"287","[  9.82991269   0.         -10.        ]","[0.67405849 0.         0.        ]","[-0.00286417 -0.         -0.        ]"
"288","[ 10.50089814   0.         -10.        ]","[0.67098546 0.         0.        ]","[-0.00307303 -0.         -0.        ]"
"289","[ 11.16860308   0.         -10.        ]","[0.66770494 0.         0.        ]","[-0.00328052 -0.         -0.        ]"
"290","[ 11.83282148   0.         -10.        ]","[0.6642184 0.        0.       ]","[-0.00348654 -0.         -0.        ]"
"291","[ 12.49334885   0.         -10.        ]","[0.66052738 0.         0.        ]","[-0.00369102 -0.         -0.        ]"
"292","[ 13.14998236   0.         -10.        ]","[0.6566335 0.        0.       ]","[-0.00389387 -0.         -0.        ]"
"293","[ 13.80252084   0.         -10.        ]","[0.65253849 0.         0.        ]","[-0.00409502 -0.         -0.        ]"
"294","[ 14.45076496   0.         -10.        ]","[0.64824412 0.         0.        ]","[-0.00429437 -0.         -0.        ]"
"295","[ 15.09451721   0.         -10.        ]","[0.64375225 0.         0.        ]","[-0.00449186 -0.         -0.        ]"
"296","[ 15.73358204   0.         -10.        ]","[0.63906483 0.         0.        ]","[-0.00468742 -0.         -0.        ]"
"297","[ 16.36776591   0.         -10.        ]","[0.63418387 0.         0.        ]","[-0.00488096 -0.         -0.        ]"
"298","[ 16.99687735   0.         -10.        ]","[0.62911144 0.         0.        ]","[-0.00507243 -0.         -0.        ]"
"299","[ 17.62072704   0.         -10.        ]","[0.62384969 0.         0.        ]","[-0.00526175 -0.         -0.        ]"
"300","[ 18.23912786   0.         -10.        ]","[0.61840082 0.         0.        ]","[-0.00544886 -0.         -0.        ]"
"301","[ 18.85189498   0.         -10.        ]","[0.61276712 0.         0.        ]","[-0.0056337 -0.        -0.       ]"
"302","[ 19.45884589   0.         -10.        ]","[0.6069509 0.        0.       ]","[-0.00581621 -0.         -0.        ]"
"303","[ 20.05980045   0.         -10.        ]","[0.60095457 0.         0.        ]","[-0.00599633 -0.         -0.        ]"
"304","[ 20.65458101   0.         -10.        ]","[0.59478056 0.         0.        ]","[-0.00617401 -0.         -0.        ]"
"305","[ 21.24301237   0.         -10.        ]","[0.58843136 0.         0.        ]","[-0.0063492 -0.        -0.       ]"
"306","[ 21.82492189   0.         -10.        ]","[0.58190952 0.         0.        ]","[-0.00652184 -0.         -0.        ]"
"307","[ 22.40013952   0.         -10.        ]","[0.57521763 0.         0.        ]","[-0.00669189 -0.         -0.        ]"
"308","[ 22.96849784   0.         -10.        ]","[0.56835832 0.         0.        ]","[-0.00685931 -0.         -0.        ]"
"309","[ 23.52983212   0.         -10.        ]","[0.56133427 0.         0.        ]","[-0.00702405 -0.         -0.        ]"
"310","[ 24.08398031   0.         -10.        ]","[0.5541482 0.        0.       ]","[-0.00718608 -0.         -0.        ]"
"311","[ 24.63078316   0.         -10.        ]","[0.54680284 0.         0.        ]","[-0.00734535 -0.         -0.        ]"
"312","[ 25.17008415   0.         -10.        ]","[0.539301 0.       0.      ]","[-0.00750185 -0.         -0.        ]"
"313","[ 25.70172963   0.         -10.        ]","[0.53164547 0.         0.        ]","[-0.00765552 -0.         -0.        ]"
"314","[ 26.22556875   0.         -10.        ]","[0.52383912 0.         0.        ]","[-0.00780635 -0.         -0.        ]"
"315","[ 26.74145356   0.         -10.        ]","[0.51588481 0.         0.        ]","[-0.00795431 -0.         -0.        ]"
"316","[ 27.24923899   0.         -10.        ]","[0.50778543 0.         0.        ]","[-0.00809937 -0.         -0.        ]"
"317","[ 27.74878291   0.         -10.        ]","[0.49954392 0.         0.        ]","[-0.00824152 -0.         -0.        ]"
"318","[ 28.2399461   0.        -10.       ]","[0.49116319 0.         0.        ]","[-0.00838072 -0.         -0.        ]"
"319","[ 28.72259233   0.         -10.        ]","[0.48264622 0.         0.        ]","[-0.00851697 -0.         -0.        ]"
"320","[ 29.1965883   0.        -10.       ]","[0.47399597 0.         0.        ]","[-0.00865025 -0.         -0.        ]"
"321","[ 29.66180374   0.         -10.        ]","[0.46521544 0.         0.        ]","[-0.00878054 -0.         -0.        ]"
"322","[ 30.11811134   0.         -10.        ]","[0.45630761 0.         0.        ]","[-0.00890783 -0.         -0.        ]"
"323","[ 30.56538683   0.         -10.        ]","[0.44727549 0.         0.        ]","[-0.00903212 -0.         -0.        ]"
"324","[ 31.00350894   0.         -10.        ]","[0.43812211 0.         0.        ]","[-0.00915338 -0.         -0.        ]"
"325","[ 31.43235941   0.         -10.        ]","[0.42885048 0.         0.        ]","[-0.00927163 -0.         -0.        ]"
"326","[ 31.85182304   0.         -10.        ]","[0.41946363 0.         0.        ]","[-0.00938685 -0.         -0.        ]"
"327","[ 32.26178763   0.         -10.        ]","[0.40996459 0.         0.        ]","[-0.00949904 -0.         -0.        ]"
"328","[ 32.66214403   0.         -10.        ]","[0.4003564 0.        0.       ]","[-0.00960819 -0.         -0.        ]"
"329","[ 33.05278611   0.         -10.        ]","[0.39064208 0.         0.        ]","[-0.00971432 -0.         -0.        ]"
"330","[ 33.43361078   0.         -10.        ]","[0.38082467 0.         0.        ]","[-0.00981741 -0.         -0.        ]"
"331","[ 33.80451799   0.         -10.        ]","[0.37090721 0.         0.        ]","[-0.00991747 -0.         -0.        ]"
"332","[ 34.1654107   0.        -10.       ]","[0.36089271 0.         0.        ]","[-0.0100145 -0.        -0.       ]"
"333","[ 34.51619489   0.         -10.        ]","[0.3507842 0.        0.       ]","[-0.01010851 -0.         -0.        ]"
"334","[ 34.85677958   0.         -10.        ]","[0.34058469 0.         0.        ]","[-0.0101995 -0.        -0.       ]"
"335","[ 35.18707679   0.         -10.        ]","[0.3302972 0.        0.       ]","[-0.01028749 -0.         -0.        ]"
"336","[ 35.50700153   0.         -10.        ]","[0.31992474 0.         0.        ]","[-0.01037246 -0.         -0.        ]"
"337","[ 35.81647182   0.         -10.        ]","[0.3094703 0.        0.       ]","[-0.01045444 -0.         -0.        ]"
"338","[ 36.11540869   0.         -10.        ]","[0.29893686 0.         0.        ]","[-0.01053343 -0.         -0.        ]"
"339","[ 36.4037361   0.        -10.       ]","[0.28832742 0.         0.        ]","[-0.01060945 -0.         -0.        ]"
"340","[ 36.68138103   0.         -10.        ]","[0.27764493 0.         0.        ]","[-0.01068248 -0.         -0.        ]"
"341","[ 36.9482734   0.        -10.       ]","[0.26689237 0.         0.        ]","[-0.01075256 -0.         -0.        ]"
"342","[ 37.20434608   0.         -10.        ]","[0.25607268 0.         0.        ]","[-0.01081969 -0.         -0.        ]"
"343","[ 37.44953489   0.         -10.        ]","[0.24518881 0.         0.        ]","[-0.01088387 -0.         -0.        ]"
"344","[ 37.68377858   0.         -10.        ]","[0.23424369 0.         0.        ]","[-0.01094512 -0.         -0.        ]"
"345","[ 37.90701881   0.         -10.        ]","[0.22324023 0.         0.        ]","[-0.01100345 -0.         -0.        ]"
"346","[ 38.11920017   0.         -10.        ]","[0.21218136 0.         0.        ]","[-0.01105887 -0.         -0.        ]"
"347","[ 38.32027014   0.         -10.        ]","[0.20106997 0.         0.        ]","[-0.01111139 -0.         -0.        ]"
"348","[ 38.51017908   0.         -10.        ]","[0.18990895 0.         0.        ]","[-0.01116102 -0.         -0.        ]"
"349","[ 38.68888027   0.         -10.        ]","[0.17870118 0.         0.        ]","[-0.01120777 -0.         -0.        ]"
"350","[ 38.85632981   0.         -10.        ]","[0.16744954 0.         0.        ]","[-0.01125164 -0.         -0.        ]"
"351","[ 39.01248669   0.         -10.        ]","[0.15615689 0.         0.        ]","[-0.01129265 -0.         -0.        ]"
"352","[ 39.15731276   0.         -10.        ]","[0.14482607 0.         0.        ]","[-0.01133082 -0.         -0.        ]"
"353","[ 39.2907727   0.        -10.       ]","[0.13345994 0.         0.        ]","[-0.01136613 -0.         -0.        ]"
"354","[ 39.41283403   0.         -10.        ]","[0.12206133 0.         0.        ]","[-0.01139861 -0.         -0.        ]"
"355","[ 39.52346709   0.         -10.        ]","[0.11063306 0.         0.        ]","[-0.01142826 -0.         -0.        ]"
"356","[ 39.62264505   0.         -10.        ]","[0.09917797 0.         0.        ]","[-0.0114551 -0.        -0.       ]"
"357","[ 39.71034391   0.         -10.        ]","[0.08769885 0.         0.        ]","[-0.01147911 -0.         -0.        ]"
"358","[ 39.78654244   0.         -10.        ]","[0.07619853 0.         0.        ]","[-0.01150032 -0.         -0.        ]"
"359","[ 39.85122225   0.         -10.        ]","[0.06467981 0.         0.        ]","[-0.01151873 -0.         -0.        ]"
"360","[ 39.90436772   0.         -10.        ]","[0.05314547 0.         0.        ]","[-0.01153433 -0.         -0.        ]"
"361","[ 39.94596605   0.         -10.        ]","[0.04159833 0.         0.        ]","[-0.01154715 -0.         -0.        ]"
"362","[ 39.97600721   0.         -10.        ]","[0.03004116 0.         0.        ]","[-0.01155717 -0.         -0.        ]"
"363","[ 39.99448396   0.         -10.        ]","[0.01847676 0.         0.        ]","[-0.0115644 -0.        -0.       ]"
"364","[ 40.00139187   0.         -10.        ]","[0.00690791 0.         0.        ]","[-0.01156885 -0.         -0.        ]"
"365","[ 39.99672927   0.         -10.        ]","[-0.0046626  0.         0.       ]","[-0.01157051 -0.         -0.        ]"
"366","[ 39.98049727   0.         -10.        ]","[-0.01623199  0.          0.        ]","[-0.01156939 -0.         -0.        ]"
"367","[ 39.9526998   0.        -10.       ]","[-0.02779748  0.          0.        ]","[-0.01156548 -0.         -0.        ]"
"368","[ 39.91334353   0.         -10.        ]","[-0.03935627  0.          0.        ]","[-0.01155879 -0.         -0.        ]"
"369","[ 39.86243795   0.         -10.        ]","[-0.05090558  0.          0.        ]","[-0.01154931 -0.         -0.        ]"
"370","[ 39.79999534   0.         -10.        ]","[-0.06244261  0.          0.        ]","[-0.01153704 -0.         -0.        ]"
"371","[ 39.72603075   0.         -10.        ]","[-0.07396459  0.          0.        ]","[-0.01152197 -0.         -0.        ]"
"372","[ 39.64056205   0.         -10.        ]","[-0.0854687  0.         0.       ]","[-0.01150411 -0.         -0.        ]"
"373","[ 39.54360991   0.         -10.        ]","[-0.09695215  0.          0.        ]","[-0.01148345 -0.         -0.        ]"
"374","[ 39.43519779   0.         -10.        ]","[-0.10841212  0.          0.        ]","[-0.01145998 -0.         -0.        ]"
"375","[ 39.31535197   0.         -10.        ]","[-0.11984581  0.          0.        ]","[-0.01143369 -0.         -0.        ]"
"376","[ 39.18410157   0.         -10.        ]","[-0.1312504  0.         0.       ]","[-0.01140459 -0.         -0.        ]"
"377","[ 39.04147851   0.         -10.        ]","[-0.14262306  0.          0.        ]","[-0.01137266 -0.         -0.        ]"
"378","[ 38.88751756   0.         -10.        ]","[-0.15396095  0.          0.        ]","[-0.01133789 -0.         -0.        ]"
"379","[ 38.72225633   0.         -10.        ]","[-0.16526123  0.          0.        ]","[-0.01130028 -0.         -0.        ]"
"380","[ 38.54573528   0.         -10.        ]","[-0.17652106  0.          0.        ]","[-0.01125982 -0.         -0.        ]"
"381","[ 38.35799772   0.         -10.        ]","[-0.18773756  0.          0.        ]","[-0.0112165 -0.        -0.       ]"
"382","[ 38.15908984   0.         -10.        ]","[-0.19890788  0.          0.        ]","[-0.01117032 -0.         -0.        ]"
"383","[ 37.94906072   0.         -10.        ]","[-0.21002912  0.          0.        ]","[-0.01112125 -0.         -0.        ]"
"384","[ 37.7279623   0.        -10.       ]","[-0.22109842  0.          0.        ]","[-0.01106929 -0.         -0.        ]"
"385","[ 37.49584945   0.         -10.        ]","[-0.23211285  0.          0.        ]","[-0.01101444 -0.         -0.        ]"
"386","[ 37.25277993   0.         -10.        ]","[-0.24306952  0.          0.        ]","[-0.01095667 -0.         -0.        ]"
"387","[ 36.99881442   0.         -10.        ]","[-0.25396551  0.          0.        ]","[-0.01089599 -0.         -0.        ]"
"388","[ 36.73401653   0.         -10.        ]","[-0.26479788  0.          0.        ]","[-0.01083237 -0.         -0.        ]"
"389","[ 36.45845283   0.         -10.        ]","[-0.2755637  0.         0.       ]","[-0.01076582 -0.         -0.        ]"
"390","[ 36.17219281   0.         -10.        ]","[-0.28626002  0.          0.        ]","[-0.01069632 -0.         -0.        ]"
"391","[ 35.87530895   0.         -10.        ]","[-0.29688387  0.          0.        ]","[-0.01062385 -0.         -0.        ]"
"392","[ 35.56787666   0.         -10.        ]","[-0.30743229  0.          0.        ]","[-0.01054842 -0.         -0.        ]"
"393","[ 35.24997437   0.         -10.        ]","[-0.31790229  0.          0.        ]","[-0.01047001 -0.         -0.        ]"
"394","[ 34.92168347   0.         -10.        ]","[-0.3282909  0.         0.       ]","[-0.01038861 -0.         -0.        ]"
"395","[ 34.58308836   0.         -10.        ]","[-0.33859511  0.          0.        ]","[-0.01030421 -0.         -0.        ]"
"396","[ 34.23427643   0.         -10.        ]","[-0.34881192  0.          0.        ]","[-0.01021681 -0.         -0.        ]"
"397","[ 33.8753381   0.        -10.       ]","[-0.35893833  0.          0.        ]","[-0.01012641 -0.         -0.        ]"
"398","[ 33.50636679   0.         -10.        ]","[-0.36897131  0.          0.        ]","[-0.01003298 -0.         -0.        ]"
"399","[ 33.12745895   0.         -10.        ]","[-0.37890784  0.          0.        ]","[-0.00993653 -0.         -0.        ]"
"400","[ 32.73871404   0.         -10.        ]","[-0.3887449  0.         0.       ]","[-0.00983706 -0.         -0.        ]"
"401","[ 32.34023458   0.         -10.        ]","[-0.39847946  0.          0.        ]","[-0.00973456 -0.         -0.        ]"
"402","[ 31.93212609   0.         -10.        ]","[-0.40810849  0.          0.        ]","[-0.00962902 -0.         -0.        ]"
"403","[ 31.51449715   0.         -10.        ]","[-0.41762894  0.          0.        ]","[-0.00952046 -0.         -0.        ]"
"404","[ 31.08745935   0.         -10.        ]","[-0.4270378  0.         0.       ]","[-0.00940886 -0.         -0.        ]"
"405","[ 30.65112732   0.         -10.        ]","[-0.43633203  0.          0.        ]","[-0.00929423 -0.         -0.        ]"
"406","[ 30.20561873   0.         -10.        ]","[-0.44550859  0.          0.        ]","[-0.00917657 -0.         -0.        ]"
"407","[ 29.75105425   0.         -10.        ]","[-0.45456448  0.          0.        ]","[-0.00905588 -0.         -0.        ]"
"408","[ 29.28755758   0.         -10.        ]","[-0.46349666  0.          0.        ]","[-0.00893218 -0.         -0.        ]"
"409","[ 28.81525545   0.         -10.        ]","[-0.47230214  0.          0.        ]","[-0.00880548 -0.         -0.        ]"
"410","[ 28.33427754   0.         -10.        ]","[-0.4809779  0.         0.       ]","[-0.00867577 -0.         -0.        ]"
"411","[ 27.84475657   0.         -10.        ]","[-0.48952097  0.          0.        ]","[-0.00854307 -0.         -0.        ]"
"412","[ 27.3468282   0.        -10.       ]","[-0.49792837  0.          0.        ]","[-0.00840739 -0.         -0.        ]"
"413","[ 26.84063107   0.         -10.        ]","[-0.50619713  0.          0.        ]","[-0.00826876 -0.         -0.        ]"
"414","[ 26.32630676   0.         -10.        ]","[-0.51432432  0.          0.        ]","[-0.00812719 -0.         -0.        ]"
"415","[ 25.80399975   0.         -10.        ]","[-0.52230701  0.          0.        ]","[-0.00798269 -0.         -0.        ]"
"416","[ 25.27385745   0.         -10.        ]","[-0.5301423  0.         0.       ]","[-0.00783529 -0.         -0.        ]"
"417","[ 24.73603014   0.         -10.        ]","[-0.53782731  0.          0.        ]","[-0.00768502 -0.         -0.        ]"
"418","[ 24.19067094   0.         -10.        ]","[-0.5453592  0.         0.       ]","[-0.00753189 -0.         -0.        ]"
"419","[ 23.63793579   0.         -10.        ]","[-0.55273514  0.          0.        ]","[-0.00737594 -0.         -0.        ]"
"420","[ 23.07798345   0.         -10.        ]","[-0.55995235  0.          0.        ]","[-0.0072172 -0.        -0.       ]"
"421","[ 22.5109754   0.        -10.       ]","[-0.56700805  0.          0.        ]","[-0.00705571 -0.         -0.        ]"
"422","[ 21.93707586   0.         -10.        ]","[-0.57389954  0.          0.        ]","[-0.00689149 -0.         -0.        ]"
"423","[ 21.35645174   0.         -10.        ]","[-0.58062412  0.          0.        ]","[-0.00672459 -0.         -0.        ]"
"424","[ 20.76927257   0.         -10.        ]","[-0.58717917  0.          0.        ]","[-0.00655504 -0.         -0.        ]"
"425","[ 20.1757105   0.        -10.       ]","[-0.59356207  0.          0.        ]","[-0.0063829 -0.        -0.       ]"
"426","[ 19.57594023   0.         -10.        ]","[-0.59977027  0.          0.        ]","[-0.00620821 -0.         -0.        ]"
"427","[ 18.97013895   0.         -10.        ]","[-0.60580128  0.          0.        ]","[-0.00603101 -0.         -0.        ]"
"428","[ 18.35848632   0.         -10.        ]","[-0.61165264  0.          0.        ]","[-0.00585136 -0.         -0.        ]"
"429","[ 17.74116438   0.         -10.        ]","[-0.61732194  0.          0.        ]","[-0.00566931 -0.         -0.        ]"
"430","[ 17.11835752   0.         -10.        ]","[-0.62280685  0.          0.        ]","[-0.00548491 -0.         -0.        ]"
"431","[ 16.49025243   0.         -10.        ]","[-0.62810509  0.          0.        ]","[-0.00529824 -0.         -0.        ]"
"432","[ 15.857038   0.       -10.      ]","[-0.63321443  0.          0.        ]","[-0.00510934 -0.         -0.        ]"
"433","[ 15.21890528   0.         -10.        ]","[-0.63813272  0.          0.        ]","[-0.00491828 -0.         -0.        ]"
"434","[ 14.57604743   0.         -10.        ]","[-0.64285785  0.          0.        ]","[-0.00472514 -0.         -0.        ]"
"435","[ 13.92865961   0.         -10.        ]","[-0.64738782  0.          0.        ]","[-0.00452997 -0.         -0.        ]"
"436","[ 13.27693894   0.         -10.        ]","[-0.65172066  0.          0.        ]","[-0.00433284 -0.         -0.        ]"
"437","[ 12.62108444   0.         -10.        ]","[-0.65585451  0.          0.        ]","[-0.00413384 -0.         -0.        ]"
"438","[ 11.96129689   0.         -10.        ]","[-0.65978755  0.          0.        ]","[-0.00393304 -0.         -0.        ]"
"439","[ 11.29777882   0.         -10.        ]","[-0.66351807  0.          0.        ]","[-0.00373052 -0.         -0.        ]"
"440","[ 10.63073441   0.         -10.        ]","[-0.66704441  0.          0.        ]","[-0.00352635 -0.         -0.        ]"
"441","[  9.96036938   0.         -10.        ]","[-0.67036503  0.          0.        ]","[-0.00332061 -0.         -0.        ]"
"442","[  9.28689095   0.         -10.        ]","[-0.67347843  0.          0.        ]","[-0.00311341 -0.         -0.        ]"
"443","[  8.61050771   0.         -10.        ]","[-0.67638324  0.          0.        ]","[-0.0029048 -0.        -0.       ]"
"444","[  7.93142957   0.         -10.        ]","[-0.67907814  0.          0.        ]","[-0.0026949 -0.        -0.       ]"
"445","[  7.24986765   0.         -10.        ]","[-0.68156192  0.          0.        ]","[-0.00248378 -0.         -0.        ]"
"446","[  6.56603419   0.         -10.        ]","[-0.68383346  0.          0.        ]","[-0.00227154 -0.         -0.        ]"
"447","[  5.88014246   0.         -10.        ]","[-0.68589173  0.          0.        ]","[-0.00205827 -0.         -0.        ]"
"448","[  5.19240668   0.         -10.        ]","[-0.68773579  0.          0.        ]","[-0.00184406 -0.         -0.        ]"
"449","[  4.50304188   0.         -10.        ]","[-0.6893648  0.         0.       ]","[-0.00162901 -0.         -0.        ]"
"450","[  3.81226386   0.         -10.        ]","[-0.69077801  0.          0.        ]","[-0.00141322 -0.         -0.        ]"
"451","[  3.12028907   0.         -10.        ]","[-0.69197479  0.          0.        ]","[-0.00119677 -0.         -0.        ]"
"452","[  2.4273345   0.        -10.       ]","[-0.69295457  0.          0.        ]","[-0.00097978 -0.         -0.        ]"
"453","[  1.73361759   0.         -10.        ]","[-0.69371691  0.          0.        ]","[-0.00076234 -0.         -0.        ]"
"454","[  1.03935612   0.         -10.        ]","[-0.69426146  0.          0.        ]","[-0.00054455 -0.         -0.        ]"
"455","[  0.34476816   0.         -10.        ]","[-0.69458797  0.          0.        ]","[-0.00032651 -0.         -0.        ]"
"456","[ -0.34992812   0.         -10.        ]","[-0.69469628  0.          0.        ]","[-0.00010831 -0.         -0.        ]"
"457","[ -1.04451447   0.         -10.        ]","[-0.69458635  0.          0.        ]","[0.00010993 0.         0.        ]"
"458","[ -1.73877269   0.         -10.        ]","[-0.69425822  0.          0.        ]","[0.00032813 0.         0.        ]"
"459","[ -2.43248475   0.         -10.        ]","[-0.69371205  0.          0.        ]","[0.00054617 0.         0.        ]"
"460","[ -3.12543284   0.         -10.        ]","[-0.6929481  0.         0.       ]","[0.00076396 0.         0.        ]"
"461","[ -3.81739954   0.         -10.        ]","[-0.6919667  0.         0.       ]","[0.0009814 0.        0.       ]"
"462","[ -4.50816786   0.         -10.        ]","[-0.69076831  0.          0.        ]","[0.00119838 0.         0.        ]"
"463","[ -5.19752135   0.         -10.        ]","[-0.68935349  0.          0.        ]","[0.00141482 0.         0.        ]"
"464","[ -5.88524423   0.         -10.        ]","[-0.68772288  0.          0.        ]","[0.00163061 0.         0.        ]"
"465","[ -6.57112146   0.         -10.        ]","[-0.68587723  0.          0.        ]","[0.00184565 0.         0.        ]"
"466","[ -7.25493883   0.         -10.        ]","[-0.68381737  0.          0.        ]","[0.00205986 0.         0.        ]"
"467","[ -7.93648308   0.         -10.        ]","[-0.68154425  0.          0.        ]","[0.00227312 0.         0.        ]"
"468","[ -8.61554198   0.         -10.        ]","[-0.6790589  0.         0.       ]","[0.00248535 0.         0.        ]"
"469","[ -9.29190441   0.         -10.        ]","[-0.67636243  0.          0.        ]","[0.00269646 0.         0.        ]"
"470","[ -9.96536049   0.         -10.        ]","[-0.67345607  0.          0.        ]","[0.00290636 0.         0.        ]"
"471","[-10.63570161   0.         -10.        ]","[-0.67034112  0.          0.        ]","[0.00311495 0.         0.        ]"
"472","[-11.30272059   0.         -10.        ]","[-0.66701898  0.          0.        ]","[0.00332215 0.         0.        ]"
"473","[-11.9662117   0.        -10.       ]","[-0.66349111  0.          0.        ]","[0.00352787 0.         0.        ]"
"474","[-12.62597078   0.         -10.        ]","[-0.65975908  0.          0.        ]","[0.00373203 0.         0.        ]"
"475","[-13.28179532   0.         -10.        ]","[-0.65582454  0.          0.        ]","[0.00393454 0.         0.        ]"
"476","[-13.93348453   0.         -10.        ]","[-0.65168921  0.          0.        ]","[0.00413533 0.         0.        ]"
"477","[-14.58083942   0.         -10.        ]","[-0.6473549  0.         0.       ]","[0.00433432 0.         0.        ]"
"478","[-15.2236629   0.        -10.       ]","[-0.64282347  0.          0.        ]","[0.00453142 0.         0.        ]"
"479","[-15.86175979   0.         -10.        ]","[-0.63809689  0.          0.        ]","[0.00472658 0.         0.        ]"
"480","[-16.49493697   0.         -10.        ]","[-0.63317718  0.          0.        ]","[0.00491971 0.         0.        ]"
"481","[-17.12300341   0.         -10.        ]","[-0.62806643  0.          0.        ]","[0.00511075 0.         0.        ]"
"482","[-17.7457702   0.        -10.       ]","[-0.6227668  0.         0.       ]","[0.00529963 0.         0.        ]"
"483","[-18.36305071   0.         -10.        ]","[-0.61728051  0.          0.        ]","[0.00548629 0.         0.        ]"
"484","[-18.97466055   0.         -10.        ]","[-0.61160984  0.          0.        ]","[0.00567067 0.         0.        ]"
"485","[-19.58041769   0.         -10.        ]","[-0.60575714  0.          0.        ]","[0.0058527 0.        0.       ]"
"486","[-20.1801425   0.        -10.       ]","[-0.59972481  0.          0.        ]","[0.00603233 0.         0.        ]"
"487","[-20.7736578   0.        -10.       ]","[-0.5935153  0.         0.       ]","[0.00620951 0.         0.        ]"
"488","[-21.36078891   0.         -10.        ]","[-0.58713111  0.          0.        ]","[0.00638419 0.         0.        ]"
"489","[-21.9413637   0.        -10.       ]","[-0.5805748  0.         0.       ]","[0.00655631 0.         0.        ]"
"490","[-22.51521266   0.         -10.        ]","[-0.57384896  0.          0.        ]","[0.00672584 0.         0.        ]"
"491","[-23.08216891   0.         -10.        ]","[-0.56695624  0.          0.        ]","[0.00689272 0.         0.        ]"
"492","[-23.64206824   0.         -10.        ]","[-0.55989933  0.          0.        ]","[0.00705692 0.         0.        ]"
"493","[-24.19474917   0.         -10.        ]","[-0.55268094  0.          0.        ]","[0.00721839 0.         0.        ]"
"494","[-24.740053   0.       -10.      ]","[-0.54530383  0.          0.        ]","[0.00737711 0.         0.        ]"
"495","[-25.27782379   0.         -10.        ]","[-0.53777079  0.          0.        ]","[0.00753304 0.         0.        ]"
"496","[-25.80790844   0.         -10.        ]","[-0.53008465  0.          0.        ]","[0.00768614 0.         0.        ]"
"497","[-26.33015669   0.         -10.        ]","[-0.52224825  0.          0.        ]","[0.0078364 0.        0.       ]"
"498","[-26.84442117   0.         -10.        ]","[-0.51426448  0.          0.        ]","[0.00798377 0.         0.        ]"
"499","[-27.3505574   0.        -10.       ]","[-0.50613623  0.          0.        ]","[0.00812825 0.         0.        ]"
