"time","theta3d","omega3d","alpha3d"
"0","[50.96502843  0.         21.        ]","[-0.03497157  0.          0.        ]","[-0.03497157 -0.         -0.        ]"
"1","[50.89510259  0.         21.        ]","[-0.06992584  0.          0.        ]","[-0.03495428 -0.         -0.        ]"
"2","[50.79025708  0.         21.        ]","[-0.10484551  0.          0.        ]","[-0.03491966 -0.         -0.        ]"
"3","[50.65054391  0.         21.        ]","[-0.13971317  0.          0.        ]","[-0.03486767 -0.         -0.        ]"
"4","[50.47603254  0.         21.        ]","[-0.17451137  0.          0.        ]","[-0.03479819 -0.         -0.        ]"
"5","[50.26681005  0.         21.        ]","[-0.2092225  0.         0.       ]","[-0.03471113 -0.         -0.        ]"
"6","[50.02298123  0.         21.        ]","[-0.24382882  0.          0.        ]","[-0.03460632 -0.         -0.        ]"
"7","[49.74466881  0.         21.        ]","[-0.27831242  0.          0.        ]","[-0.0344836 -0.        -0.       ]"
"8","[49.43201363  0.         21.        ]","[-0.31265517  0.          0.        ]","[-0.03434276 -0.         -0.        ]"
"9","[49.08517489  0.         21.        ]","[-0.34683874  0.          0.        ]","[-0.03418357 -0.         -0.        ]"
"10","[48.70433037  0.         21.        ]","[-0.38084452  0.          0.        ]","[-0.03400578 -0.         -0.        ]"
"11","[48.28967672  0.         21.        ]","[-0.41465365  0.          0.        ]","[-0.03380913 -0.         -0.        ]"
"12","[47.84142974  0.         21.        ]","[-0.44824698  0.          0.        ]","[-0.03359332 -0.         -0.        ]"
"13","[47.35982471  0.         21.        ]","[-0.48160503  0.          0.        ]","[-0.03335806 -0.         -0.        ]"
"14","[46.84511668  0.         21.        ]","[-0.51470803  0.          0.        ]","[-0.033103 -0.       -0.      ]"
"15","[46.29758081  0.         21.        ]","[-0.54753587  0.          0.        ]","[-0.03282783 -0.         -0.        ]"
"16","[45.71751273  0.         21.        ]","[-0.58006808  0.          0.        ]","[-0.03253221 -0.         -0.        ]"
"17","[45.10522887  0.         21.        ]","[-0.61228386  0.          0.        ]","[-0.03221578 -0.         -0.        ]"
"18","[44.46106683  0.         21.        ]","[-0.64416205  0.          0.        ]","[-0.03187819 -0.         -0.        ]"
"19","[43.78538568  0.         21.        ]","[-0.67568115  0.          0.        ]","[-0.0315191 -0.        -0.       ]"
"20","[43.07856638  0.         21.        ]","[-0.7068193  0.         0.       ]","[-0.03113816 -0.         -0.        ]"
"21","[42.34101205  0.         21.        ]","[-0.73755433  0.          0.        ]","[-0.03073503 -0.         -0.        ]"
"22","[41.57314834  0.         21.        ]","[-0.76786371  0.          0.        ]","[-0.03030938 -0.         -0.        ]"
"23","[40.77542372  0.         21.        ]","[-0.79772462  0.          0.        ]","[-0.02986091 -0.         -0.        ]"
"24","[39.94830979  0.         21.        ]","[-0.82711393  0.          0.        ]","[-0.02938931 -0.         -0.        ]"
"25","[39.09230153  0.         21.        ]","[-0.85600826  0.          0.        ]","[-0.02889433 -0.         -0.        ]"
"26","[38.20791755  0.         21.        ]","[-0.88438398  0.          0.        ]","[-0.02837572 -0.         -0.        ]"
"27","[37.29570031  0.         21.        ]","[-0.91221724  0.          0.        ]","[-0.02783326 -0.         -0.        ]"
"28","[36.35621627  0.         21.        ]","[-0.93948403  0.          0.        ]","[-0.02726679 -0.         -0.        ]"
"29","[35.39005608  0.         21.        ]","[-0.9661602  0.         0.       ]","[-0.02667616 -0.         -0.        ]"
"30","[34.39783459  0.         21.        ]","[-0.99222148  0.          0.        ]","[-0.02606129 -0.         -0.        ]"
"31","[33.380191  0.       21.      ]","[-1.0176436  0.         0.       ]","[-0.02542211 -0.         -0.        ]"
"32","[32.33778876  0.         21.        ]","[-1.04240224  0.          0.        ]","[-0.02475864 -0.         -0.        ]"
"33","[31.27131558  0.         21.        ]","[-1.06647318  0.          0.        ]","[-0.02407094 -0.         -0.        ]"
"34","[30.18148329  0.         21.        ]","[-1.08983228  0.          0.        ]","[-0.02335911 -0.         -0.        ]"
"35","[29.06902768  0.         21.        ]","[-1.11245561  0.          0.        ]","[-0.02262333 -0.         -0.        ]"
"36","[27.93470824  0.         21.        ]","[-1.13431945  0.          0.        ]","[-0.02186383 -0.         -0.        ]"
"37","[26.77930786  0.         21.        ]","[-1.15540037  0.          0.        ]","[-0.02108093 -0.         -0.        ]"
"38","[25.60363251  0.         21.        ]","[-1.17567536  0.          0.        ]","[-0.02027498 -0.         -0.        ]"
"39","[24.40851072  0.         21.        ]","[-1.19512179  0.          0.        ]","[-0.01944643 -0.         -0.        ]"
"40","[23.19479314  0.         21.        ]","[-1.21371757  0.          0.        ]","[-0.01859579 -0.         -0.        ]"
"41","[21.96335194  0.         21.        ]","[-1.2314412  0.         0.       ]","[-0.01772363 -0.         -0.        ]"
"42","[20.71508014  0.         21.        ]","[-1.24827181  0.          0.        ]","[-0.01683061 -0.         -0.        ]"
"43","[19.45089088  0.         21.        ]","[-1.26418925  0.          0.        ]","[-0.01591745 -0.         -0.        ]"
"44","[18.17171668  0.         21.        ]","[-1.2791742  0.         0.       ]","[-0.01498495 -0.         -0.        ]"
"45","[16.87850852  0.         21.        ]","[-1.29320817  0.          0.        ]","[-0.01403397 -0.         -0.        ]"
"46","[15.5722349  0.        21.       ]","[-1.30627361  0.          0.        ]","[-0.01306545 -0.         -0.        ]"
"47","[14.2538809  0.        21.       ]","[-1.318354  0.        0.      ]","[-0.01208039 -0.         -0.        ]"
"48","[12.92444705  0.         21.        ]","[-1.32943385  0.          0.        ]","[-0.01107985 -0.         -0.        ]"
"49","[11.58494822  0.         21.        ]","[-1.33949882  0.          0.        ]","[-0.01006497 -0.         -0.        ]"
"50","[10.23641247  0.         21.        ]","[-1.34853575  0.          0.        ]","[-0.00903693 -0.         -0.        ]"
"51","[ 8.87987976  0.         21.        ]","[-1.35653271  0.          0.        ]","[-0.00799696 -0.         -0.        ]"
"52","[ 7.5164007  0.        21.       ]","[-1.36347906  0.          0.        ]","[-0.00694635 -0.         -0.        ]"
"53","[ 6.14703519  0.         21.        ]","[-1.36936551  0.          0.        ]","[-0.00588645 -0.         -0.        ]"
"54","[ 4.77285106  0.         21.        ]","[-1.37418413  0.          0.        ]","[-0.00481861 -0.         -0.        ]"
"55","[ 3.39492268  0.         21.        ]","[-1.37792838  0.          0.        ]","[-0.00374425 -0.         -0.        ]"
"56","[ 2.0143295  0.        21.       ]","[-1.38059319  0.          0.        ]","[-0.00266481 -0.         -0.        ]"
"57","[ 0.63215459  0.         21.        ]","[-1.38217491  0.          0.        ]","[-0.00158172 -0.         -0.        ]"
"58","[-0.75051681  0.         21.        ]","[-1.38267139  0.          0.        ]","[-0.00049648 -0.         -0.        ]"
"59","[-2.13259877  0.         21.        ]","[-1.38208196  0.          0.        ]","[0.00058944 0.         0.        ]"
"60","[-3.51300617  0.         21.        ]","[-1.3804074  0.         0.       ]","[0.00167455 0.         0.        ]"
"61","[-4.89065619  0.         21.        ]","[-1.37765002  0.          0.        ]","[0.00275738 0.         0.        ]"
"62","[-6.26446977  0.         21.        ]","[-1.37381357  0.          0.        ]","[0.00383645 0.         0.        ]"
"63","[-7.63337304  0.         21.        ]","[-1.36890327  0.          0.        ]","[0.00491031 0.         0.        ]"
"64","[-8.99629879  0.         21.        ]","[-1.36292575  0.          0.        ]","[0.00597752 0.         0.        ]"
"65","[-10.35218786   0.          21.        ]","[-1.35588907  0.          0.        ]","[0.00703668 0.         0.        ]"
"66","[-11.69999051   0.          21.        ]","[-1.34780265  0.          0.        ]","[0.00808642 0.         0.        ]"
"67","[-13.03866773   0.          21.        ]","[-1.33867723  0.          0.        ]","[0.00912542 0.         0.        ]"
"68","[-14.36719257   0.          21.        ]","[-1.32852484  0.          0.        ]","[0.01015239 0.         0.        ]"
"69","[-15.68455132   0.          21.        ]","[-1.31735875  0.          0.        ]","[0.01116609 0.         0.        ]"
"70","[-16.98974474   0.          21.        ]","[-1.30519341  0.          0.        ]","[0.01216534 0.         0.        ]"
"71","[-18.28178913   0.          21.        ]","[-1.29204439  0.          0.        ]","[0.01314902 0.         0.        ]"
"72","[-19.55971744   0.          21.        ]","[-1.27792831  0.          0.        ]","[0.01411608 0.         0.        ]"
"73","[-20.82258024   0.          21.        ]","[-1.2628628  0.         0.       ]","[0.01506551 0.         0.        ]"
"74","[-22.06944665   0.          21.        ]","[-1.24686641  0.          0.        ]","[0.01599639 0.         0.        ]"
"75","[-23.2994052   0.         21.       ]","[-1.22995855  0.          0.        ]","[0.01690786 0.         0.        ]"
"76","[-24.51156463   0.          21.        ]","[-1.21215943  0.          0.        ]","[0.01779912 0.         0.        ]"
"77","[-25.7050546   0.         21.       ]","[-1.19348997  0.          0.        ]","[0.01866946 0.         0.        ]"
"78","[-26.87902634   0.          21.        ]","[-1.17397174  0.          0.        ]","[0.01951824 0.         0.        ]"
"79","[-28.03265321   0.          21.        ]","[-1.15362687  0.          0.        ]","[0.02034487 0.         0.        ]"
"80","[-29.16513121   0.          21.        ]","[-1.13247801  0.          0.        ]","[0.02114886 0.         0.        ]"
"81","[-30.27567944   0.          21.        ]","[-1.11054823  0.          0.        ]","[0.02192977 0.         0.        ]"
"82","[-31.36354043   0.          21.        ]","[-1.08786098  0.          0.        ]","[0.02268725 0.         0.        ]"
"83","[-32.42798042   0.          21.        ]","[-1.06443999  0.          0.        ]","[0.02342099 0.         0.        ]"
"84","[-33.46828966   0.          21.        ]","[-1.04030924  0.          0.        ]","[0.02413076 0.         0.        ]"
"85","[-34.4837825   0.         21.       ]","[-1.01549284  0.          0.        ]","[0.02481639 0.         0.        ]"
"86","[-35.47379756   0.          21.        ]","[-0.99001506  0.          0.        ]","[0.02547778 0.         0.        ]"
"87","[-36.43769775   0.          21.        ]","[-0.96390019  0.          0.        ]","[0.02611488 0.         0.        ]"
"88","[-37.37487026   0.          21.        ]","[-0.93717251  0.          0.        ]","[0.02672768 0.         0.        ]"
"89","[-38.28472654   0.          21.        ]","[-0.90985628  0.          0.        ]","[0.02731623 0.         0.        ]"
"90","[-39.16670218   0.          21.        ]","[-0.88197564  0.          0.        ]","[0.02788064 0.         0.        ]"
"91","[-40.02025677   0.          21.        ]","[-0.85355459  0.          0.        ]","[0.02842105 0.         0.        ]"
"92","[-40.84487373   0.          21.        ]","[-0.82461696  0.          0.        ]","[0.02893763 0.         0.        ]"
"93","[-41.6400601   0.         21.       ]","[-0.79518637  0.          0.        ]","[0.0294306 0.        0.       ]"
"94","[-42.40534626   0.          21.        ]","[-0.76528616  0.          0.        ]","[0.0299002 0.        0.       ]"
"95","[-43.14028572   0.          21.        ]","[-0.73493946  0.          0.        ]","[0.03034671 0.         0.        ]"
"96","[-43.84445476   0.          21.        ]","[-0.70416904  0.          0.        ]","[0.03077041 0.         0.        ]"
"97","[-44.51745217   0.          21.        ]","[-0.67299741  0.          0.        ]","[0.03117163 0.         0.        ]"
"98","[-45.15889888   0.          21.        ]","[-0.64144672  0.          0.        ]","[0.03155069 0.         0.        ]"
"99","[-45.76843767   0.          21.        ]","[-0.60953879  0.          0.        ]","[0.03190793 0.         0.        ]"
"100","[-46.34573277   0.          21.        ]","[-0.5772951  0.         0.       ]","[0.03224369 0.         0.        ]"
"101","[-46.89046954   0.          21.        ]","[-0.54473677  0.          0.        ]","[0.03255833 0.         0.        ]"
"102","[-47.40235412   0.          21.        ]","[-0.51188458  0.          0.        ]","[0.03285219 0.         0.        ]"
"103","[-47.88111309   0.          21.        ]","[-0.47875896  0.          0.        ]","[0.03312562 0.         0.        ]"
"104","[-48.32649308   0.          21.        ]","[-0.44538  0.       0.     ]","[0.03337897 0.         0.        ]"
"105","[-48.73826052   0.          21.        ]","[-0.41176744  0.          0.        ]","[0.03361256 0.         0.        ]"
"106","[-49.11620125   0.          21.        ]","[-0.37794073  0.          0.        ]","[0.03382671 0.         0.        ]"
"107","[-49.46012025   0.          21.        ]","[-0.34391899  0.          0.        ]","[0.03402174 0.         0.        ]"
"108","[-49.76984132   0.          21.        ]","[-0.30972107  0.          0.        ]","[0.03419792 0.         0.        ]"
"109","[-50.04520687   0.          21.        ]","[-0.27536555  0.          0.        ]","[0.03435553 0.         0.        ]"
"110","[-50.2860776   0.         21.       ]","[-0.24087073  0.          0.        ]","[0.03449481 0.         0.        ]"
"111","[-50.49233234   0.          21.        ]","[-0.20625474  0.          0.        ]","[0.03461599 0.         0.        ]"
"112","[-50.66386781   0.          21.        ]","[-0.17153547  0.          0.        ]","[0.03471928 0.         0.        ]"
"113","[-50.80059844   0.          21.        ]","[-0.13673064  0.          0.        ]","[0.03480483 0.         0.        ]"
"114","[-50.90245628   0.          21.        ]","[-0.10185784  0.          0.        ]","[0.0348728 0.        0.       ]"
"115","[-50.96939082   0.          21.        ]","[-0.06693453  0.          0.        ]","[0.0349233 0.        0.       ]"
"116","[-51.00136891   0.          21.        ]","[-0.0319781  0.         0.       ]","[0.03495643 0.         0.        ]"
"117","[-50.99837477   0.          21.        ]","[0.00299415 0.         0.        ]","[0.03497224 0.         0.        ]"
"118","[-50.96040986   0.          21.        ]","[0.03796491 0.         0.        ]","[0.03497076 0.         0.        ]"
"119","[-50.88749295   0.          21.        ]","[0.0729169 0.        0.       ]","[0.03495199 0.         0.        ]"
"120","[-50.77966016   0.          21.        ]","[0.1078328 0.        0.       ]","[0.03491589 0.         0.        ]"
"121","[-50.63696496   0.          21.        ]","[0.1426952 0.        0.       ]","[0.0348624 0.        0.       ]"
"122","[-50.45947833   0.          21.        ]","[0.17748663 0.         0.        ]","[0.03479143 0.         0.        ]"
"123","[-50.24728885   0.          21.        ]","[0.21218948 0.         0.        ]","[0.03470285 0.         0.        ]"
"124","[-50.00050284   0.          21.        ]","[0.246786 0.       0.      ]","[0.03459652 0.         0.        ]"
"125","[-49.71924459   0.          21.        ]","[0.28125826 0.         0.        ]","[0.03447225 0.         0.        ]"
"126","[-49.40365648   0.          21.        ]","[0.31558811 0.         0.        ]","[0.03432985 0.         0.        ]"
"127","[-49.05389929   0.          21.        ]","[0.34975718 0.         0.        ]","[0.03416908 0.         0.        ]"
"128","[-48.67015242   0.          21.        ]","[0.38374687 0.         0.        ]","[0.03398969 0.         0.        ]"
"129","[-48.25261414   0.          21.        ]","[0.41753828 0.         0.        ]","[0.03379141 0.         0.        ]"
"130","[-47.80150191   0.          21.        ]","[0.45111223 0.         0.        ]","[0.03357395 0.         0.        ]"
"131","[-47.31705267   0.          21.        ]","[0.48444923 0.         0.        ]","[0.033337 0.       0.      ]"
"132","[-46.79952321   0.          21.        ]","[0.51752947 0.         0.        ]","[0.03308024 0.         0.        ]"
"133","[-46.2491904   0.         21.       ]","[0.5503328 0.        0.       ]","[0.03280333 0.         0.        ]"
"134","[-45.66635167   0.          21.        ]","[0.58283874 0.         0.        ]","[0.03250594 0.         0.        ]"
"135","[-45.05132522   0.          21.        ]","[0.61502645 0.         0.        ]","[0.03218771 0.         0.        ]"
"136","[-44.40445047   0.          21.        ]","[0.64687475 0.         0.        ]","[0.0318483 0.        0.       ]"
"137","[-43.72608838   0.          21.        ]","[0.67836209 0.         0.        ]","[0.03148735 0.         0.        ]"
"138","[-43.01662176   0.          21.        ]","[0.70946661 0.         0.        ]","[0.03110452 0.         0.        ]"
"139","[-42.27645568   0.          21.        ]","[0.74016608 0.         0.        ]","[0.03069947 0.         0.        ]"
"140","[-41.50601771   0.          21.        ]","[0.77043797 0.         0.        ]","[0.03027188 0.         0.        ]"
"141","[-40.7057583   0.         21.       ]","[0.80025941 0.         0.        ]","[0.02982144 0.         0.        ]"
"142","[-39.87615103   0.          21.        ]","[0.82960727 0.         0.        ]","[0.02934786 0.         0.        ]"
"143","[-39.0176929   0.         21.       ]","[0.85845813 0.         0.        ]","[0.02885086 0.         0.        ]"
"144","[-38.13090456   0.          21.        ]","[0.88678834 0.         0.        ]","[0.02833022 0.         0.        ]"
"145","[-37.21633051   0.          21.        ]","[0.91457405 0.         0.        ]","[0.02778571 0.         0.        ]"
"146","[-36.27453928   0.          21.        ]","[0.94179123 0.         0.        ]","[0.02721718 0.         0.        ]"
"147","[-35.30612357   0.          21.        ]","[0.9684157 0.        0.       ]","[0.02662447 0.         0.        ]"
"148","[-34.31170035   0.          21.        ]","[0.99442322 0.         0.        ]","[0.02600752 0.         0.        ]"
"149","[-33.29191086   0.          21.        ]","[1.01978949 0.         0.        ]","[0.02536626 0.         0.        ]"
"150","[-32.24742066   0.          21.        ]","[1.0444902 0.        0.       ]","[0.02470072 0.         0.        ]"
"151","[-31.17891952   0.          21.        ]","[1.06850114 0.         0.        ]","[0.02401094 0.         0.        ]"
"152","[-30.08712133   0.          21.        ]","[1.09179819 0.         0.        ]","[0.02329705 0.         0.        ]"
"153","[-28.9727639   0.         21.       ]","[1.11435743 0.         0.        ]","[0.02255923 0.         0.        ]"
"154","[-27.83660875   0.          21.        ]","[1.13615515 0.         0.        ]","[0.02179772 0.         0.        ]"
"155","[-26.67944078   0.          21.        ]","[1.15716798 0.         0.        ]","[0.02101283 0.         0.        ]"
"156","[-25.50206787   0.          21.        ]","[1.1773729 0.        0.       ]","[0.02020493 0.         0.        ]"
"157","[-24.3053205   0.         21.       ]","[1.19674737 0.         0.        ]","[0.01937447 0.         0.        ]"
"158","[-23.09005118   0.          21.        ]","[1.21526932 0.         0.        ]","[0.01852195 0.         0.        ]"
"159","[-21.85713388   0.          21.        ]","[1.23291731 0.         0.        ]","[0.01764798 0.         0.        ]"
"160","[-20.60746336   0.          21.        ]","[1.24967051 0.         0.        ]","[0.01675321 0.         0.        ]"
"161","[-19.34195449   0.          21.        ]","[1.26550888 0.         0.        ]","[0.01583836 0.         0.        ]"
"162","[-18.06154137   0.          21.        ]","[1.28041312 0.         0.        ]","[0.01490424 0.         0.        ]"
"163","[-16.76717652   0.          21.        ]","[1.29436484 0.         0.        ]","[0.01395173 0.         0.        ]"
"164","[-15.45982993   0.          21.        ]","[1.30734659 0.         0.        ]","[0.01298175 0.         0.        ]"
"165","[-14.14048802   0.          21.        ]","[1.31934191 0.         0.        ]","[0.01199532 0.         0.        ]"
"166","[-12.81015259   0.          21.        ]","[1.33033543 0.         0.        ]","[0.01099351 0.         0.        ]"
"167","[-11.4698397   0.         21.       ]","[1.34031289 0.         0.        ]","[0.00997746 0.         0.        ]"
"168","[-10.12057847   0.          21.        ]","[1.34926123 0.         0.        ]","[0.00894834 0.         0.        ]"
"169","[-8.76340983  0.         21.        ]","[1.35716864 0.         0.        ]","[0.00790741 0.         0.        ]"
"170","[-7.39938522  0.         21.        ]","[1.36402461 0.         0.        ]","[0.00685596 0.         0.        ]"
"171","[-6.02956529  0.         21.        ]","[1.36981993 0.         0.        ]","[0.00579532 0.         0.        ]"
"172","[-4.65501849  0.         21.        ]","[1.3745468 0.        0.       ]","[0.00472687 0.         0.        ]"
"173","[-3.27681966  0.         21.        ]","[1.37819882 0.         0.        ]","[0.00365202 0.         0.        ]"
"174","[-1.89604863  0.         21.        ]","[1.38077103 0.         0.        ]","[0.00257221 0.         0.        ]"
"175","[-0.51378872  0.         21.        ]","[1.38225991 0.         0.        ]","[0.00148888 0.         0.        ]"
"176","[ 0.86887471  0.         21.        ]","[1.38266343 0.         0.        ]","[0.00040352 0.         0.        ]"
"177","[ 2.25085576  0.         21.        ]","[1.38198105 0.         0.        ]","[-0.00068239 -0.         -0.        ]"
"178","[ 3.63106945  0.         21.        ]","[1.38021368 0.         0.        ]","[-0.00176736 -0.         -0.        ]"
"179","[ 5.0084332  0.        21.       ]","[1.37736376 0.         0.        ]","[-0.00284993 -0.         -0.        ]"
"180","[ 6.38186836  0.         21.        ]","[1.37343515 0.         0.        ]","[-0.00392861 -0.         -0.        ]"
"181","[ 7.75030156  0.         21.        ]","[1.3684332 0.        0.       ]","[-0.00500195 -0.         -0.        ]"
"182","[ 9.11266623  0.         21.        ]","[1.36236468 0.         0.        ]","[-0.00606853 -0.         -0.        ]"
"183","[10.46790397  0.         21.        ]","[1.35523774 0.         0.        ]","[-0.00712694 -0.         -0.        ]"
"184","[11.8149659  0.        21.       ]","[1.34706193 0.         0.        ]","[-0.00817581 -0.         -0.        ]"
"185","[13.152814  0.       21.      ]","[1.3378481 0.        0.       ]","[-0.00921383 -0.         -0.        ]"
"186","[14.4804224  0.        21.       ]","[1.3276084 0.        0.       ]","[-0.01023971 -0.         -0.        ]"
"187","[15.79677858  0.         21.        ]","[1.31635618 0.         0.        ]","[-0.01125221 -0.         -0.        ]"
"188","[17.10088458  0.         21.        ]","[1.30410601 0.         0.        ]","[-0.01225018 -0.         -0.        ]"
"189","[18.39175811  0.         21.        ]","[1.29087353 0.         0.        ]","[-0.01323248 -0.         -0.        ]"
"190","[19.66843357  0.         21.        ]","[1.27667546 0.         0.        ]","[-0.01419806 -0.         -0.        ]"
"191","[20.92996309  0.         21.        ]","[1.26152952 0.         0.        ]","[-0.01514594 -0.         -0.        ]"
"192","[22.17541742  0.         21.        ]","[1.24545433 0.         0.        ]","[-0.01607519 -0.         -0.        ]"
"193","[23.40388679  0.         21.        ]","[1.22846937 0.         0.        ]","[-0.01698496 -0.         -0.        ]"
"194","[24.6144817  0.        21.       ]","[1.21059491 0.         0.        ]","[-0.01787446 -0.         -0.        ]"
"195","[25.80633364  0.         21.        ]","[1.19185194 0.         0.        ]","[-0.01874298 -0.         -0.        ]"
"196","[26.9785957  0.        21.       ]","[1.17226206 0.         0.        ]","[-0.01958988 -0.         -0.        ]"
"197","[28.13044316  0.         21.        ]","[1.15184747 0.         0.        ]","[-0.02041459 -0.         -0.        ]"
"198","[29.261074  0.       21.      ]","[1.13063084 0.         0.        ]","[-0.02121662 -0.         -0.        ]"
"199","[30.3697093  0.        21.       ]","[1.1086353 0.        0.       ]","[-0.02199554 -0.         -0.        ]"
"200","[31.4555936  0.        21.       ]","[1.0858843 0.        0.       ]","[-0.022751 -0.       -0.      ]"
"201","[32.51799522  0.         21.        ]","[1.06240161 0.         0.        ]","[-0.02348269 -0.         -0.        ]"
"202","[33.55620642  0.         21.        ]","[1.03821121 0.         0.        ]","[-0.0241904 -0.        -0.       ]"
"203","[34.56954367  0.         21.        ]","[1.01333725 0.         0.        ]","[-0.02487396 -0.         -0.        ]"
"204","[35.55734764  0.         21.        ]","[0.98780397 0.         0.        ]","[-0.02553328 -0.         -0.        ]"
"205","[36.51898332  0.         21.        ]","[0.96163568 0.         0.        ]","[-0.02616829 -0.         -0.        ]"
"206","[37.45384  0.      21.     ]","[0.93485667 0.         0.        ]","[-0.02677901 -0.         -0.        ]"
"207","[38.36133118  0.         21.        ]","[0.90749118 0.         0.        ]","[-0.02736549 -0.         -0.        ]"
"208","[39.24089451  0.         21.        ]","[0.87956334 0.         0.        ]","[-0.02792784 -0.         -0.        ]"
"209","[40.09199165  0.         21.        ]","[0.85109714 0.         0.        ]","[-0.0284662 -0.        -0.       ]"
"210","[40.91410803  0.         21.        ]","[0.82211638 0.         0.        ]","[-0.02898075 -0.         -0.        ]"
"211","[41.7067527  0.        21.       ]","[0.79264467 0.         0.        ]","[-0.02947171 -0.         -0.        ]"
"212","[42.46945805  0.         21.        ]","[0.76270535 0.         0.        ]","[-0.02993933 -0.         -0.        ]"
"213","[43.20177953  0.         21.        ]","[0.73232148 0.         0.        ]","[-0.03038387 -0.         -0.        ]"
"214","[43.90329537  0.         21.        ]","[0.70151584 0.         0.        ]","[-0.03080564 -0.         -0.        ]"
"215","[44.57360626  0.         21.        ]","[0.67031089 0.         0.        ]","[-0.03120495 -0.         -0.        ]"
"216","[45.21233503  0.         21.        ]","[0.63872877 0.         0.        ]","[-0.03158212 -0.         -0.        ]"
"217","[45.81912629  0.         21.        ]","[0.60679126 0.         0.        ]","[-0.03193751 -0.         -0.        ]"
"218","[46.3936461  0.        21.       ]","[0.57451981 0.         0.        ]","[-0.03227145 -0.         -0.        ]"
"219","[46.93558162  0.         21.        ]","[0.54193552 0.         0.        ]","[-0.03258429 -0.         -0.        ]"
"220","[47.44464075  0.         21.        ]","[0.50905913 0.         0.        ]","[-0.03287639 -0.         -0.        ]"
"221","[47.92055178  0.         21.        ]","[0.47591104 0.         0.        ]","[-0.03314809 -0.         -0.        ]"
"222","[48.36306309  0.         21.        ]","[0.44251131 0.         0.        ]","[-0.03339973 -0.         -0.        ]"
"223","[48.77194275  0.         21.        ]","[0.40887966 0.         0.        ]","[-0.03363165 -0.         -0.        ]"
"224","[49.14697826  0.         21.        ]","[0.37503551 0.         0.        ]","[-0.03384415 -0.         -0.        ]"
"225","[49.48797621  0.         21.        ]","[0.34099795 0.         0.        ]","[-0.03403755 -0.         -0.        ]"
"226","[49.79476203  0.         21.        ]","[0.30678582 0.         0.        ]","[-0.03421213 -0.         -0.        ]"
"227","[50.06717968  0.         21.        ]","[0.27241765 0.         0.        ]","[-0.03436817 -0.         -0.        ]"
"228","[50.30509145  0.         21.        ]","[0.23791176 0.         0.        ]","[-0.03450589 -0.         -0.        ]"
"229","[50.50837768  0.         21.        ]","[0.20328623 0.         0.        ]","[-0.03462553 -0.         -0.        ]"
"230","[50.67693661  0.         21.        ]","[0.16855894 0.         0.        ]","[-0.03472729 -0.         -0.        ]"
"231","[50.81068422  0.         21.        ]","[0.1337476 0.        0.       ]","[-0.03481133 -0.         -0.        ]"
"232","[50.90955401  0.         21.        ]","[0.0988698 0.        0.       ]","[-0.0348778 -0.        -0.       ]"
"233","[50.97349699  0.         21.        ]","[0.06394298 0.         0.        ]","[-0.03492682 -0.         -0.        ]"
"234","[51.00248151  0.         21.        ]","[0.02898451 0.         0.        ]","[-0.03495846 -0.         -0.        ]"
"235","[50.99649323  0.         21.        ]","[-0.00598828  0.          0.        ]","[-0.03497279 -0.         -0.        ]"
"236","[50.95553511  0.         21.        ]","[-0.04095812  0.          0.        ]","[-0.03496983 -0.         -0.        ]"
"237","[50.87962741  0.         21.        ]","[-0.0759077  0.         0.       ]","[-0.03494958 -0.         -0.        ]"
"238","[50.76880772  0.         21.        ]","[-0.11081969  0.          0.        ]","[-0.03491199 -0.         -0.        ]"
"239","[50.62313102  0.         21.        ]","[-0.1456767  0.         0.       ]","[-0.03485701 -0.         -0.        ]"
"240","[50.44266977  0.         21.        ]","[-0.18046124  0.          0.        ]","[-0.03478454 -0.         -0.        ]"
"241","[50.22751408  0.         21.        ]","[-0.21515569  0.          0.        ]","[-0.03469445 -0.         -0.        ]"
"242","[49.9777718  0.        21.       ]","[-0.24974228  0.          0.        ]","[-0.03458659 -0.         -0.        ]"
"243","[49.69356875  0.         21.        ]","[-0.28420305  0.          0.        ]","[-0.03446078 -0.         -0.        ]"
"244","[49.37504889  0.         21.        ]","[-0.31851986  0.          0.        ]","[-0.03431681 -0.         -0.        ]"
"245","[49.02237457  0.         21.        ]","[-0.35267431  0.          0.        ]","[-0.03415445 -0.         -0.        ]"
"246","[48.6357268  0.        21.       ]","[-0.38664777  0.          0.        ]","[-0.03397346 -0.         -0.        ]"
"247","[48.21530548  0.         21.        ]","[-0.42042132  0.          0.        ]","[-0.03377355 -0.         -0.        ]"
"248","[47.76132973  0.         21.        ]","[-0.45397575  0.          0.        ]","[-0.03355443 -0.         -0.        ]"
"249","[47.27403818  0.         21.        ]","[-0.48729155  0.          0.        ]","[-0.0333158 -0.        -0.       ]"
"250","[46.75368931  0.         21.        ]","[-0.52034887  0.          0.        ]","[-0.03305733 -0.         -0.        ]"
"251","[46.20056175  0.         21.        ]","[-0.55312755  0.          0.        ]","[-0.03277868 -0.         -0.        ]"
"252","[45.61495468  0.         21.        ]","[-0.58560707  0.          0.        ]","[-0.03247952 -0.         -0.        ]"
"253","[44.99718813  0.         21.        ]","[-0.61776656  0.          0.        ]","[-0.03215949 -0.         -0.        ]"
"254","[44.34760333  0.         21.        ]","[-0.6495848  0.         0.       ]","[-0.03181824 -0.         -0.        ]"
"255","[43.66656309  0.         21.        ]","[-0.68104023  0.          0.        ]","[-0.03145544 -0.         -0.        ]"
"256","[42.95445214  0.         21.        ]","[-0.71211095  0.          0.        ]","[-0.03107072 -0.         -0.        ]"
"257","[42.21167743  0.         21.        ]","[-0.74277471  0.          0.        ]","[-0.03066375 -0.         -0.        ]"
"258","[41.43866851  0.         21.        ]","[-0.77300893  0.          0.        ]","[-0.03023422 -0.         -0.        ]"
"259","[40.63587777  0.         21.        ]","[-0.80279073  0.          0.        ]","[-0.02978181 -0.         -0.        ]"
"260","[39.80378081  0.         21.        ]","[-0.83209696  0.          0.        ]","[-0.02930623 -0.         -0.        ]"
"261","[38.94287663  0.         21.        ]","[-0.86090418  0.          0.        ]","[-0.02880722 -0.         -0.        ]"
"262","[38.05368791  0.         21.        ]","[-0.88918872  0.          0.        ]","[-0.02828454 -0.         -0.        ]"
"263","[37.13676121  0.         21.        ]","[-0.9169267  0.         0.       ]","[-0.02773798 -0.         -0.        ]"
"264","[36.19266713  0.         21.        ]","[-0.94409408  0.          0.        ]","[-0.02716738 -0.         -0.        ]"
"265","[35.22200044  0.         21.        ]","[-0.97066669  0.          0.        ]","[-0.02657261 -0.         -0.        ]"
"266","[34.22538018  0.         21.        ]","[-0.99662026  0.          0.        ]","[-0.02595357 -0.         -0.        ]"
"267","[33.20344968  0.         21.        ]","[-1.0219305  0.         0.       ]","[-0.02531024 -0.         -0.        ]"
"268","[32.15687658  0.         21.        ]","[-1.04657311  0.          0.        ]","[-0.02464261 -0.         -0.        ]"
"269","[31.0863527  0.        21.       ]","[-1.07052388  0.          0.        ]","[-0.02395077 -0.         -0.        ]"
"270","[29.992594  0.       21.      ]","[-1.0937587  0.         0.       ]","[-0.02323482 -0.         -0.        ]"
"271","[28.87634035  0.         21.        ]","[-1.11625366  0.          0.        ]","[-0.02249496 -0.         -0.        ]"
"272","[27.73835525  0.         21.        ]","[-1.1379851  0.         0.       ]","[-0.02173144 -0.         -0.        ]"
"273","[26.57942559  0.         21.        ]","[-1.15892966  0.          0.        ]","[-0.02094456 -0.         -0.        ]"
"274","[25.40036123  0.         21.        ]","[-1.17906436  0.          0.        ]","[-0.02013471 -0.         -0.        ]"
"275","[24.20199453  0.         21.        ]","[-1.1983667  0.         0.       ]","[-0.01930234 -0.         -0.        ]"
"276","[22.98517986  0.         21.        ]","[-1.21681467  0.          0.        ]","[-0.01844797 -0.         -0.        ]"
"277","[21.75079301  0.         21.        ]","[-1.23438685  0.          0.        ]","[-0.01757219 -0.         -0.        ]"
"278","[20.4997305  0.        21.       ]","[-1.25106252  0.          0.        ]","[-0.01667566 -0.         -0.        ]"
"279","[19.23290885  0.         21.        ]","[-1.26682165  0.          0.        ]","[-0.01575913 -0.         -0.        ]"
"280","[17.95126379  0.         21.        ]","[-1.28164505  0.          0.        ]","[-0.01482341 -0.         -0.        ]"
"281","[16.65574938  0.         21.        ]","[-1.29551441  0.          0.        ]","[-0.01386936 -0.         -0.        ]"
"282","[15.34733704  0.         21.        ]","[-1.30841234  0.          0.        ]","[-0.01289793 -0.         -0.        ]"
"283","[14.02701455  0.         21.        ]","[-1.32032249  0.          0.        ]","[-0.01191014 -0.         -0.        ]"
"284","[12.695785  0.       21.      ]","[-1.33122956  0.          0.        ]","[-0.01090707 -0.         -0.        ]"
"285","[11.35466559  0.         21.        ]","[-1.34111941  0.          0.        ]","[-0.00988985 -0.         -0.        ]"
"286","[10.00468651  0.         21.        ]","[-1.34997908  0.          0.        ]","[-0.00885967 -0.         -0.        ]"
"287","[ 8.64688963  0.         21.        ]","[-1.35779687  0.          0.        ]","[-0.00781779 -0.         -0.        ]"
"288","[ 7.28232726  0.         21.        ]","[-1.36456237  0.          0.        ]","[-0.0067655 -0.        -0.       ]"
"289","[ 5.91206075  0.         21.        ]","[-1.37026651  0.          0.        ]","[-0.00570414 -0.         -0.        ]"
"290","[ 4.53715914  0.         21.        ]","[-1.3749016  0.         0.       ]","[-0.00463509 -0.         -0.        ]"
"291","[ 3.15869779  0.         21.        ]","[-1.37846135  0.          0.        ]","[-0.00355975 -0.         -0.        ]"
"292","[ 1.77775686  0.         21.        ]","[-1.38094093  0.          0.        ]","[-0.00247958 -0.         -0.        ]"
"293","[ 0.3954199  0.        21.       ]","[-1.38233696  0.          0.        ]","[-0.00139602 -0.         -0.        ]"
"294","[-0.98722761  0.         21.        ]","[-1.38264752  0.          0.        ]","[-0.00031056 -0.         -0.        ]"
"295","[-2.3690998  0.        21.       ]","[-1.38187219  0.          0.        ]","[0.00077533 0.         0.        ]"
"296","[-3.74911183  0.         21.        ]","[-1.38001203  0.          0.        ]","[0.00186016 0.         0.        ]"
"297","[-5.12618142  0.         21.        ]","[-1.37706959  0.          0.        ]","[0.00294244 0.         0.        ]"
"298","[-6.49923028  0.         21.        ]","[-1.37304886  0.          0.        ]","[0.00402072 0.         0.        ]"
"299","[-7.8671856  0.        21.       ]","[-1.36795532  0.          0.        ]","[0.00509354 0.         0.        ]"
"300","[-9.22898144  0.         21.        ]","[-1.36179584  0.          0.        ]","[0.00615948 0.         0.        ]"
"301","[-10.58356016   0.          21.        ]","[-1.35457872  0.          0.        ]","[0.00721712 0.         0.        ]"
"302","[-11.92987376   0.          21.        ]","[-1.3463136  0.         0.       ]","[0.00826512 0.         0.        ]"
"303","[-13.26688522   0.          21.        ]","[-1.33701146  0.          0.        ]","[0.00930215 0.         0.        ]"
"304","[-14.59356975   0.          21.        ]","[-1.32668453  0.          0.        ]","[0.01032693 0.         0.        ]"
"305","[-15.90891604   0.          21.        ]","[-1.3153463  0.         0.       ]","[0.01133823 0.         0.        ]"
"306","[-17.21192744   0.          21.        ]","[-1.3030114  0.         0.       ]","[0.0123349 0.        0.       ]"
"307","[-18.50162302   0.          21.        ]","[-1.28969559  0.          0.        ]","[0.01331581 0.         0.        ]"
"308","[-19.77703869   0.          21.        ]","[-1.27541567  0.          0.        ]","[0.01427992 0.         0.        ]"
"309","[-21.03722812   0.          21.        ]","[-1.26018943  0.          0.        ]","[0.01522624 0.         0.        ]"
"310","[-22.2812637   0.         21.       ]","[-1.24403558  0.          0.        ]","[0.01615385 0.         0.        ]"
"311","[-23.50823737   0.          21.        ]","[-1.22697367  0.          0.        ]","[0.01706191 0.         0.        ]"
"312","[-24.71726139   0.          21.        ]","[-1.20902403  0.          0.        ]","[0.01794964 0.         0.        ]"
"313","[-25.90746909   0.          21.        ]","[-1.19020769  0.          0.        ]","[0.01881633 0.         0.        ]"
"314","[-27.07801542   0.          21.        ]","[-1.17054633  0.          0.        ]","[0.01966136 0.         0.        ]"
"315","[-28.22807761   0.          21.        ]","[-1.15006219  0.          0.        ]","[0.02048415 0.         0.        ]"
"316","[-29.35685558   0.          21.        ]","[-1.12877797  0.          0.        ]","[0.02128422 0.         0.        ]"
"317","[-30.46357241   0.          21.        ]","[-1.10671683  0.          0.        ]","[0.02206114 0.         0.        ]"
"318","[-31.54747466   0.          21.        ]","[-1.08390226  0.          0.        ]","[0.02281457 0.         0.        ]"
"319","[-32.6078327   0.         21.       ]","[-1.06035804  0.          0.        ]","[0.02354422 0.         0.        ]"
"320","[-33.64394088   0.          21.        ]","[-1.03610817  0.          0.        ]","[0.02424987 0.         0.        ]"
"321","[-34.65511769   0.          21.        ]","[-1.01117681  0.          0.        ]","[0.02493136 0.         0.        ]"
"322","[-35.64070591   0.          21.        ]","[-0.98558822  0.          0.        ]","[0.02558859 0.         0.        ]"
"323","[-36.60007262   0.          21.        ]","[-0.9593667  0.         0.       ]","[0.02622152 0.         0.        ]"
"324","[-37.53260915   0.          21.        ]","[-0.93253654  0.          0.        ]","[0.02683017 0.         0.        ]"
"325","[-38.43773111   0.          21.        ]","[-0.90512196  0.          0.        ]","[0.02741458 0.         0.        ]"
"326","[-39.3148782   0.         21.       ]","[-0.87714709  0.          0.        ]","[0.02797487 0.         0.        ]"
"327","[-40.16351411   0.          21.        ]","[-0.84863591  0.          0.        ]","[0.02851118 0.         0.        ]"
"328","[-40.98312632   0.          21.        ]","[-0.81961221  0.          0.        ]","[0.0290237 0.        0.       ]"
"329","[-41.77322587   0.          21.        ]","[-0.79009955  0.          0.        ]","[0.02951265 0.         0.        ]"
"330","[-42.53334715   0.          21.        ]","[-0.76012127  0.          0.        ]","[0.02997828 0.         0.        ]"
"331","[-43.26304755   0.          21.        ]","[-0.72970041  0.          0.        ]","[0.03042086 0.         0.        ]"
"332","[-43.96190726   0.          21.        ]","[-0.69885971  0.          0.        ]","[0.0308407 0.        0.       ]"
"333","[-44.62952888   0.          21.        ]","[-0.66762161  0.          0.        ]","[0.0312381 0.        0.       ]"
"334","[-45.26553709   0.          21.        ]","[-0.63600822  0.          0.        ]","[0.0316134 0.        0.       ]"
"335","[-45.86957837   0.          21.        ]","[-0.60404128  0.          0.        ]","[0.03196693 0.         0.        ]"
"336","[-46.44132061   0.          21.        ]","[-0.57174223  0.          0.        ]","[0.03229905 0.         0.        ]"
"337","[-46.98045273   0.          21.        ]","[-0.53913213  0.          0.        ]","[0.03261011 0.         0.        ]"
"338","[-47.48668442   0.          21.        ]","[-0.50623168  0.          0.        ]","[0.03290044 0.         0.        ]"
"339","[-47.95974568   0.          21.        ]","[-0.47306127  0.          0.        ]","[0.03317041 0.         0.        ]"
"340","[-48.3993866   0.         21.       ]","[-0.43964091  0.          0.        ]","[0.03342035 0.         0.        ]"
"341","[-48.80537692   0.          21.        ]","[-0.40599032  0.          0.        ]","[0.03365059 0.         0.        ]"
"342","[-49.17750579   0.          21.        ]","[-0.37212887  0.          0.        ]","[0.03386145 0.         0.        ]"
"343","[-49.51558142   0.          21.        ]","[-0.33807564  0.          0.        ]","[0.03405323 0.         0.        ]"
"344","[-49.81943084   0.          21.        ]","[-0.30384942  0.          0.        ]","[0.03422621 0.         0.        ]"
"345","[-50.0888996   0.         21.       ]","[-0.26946875  0.          0.        ]","[0.03438067 0.         0.        ]"
"346","[-50.32385151   0.          21.        ]","[-0.23495191  0.          0.        ]","[0.03451684 0.         0.        ]"
"347","[-50.52416848   0.          21.        ]","[-0.20031697  0.          0.        ]","[0.03463494 0.         0.        ]"
"348","[-50.68975027   0.          21.        ]","[-0.16558179  0.          0.        ]","[0.03473518 0.         0.        ]"
"349","[-50.82051436   0.          21.        ]","[-0.13076408  0.          0.        ]","[0.03481771 0.         0.        ]"
"350","[-50.91639576   0.          21.        ]","[-0.0958814  0.         0.       ]","[0.03488268 0.         0.        ]"
"351","[-50.97734695   0.          21.        ]","[-0.06095119  0.          0.        ]","[0.03493021 0.         0.        ]"
"352","[-51.00333777   0.          21.        ]","[-0.02599082  0.          0.        ]","[0.03496037 0.         0.        ]"
"353","[-50.99435538   0.          21.        ]","[0.00898239 0.         0.        ]","[0.03497322 0.         0.        ]"
"354","[-50.95040421   0.          21.        ]","[0.04395117 0.         0.        ]","[0.03496878 0.         0.        ]"
"355","[-50.87150599   0.          21.        ]","[0.07889821 0.         0.        ]","[0.03494704 0.         0.        ]"
"356","[-50.75769981   0.          21.        ]","[0.11380618 0.         0.        ]","[0.03490797 0.         0.        ]"
"357","[-50.60904213   0.          21.        ]","[0.14865768 0.         0.        ]","[0.03485149 0.         0.        ]"
"358","[-50.42560693   0.          21.        ]","[0.1834352 0.        0.       ]","[0.03477752 0.         0.        ]"
"359","[-50.20748582   0.          21.        ]","[0.21812111 0.         0.        ]","[0.03468591 0.         0.        ]"
"360","[-49.95478819   0.          21.        ]","[0.25269763 0.         0.        ]","[0.03457652 0.         0.        ]"
"361","[-49.66764139   0.          21.        ]","[0.2871468 0.        0.       ]","[0.03444916 0.         0.        ]"
"362","[-49.34619097   0.          21.        ]","[0.32145043 0.         0.        ]","[0.03430363 0.         0.        ]"
"363","[-48.99060085   0.          21.        ]","[0.35559012 0.         0.        ]","[0.03413969 0.         0.        ]"
"364","[-48.60105364   0.          21.        ]","[0.38954721 0.         0.        ]","[0.03395709 0.         0.        ]"
"365","[-48.17775089   0.          21.        ]","[0.42330275 0.         0.        ]","[0.03375555 0.         0.        ]"
"366","[-47.72091337   0.          21.        ]","[0.45683752 0.         0.        ]","[0.03353477 0.         0.        ]"
"367","[-47.2307814   0.         21.       ]","[0.49013197 0.         0.        ]","[0.03329445 0.         0.        ]"
"368","[-46.70761516   0.          21.        ]","[0.52316624 0.         0.        ]","[0.03303427 0.         0.        ]"
"369","[-46.15169505   0.          21.        ]","[0.55592011 0.         0.        ]","[0.03275388 0.         0.        ]"
"370","[-45.56332199   0.          21.        ]","[0.58837305 0.         0.        ]","[0.03245294 0.         0.        ]"
"371","[-44.94281783   0.          21.        ]","[0.62050416 0.         0.        ]","[0.03213111 0.         0.        ]"
"372","[-44.29052564   0.          21.        ]","[0.65229219 0.         0.        ]","[0.03178803 0.         0.        ]"
"373","[-43.60681008   0.          21.        ]","[0.68371556 0.         0.        ]","[0.03142336 0.         0.        ]"
"374","[-42.89205777   0.          21.        ]","[0.71475231 0.         0.        ]","[0.03103675 0.         0.        ]"
"375","[-42.14667759   0.          21.        ]","[0.74538018 0.         0.        ]","[0.03062787 0.         0.        ]"
"376","[-41.37110102   0.          21.        ]","[0.77557657 0.         0.        ]","[0.03019639 0.         0.        ]"
"377","[-40.56578245   0.          21.        ]","[0.80531857 0.         0.        ]","[0.029742 0.       0.      ]"
"378","[-39.73119945   0.          21.        ]","[0.834583 0.       0.      ]","[0.02926443 0.         0.        ]"
"379","[-38.86785305   0.          21.        ]","[0.8633464 0.        0.       ]","[0.0287634 0.        0.       ]"
"380","[-37.97626796   0.          21.        ]","[0.89158509 0.         0.        ]","[0.02823868 0.         0.        ]"
"381","[-37.0569928   0.         21.       ]","[0.91927516 0.         0.        ]","[0.02769008 0.         0.        ]"
"382","[-36.11060022   0.          21.        ]","[0.94639257 0.         0.        ]","[0.02711741 0.         0.        ]"
"383","[-35.13768709   0.          21.        ]","[0.97291314 0.         0.        ]","[0.02652056 0.         0.        ]"
"384","[-34.1388745   0.         21.       ]","[0.99881258 0.         0.        ]","[0.02589945 0.         0.        ]"
"385","[-33.11480789   0.          21.        ]","[1.02406662 0.         0.        ]","[0.02525403 0.         0.        ]"
"386","[-32.06615694   0.          21.        ]","[1.04865095 0.         0.        ]","[0.02458433 0.         0.        ]"
"387","[-30.99361558   0.          21.        ]","[1.07254136 0.         0.        ]","[0.02389042 0.         0.        ]"
"388","[-29.8979018   0.         21.       ]","[1.09571378 0.         0.        ]","[0.02317242 0.         0.        ]"
"389","[-28.77975751   0.          21.        ]","[1.1181443 0.        0.       ]","[0.02243052 0.         0.        ]"
"390","[-27.63994823   0.          21.        ]","[1.13980928 0.         0.        ]","[0.02166498 0.         0.        ]"
"391","[-26.47926283   0.          21.        ]","[1.1606854 0.        0.       ]","[0.02087612 0.         0.        ]"
"392","[-25.29851311   0.          21.        ]","[1.18074972 0.         0.        ]","[0.02006432 0.         0.        ]"
"393","[-24.09853334   0.          21.        ]","[1.19997977 0.         0.        ]","[0.01923005 0.         0.        ]"
"394","[-22.88017975   0.          21.        ]","[1.21835359 0.         0.        ]","[0.01837382 0.         0.        ]"
"395","[-21.64432992   0.          21.        ]","[1.23584983 0.         0.        ]","[0.01749624 0.         0.        ]"
"396","[-20.39188212   0.          21.        ]","[1.2524478 0.        0.       ]","[0.01659797 0.         0.        ]"
"397","[-19.12375455   0.          21.        ]","[1.26812757 0.         0.        ]","[0.01567977 0.         0.        ]"
"398","[-17.84088456   0.          21.        ]","[1.28287 0.      0.     ]","[0.01474243 0.         0.        ]"
"399","[-16.5442277   0.         21.       ]","[1.29665686 0.         0.        ]","[0.01378686 0.         0.        ]"
"400","[-15.23475685   0.          21.        ]","[1.30947085 0.         0.        ]","[0.01281399 0.         0.        ]"
"401","[-13.91346114   0.          21.        ]","[1.3212957 0.        0.       ]","[0.01182485 0.         0.        ]"
"402","[-12.58134491   0.          21.        ]","[1.33211623 0.         0.        ]","[0.01082052 0.         0.        ]"
"403","[-11.23942654   0.          21.        ]","[1.34191838 0.         0.        ]","[0.00980215 0.         0.        ]"
"404","[-9.88873724  0.         21.        ]","[1.35068929 0.         0.        ]","[0.00877092 0.         0.        ]"
"405","[-8.53031985  0.         21.        ]","[1.35841739 0.         0.        ]","[0.0077281 0.        0.       ]"
"406","[-7.16522749  0.         21.        ]","[1.36509236 0.         0.        ]","[0.00667497 0.         0.        ]"
"407","[-5.79452223  0.         21.        ]","[1.37070526 0.         0.        ]","[0.0056129 0.        0.       ]"
"408","[-4.41927371  0.         21.        ]","[1.37524852 0.         0.        ]","[0.00454325 0.         0.        ]"
"409","[-3.04055774  0.         21.        ]","[1.37871597 0.         0.        ]","[0.00346745 0.         0.        ]"
"410","[-1.65945485  0.         21.        ]","[1.38110289 0.         0.        ]","[0.00238693 0.         0.        ]"
"411","[-0.2770488  0.        21.       ]","[1.38240604 0.         0.        ]","[0.00130315 0.         0.        ]"
"412","[ 1.10557483  0.         21.        ]","[1.38262364 0.         0.        ]","[0.00021759 0.         0.        ]"
"413","[ 2.48733021  0.         21.        ]","[1.38175537 0.         0.        ]","[-0.00086826 -0.         -0.        ]"
"414","[ 3.86713265  0.         21.        ]","[1.37980244 0.         0.        ]","[-0.00195293 -0.         -0.        ]"
"415","[ 5.24390016  0.         21.        ]","[1.37676751 0.         0.        ]","[-0.00303493 -0.         -0.        ]"
"416","[ 6.61655487  0.         21.        ]","[1.37265471 0.         0.        ]","[-0.0041128 -0.        -0.       ]"
"417","[ 7.98402449  0.         21.        ]","[1.36746962 0.         0.        ]","[-0.00518509 -0.         -0.        ]"
"418","[ 9.34524374  0.         21.        ]","[1.36121926 0.         0.        ]","[-0.00625036 -0.         -0.        ]"
"419","[10.69915576  0.         21.        ]","[1.35391202 0.         0.        ]","[-0.00730724 -0.         -0.        ]"
"420","[12.04471344  0.         21.        ]","[1.34555767 0.         0.        ]","[-0.00835435 -0.         -0.        ]"
"421","[13.38088074  0.         21.        ]","[1.3361673 0.        0.       ]","[-0.00939037 -0.         -0.        ]"
"422","[14.70663399  0.         21.        ]","[1.32575325 0.         0.        ]","[-0.01041405 -0.         -0.        ]"
"423","[16.02096309  0.         21.        ]","[1.3143291 0.        0.       ]","[-0.01142415 -0.         -0.        ]"
"424","[17.32287269  0.         21.        ]","[1.3019096 0.        0.       ]","[-0.01241951 -0.         -0.        ]"
"425","[18.61138327  0.         21.        ]","[1.28851058 0.         0.        ]","[-0.01339902 -0.         -0.        ]"
"426","[19.8855322  0.        21.       ]","[1.27414894 0.         0.        ]","[-0.01436164 -0.         -0.        ]"
"427","[21.14437475  0.         21.        ]","[1.25884254 0.         0.        ]","[-0.01530639 -0.         -0.        ]"
"428","[22.38698492  0.         21.        ]","[1.24261017 0.         0.        ]","[-0.01623237 -0.         -0.        ]"
"429","[23.61245638  0.         21.        ]","[1.22547146 0.         0.        ]","[-0.01713872 -0.         -0.        ]"
"430","[24.81990317  0.         21.        ]","[1.20744679 0.         0.        ]","[-0.01802467 -0.         -0.        ]"
"431","[26.00846042  0.         21.        ]","[1.18855725 0.         0.        ]","[-0.01888953 -0.         -0.        ]"
"432","[27.177285  0.       21.      ]","[1.16882458 0.         0.        ]","[-0.01973267 -0.         -0.        ]"
"433","[28.32555605  0.         21.        ]","[1.14827104 0.         0.        ]","[-0.02055354 -0.         -0.        ]"
"434","[29.45247545  0.         21.        ]","[1.1269194 0.        0.       ]","[-0.02135164 -0.         -0.        ]"
"435","[30.55726829  0.         21.        ]","[1.10479284 0.         0.        ]","[-0.02212657 -0.         -0.        ]"
"436","[31.63918315  0.         21.        ]","[1.08191487 0.         0.        ]","[-0.02287797 -0.         -0.        ]"
"437","[32.69749245  0.         21.        ]","[1.0583093 0.        0.       ]","[-0.02360557 -0.         -0.        ]"
"438","[33.73149259  0.         21.        ]","[1.03400014 0.         0.        ]","[-0.02430916 -0.         -0.        ]"
"439","[34.74050416  0.         21.        ]","[1.00901157 0.         0.        ]","[-0.02498857 -0.         -0.        ]"
"440","[35.723872  0.       21.      ]","[0.98336784 0.         0.        ]","[-0.02564373 -0.         -0.        ]"
"441","[36.68096526  0.         21.        ]","[0.95709326 0.         0.        ]","[-0.02627458 -0.         -0.        ]"
"442","[37.61117738  0.         21.        ]","[0.93021212 0.         0.        ]","[-0.02688114 -0.         -0.        ]"
"443","[38.51392601  0.         21.        ]","[0.90274863 0.         0.        ]","[-0.02746349 -0.         -0.        ]"
"444","[39.38865292  0.         21.        ]","[0.87472691 0.         0.        ]","[-0.02802172 -0.         -0.        ]"
"445","[40.23482385  0.         21.        ]","[0.84617093 0.         0.        ]","[-0.02855599 -0.         -0.        ]"
"446","[41.0519283  0.        21.       ]","[0.81710445 0.         0.        ]","[-0.02906648 -0.         -0.        ]"
"447","[41.83947932  0.         21.        ]","[0.78755102 0.         0.        ]","[-0.02955342 -0.         -0.        ]"
"448","[42.59701327  0.         21.        ]","[0.75753395 0.         0.        ]","[-0.03001707 -0.         -0.        ]"
"449","[43.32408953  0.         21.        ]","[0.72707626 0.         0.        ]","[-0.03045769 -0.         -0.        ]"
"450","[44.0202902  0.        21.       ]","[0.69620067 0.         0.        ]","[-0.03087559 -0.         -0.        ]"
"451","[44.68521978  0.         21.        ]","[0.66492958 0.         0.        ]","[-0.03127109 -0.         -0.        ]"
"452","[45.31850485  0.         21.        ]","[0.63328507 0.         0.        ]","[-0.03164451 -0.         -0.        ]"
"453","[45.91979373  0.         21.        ]","[0.60128887 0.         0.        ]","[-0.0319962 -0.        -0.       ]"
"454","[46.4887561  0.        21.       ]","[0.56896237 0.         0.        ]","[-0.0323265 -0.        -0.       ]"
"455","[47.02508271  0.         21.        ]","[0.53632661 0.         0.        ]","[-0.03263577 -0.         -0.        ]"
"456","[47.52848497  0.         21.        ]","[0.50340226 0.         0.        ]","[-0.03292435 -0.         -0.        ]"
"457","[47.99869463  0.         21.        ]","[0.47020967 0.         0.        ]","[-0.03319259 -0.         -0.        ]"
"458","[48.43546347  0.         21.        ]","[0.43676884 0.         0.        ]","[-0.03344083 -0.         -0.        ]"
"459","[48.83856291  0.         21.        ]","[0.40309944 0.         0.        ]","[-0.0336694 -0.        -0.       ]"
"460","[49.20778373  0.         21.        ]","[0.36922082 0.         0.        ]","[-0.03387861 -0.         -0.        ]"
"461","[49.54293578  0.         21.        ]","[0.33515205 0.         0.        ]","[-0.03406877 -0.         -0.        ]"
"462","[49.84384767  0.         21.        ]","[0.30091189 0.         0.        ]","[-0.03424016 -0.         -0.        ]"
"463","[50.11036653  0.         21.        ]","[0.26651885 0.         0.        ]","[-0.03439304 -0.         -0.        ]"
"464","[50.34235772  0.         21.        ]","[0.2319912 0.        0.       ]","[-0.03452765 -0.         -0.        ]"
"465","[50.5397047  0.        21.       ]","[0.19734698 0.         0.        ]","[-0.03464422 -0.         -0.        ]"
"466","[50.70230875  0.         21.        ]","[0.16260404 0.         0.        ]","[-0.03474293 -0.         -0.        ]"
"467","[50.83008883  0.         21.        ]","[0.12778009 0.         0.        ]","[-0.03482396 -0.         -0.        ]"
"468","[50.92298149  0.         21.        ]","[0.09289265 0.         0.        ]","[-0.03488743 -0.         -0.        ]"
"469","[50.98094067  0.         21.        ]","[0.05795918 0.         0.        ]","[-0.03493347 -0.         -0.        ]"
"470","[51.00393771  0.         21.        ]","[0.02299704 0.         0.        ]","[-0.03496215 -0.         -0.        ]"
"471","[50.99196123  0.         21.        ]","[-0.01197648  0.          0.        ]","[-0.03497351 -0.         -0.        ]"
"472","[50.94501716  0.         21.        ]","[-0.04694407  0.          0.        ]","[-0.03496759 -0.         -0.        ]"
"473","[50.86312872  0.         21.        ]","[-0.08188845  0.          0.        ]","[-0.03494438 -0.         -0.        ]"
"474","[50.74633645  0.         21.        ]","[-0.11679226  0.          0.        ]","[-0.03490382 -0.         -0.        ]"
"475","[50.59469834  0.         21.        ]","[-0.15163811  0.          0.        ]","[-0.03484585 -0.         -0.        ]"
"476","[50.40828986  0.         21.        ]","[-0.18640848  0.          0.        ]","[-0.03477037 -0.         -0.        ]"
"477","[50.18720414  0.         21.        ]","[-0.22108573  0.          0.        ]","[-0.03467725 -0.         -0.        ]"
"478","[49.93155209  0.         21.        ]","[-0.25565205  0.          0.        ]","[-0.03456632 -0.         -0.        ]"
"479","[49.64146262  0.         21.        ]","[-0.29008947  0.          0.        ]","[-0.03443742 -0.         -0.        ]"
"480","[49.31708282  0.         21.        ]","[-0.32437979  0.          0.        ]","[-0.03429032 -0.         -0.        ]"
"481","[48.95857824  0.         21.        ]","[-0.35850458  0.          0.        ]","[-0.03412479 -0.         -0.        ]"
"482","[48.56613308  0.         21.        ]","[-0.39244516  0.          0.        ]","[-0.03394058 -0.         -0.        ]"
"483","[48.13995051  0.         21.        ]","[-0.42618256  0.          0.        ]","[-0.0337374 -0.        -0.       ]"
"484","[47.68025298  0.         21.        ]","[-0.45969753  0.          0.        ]","[-0.03351497 -0.         -0.        ]"
"485","[47.18728249  0.         21.        ]","[-0.49297049  0.          0.        ]","[-0.03327296 -0.         -0.        ]"
"486","[46.66130095  0.         21.        ]","[-0.52598155  0.          0.        ]","[-0.03301106 -0.         -0.        ]"
"487","[46.10259048  0.         21.        ]","[-0.55871047  0.          0.        ]","[-0.03272892 -0.         -0.        ]"
"488","[45.5114538  0.        21.       ]","[-0.59113668  0.          0.        ]","[-0.03242621 -0.         -0.        ]"
"489","[44.88821455  0.         21.        ]","[-0.62323925  0.          0.        ]","[-0.03210257 -0.         -0.        ]"
"490","[44.23321763  0.         21.        ]","[-0.65499692  0.          0.        ]","[-0.03175766 -0.         -0.        ]"
"491","[43.54682958  0.         21.        ]","[-0.68638805  0.          0.        ]","[-0.03139113 -0.         -0.        ]"
"492","[42.82943891  0.         21.        ]","[-0.71739067  0.          0.        ]","[-0.03100262 -0.         -0.        ]"
"493","[42.08145642  0.         21.        ]","[-0.74798249  0.          0.        ]","[-0.03059182 -0.         -0.        ]"
"494","[41.30331554  0.         21.        ]","[-0.77814088  0.          0.        ]","[-0.03015839 -0.         -0.        ]"
"495","[40.49547263  0.         21.        ]","[-0.80784291  0.          0.        ]","[-0.02970203 -0.         -0.        ]"
"496","[39.65840726  0.         21.        ]","[-0.83706537  0.          0.        ]","[-0.02922246 -0.         -0.        ]"
"497","[38.79262248  0.         21.        ]","[-0.86578478  0.          0.        ]","[-0.02871941 -0.         -0.        ]"
"498","[37.89864505  0.         21.        ]","[-0.89397743  0.          0.        ]","[-0.02819266 -0.         -0.        ]"
"499","[36.97702562  0.         21.        ]","[-0.92161943  0.          0.        ]","[-0.02764199 -0.         -0.        ]"
