"time","theta3d","omega3d","alpha3d"
"0","[ 56.87419941   0.         -18.        ]","[-0.12580059  0.          0.        ]","[-0.12580059 -0.         -0.        ]"
"1","[ 56.62277792   0.         -18.        ]","[-0.25142149  0.          0.        ]","[-0.12562091 -0.         -0.        ]"
"2","[ 56.24609643   0.         -18.        ]","[-0.37668149  0.          0.        ]","[-0.12526 -0.      -0.     ]"
"3","[ 55.74470018   0.         -18.        ]","[-0.50139625  0.          0.        ]","[-0.12471476 -0.         -0.        ]"
"4","[ 55.11932327   0.         -18.        ]","[-0.62537691  0.          0.        ]","[-0.12398065 -0.         -0.        ]"
"5","[ 54.37089465   0.         -18.        ]","[-0.74842862  0.          0.        ]","[-0.12305172 -0.         -0.        ]"
"6","[ 53.50054528   0.         -18.        ]","[-0.87034937  0.          0.        ]","[-0.12192074 -0.         -0.        ]"
"7","[ 52.50961654   0.         -18.        ]","[-0.99092874  0.          0.        ]","[-0.12057938 -0.         -0.        ]"
"8","[ 51.39966947   0.         -18.        ]","[-1.10994707  0.          0.        ]","[-0.11901833 -0.         -0.        ]"
"9","[ 50.17249487   0.         -18.        ]","[-1.2271746  0.         0.       ]","[-0.11722753 -0.         -0.        ]"
"10","[ 48.83012384   0.         -18.        ]","[-1.34237102  0.          0.        ]","[-0.11519642 -0.         -0.        ]"
"11","[ 47.37483865   0.         -18.        ]","[-1.45528519  0.          0.        ]","[-0.11291417 -0.         -0.        ]"
"12","[ 45.8091835   0.        -18.       ]","[-1.56565516  0.          0.        ]","[-0.11036997 -0.         -0.        ]"
"13","[ 44.13597499   0.         -18.        ]","[-1.67320851  0.          0.        ]","[-0.10755335 -0.         -0.        ]"
"14","[ 42.35831195   0.         -18.        ]","[-1.77766304  0.          0.        ]","[-0.10445453 -0.         -0.        ]"
"15","[ 40.47958417   0.         -18.        ]","[-1.87872778  0.          0.        ]","[-0.10106474 -0.         -0.        ]"
"16","[ 38.50347984   0.         -18.        ]","[-1.97610434  0.          0.        ]","[-0.09737656 -0.         -0.        ]"
"17","[ 36.43399117   0.         -18.        ]","[-2.06948866  0.          0.        ]","[-0.09338433 -0.         -0.        ]"
"18","[ 34.27541807   0.         -18.        ]","[-2.15857311  0.          0.        ]","[-0.08908444 -0.         -0.        ]"
"19","[ 32.03236923   0.         -18.        ]","[-2.24304884  0.          0.        ]","[-0.08447574 -0.         -0.        ]"
"20","[ 29.70976064   0.         -18.        ]","[-2.32260858  0.          0.        ]","[-0.07955974 -0.         -0.        ]"
"21","[ 27.31281106   0.         -18.        ]","[-2.39694958  0.          0.        ]","[-0.074341 -0.       -0.      ]"
"22","[ 24.84703425   0.         -18.        ]","[-2.46577681  0.          0.        ]","[-0.06882724 -0.         -0.        ]"
"23","[ 22.31822787   0.         -18.        ]","[-2.52880638  0.          0.        ]","[-0.06302957 -0.         -0.        ]"
"24","[ 19.73245891   0.         -18.        ]","[-2.58576896  0.          0.        ]","[-0.05696257 -0.         -0.        ]"
"25","[ 17.09604567   0.         -18.        ]","[-2.63641324  0.          0.        ]","[-0.05064428 -0.         -0.        ]"
"26","[ 14.41553627   0.         -18.        ]","[-2.6805094  0.         0.       ]","[-0.04409615 -0.         -0.        ]"
"27","[ 11.697684   0.       -18.      ]","[-2.71785227  0.          0.        ]","[-0.03734288 -0.         -0.        ]"
"28","[  8.94941957   0.         -18.        ]","[-2.74826443  0.          0.        ]","[-0.03041216 -0.         -0.        ]"
"29","[  6.17782077   0.         -18.        ]","[-2.7715988  0.         0.       ]","[-0.02333437 -0.         -0.        ]"
"30","[  3.39007979   0.         -18.        ]","[-2.78774098  0.          0.        ]","[-0.01614218 -0.         -0.        ]"
"31","[  0.59346878   0.         -18.        ]","[-2.79661101  0.          0.        ]","[-0.00887003 -0.         -0.        ]"
"32","[ -2.2046959   0.        -18.       ]","[-2.79816468  0.          0.        ]","[-0.00155367 -0.         -0.        ]"
"33","[ -4.99709012   0.         -18.        ]","[-2.79239422  0.          0.        ]","[0.00577046 0.         0.        ]"
"34","[ -7.77641857   0.         -18.        ]","[-2.77932845  0.          0.        ]","[0.01306577 0.         0.        ]"
"35","[-10.53545085   0.         -18.        ]","[-2.75903228  0.          0.        ]","[0.02029617 0.         0.        ]"
"36","[-13.26705656   0.         -18.        ]","[-2.7316057  0.         0.       ]","[0.02742658 0.         0.        ]"
"37","[-15.96423873   0.         -18.        ]","[-2.69718218  0.          0.        ]","[0.03442352 0.         0.        ]"
"38","[-18.62016531   0.         -18.        ]","[-2.65592658  0.          0.        ]","[0.0412556 0.        0.       ]"
"39","[-21.22819797   0.         -18.        ]","[-2.60803265  0.          0.        ]","[0.04789393 0.         0.        ]"
"40","[-23.78191811   0.         -18.        ]","[-2.55372015  0.          0.        ]","[0.05431251 0.         0.        ]"
"41","[-26.27514978   0.         -18.        ]","[-2.49323167  0.          0.        ]","[0.06048848 0.         0.        ]"
"42","[-28.7019791   0.        -18.       ]","[-2.42682932  0.          0.        ]","[0.06640235 0.         0.        ]"
"43","[-31.05677035   0.         -18.        ]","[-2.35479125  0.          0.        ]","[0.07203807 0.         0.        ]"
"44","[-33.33417853   0.         -18.        ]","[-2.27740818  0.          0.        ]","[0.07738307 0.         0.        ]"
"45","[-35.52915851   0.         -18.        ]","[-2.19497998  0.          0.        ]","[0.0824282 0.        0.       ]"
"46","[-37.63697092   0.         -18.        ]","[-2.10781241  0.          0.        ]","[0.08716758 0.         0.        ]"
"47","[-39.65318488   0.         -18.        ]","[-2.01621396  0.          0.        ]","[0.09159844 0.         0.        ]"
"48","[-41.573678   0.       -18.      ]","[-1.92049312  0.          0.        ]","[0.09572084 0.         0.        ]"
"49","[-43.39463373   0.         -18.        ]","[-1.82095573  0.          0.        ]","[0.09953739 0.         0.        ]"
"50","[-45.11253655   0.         -18.        ]","[-1.71790281  0.          0.        ]","[0.10305292 0.         0.        ]"
"51","[-46.72416522   0.         -18.        ]","[-1.61162867  0.          0.        ]","[0.10627414 0.         0.        ]"
"52","[-48.2265846   0.        -18.       ]","[-1.50241938  0.          0.        ]","[0.10920929 0.         0.        ]"
"53","[-49.61713621   0.         -18.        ]","[-1.3905516  0.         0.       ]","[0.11186778 0.         0.        ]"
"54","[-50.893428   0.       -18.      ]","[-1.27629179  0.          0.        ]","[0.11425982 0.         0.        ]"
"55","[-52.05332367   0.         -18.        ]","[-1.15989568  0.          0.        ]","[0.11639611 0.         0.        ]"
"56","[-53.09493184   0.         -18.        ]","[-1.04160817  0.          0.        ]","[0.11828751 0.         0.        ]"
"57","[-54.01659528   0.         -18.        ]","[-0.92166344  0.          0.        ]","[0.11994473 0.         0.        ]"
"58","[-54.81688064   0.         -18.        ]","[-0.80028536  0.          0.        ]","[0.12137808 0.         0.        ]"
"59","[-55.49456879   0.         -18.        ]","[-0.67768815  0.          0.        ]","[0.1225972 0.        0.       ]"
"60","[-56.04864607   0.         -18.        ]","[-0.55407728  0.          0.        ]","[0.12361087 0.         0.        ]"
"61","[-56.47829654   0.         -18.        ]","[-0.42965047  0.          0.        ]","[0.12442681 0.         0.        ]"
"62","[-56.78289551   0.         -18.        ]","[-0.30459897  0.          0.        ]","[0.1250515 0.        0.       ]"
"63","[-56.96200435   0.         -18.        ]","[-0.17910885  0.          0.        ]","[0.12549012 0.         0.        ]"
"64","[-57.01536682   0.         -18.        ]","[-0.05336246  0.          0.        ]","[0.12574638 0.         0.        ]"
"65","[-56.94290679   0.         -18.        ]","[0.07246003 0.         0.        ]","[0.12582249 0.         0.        ]"
"66","[-56.74472765   0.         -18.        ]","[0.19817914 0.         0.        ]","[0.12571912 0.         0.        ]"
"67","[-56.42111315   0.         -18.        ]","[0.3236145 0.        0.       ]","[0.12543535 0.         0.        ]"
"68","[-55.97252989   0.         -18.        ]","[0.44858326 0.         0.        ]","[0.12496877 0.         0.        ]"
"69","[-55.39963122   0.         -18.        ]","[0.57289867 0.         0.        ]","[0.12431541 0.         0.        ]"
"70","[-54.70326264   0.         -18.        ]","[0.69636858 0.         0.        ]","[0.12346991 0.         0.        ]"
"71","[-53.88446849   0.         -18.        ]","[0.81879415 0.         0.        ]","[0.12242557 0.         0.        ]"
"72","[-52.94449982   0.         -18.        ]","[0.93996867 0.         0.        ]","[0.12117452 0.         0.        ]"
"73","[-51.88482332   0.         -18.        ]","[1.0596765 0.        0.       ]","[0.11970783 0.         0.        ]"
"74","[-50.70713109   0.         -18.        ]","[1.17769223 0.         0.        ]","[0.11801573 0.         0.        ]"
"75","[-49.413351   0.       -18.      ]","[1.29378009 0.         0.        ]","[0.11608786 0.         0.        ]"
"76","[-48.00565747   0.         -18.        ]","[1.40769353 0.         0.        ]","[0.11391344 0.         0.        ]"
"77","[-46.48648231   0.         -18.        ]","[1.51917516 0.         0.        ]","[0.11148163 0.         0.        ]"
"78","[-44.85852536   0.         -18.        ]","[1.62795695 0.         0.        ]","[0.10878179 0.         0.        ]"
"79","[-43.12476461   0.         -18.        ]","[1.73376075 0.         0.        ]","[0.1058038 0.        0.       ]"
"80","[-41.28846547   0.         -18.        ]","[1.83629914 0.         0.        ]","[0.1025384 0.        0.       ]"
"81","[-39.35318876   0.         -18.        ]","[1.93527671 0.         0.        ]","[0.09897756 0.         0.        ]"
"82","[-37.32279721   0.         -18.        ]","[2.03039155 0.         0.        ]","[0.09511485 0.         0.        ]"
"83","[-35.20145993   0.         -18.        ]","[2.12133728 0.         0.        ]","[0.09094573 0.         0.        ]"
"84","[-32.99365468   0.         -18.        ]","[2.20780525 0.         0.        ]","[0.08646797 0.         0.        ]"
"85","[-30.70416751   0.         -18.        ]","[2.28948717 0.         0.        ]","[0.08168192 0.         0.        ]"
"86","[-28.33808952   0.         -18.        ]","[2.36607799 0.         0.        ]","[0.07659082 0.         0.        ]"
"87","[-25.90081051   0.         -18.        ]","[2.43727901 0.         0.        ]","[0.07120102 0.         0.        ]"
"88","[-23.39800932   0.         -18.        ]","[2.50280118 0.         0.        ]","[0.06552218 0.         0.        ]"
"89","[-20.83564074   0.         -18.        ]","[2.56236859 0.         0.        ]","[0.0595674 0.        0.       ]"
"90","[-18.21991889   0.         -18.        ]","[2.61572185 0.         0.        ]","[0.05335326 0.         0.        ]"
"91","[-15.55729727   0.         -18.        ]","[2.66262162 0.         0.        ]","[0.04689977 0.         0.        ]"
"92","[-12.85444537   0.         -18.        ]","[2.7028519 0.        0.       ]","[0.04023028 0.         0.        ]"
"93","[-10.11822221   0.         -18.        ]","[2.73622316 0.         0.        ]","[0.03337126 0.         0.        ]"
"94","[ -7.35564708   0.         -18.        ]","[2.76257513 0.         0.        ]","[0.02635197 0.         0.        ]"
"95","[ -4.57386776   0.         -18.        ]","[2.78177932 0.         0.        ]","[0.01920419 0.         0.        ]"
"96","[ -1.7801268   0.        -18.       ]","[2.79374096 0.         0.        ]","[0.01196164 0.         0.        ]"
"97","[  1.01827378   0.         -18.        ]","[2.79840057 0.         0.        ]","[0.00465961 0.         0.        ]"
"98","[  3.81400865   0.         -18.        ]","[2.79573488 0.         0.        ]","[-0.00266569 -0.         -0.        ]"
"99","[  6.59976585   0.         -18.        ]","[2.7857572 0.        0.       ]","[-0.00997768 -0.         -0.        ]"
"100","[  9.36828309   0.         -18.        ]","[2.76851724 0.         0.        ]","[-0.01723996 -0.         -0.        ]"
"101","[ 12.11238336   0.         -18.        ]","[2.74410027 0.         0.        ]","[-0.02441697 -0.         -0.        ]"
"102","[ 14.82500914   0.         -18.        ]","[2.71262578 0.         0.        ]","[-0.03147448 -0.         -0.        ]"
"103","[ 17.49925476   0.         -18.        ]","[2.67424562 0.         0.        ]","[-0.03838016 -0.         -0.        ]"
"104","[ 20.12839637   0.         -18.        ]","[2.62914161 0.         0.        ]","[-0.04510401 -0.         -0.        ]"
"105","[ 22.70591922   0.         -18.        ]","[2.57752285 0.         0.        ]","[-0.05161876 -0.         -0.        ]"
"106","[ 25.22554187   0.         -18.        ]","[2.51962265 0.         0.        ]","[-0.0579002 -0.        -0.       ]"
"107","[ 27.68123713   0.         -18.        ]","[2.45569526 0.         0.        ]","[-0.06392739 -0.         -0.        ]"
"108","[ 30.06724957   0.         -18.        ]","[2.38601244 0.         0.        ]","[-0.06968281 -0.         -0.        ]"
"109","[ 32.3781096   0.        -18.       ]","[2.31086002 0.         0.        ]","[-0.07515242 -0.         -0.        ]"
"110","[ 34.608644   0.       -18.      ]","[2.2305344 0.        0.       ]","[-0.08032563 -0.         -0.        ]"
"111","[ 36.75398321   0.         -18.        ]","[2.14533921 0.         0.        ]","[-0.08519519 -0.         -0.        ]"
"112","[ 38.80956537   0.         -18.        ]","[2.05558217 0.         0.        ]","[-0.08975705 -0.         -0.        ]"
"113","[ 40.77113745   0.         -18.        ]","[1.96157208 0.         0.        ]","[-0.09401009 -0.         -0.        ]"
"114","[ 42.63475365   0.         -18.        ]","[1.8636162 0.        0.       ]","[-0.09795588 -0.         -0.        ]"
"115","[ 44.3967715   0.        -18.       ]","[1.76201785 0.         0.        ]","[-0.10159835 -0.         -0.        ]"
"116","[ 46.05384589   0.         -18.        ]","[1.65707439 0.         0.        ]","[-0.10494346 -0.         -0.        ]"
"117","[ 47.60292143   0.         -18.        ]","[1.54907554 0.         0.        ]","[-0.10799885 -0.         -0.        ]"
"118","[ 49.04122351   0.         -18.        ]","[1.43830208 0.         0.        ]","[-0.11077346 -0.         -0.        ]"
"119","[ 50.36624838   0.         -18.        ]","[1.32502487 0.         0.        ]","[-0.11327721 -0.         -0.        ]"
"120","[ 51.57575261   0.         -18.        ]","[1.20950423 0.         0.        ]","[-0.11552064 -0.         -0.        ]"
"121","[ 52.66774226   0.         -18.        ]","[1.09198965 0.         0.        ]","[-0.11751458 -0.         -0.        ]"
"122","[ 53.64046209   0.         -18.        ]","[0.97271982 0.         0.        ]","[-0.11926983 -0.         -0.        ]"
"123","[ 54.49238501   0.         -18.        ]","[0.85192292 0.         0.        ]","[-0.1207969 -0.        -0.       ]"
"124","[ 55.22220219   0.         -18.        ]","[0.72981717 0.         0.        ]","[-0.12210575 -0.         -0.        ]"
"125","[ 55.82881381   0.         -18.        ]","[0.60661163 0.         0.        ]","[-0.12320554 -0.         -0.        ]"
"126","[ 56.31132097   0.         -18.        ]","[0.48250716 0.         0.        ]","[-0.12410447 -0.         -0.        ]"
"127","[ 56.66901857   0.         -18.        ]","[0.3576976 0.        0.       ]","[-0.12480956 -0.         -0.        ]"
"128","[ 56.90138961   0.         -18.        ]","[0.23237104 0.         0.        ]","[-0.12532656 -0.         -0.        ]"
"129","[ 57.00810086   0.         -18.        ]","[0.10671125 0.         0.        ]","[-0.12565979 -0.         -0.        ]"
"130","[ 56.98899997   0.         -18.        ]","[-0.01910089  0.          0.        ]","[-0.12581213 -0.         -0.        ]"
"131","[ 56.84411419   0.         -18.        ]","[-0.14488578  0.          0.        ]","[-0.1257849 -0.        -0.       ]"
"132","[ 56.57365056   0.         -18.        ]","[-0.27046363  0.          0.        ]","[-0.12557785 -0.         -0.        ]"
"133","[ 56.17799773   0.         -18.        ]","[-0.39565283  0.          0.        ]","[-0.12518919 -0.         -0.        ]"
"134","[ 55.65772929   0.         -18.        ]","[-0.52026844  0.          0.        ]","[-0.12461562 -0.         -0.        ]"
"135","[ 55.0136085   0.        -18.       ]","[-0.64412079  0.          0.        ]","[-0.12385235 -0.         -0.        ]"
"136","[ 54.24659447   0.         -18.        ]","[-0.76701403  0.          0.        ]","[-0.12289324 -0.         -0.        ]"
"137","[ 53.35784955   0.         -18.        ]","[-0.88874492  0.          0.        ]","[-0.12173089 -0.         -0.        ]"
"138","[ 52.34874784   0.         -18.        ]","[-1.00910171  0.          0.        ]","[-0.1203568 -0.        -0.       ]"
"139","[ 51.22088459   0.         -18.        ]","[-1.12786324  0.          0.        ]","[-0.11876153 -0.         -0.        ]"
"140","[ 49.9760864   0.        -18.       ]","[-1.24479819  0.          0.        ]","[-0.11693495 -0.         -0.        ]"
"141","[ 48.6164218   0.        -18.       ]","[-1.35966461  0.          0.        ]","[-0.11486641 -0.         -0.        ]"
"142","[ 47.1442121   0.        -18.       ]","[-1.47220969  0.          0.        ]","[-0.11254509 -0.         -0.        ]"
"143","[ 45.56204222   0.         -18.        ]","[-1.58216989  0.          0.        ]","[-0.10996019 -0.         -0.        ]"
"144","[ 43.87277098   0.         -18.        ]","[-1.68927124  0.          0.        ]","[-0.10710135 -0.         -0.        ]"
"145","[ 42.07954085   0.         -18.        ]","[-1.79323013  0.          0.        ]","[-0.1039589 -0.        -0.       ]"
"146","[ 40.18578647   0.         -18.        ]","[-1.89375438  0.          0.        ]","[-0.10052424 -0.         -0.        ]"
"147","[ 38.19524186   0.         -18.        ]","[-1.99054461  0.          0.        ]","[-0.09679023 -0.         -0.        ]"
"148","[ 36.11194578   0.         -18.        ]","[-2.08329608  0.          0.        ]","[-0.09275147 -0.         -0.        ]"
"149","[ 33.94024498   0.         -18.        ]","[-2.1717008  0.         0.       ]","[-0.08840472 -0.         -0.        ]"
"150","[ 31.68479499   0.         -18.        ]","[-2.25544999  0.          0.        ]","[-0.0837492 -0.        -0.       ]"
"151","[ 29.35055812   0.         -18.        ]","[-2.33423687  0.          0.        ]","[-0.07878688 -0.         -0.        ]"
"152","[ 26.94279848   0.         -18.        ]","[-2.40775964  0.          0.        ]","[-0.07352277 -0.         -0.        ]"
"153","[ 24.46707373   0.         -18.        ]","[-2.47572475  0.          0.        ]","[-0.06796511 -0.         -0.        ]"
"154","[ 21.92922345   0.         -18.        ]","[-2.53785029  0.          0.        ]","[-0.06212554 -0.         -0.        ]"
"155","[ 19.33535401   0.         -18.        ]","[-2.59386943  0.          0.        ]","[-0.05601915 -0.         -0.        ]"
"156","[ 16.69182008   0.         -18.        ]","[-2.64353394  0.          0.        ]","[-0.0496645 -0.        -0.       ]"
"157","[ 14.00520258   0.         -18.        ]","[-2.6866175  0.         0.       ]","[-0.04308357 -0.         -0.        ]"
"158","[ 11.28228358   0.         -18.        ]","[-2.722919  0.        0.      ]","[-0.0363015 -0.        -0.       ]"
"159","[  8.53001814   0.         -18.        ]","[-2.75226544  0.          0.        ]","[-0.02934644 -0.         -0.        ]"
"160","[  5.75550356   0.         -18.        ]","[-2.77451457  0.          0.        ]","[-0.02224913 -0.         -0.        ]"
"161","[  2.96594645   0.         -18.        ]","[-2.78955712  0.          0.        ]","[-0.01504254 -0.         -0.        ]"
"162","[  0.16862797   0.         -18.        ]","[-2.79731848  0.          0.        ]","[-0.00776136 -0.         -0.        ]"
"163","[ -2.62913198   0.         -18.        ]","[-2.79775995  0.          0.        ]","[-0.00044147 -0.         -0.        ]"
"164","[ -5.42001129   0.         -18.        ]","[-2.79087931  0.          0.        ]","[0.00688064 0.         0.        ]"
"165","[ -8.19672219   0.         -18.        ]","[-2.77671091  0.          0.        ]","[0.0141684 0.        0.       ]"
"166","[-10.95204725   0.         -18.        ]","[-2.75532506  0.          0.        ]","[0.02138585 0.         0.        ]"
"167","[-13.67887421   0.         -18.        ]","[-2.72682695  0.          0.        ]","[0.02849811 0.         0.        ]"
"168","[-16.37022918   0.         -18.        ]","[-2.69135497  0.          0.        ]","[0.03547199 0.         0.        ]"
"169","[-19.0193077   0.        -18.       ]","[-2.64907852  0.          0.        ]","[0.04227644 0.         0.        ]"
"170","[-21.61950321   0.         -18.        ]","[-2.60019551  0.          0.        ]","[0.04888301 0.         0.        ]"
"171","[-24.16443257   0.         -18.        ]","[-2.54492936  0.          0.        ]","[0.05526615 0.         0.        ]"
"172","[-26.64795841   0.         -18.        ]","[-2.48352585  0.          0.        ]","[0.06140351 0.         0.        ]"
"173","[-29.06420815   0.         -18.        ]","[-2.41624974  0.          0.        ]","[0.06727611 0.         0.        ]"
"174","[-31.40758948   0.         -18.        ]","[-2.34338132  0.          0.        ]","[0.07286842 0.         0.        ]"
"175","[-33.6728024   0.        -18.       ]","[-2.26521292  0.          0.        ]","[0.0781684 0.        0.       ]"
"176","[-35.8548479   0.        -18.       ]","[-2.1820455  0.         0.       ]","[0.08316742 0.         0.        ]"
"177","[-37.94903333   0.         -18.        ]","[-2.09418543  0.          0.        ]","[0.08786007 0.         0.        ]"
"178","[-39.95097472   0.         -18.        ]","[-2.00194139  0.          0.        ]","[0.09224404 0.         0.        ]"
"179","[-41.85659632   0.         -18.        ]","[-1.9056216  0.         0.       ]","[0.09631979 0.         0.        ]"
"180","[-43.66212765   0.         -18.        ]","[-1.80553133  0.          0.        ]","[0.10009028 0.         0.        ]"
"181","[-45.36409832   0.         -18.        ]","[-1.70197067  0.          0.        ]","[0.10356066 0.         0.        ]"
"182","[-46.95933109   0.         -18.        ]","[-1.59523278  0.          0.        ]","[0.10673789 0.         0.        ]"
"183","[-48.44493346   0.         -18.        ]","[-1.48560236  0.          0.        ]","[0.10963041 0.         0.        ]"
"184","[-49.81828804   0.         -18.        ]","[-1.37335458  0.          0.        ]","[0.11224778 0.         0.        ]"
"185","[-51.07704232   0.         -18.        ]","[-1.25875428  0.          0.        ]","[0.1146003 0.        0.       ]"
"186","[-52.21909788   0.         -18.        ]","[-1.14205556  0.          0.        ]","[0.11669872 0.         0.        ]"
"187","[-53.24259956   0.         -18.        ]","[-1.02350167  0.          0.        ]","[0.11855389 0.         0.        ]"
"188","[-54.14592475   0.         -18.        ]","[-0.90332519  0.          0.        ]","[0.12017648 0.         0.        ]"
"189","[-54.92767323   0.         -18.        ]","[-0.78174849  0.          0.        ]","[0.12157671 0.         0.        ]"
"190","[-55.58665762   0.         -18.        ]","[-0.65898438  0.          0.        ]","[0.1227641 0.        0.       ]"
"191","[-56.12189472   0.         -18.        ]","[-0.5352371  0.         0.       ]","[0.12374729 0.         0.        ]"
"192","[-56.53259801   0.         -18.        ]","[-0.41070329  0.          0.        ]","[0.1245338 0.        0.       ]"
"193","[-56.81817135   0.         -18.        ]","[-0.28557334  0.          0.        ]","[0.12512996 0.         0.        ]"
"194","[-56.97820399   0.         -18.        ]","[-0.16003265  0.          0.        ]","[0.12554069 0.         0.        ]"
"195","[-57.01246714   0.         -18.        ]","[-0.03426315  0.          0.        ]","[0.1257695 0.        0.       ]"
"196","[-56.92091194   0.         -18.        ]","[0.09155521 0.         0.        ]","[0.12581836 0.         0.        ]"
"197","[-56.70366903   0.         -18.        ]","[0.21724291 0.         0.        ]","[0.1256877 0.        0.       ]"
"198","[-56.36104975   0.         -18.        ]","[0.34261928 0.         0.        ]","[0.12537638 0.         0.        ]"
"199","[-55.89354874   0.         -18.        ]","[0.46750101 0.         0.        ]","[0.12488173 0.         0.        ]"
"200","[-55.30184815   0.         -18.        ]","[0.59170059 0.         0.        ]","[0.12419958 0.         0.        ]"
"201","[-54.58682319   0.         -18.        ]","[0.71502495 0.         0.        ]","[0.12332436 0.         0.        ]"
"202","[-53.74954906   0.         -18.        ]","[0.83727413 0.         0.        ]","[0.12224918 0.         0.        ]"
"203","[-52.79130893   0.         -18.        ]","[0.95824013 0.         0.        ]","[0.12096599 0.         0.        ]"
"204","[-51.71360308   0.         -18.        ]","[1.07770586 0.         0.        ]","[0.11946573 0.         0.        ]"
"205","[-50.5181587   0.        -18.       ]","[1.19544438 0.         0.        ]","[0.11773852 0.         0.        ]"
"206","[-49.2069404   0.        -18.       ]","[1.3112183 0.        0.       ]","[0.11577392 0.         0.        ]"
"207","[-47.78216096   0.         -18.        ]","[1.42477943 0.         0.        ]","[0.11356113 0.         0.        ]"
"208","[-46.24629222   0.         -18.        ]","[1.53586874 0.         0.        ]","[0.11108931 0.         0.        ]"
"209","[-44.60207559   0.         -18.        ]","[1.64421663 0.         0.        ]","[0.10834788 0.         0.        ]"
"210","[-42.85253214   0.         -18.        ]","[1.74954345 0.         0.        ]","[0.10532683 0.         0.        ]"
"211","[-41.00097163   0.         -18.        ]","[1.85156051 0.         0.        ]","[0.10201706 0.         0.        ]"
"212","[-39.05100034   0.         -18.        ]","[1.94997129 0.         0.        ]","[0.09841077 0.         0.        ]"
"213","[-37.00652726   0.         -18.        ]","[2.04447307 0.         0.        ]","[0.09450178 0.         0.        ]"
"214","[-34.87176829   0.         -18.        ]","[2.13475897 0.         0.        ]","[0.0902859 0.        0.       ]"
"215","[-32.65124806   0.         -18.        ]","[2.22052023 0.         0.        ]","[0.08576125 0.         0.        ]"
"216","[-30.34979922   0.         -18.        ]","[2.30144884 0.         0.        ]","[0.08092861 0.         0.        ]"
"217","[-27.9725587   0.        -18.       ]","[2.37724052 0.         0.        ]","[0.07579168 0.         0.        ]"
"218","[-25.52496089   0.         -18.        ]","[2.44759782 0.         0.        ]","[0.07035729 0.         0.        ]"
"219","[-23.01272743   0.         -18.        ]","[2.51223346 0.         0.        ]","[0.06463564 0.         0.        ]"
"220","[-20.44185364   0.         -18.        ]","[2.57087379 0.         0.        ]","[0.05864034 0.         0.        ]"
"221","[-17.81859135   0.         -18.        ]","[2.62326229 0.         0.        ]","[0.05238849 0.         0.        ]"
"222","[-15.14942843   0.         -18.        ]","[2.66916292 0.         0.        ]","[0.04590064 0.         0.        ]"
"223","[-12.44106491   0.         -18.        ]","[2.70836352 0.         0.        ]","[0.0392006 0.        0.       ]"
"224","[ -9.7003861   0.        -18.       ]","[2.74067881 0.         0.        ]","[0.03231529 0.         0.        ]"
"225","[ -6.93443288   0.         -18.        ]","[2.76595321 0.         0.        ]","[0.0252744 0.        0.       ]"
"226","[ -4.15036965   0.         -18.        ]","[2.78406323 0.         0.        ]","[0.01811001 0.         0.        ]"
"227","[ -1.35545028   0.         -18.        ]","[2.79491937 0.         0.        ]","[0.01085614 0.         0.        ]"
"228","[  1.44301732   0.         -18.        ]","[2.7984676 0.        0.       ]","[0.00354823 0.         0.        ]"
"229","[  4.23770751   0.         -18.        ]","[2.79469019 0.         0.        ]","[-0.00377741 -0.         -0.        ]"
"230","[  7.02131352   0.         -18.        ]","[2.78360601 0.         0.        ]","[-0.01108418 -0.         -0.        ]"
"231","[  9.78658375   0.         -18.        ]","[2.76527023 0.         0.        ]","[-0.01833578 -0.         -0.        ]"
"232","[ 12.52635716   0.         -18.        ]","[2.73977341 0.         0.        ]","[-0.02549681 -0.         -0.        ]"
"233","[ 15.23359727   0.         -18.        ]","[2.70724011 0.         0.        ]","[-0.03253331 -0.         -0.        ]"
"234","[ 17.90142413   0.         -18.        ]","[2.66782686 0.         0.        ]","[-0.03941325 -0.         -0.        ]"
"235","[ 20.52314394   0.         -18.        ]","[2.62171982 0.         0.        ]","[-0.04610704 -0.         -0.        ]"
"236","[ 23.0922759   0.        -18.       ]","[2.56913196 0.         0.        ]","[-0.05258786 -0.         -0.        ]"
"237","[ 25.6025759   0.        -18.       ]","[2.51029999 0.         0.        ]","[-0.05883197 -0.         -0.        ]"
"238","[ 28.04805695   0.         -18.        ]","[2.44548105 0.         0.        ]","[-0.06481894 -0.         -0.        ]"
"239","[ 30.4230062   0.        -18.       ]","[2.37494925 0.         0.        ]","[-0.0705318 -0.        -0.       ]"
"240","[ 32.72199845   0.         -18.        ]","[2.29899225 0.         0.        ]","[-0.07595701 -0.         -0.        ]"
"241","[ 34.93990619   0.         -18.        ]","[2.21790774 0.         0.        ]","[-0.08108451 -0.         -0.        ]"
"242","[ 37.07190638   0.         -18.        ]","[2.1320002 0.        0.       ]","[-0.08590754 -0.         -0.        ]"
"243","[ 39.11348405   0.         -18.        ]","[2.04157767 0.         0.        ]","[-0.09042253 -0.         -0.        ]"
"244","[ 41.06043296   0.         -18.        ]","[1.94694891 0.         0.        ]","[-0.09462876 -0.         -0.        ]"
"245","[ 42.90885366   0.         -18.        ]","[1.8484207 0.        0.       ]","[-0.0985282 -0.        -0.       ]"
"246","[ 44.65514925   0.         -18.        ]","[1.74629559 0.         0.        ]","[-0.10212511 -0.         -0.        ]"
"247","[ 46.29601913   0.         -18.        ]","[1.64086988 0.         0.        ]","[-0.10542571 -0.         -0.        ]"
"248","[ 47.82845114   0.         -18.        ]","[1.53243201 0.         0.        ]","[-0.10843787 -0.         -0.        ]"
"249","[ 49.24971244   0.         -18.        ]","[1.4212613 0.        0.       ]","[-0.11117071 -0.         -0.        ]"
"250","[ 50.55733949   0.         -18.        ]","[1.30762704 0.         0.        ]","[-0.11363426 -0.         -0.        ]"
"251","[ 51.74912742   0.         -18.        ]","[1.19178793 0.         0.        ]","[-0.11583911 -0.         -0.        ]"
"252","[ 52.82311922   0.         -18.        ]","[1.0739918 0.        0.       ]","[-0.11779613 -0.         -0.        ]"
"253","[ 53.77759495   0.         -18.        ]","[0.95447573 0.         0.        ]","[-0.11951607 -0.         -0.        ]"
"254","[ 54.61106129   0.         -18.        ]","[0.83346634 0.         0.        ]","[-0.12100939 -0.         -0.        ]"
"255","[ 55.32224169   0.         -18.        ]","[0.7111804 0.        0.       ]","[-0.12228594 -0.         -0.        ]"
"256","[ 55.91006734   0.         -18.        ]","[0.58782565 0.         0.        ]","[-0.12335475 -0.         -0.        ]"
"257","[ 56.37366916   0.         -18.        ]","[0.46360183 0.         0.        ]","[-0.12422382 -0.         -0.        ]"
"258","[ 56.71237097   0.         -18.        ]","[0.3387018 0.        0.       ]","[-0.12490003 -0.         -0.        ]"
"259","[ 56.92568388   0.         -18.        ]","[0.21331292 0.         0.        ]","[-0.12538888 -0.         -0.        ]"
"260","[ 57.01330229   0.         -18.        ]","[0.0876184 0.        0.       ]","[-0.12569451 -0.         -0.        ]"
"261","[ 56.97510114   0.         -18.        ]","[-0.03820115  0.          0.        ]","[-0.12581955 -0.         -0.        ]"
"262","[ 56.81113492   0.         -18.        ]","[-0.16396622  0.          0.        ]","[-0.12576507 -0.         -0.        ]"
"263","[ 56.5216381   0.        -18.       ]","[-0.28949682  0.          0.        ]","[-0.12553061 -0.         -0.        ]"
"264","[ 56.10702715   0.         -18.        ]","[-0.41461095  0.          0.        ]","[-0.12511413 -0.         -0.        ]"
"265","[ 55.56790409   0.         -18.        ]","[-0.53912306  0.          0.        ]","[-0.1245121 -0.        -0.       ]"
"266","[ 54.9050615   0.        -18.       ]","[-0.66284259  0.          0.        ]","[-0.12371953 -0.         -0.        ]"
"267","[ 54.11948883   0.         -18.        ]","[-0.78557267  0.          0.        ]","[-0.12273008 -0.         -0.        ]"
"268","[ 53.21238001   0.         -18.        ]","[-0.90710882  0.          0.        ]","[-0.12153616 -0.         -0.        ]"
"269","[ 52.18514207   0.         -18.        ]","[-1.02723794  0.          0.        ]","[-0.12012912 -0.         -0.        ]"
"270","[ 51.03940472   0.         -18.        ]","[-1.14573735  0.          0.        ]","[-0.11849941 -0.         -0.        ]"
"271","[ 49.77703059   0.         -18.        ]","[-1.26237414  0.          0.        ]","[-0.11663679 -0.         -0.        ]"
"272","[ 48.40012587   0.         -18.        ]","[-1.37690472  0.          0.        ]","[-0.11453058 -0.         -0.        ]"
"273","[ 46.91105122   0.         -18.        ]","[-1.48907465  0.          0.        ]","[-0.11216993 -0.         -0.        ]"
"274","[ 45.31243246   0.         -18.        ]","[-1.59861876  0.          0.        ]","[-0.10954411 -0.         -0.        ]"
"275","[ 43.60717089   0.         -18.        ]","[-1.70526157  0.          0.        ]","[-0.10664281 -0.         -0.        ]"
"276","[ 41.7984528   0.        -18.       ]","[-1.8087181  0.         0.       ]","[-0.10345653 -0.         -0.        ]"
"277","[ 39.88975785   0.         -18.        ]","[-1.90869495  0.          0.        ]","[-0.09997685 -0.         -0.        ]"
"278","[ 37.88486603   0.         -18.        ]","[-2.00489182  0.          0.        ]","[-0.09619687 -0.         -0.        ]"
"279","[ 35.7878627   0.        -18.       ]","[-2.09700333  0.          0.        ]","[-0.09211151 -0.         -0.        ]"
"280","[ 33.60314149   0.         -18.        ]","[-2.18472121  0.          0.        ]","[-0.08771788 -0.         -0.        ]"
"281","[ 31.33540469   0.         -18.        ]","[-2.26773679  0.          0.        ]","[-0.08301558 -0.         -0.        ]"
"282","[ 28.98966085   0.         -18.        ]","[-2.34574384  0.          0.        ]","[-0.07800705 -0.         -0.        ]"
"283","[ 26.57121924   0.         -18.        ]","[-2.41844161  0.          0.        ]","[-0.07269777 -0.         -0.        ]"
"284","[ 24.08568115   0.         -18.        ]","[-2.48553809  0.          0.        ]","[-0.06709648 -0.         -0.        ]"
"285","[ 21.53892771   0.         -18.        ]","[-2.54675344  0.          0.        ]","[-0.06121535 -0.         -0.        ]"
"286","[ 18.93710427   0.         -18.        ]","[-2.60182343  0.          0.        ]","[-0.05506999 -0.         -0.        ]"
"287","[ 16.28660133   0.         -18.        ]","[-2.65050294  0.          0.        ]","[-0.0486795 -0.        -0.       ]"
"288","[ 13.59403206   0.         -18.        ]","[-2.69256928  0.          0.        ]","[-0.04206634 -0.         -0.        ]"
"289","[ 10.86620665   0.         -18.        ]","[-2.72782541  0.          0.        ]","[-0.03525613 -0.         -0.        ]"
"290","[  8.11010381   0.         -18.        ]","[-2.75610284  0.          0.        ]","[-0.02827744 -0.         -0.        ]"
"291","[  5.33283959   0.         -18.        ]","[-2.77726422  0.          0.        ]","[-0.02116137 -0.         -0.        ]"
"292","[  2.54163419   0.         -18.        ]","[-2.79120541  0.          0.        ]","[-0.01394119 -0.         -0.        ]"
"293","[ -0.25622302   0.         -18.        ]","[-2.79785721  0.          0.        ]","[-0.0066518 -0.        -0.       ]"
"294","[ -3.05340944   0.         -18.        ]","[-2.79718642  0.          0.        ]","[0.00067079 0.         0.        ]"
"295","[ -5.84260584   0.         -18.        ]","[-2.7891964  0.         0.       ]","[0.00799002 0.         0.        ]"
"296","[ -8.61653282   0.         -18.        ]","[-2.77392698  0.          0.        ]","[0.01526941 0.         0.        ]"
"297","[-11.36798671   0.         -18.        ]","[-2.75145389  0.          0.        ]","[0.0224731 0.        0.       ]"
"298","[-14.08987416   0.         -18.        ]","[-2.72188745  0.          0.        ]","[0.02956644 0.         0.        ]"
"299","[-16.77524507   0.         -18.        ]","[-2.68537091  0.          0.        ]","[0.03651654 0.         0.        ]"
"300","[-19.41732325   0.         -18.        ]","[-2.64207819  0.          0.        ]","[0.04329272 0.         0.        ]"
"301","[-22.00953449   0.         -18.        ]","[-2.59221124  0.          0.        ]","[0.04986694 0.         0.        ]"
"302","[-24.5455316   0.        -18.       ]","[-2.53599711  0.          0.        ]","[0.05621413 0.         0.        ]"
"303","[-27.01921627   0.         -18.        ]","[-2.47368467  0.          0.        ]","[0.06231244 0.         0.        ]"
"304","[-29.42475755   0.         -18.        ]","[-2.40554128  0.          0.        ]","[0.0681434 0.        0.       ]"
"305","[-31.7566068   0.        -18.       ]","[-2.33184925  0.          0.        ]","[0.07369202 0.         0.        ]"
"306","[-34.00950926   0.         -18.        ]","[-2.25290246  0.          0.        ]","[0.0789468 0.        0.       ]"
"307","[-36.17851214   0.         -18.        ]","[-2.16900288  0.          0.        ]","[0.08389957 0.         0.        ]"
"308","[-38.25896958   0.         -18.        ]","[-2.08045744  0.          0.        ]","[0.08854545 0.         0.        ]"
"309","[-40.24654448   0.         -18.        ]","[-1.9875749  0.         0.       ]","[0.09288253 0.         0.        ]"
"310","[-42.13720769   0.         -18.        ]","[-1.89066321  0.          0.        ]","[0.09691169 0.         0.        ]"
"311","[-43.92723466   0.         -18.        ]","[-1.79002696  0.          0.        ]","[0.10063625 0.         0.        ]"
"312","[-45.61319998   0.         -18.        ]","[-1.68596533  0.          0.        ]","[0.10406164 0.         0.        ]"
"313","[-47.19197023   0.         -18.        ]","[-1.57877025  0.          0.        ]","[0.10719508 0.         0.        ]"
"314","[-48.66069528   0.         -18.        ]","[-1.46872505  0.          0.        ]","[0.1100452 0.        0.       ]"
"315","[-50.01679866   0.         -18.        ]","[-1.35610337  0.          0.        ]","[0.11262168 0.         0.        ]"
"316","[-51.2579671   0.        -18.       ]","[-1.24116844  0.          0.        ]","[0.11493493 0.         0.        ]"
"317","[-52.38213981   0.         -18.        ]","[-1.12417272  0.          0.        ]","[0.11699573 0.         0.        ]"
"318","[-53.38749762   0.         -18.        ]","[-1.0053578  0.         0.       ]","[0.11881491 0.         0.        ]"
"319","[-54.27245232   0.         -18.        ]","[-0.8849547  0.         0.       ]","[0.1204031 0.        0.       ]"
"320","[-55.03563659   0.         -18.        ]","[-0.76318427  0.          0.        ]","[0.12177043 0.         0.        ]"
"321","[-55.67589456   0.         -18.        ]","[-0.64025797  0.          0.        ]","[0.1229263 0.        0.       ]"
"322","[-56.19227337   0.         -18.        ]","[-0.5163788  0.         0.       ]","[0.12387917 0.         0.        ]"
"323","[-56.58401576   0.         -18.        ]","[-0.39174239  0.          0.        ]","[0.12463642 0.         0.        ]"
"324","[-56.85055401   0.         -18.        ]","[-0.26653825  0.          0.        ]","[0.12520414 0.         0.        ]"
"325","[-56.99150519   0.         -18.        ]","[-0.14095118  0.          0.        ]","[0.12558707 0.         0.        ]"
"326","[-57.0066679   0.        -18.       ]","[-0.01516271  0.          0.        ]","[0.12578847 0.         0.        ]"
"327","[-56.89602052   0.         -18.        ]","[0.11064738 0.         0.        ]","[0.12581009 0.         0.        ]"
"328","[-56.65972102   0.         -18.        ]","[0.2362995 0.        0.       ]","[0.12565212 0.         0.        ]"
"329","[-56.29810834   0.         -18.        ]","[0.36161268 0.         0.        ]","[0.12531318 0.         0.        ]"
"330","[-55.81170529   0.         -18.        ]","[0.48640305 0.         0.        ]","[0.12479037 0.         0.        ]"
"331","[-55.20122293   0.         -18.        ]","[0.61048236 0.         0.        ]","[0.12407931 0.         0.        ]"
"332","[-54.46756637   0.         -18.        ]","[0.73365657 0.         0.        ]","[0.12317421 0.         0.        ]"
"333","[-53.6118418   0.        -18.       ]","[0.85572457 0.         0.        ]","[0.122068 0.       0.      ]"
"334","[-52.63536477   0.         -18.        ]","[0.97647703 0.         0.        ]","[0.12075246 0.         0.        ]"
"335","[-51.53966934   0.         -18.        ]","[1.09569543 0.         0.        ]","[0.1192184 0.        0.       ]"
"336","[-50.32651806   0.         -18.        ]","[1.21315128 0.         0.        ]","[0.11745585 0.         0.        ]"
"337","[-48.99791251   0.         -18.        ]","[1.32860555 0.         0.        ]","[0.11545427 0.         0.        ]"
"338","[-47.55610411   0.         -18.        ]","[1.4418084 0.        0.       ]","[0.11320285 0.         0.        ]"
"339","[-46.00360493   0.         -18.        ]","[1.55249918 0.         0.        ]","[0.11069078 0.         0.        ]"
"340","[-44.34319823   0.         -18.        ]","[1.6604067 0.        0.       ]","[0.10790753 0.         0.        ]"
"341","[-42.57794833   0.         -18.        ]","[1.76524991 0.         0.        ]","[0.1048432 0.        0.       ]"
"342","[-40.71120953   0.         -18.        ]","[1.8667388 0.        0.       ]","[0.10148889 0.         0.        ]"
"343","[-38.74663373   0.         -18.        ]","[1.9645758 0.        0.       ]","[0.09783701 0.         0.        ]"
"344","[-36.68817627   0.         -18.        ]","[2.05845745 0.         0.        ]","[0.09388165 0.         0.        ]"
"345","[-34.54009987   0.         -18.        ]","[2.1480764 0.        0.       ]","[0.08961895 0.         0.        ]"
"346","[-32.30697603   0.         -18.        ]","[2.23312384 0.         0.        ]","[0.08504743 0.         0.        ]"
"347","[-29.99368391   0.         -18.        ]","[2.31329213 0.         0.        ]","[0.08016829 0.         0.        ]"
"348","[-27.6054061   0.        -18.       ]","[2.3882778 0.        0.       ]","[0.07498568 0.         0.        ]"
"349","[-25.14762135   0.         -18.        ]","[2.45778475 0.         0.        ]","[0.06950695 0.         0.        ]"
"350","[-22.62609381   0.         -18.        ]","[2.52152754 0.         0.        ]","[0.06374279 0.         0.        ]"
"351","[-20.0468589   0.        -18.       ]","[2.5792349 0.        0.       ]","[0.05770736 0.         0.        ]"
"352","[-17.41620572   0.         -18.        ]","[2.63065319 0.         0.        ]","[0.05141828 0.         0.        ]"
"353","[-14.74065593   0.         -18.        ]","[2.67554979 0.         0.        ]","[0.0448966 0.        0.       ]"
"354","[-12.02693951   0.         -18.        ]","[2.71371642 0.         0.        ]","[0.03816664 0.         0.        ]"
"355","[ -9.28196735   0.         -18.        ]","[2.74497216 0.         0.        ]","[0.03125574 0.         0.        ]"
"356","[ -6.51280121   0.         -18.        ]","[2.76916614 0.         0.        ]","[0.02419398 0.         0.        ]"
"357","[ -3.72662128   0.         -18.        ]","[2.78617992 0.         0.        ]","[0.01701378 0.         0.        ]"
"358","[ -0.93069197   0.         -18.        ]","[2.79592932 0.         0.        ]","[0.00974939 0.         0.        ]"
"359","[  1.86767379   0.         -18.        ]","[2.79836576 0.         0.        ]","[0.00243644 0.         0.        ]"
"360","[  4.66115085   0.         -18.        ]","[2.79347706 0.         0.        ]","[-0.00488869 -0.         -0.        ]"
"361","[  7.4424385   0.        -18.       ]","[2.78128765 0.         0.        ]","[-0.01218941 -0.         -0.        ]"
"362","[ 10.20429664   0.         -18.        ]","[2.76185814 0.         0.        ]","[-0.01942951 -0.         -0.        ]"
"363","[ 12.939581   0.       -18.      ]","[2.73528436 0.         0.        ]","[-0.02657378 -0.         -0.        ]"
"364","[ 15.64127685   0.         -18.        ]","[2.70169584 0.         0.        ]","[-0.03358852 -0.         -0.        ]"
"365","[ 18.30253064   0.         -18.        ]","[2.6612538 0.        0.       ]","[-0.04044204 -0.         -0.        ]"
"366","[ 20.91667928   0.         -18.        ]","[2.61414864 0.         0.        ]","[-0.04710516 -0.         -0.        ]"
"367","[ 23.47727643   0.         -18.        ]","[2.56059715 0.         0.        ]","[-0.05355149 -0.         -0.        ]"
"368","[ 25.97811578   0.         -18.        ]","[2.50083935 0.         0.        ]","[-0.0597578 -0.        -0.       ]"
"369","[ 28.41325096   0.         -18.        ]","[2.43513518 0.         0.        ]","[-0.06570417 -0.         -0.        ]"
"370","[ 30.77701199   0.         -18.        ]","[2.36376103 0.         0.        ]","[-0.07137415 -0.         -0.        ]"
"371","[ 33.06401829   0.         -18.        ]","[2.2870063 0.        0.       ]","[-0.07675473 -0.         -0.        ]"
"372","[ 35.26918823   0.         -18.        ]","[2.20516994 0.         0.        ]","[-0.08183636 -0.         -0.        ]"
"373","[ 37.38774537   0.         -18.        ]","[2.11855714 0.         0.        ]","[-0.0866128 -0.        -0.       ]"
"374","[ 39.41522162   0.         -18.        ]","[2.02747625 0.         0.        ]","[-0.09108089 -0.         -0.        ]"
"375","[ 41.34745751   0.         -18.        ]","[1.93223589 0.         0.        ]","[-0.09524037 -0.         -0.        ]"
"376","[ 43.18059983   0.         -18.        ]","[1.83314233 0.         0.        ]","[-0.09909356 -0.         -0.        ]"
"377","[ 44.91109713   0.         -18.        ]","[1.73049729 0.         0.        ]","[-0.10264504 -0.         -0.        ]"
"378","[ 46.53569311   0.         -18.        ]","[1.62459598 0.         0.        ]","[-0.10590131 -0.         -0.        ]"
"379","[ 48.05141863   0.         -18.        ]","[1.51572552 0.         0.        ]","[-0.10887046 -0.         -0.        ]"
"380","[ 49.4555824   0.        -18.       ]","[1.40416377 0.         0.        ]","[-0.11156175 -0.         -0.        ]"
"381","[ 50.74576083   0.         -18.        ]","[1.29017843 0.         0.        ]","[-0.11398534 -0.         -0.        ]"
"382","[ 51.91978739   0.         -18.        ]","[1.17402656 0.         0.        ]","[-0.11615187 -0.         -0.        ]"
"383","[ 52.97574174   0.         -18.        ]","[1.05595435 0.         0.        ]","[-0.11807221 -0.         -0.        ]"
"384","[ 53.91193899   0.         -18.        ]","[0.93619725 0.         0.        ]","[-0.1197571 -0.        -0.       ]"
"385","[ 54.72691934   0.         -18.        ]","[0.81498035 0.         0.        ]","[-0.1212169 -0.        -0.       ]"
"386","[ 55.41943835   0.         -18.        ]","[0.692519 0.       0.      ]","[-0.12246135 -0.         -0.        ]"
"387","[ 55.98845801   0.         -18.        ]","[0.56901966 0.         0.        ]","[-0.12349935 -0.         -0.        ]"
"388","[ 56.43313893   0.         -18.        ]","[0.44468092 0.         0.        ]","[-0.12433874 -0.         -0.        ]"
"389","[ 56.75283368   0.         -18.        ]","[0.31969475 0.         0.        ]","[-0.12498618 -0.         -0.        ]"
"390","[ 56.94708143   0.         -18.        ]","[0.19424776 0.         0.        ]","[-0.12544699 -0.         -0.        ]"
"391","[ 57.01560411   0.         -18.        ]","[0.06852268 0.         0.        ]","[-0.12572508 -0.         -0.        ]"
"392","[ 56.95830396   0.         -18.        ]","[-0.05730015  0.          0.        ]","[-0.12582283 -0.         -0.        ]"
"393","[ 56.77526271   0.         -18.        ]","[-0.18304125  0.          0.        ]","[-0.1257411 -0.        -0.       ]"
"394","[ 56.46674229   0.         -18.        ]","[-0.30852042  0.          0.        ]","[-0.12547917 -0.         -0.        ]"
"395","[ 56.03318707   0.         -18.        ]","[-0.43355522  0.          0.        ]","[-0.1250348 -0.        -0.       ]"
"396","[ 55.47522765   0.         -18.        ]","[-0.55795942  0.          0.        ]","[-0.1244042 -0.        -0.       ]"
"397","[ 54.79368605   0.         -18.        ]","[-0.6815416  0.         0.       ]","[-0.12358218 -0.         -0.        ]"
"398","[ 53.98958224   0.         -18.        ]","[-0.80410381  0.          0.        ]","[-0.12256221 -0.         -0.        ]"
"399","[ 53.06414191   0.         -18.        ]","[-0.92544032  0.          0.        ]","[-0.12133652 -0.         -0.        ]"
"400","[ 52.01880528   0.         -18.        ]","[-1.04533663  0.          0.        ]","[-0.11989631 -0.         -0.        ]"
"401","[ 50.85523673   0.         -18.        ]","[-1.16356855  0.          0.        ]","[-0.11823192 -0.         -0.        ]"
"402","[ 49.57533516   0.         -18.        ]","[-1.27990157  0.          0.        ]","[-0.11633302 -0.         -0.        ]"
"403","[ 48.18124471   0.         -18.        ]","[-1.39409045  0.          0.        ]","[-0.11418888 -0.         -0.        ]"
"404","[ 46.67536559   0.         -18.        ]","[-1.50587912  0.          0.        ]","[-0.11178867 -0.         -0.        ]"
"405","[ 45.0603648   0.        -18.       ]","[-1.61500079  0.          0.        ]","[-0.10912167 -0.         -0.        ]"
"406","[ 43.3391863   0.        -18.       ]","[-1.7211785  0.         0.       ]","[-0.10617771 -0.         -0.        ]"
"407","[ 41.51506041   0.         -18.        ]","[-1.82412589  0.          0.        ]","[-0.10294739 -0.         -0.        ]"
"408","[ 39.59151199   0.         -18.        ]","[-1.92354842  0.          0.        ]","[-0.09942253 -0.         -0.        ]"
"409","[ 37.57236709   0.         -18.        ]","[-2.0191449  0.         0.       ]","[-0.09559648 -0.         -0.        ]"
"410","[ 35.46175774   0.         -18.        ]","[-2.11060935  0.          0.        ]","[-0.09146445 -0.         -0.        ]"
"411","[ 33.26412448   0.         -18.        ]","[-2.19763326  0.          0.        ]","[-0.08702392 -0.         -0.        ]"
"412","[ 30.98421631   0.         -18.        ]","[-2.27990817  0.          0.        ]","[-0.08227491 -0.         -0.        ]"
"413","[ 28.62708786   0.         -18.        ]","[-2.35712846  0.          0.        ]","[-0.07722029 -0.         -0.        ]"
"414","[ 26.19809337   0.         -18.        ]","[-2.42899449  0.          0.        ]","[-0.07186603 -0.         -0.        ]"
"415","[ 23.70287748   0.         -18.        ]","[-2.49521589  0.          0.        ]","[-0.0662214 -0.        -0.       ]"
"416","[ 21.14736252   0.         -18.        ]","[-2.55551495  0.          0.        ]","[-0.06029906 -0.         -0.        ]"
"417","[ 18.53773239   0.         -18.        ]","[-2.60963014  0.          0.        ]","[-0.05411518 -0.         -0.        ]"
"418","[ 15.88041288   0.         -18.        ]","[-2.6573195  0.         0.       ]","[-0.04768937 -0.         -0.        ]"
"419","[ 13.18204882   0.         -18.        ]","[-2.69836407  0.          0.        ]","[-0.04104456 -0.         -0.        ]"
"420","[ 10.44947787   0.         -18.        ]","[-2.73257094  0.          0.        ]","[-0.03420687 -0.         -0.        ]"
"421","[  7.68970167   0.         -18.        ]","[-2.75977621  0.          0.        ]","[-0.02720527 -0.         -0.        ]"
"422","[  4.90985425   0.         -18.        ]","[-2.77984742  0.          0.        ]","[-0.02007121 -0.         -0.        ]"
"423","[  2.11716859   0.         -18.        ]","[-2.79268566  0.          0.        ]","[-0.01283824 -0.         -0.        ]"
"424","[ -0.68105855   0.         -18.        ]","[-2.79822713  0.          0.        ]","[-0.00554147 -0.         -0.        ]"
"425","[ -3.47750271   0.         -18.        ]","[-2.79644417  0.          0.        ]","[0.00178297 0.         0.        ]"
"426","[ -6.26484839   0.         -18.        ]","[-2.78734568  0.          0.        ]","[0.00909849 0.         0.        ]"
"427","[ -9.03582539   0.         -18.        ]","[-2.770977  0.        0.      ]","[0.01636867 0.         0.        ]"
"428","[-11.7832446   0.        -18.       ]","[-2.7474192  0.         0.       ]","[0.0235578 0.        0.       ]"
"429","[-14.50003233   0.         -18.        ]","[-2.71678773  0.          0.        ]","[0.03063147 0.         0.        ]"
"430","[-17.17926298   0.         -18.        ]","[-2.67923065  0.          0.        ]","[0.03755708 0.         0.        ]"
"431","[-19.81418929   0.         -18.        ]","[-2.63492631  0.          0.        ]","[0.04430434 0.         0.        ]"
"432","[-22.39826996   0.         -18.        ]","[-2.58408067  0.          0.        ]","[0.05084564 0.         0.        ]"
"433","[-24.92519426   0.         -18.        ]","[-2.5269243  0.         0.       ]","[0.05715637 0.         0.        ]"
"434","[-27.38890337   0.         -18.        ]","[-2.46370911  0.          0.        ]","[0.06321519 0.         0.        ]"
"435","[-29.78360831   0.         -18.        ]","[-2.39470493  0.          0.        ]","[0.06900417 0.         0.        ]"
"436","[-32.10380439   0.         -18.        ]","[-2.32019608  0.          0.        ]","[0.07450885 0.         0.        ]"
"437","[-34.34428225   0.         -18.        ]","[-2.24047786  0.          0.        ]","[0.07971822 0.         0.        ]"
"438","[-36.50013545   0.         -18.        ]","[-2.15585321  0.          0.        ]","[0.08462465 0.         0.        ]"
"439","[-38.56676495   0.         -18.        ]","[-2.0666295  0.         0.       ]","[0.0892237 0.        0.       ]"
"440","[-40.53988053   0.         -18.        ]","[-1.97311558  0.          0.        ]","[0.09351392 0.         0.        ]"
"441","[-42.41549954   0.         -18.        ]","[-1.875619  0.        0.      ]","[0.09749658 0.         0.        ]"
"442","[-44.18994322   0.         -18.        ]","[-1.77444368  0.          0.        ]","[0.10117532 0.         0.        ]"
"443","[-45.85983101   0.         -18.        ]","[-1.6698878  0.         0.       ]","[0.10455589 0.         0.        ]"
"444","[-47.42207308   0.         -18.        ]","[-1.56224206  0.          0.        ]","[0.10764573 0.         0.        ]"
"445","[-48.87386147   0.         -18.        ]","[-1.45178839  0.          0.        ]","[0.11045367 0.         0.        ]"
"446","[-50.21266034   0.         -18.        ]","[-1.33879888  0.          0.        ]","[0.11298951 0.         0.        ]"
"447","[-51.43619548   0.         -18.        ]","[-1.22353514  0.          0.        ]","[0.11526374 0.         0.        ]"
"448","[-52.54244345   0.         -18.        ]","[-1.10624797  0.          0.        ]","[0.11728717 0.         0.        ]"
"449","[-53.52962081   0.         -18.        ]","[-0.98717736  0.          0.        ]","[0.11907061 0.         0.        ]"
"450","[-54.39617353   0.         -18.        ]","[-0.86655272  0.          0.        ]","[0.12062464 0.         0.        ]"
"451","[-55.14076696   0.         -18.        ]","[-0.74459344  0.          0.        ]","[0.12195928 0.         0.        ]"
"452","[-55.76227659   0.         -18.        ]","[-0.62150962  0.          0.        ]","[0.12308381 0.         0.        ]"
"453","[-56.25977966   0.         -18.        ]","[-0.49750307  0.          0.        ]","[0.12400655 0.         0.        ]"
"454","[-56.63254807   0.         -18.        ]","[-0.37276841  0.          0.        ]","[0.12473466 0.         0.        ]"
"455","[-56.88004242   0.         -18.        ]","[-0.24749434  0.          0.        ]","[0.12527407 0.         0.        ]"
"456","[-57.00190749   0.         -18.        ]","[-0.12186508  0.          0.        ]","[0.12562927 0.         0.        ]"
"457","[-56.99796926   0.         -18.        ]","[0.00393823 0.         0.        ]","[0.1258033 0.        0.       ]"
"458","[-56.86823335   0.         -18.        ]","[0.12973592 0.         0.        ]","[0.12579769 0.         0.        ]"
"459","[-56.61288506   0.         -18.        ]","[0.25534829 0.         0.        ]","[0.12561237 0.         0.        ]"
"460","[-56.23229102   0.         -18.        ]","[0.38059403 0.         0.        ]","[0.12524575 0.         0.        ]"
"461","[-55.72700231   0.         -18.        ]","[0.50528871 0.         0.        ]","[0.12469468 0.         0.        ]"
"462","[-55.09775903   0.         -18.        ]","[0.62924328 0.         0.        ]","[0.12395457 0.         0.        ]"
"463","[-54.34549632   0.         -18.        ]","[0.75226271 0.         0.        ]","[0.12301942 0.         0.        ]"
"464","[-53.47135162   0.         -18.        ]","[0.8741447 0.        0.       ]","[0.121882 0.       0.      ]"
"465","[-52.47667302   0.         -18.        ]","[0.9946786 0.        0.       ]","[0.1205339 0.        0.       ]"
"466","[-51.3630286   0.        -18.       ]","[1.11364442 0.         0.        ]","[0.11896581 0.         0.        ]"
"467","[-50.13221653   0.         -18.        ]","[1.23081208 0.         0.        ]","[0.11716766 0.         0.        ]"
"468","[-48.78627559   0.         -18.        ]","[1.34594093 0.         0.        ]","[0.11512886 0.         0.        ]"
"469","[-47.32749609   0.         -18.        ]","[1.4587795 0.        0.       ]","[0.11283857 0.         0.        ]"
"470","[-45.7584306   0.        -18.       ]","[1.56906549 0.         0.        ]","[0.11028599 0.         0.        ]"
"471","[-44.08190442   0.         -18.        ]","[1.67652618 0.         0.        ]","[0.10746069 0.         0.        ]"
"472","[-42.30102534   0.         -18.        ]","[1.78087908 0.         0.        ]","[0.10435289 0.         0.        ]"
"473","[-40.4191924   0.        -18.       ]","[1.88183294 0.         0.        ]","[0.10095386 0.         0.        ]"
"474","[-38.44010321   0.         -18.        ]","[1.97908918 0.         0.        ]","[0.09725624 0.         0.        ]"
"475","[-36.36775961   0.         -18.        ]","[2.07234361 0.         0.        ]","[0.09325442 0.         0.        ]"
"476","[-34.20647112   0.         -18.        ]","[2.16128849 0.         0.        ]","[0.08894488 0.         0.        ]"
"477","[-31.96085611   0.         -18.        ]","[2.24561501 0.         0.        ]","[0.08432652 0.         0.        ]"
"478","[-29.63584014   0.         -18.        ]","[2.32501597 0.         0.        ]","[0.07940096 0.         0.        ]"
"479","[-27.23665131   0.         -18.        ]","[2.39918882 0.         0.        ]","[0.07417285 0.         0.        ]"
"480","[-24.76881247   0.         -18.        ]","[2.46783884 0.         0.        ]","[0.06865002 0.         0.        ]"
"481","[-22.23812995   0.         -18.        ]","[2.53068252 0.         0.        ]","[0.06284368 0.         0.        ]"
"482","[-19.6506789   0.        -18.       ]","[2.58745105 0.         0.        ]","[0.05676853 0.         0.        ]"
"483","[-17.01278514   0.         -18.        ]","[2.63789376 0.         0.        ]","[0.05044271 0.         0.        ]"
"484","[-14.33100362   0.         -18.        ]","[2.68178152 0.         0.        ]","[0.04388776 0.         0.        ]"
"485","[-11.6120936   0.        -18.       ]","[2.71891002 0.         0.        ]","[0.0371285 0.        0.       ]"
"486","[ -8.86299088   0.         -18.        ]","[2.74910272 0.         0.        ]","[0.0301927 0.        0.       ]"
"487","[ -6.09077732   0.         -18.        ]","[2.77221355 0.         0.        ]","[0.02311083 0.         0.        ]"
"488","[ -3.30264817   0.         -18.        ]","[2.78812915 0.         0.        ]","[0.0159156 0.        0.       ]"
"489","[ -0.50587749   0.         -18.        ]","[2.79677068 0.         0.        ]","[0.00864153 0.         0.        ]"
"490","[  2.29221756   0.         -18.        ]","[2.79809505 0.         0.        ]","[0.00132437 0.         0.        ]"
"491","[  5.08431319   0.         -18.        ]","[2.79209564 0.         0.        ]","[-0.00599941 -0.         -0.        ]"
"492","[  7.86311559   0.         -18.        ]","[2.7788024 0.        0.       ]","[-0.01329324 -0.         -0.        ]"
"493","[ 10.62139696   0.         -18.        ]","[2.75828137 0.         0.        ]","[-0.02052103 -0.         -0.        ]"
"494","[ 13.35203056   0.         -18.        ]","[2.7306336 0.        0.       ]","[-0.02764776 -0.         -0.        ]"
"495","[ 16.04802416   0.         -18.        ]","[2.6959936 0.        0.       ]","[-0.03464001 -0.         -0.        ]"
"496","[ 18.70255131   0.         -18.        ]","[2.65452715 0.         0.        ]","[-0.04146645 -0.         -0.        ]"
"497","[ 21.30898018   0.         -18.        ]","[2.60642888 0.         0.        ]","[-0.04809828 -0.         -0.        ]"
"498","[ 23.86089947   0.         -18.        ]","[2.55191929 0.         0.        ]","[-0.05450959 -0.         -0.        ]"
"499","[ 26.35214112   0.         -18.        ]","[2.49124165 0.         0.        ]","[-0.06067764 -0.         -0.        ]"
