"time","theta3d","omega3d","alpha3d"
"0","[55.97595791  0.         28.        ]","[-0.02404209  0.          0.        ]","[-0.02404209 -0.         -0.        ]"
"1","[55.92788054  0.         28.        ]","[-0.04807737  0.          0.        ]","[-0.02403528 -0.         -0.        ]"
"2","[55.85578151  0.         28.        ]","[-0.07209903  0.          0.        ]","[-0.02402166 -0.         -0.        ]"
"3","[55.75968128  0.         28.        ]","[-0.09610023  0.          0.        ]","[-0.02400119 -0.         -0.        ]"
"4","[55.6396072  0.        28.       ]","[-0.12007409  0.          0.        ]","[-0.02397386 -0.         -0.        ]"
"5","[55.4955935  0.        28.       ]","[-0.1440137  0.         0.       ]","[-0.02393961 -0.         -0.        ]"
"6","[55.3276814  0.        28.       ]","[-0.16791209  0.          0.        ]","[-0.0238984 -0.        -0.       ]"
"7","[55.13591916  0.         28.        ]","[-0.19176224  0.          0.        ]","[-0.02385015 -0.         -0.        ]"
"8","[54.92036211  0.         28.        ]","[-0.21555705  0.          0.        ]","[-0.0237948 -0.        -0.       ]"
"9","[54.6810728  0.        28.       ]","[-0.23928931  0.          0.        ]","[-0.02373227 -0.         -0.        ]"
"10","[54.41812104  0.         28.        ]","[-0.26295177  0.          0.        ]","[-0.02366245 -0.         -0.        ]"
"11","[54.13158401  0.         28.        ]","[-0.28653703  0.          0.        ]","[-0.02358526 -0.         -0.        ]"
"12","[53.82154641  0.         28.        ]","[-0.3100376  0.         0.       ]","[-0.02350058 -0.         -0.        ]"
"13","[53.48810052  0.         28.        ]","[-0.33344589  0.          0.        ]","[-0.02340829 -0.         -0.        ]"
"14","[53.13134636  0.         28.        ]","[-0.35675416  0.          0.        ]","[-0.02330827 -0.         -0.        ]"
"15","[52.75139183  0.         28.        ]","[-0.37995453  0.          0.        ]","[-0.02320038 -0.         -0.        ]"
"16","[52.34835281  0.         28.        ]","[-0.40303902  0.          0.        ]","[-0.02308448 -0.         -0.        ]"
"17","[51.92235335  0.         28.        ]","[-0.42599946  0.          0.        ]","[-0.02296044 -0.         -0.        ]"
"18","[51.47352579  0.         28.        ]","[-0.44882755  0.          0.        ]","[-0.0228281 -0.        -0.       ]"
"19","[51.00201094  0.         28.        ]","[-0.47151485  0.          0.        ]","[-0.02268729 -0.         -0.        ]"
"20","[50.50795822  0.         28.        ]","[-0.49405272  0.          0.        ]","[-0.02253787 -0.         -0.        ]"
"21","[49.99152583  0.         28.        ]","[-0.5164324  0.         0.       ]","[-0.02237967 -0.         -0.        ]"
"22","[49.4528809  0.        28.       ]","[-0.53864493  0.          0.        ]","[-0.02221253 -0.         -0.        ]"
"23","[48.8921997  0.        28.       ]","[-0.5606812  0.         0.       ]","[-0.02203628 -0.         -0.        ]"
"24","[48.30966775  0.         28.        ]","[-0.58253195  0.          0.        ]","[-0.02185074 -0.         -0.        ]"
"25","[47.70548004  0.         28.        ]","[-0.60418771  0.          0.        ]","[-0.02165576 -0.         -0.        ]"
"26","[47.07984116  0.         28.        ]","[-0.62563888  0.          0.        ]","[-0.02145117 -0.         -0.        ]"
"27","[46.43296549  0.         28.        ]","[-0.64687567  0.          0.        ]","[-0.0212368 -0.        -0.       ]"
"28","[45.76507733  0.         28.        ]","[-0.66788816  0.          0.        ]","[-0.02101249 -0.         -0.        ]"
"29","[45.07641108  0.         28.        ]","[-0.68866624  0.          0.        ]","[-0.02077808 -0.         -0.        ]"
"30","[44.36721142  0.         28.        ]","[-0.70919967  0.          0.        ]","[-0.02053343 -0.         -0.        ]"
"31","[43.63773337  0.         28.        ]","[-0.72947804  0.          0.        ]","[-0.02027838 -0.         -0.        ]"
"32","[42.88824253  0.         28.        ]","[-0.74949084  0.          0.        ]","[-0.02001279 -0.         -0.        ]"
"33","[42.11901515  0.         28.        ]","[-0.76922738  0.          0.        ]","[-0.01973655 -0.         -0.        ]"
"34","[41.33033826  0.         28.        ]","[-0.7886769  0.         0.       ]","[-0.01944951 -0.         -0.        ]"
"35","[40.52250978  0.         28.        ]","[-0.80782848  0.          0.        ]","[-0.01915158 -0.         -0.        ]"
"36","[39.69583865  0.         28.        ]","[-0.82667113  0.          0.        ]","[-0.01884266 -0.         -0.        ]"
"37","[38.85064487  0.         28.        ]","[-0.84519378  0.          0.        ]","[-0.01852265 -0.         -0.        ]"
"38","[37.98725961  0.         28.        ]","[-0.86338526  0.          0.        ]","[-0.01819148 -0.         -0.        ]"
"39","[37.10602525  0.         28.        ]","[-0.88123436  0.          0.        ]","[-0.0178491 -0.        -0.       ]"
"40","[36.20729543  0.         28.        ]","[-0.89872982  0.          0.        ]","[-0.01749546 -0.         -0.        ]"
"41","[35.29143506  0.         28.        ]","[-0.91586037  0.          0.        ]","[-0.01713054 -0.         -0.        ]"
"42","[34.35882036  0.         28.        ]","[-0.9326147  0.         0.       ]","[-0.01675433 -0.         -0.        ]"
"43","[33.40983882  0.         28.        ]","[-0.94898154  0.          0.        ]","[-0.01636684 -0.         -0.        ]"
"44","[32.44488917  0.         28.        ]","[-0.96494964  0.          0.        ]","[-0.0159681 -0.        -0.       ]"
"45","[31.46438138  0.         28.        ]","[-0.9805078  0.         0.       ]","[-0.01555816 -0.         -0.        ]"
"46","[30.4687365  0.        28.       ]","[-0.99564488  0.          0.        ]","[-0.01513708 -0.         -0.        ]"
"47","[29.45838664  0.         28.        ]","[-1.01034986  0.          0.        ]","[-0.01470498 -0.         -0.        ]"
"48","[28.43377484  0.         28.        ]","[-1.0246118  0.         0.       ]","[-0.01426195 -0.         -0.        ]"
"49","[27.3953549  0.        28.       ]","[-1.03841994  0.          0.        ]","[-0.01380814 -0.         -0.        ]"
"50","[26.34359125  0.         28.        ]","[-1.05176365  0.          0.        ]","[-0.01334371 -0.         -0.        ]"
"51","[25.27895876  0.         28.        ]","[-1.06463249  0.          0.        ]","[-0.01286884 -0.         -0.        ]"
"52","[24.20194253  0.         28.        ]","[-1.07701624  0.          0.        ]","[-0.01238375 -0.         -0.        ]"
"53","[23.11303762  0.         28.        ]","[-1.0889049  0.         0.       ]","[-0.01188866 -0.         -0.        ]"
"54","[22.01274888  0.         28.        ]","[-1.10028875  0.          0.        ]","[-0.01138385 -0.         -0.        ]"
"55","[20.90159056  0.         28.        ]","[-1.11115832  0.          0.        ]","[-0.01086957 -0.         -0.        ]"
"56","[19.78008608  0.         28.        ]","[-1.12150448  0.          0.        ]","[-0.01034615 -0.         -0.        ]"
"57","[18.64876769  0.         28.        ]","[-1.13131839  0.          0.        ]","[-0.00981392 -0.         -0.        ]"
"58","[17.50817609  0.         28.        ]","[-1.1405916  0.         0.       ]","[-0.00927321 -0.         -0.        ]"
"59","[16.35886007  0.         28.        ]","[-1.14931602  0.          0.        ]","[-0.00872441 -0.         -0.        ]"
"60","[15.20137613  0.         28.        ]","[-1.15748394  0.          0.        ]","[-0.00816792 -0.         -0.        ]"
"61","[14.03628803  0.         28.        ]","[-1.1650881  0.         0.       ]","[-0.00760416 -0.         -0.        ]"
"62","[12.86416637  0.         28.        ]","[-1.17212165  0.          0.        ]","[-0.00703356 -0.         -0.        ]"
"63","[11.68558815  0.         28.        ]","[-1.17857823  0.          0.        ]","[-0.00645657 -0.         -0.        ]"
"64","[10.50113623  0.         28.        ]","[-1.18445192  0.          0.        ]","[-0.00587369 -0.         -0.        ]"
"65","[ 9.31139892  0.         28.        ]","[-1.18973731  0.          0.        ]","[-0.0052854 -0.        -0.       ]"
"66","[ 8.1169694  0.        28.       ]","[-1.19442952  0.          0.        ]","[-0.0046922 -0.        -0.       ]"
"67","[ 6.91844525  0.         28.        ]","[-1.19852415  0.          0.        ]","[-0.00409464 -0.         -0.        ]"
"68","[ 5.71642786  0.         28.        ]","[-1.20201739  0.          0.        ]","[-0.00349324 -0.         -0.        ]"
"69","[ 4.51152192  0.         28.        ]","[-1.20490594  0.          0.        ]","[-0.00288855 -0.         -0.        ]"
"70","[ 3.30433486  0.         28.        ]","[-1.20718707  0.          0.        ]","[-0.00228113 -0.         -0.        ]"
"71","[ 2.09547624  0.         28.        ]","[-1.20885861  0.          0.        ]","[-0.00167155 -0.         -0.        ]"
"72","[ 0.88555725  0.         28.        ]","[-1.20991899  0.          0.        ]","[-0.00106038 -0.         -0.        ]"
"73","[-0.32480994  0.         28.        ]","[-1.21036719  0.          0.        ]","[-0.0004482 -0.        -0.       ]"
"74","[-1.53501274  0.         28.        ]","[-1.21020279  0.          0.        ]","[0.0001644 0.        0.       ]"
"75","[-2.74443869  0.         28.        ]","[-1.20942595  0.          0.        ]","[0.00077685 0.         0.        ]"
"76","[-3.95247608  0.         28.        ]","[-1.20803739  0.          0.        ]","[0.00138855 0.         0.        ]"
"77","[-5.15851453  0.         28.        ]","[-1.20603845  0.          0.        ]","[0.00199894 0.         0.        ]"
"78","[-6.36194555  0.         28.        ]","[-1.20343102  0.          0.        ]","[0.00260743 0.         0.        ]"
"79","[-7.56216311  0.         28.        ]","[-1.20021756  0.          0.        ]","[0.00321346 0.         0.        ]"
"80","[-8.75856422  0.         28.        ]","[-1.19640111  0.          0.        ]","[0.00381645 0.         0.        ]"
"81","[-9.95054947  0.         28.        ]","[-1.19198525  0.          0.        ]","[0.00441586 0.         0.        ]"
"82","[-11.13752357   0.          28.        ]","[-1.1869741  0.         0.       ]","[0.00501115 0.         0.        ]"
"83","[-12.3188959   0.         28.       ]","[-1.18137233  0.          0.        ]","[0.00560177 0.         0.        ]"
"84","[-13.494081   0.        28.      ]","[-1.1751851  0.         0.       ]","[0.00618723 0.         0.        ]"
"85","[-14.6624991   0.         28.       ]","[-1.1684181  0.         0.       ]","[0.006767 0.       0.      ]"
"86","[-15.82357659   0.          28.        ]","[-1.16107748  0.          0.        ]","[0.00734062 0.         0.        ]"
"87","[-16.97674646   0.          28.        ]","[-1.15316987  0.          0.        ]","[0.00790761 0.         0.        ]"
"88","[-18.12144881   0.          28.        ]","[-1.14470235  0.          0.        ]","[0.00846752 0.         0.        ]"
"89","[-19.25713122   0.          28.        ]","[-1.13568241  0.          0.        ]","[0.00901993 0.         0.        ]"
"90","[-20.3832492   0.         28.       ]","[-1.12611798  0.          0.        ]","[0.00956444 0.         0.        ]"
"91","[-21.49926654   0.          28.        ]","[-1.11601734  0.          0.        ]","[0.01010064 0.         0.        ]"
"92","[-22.60465568   0.          28.        ]","[-1.10538915  0.          0.        ]","[0.01062819 0.         0.        ]"
"93","[-23.69889809   0.          28.        ]","[-1.09424241  0.          0.        ]","[0.01114674 0.         0.        ]"
"94","[-24.78148452   0.          28.        ]","[-1.08258643  0.          0.        ]","[0.01165597 0.         0.        ]"
"95","[-25.85191535   0.          28.        ]","[-1.07043083  0.          0.        ]","[0.0121556 0.        0.       ]"
"96","[-26.90970082   0.          28.        ]","[-1.05778547  0.          0.        ]","[0.01264535 0.         0.        ]"
"97","[-27.95436131   0.          28.        ]","[-1.04466049  0.          0.        ]","[0.01312499 0.         0.        ]"
"98","[-28.98542752   0.          28.        ]","[-1.03106621  0.          0.        ]","[0.01359428 0.         0.        ]"
"99","[-30.00244071   0.          28.        ]","[-1.01701319  0.          0.        ]","[0.01405303 0.         0.        ]"
"100","[-31.00495283   0.          28.        ]","[-1.00251212  0.          0.        ]","[0.01450107 0.         0.        ]"
"101","[-31.99252669   0.          28.        ]","[-0.98757386  0.          0.        ]","[0.01493825 0.         0.        ]"
"102","[-32.9647361   0.         28.       ]","[-0.97220941  0.          0.        ]","[0.01536445 0.         0.        ]"
"103","[-33.92116596   0.          28.        ]","[-0.95642985  0.          0.        ]","[0.01577956 0.         0.        ]"
"104","[-34.86141231   0.          28.        ]","[-0.94024635  0.          0.        ]","[0.0161835 0.        0.       ]"
"105","[-35.78508246   0.          28.        ]","[-0.92367015  0.          0.        ]","[0.01657621 0.         0.        ]"
"106","[-36.69179496   0.          28.        ]","[-0.9067125  0.         0.       ]","[0.01695765 0.         0.        ]"
"107","[-37.58117965   0.          28.        ]","[-0.8893847  0.         0.       ]","[0.0173278 0.        0.       ]"
"108","[-38.45287769   0.          28.        ]","[-0.87169804  0.          0.        ]","[0.01768666 0.         0.        ]"
"109","[-39.30654148   0.          28.        ]","[-0.85366378  0.          0.        ]","[0.01803425 0.         0.        ]"
"110","[-40.14183465   0.          28.        ]","[-0.83529318  0.          0.        ]","[0.01837061 0.         0.        ]"
"111","[-40.95843205   0.          28.        ]","[-0.8165974  0.         0.       ]","[0.01869578 0.         0.        ]"
"112","[-41.75601963   0.          28.        ]","[-0.79758757  0.          0.        ]","[0.01900983 0.         0.        ]"
"113","[-42.53429436   0.          28.        ]","[-0.77827473  0.          0.        ]","[0.01931284 0.         0.        ]"
"114","[-43.29296418   0.          28.        ]","[-0.75866982  0.          0.        ]","[0.01960491 0.         0.        ]"
"115","[-44.03174786   0.          28.        ]","[-0.73878368  0.          0.        ]","[0.01988614 0.         0.        ]"
"116","[-44.75037489   0.          28.        ]","[-0.71862703  0.          0.        ]","[0.02015665 0.         0.        ]"
"117","[-45.44858536   0.          28.        ]","[-0.69821047  0.          0.        ]","[0.02041656 0.         0.        ]"
"118","[-46.12612981   0.          28.        ]","[-0.67754445  0.          0.        ]","[0.02066601 0.         0.        ]"
"119","[-46.78276912   0.          28.        ]","[-0.6566393  0.         0.       ]","[0.02090515 0.         0.        ]"
"120","[-47.4182743   0.         28.       ]","[-0.63550519  0.          0.        ]","[0.02113412 0.         0.        ]"
"121","[-48.03242641   0.          28.        ]","[-0.61415211  0.          0.        ]","[0.02135308 0.         0.        ]"
"122","[-48.62501634   0.          28.        ]","[-0.59258993  0.          0.        ]","[0.02156218 0.         0.        ]"
"123","[-49.19584468   0.          28.        ]","[-0.57082834  0.          0.        ]","[0.02176159 0.         0.        ]"
"124","[-49.74472154   0.          28.        ]","[-0.54887686  0.          0.        ]","[0.02195148 0.         0.        ]"
"125","[-50.27146638   0.          28.        ]","[-0.52674484  0.          0.        ]","[0.02213202 0.         0.        ]"
"126","[-50.77590786   0.          28.        ]","[-0.50444148  0.          0.        ]","[0.02230336 0.         0.        ]"
"127","[-51.25788366   0.          28.        ]","[-0.4819758  0.         0.       ]","[0.02246568 0.         0.        ]"
"128","[-51.71724032   0.          28.        ]","[-0.45935665  0.          0.        ]","[0.02261915 0.         0.        ]"
"129","[-52.15383305   0.          28.        ]","[-0.43659273  0.          0.        ]","[0.02276392 0.         0.        ]"
"130","[-52.56752561   0.          28.        ]","[-0.41369257  0.          0.        ]","[0.02290017 0.         0.        ]"
"131","[-52.95819014   0.          28.        ]","[-0.39066453  0.          0.        ]","[0.02302804 0.         0.        ]"
"132","[-53.32570698   0.          28.        ]","[-0.36751684  0.          0.        ]","[0.02314769 0.         0.        ]"
"133","[-53.66996456   0.          28.        ]","[-0.34425757  0.          0.        ]","[0.02325927 0.         0.        ]"
"134","[-53.99085921   0.          28.        ]","[-0.32089466  0.          0.        ]","[0.02336292 0.         0.        ]"
"135","[-54.2882951   0.         28.       ]","[-0.29743588  0.          0.        ]","[0.02345877 0.         0.        ]"
"136","[-54.56218402   0.          28.        ]","[-0.27388892  0.          0.        ]","[0.02354696 0.         0.        ]"
"137","[-54.81244532   0.          28.        ]","[-0.25026131  0.          0.        ]","[0.02362761 0.         0.        ]"
"138","[-55.03900579   0.          28.        ]","[-0.22656047  0.          0.        ]","[0.02370083 0.         0.        ]"
"139","[-55.24179954   0.          28.        ]","[-0.20279375  0.          0.        ]","[0.02376673 0.         0.        ]"
"140","[-55.42076789   0.          28.        ]","[-0.17896835  0.          0.        ]","[0.0238254 0.        0.       ]"
"141","[-55.57585932   0.          28.        ]","[-0.15509143  0.          0.        ]","[0.02387692 0.         0.        ]"
"142","[-55.70702936   0.          28.        ]","[-0.13117004  0.          0.        ]","[0.02392139 0.         0.        ]"
"143","[-55.81424054   0.          28.        ]","[-0.10721119  0.          0.        ]","[0.02395886 0.         0.        ]"
"144","[-55.89746234   0.          28.        ]","[-0.0832218  0.         0.       ]","[0.02398939 0.         0.        ]"
"145","[-55.95667111   0.          28.        ]","[-0.05920877  0.          0.        ]","[0.02401303 0.         0.        ]"
"146","[-55.99185006   0.          28.        ]","[-0.03517895  0.          0.        ]","[0.02402982 0.         0.        ]"
"147","[-56.00298923   0.          28.        ]","[-0.01113917  0.          0.        ]","[0.02403978 0.         0.        ]"
"148","[-55.99008546   0.          28.        ]","[0.01290377 0.         0.        ]","[0.02404294 0.         0.        ]"
"149","[-55.95314241   0.          28.        ]","[0.03694305 0.         0.        ]","[0.02403928 0.         0.        ]"
"150","[-55.89217054   0.          28.        ]","[0.06097187 0.         0.        ]","[0.02402882 0.         0.        ]"
"151","[-55.80718714   0.          28.        ]","[0.0849834 0.        0.       ]","[0.02401153 0.         0.        ]"
"152","[-55.69821636   0.          28.        ]","[0.10897078 0.         0.        ]","[0.02398738 0.         0.        ]"
"153","[-55.56528924   0.          28.        ]","[0.13292712 0.         0.        ]","[0.02395634 0.         0.        ]"
"154","[-55.40844376   0.          28.        ]","[0.15684548 0.         0.        ]","[0.02391836 0.         0.        ]"
"155","[-55.2277249   0.         28.       ]","[0.18071886 0.         0.        ]","[0.02387338 0.         0.        ]"
"156","[-55.0231847   0.         28.       ]","[0.2045402 0.        0.       ]","[0.02382133 0.         0.        ]"
"157","[-54.79488236   0.          28.        ]","[0.22830233 0.         0.        ]","[0.02376214 0.         0.        ]"
"158","[-54.54288432   0.          28.        ]","[0.25199804 0.         0.        ]","[0.02369571 0.         0.        ]"
"159","[-54.26726433   0.          28.        ]","[0.27561999 0.         0.        ]","[0.02362195 0.         0.        ]"
"160","[-53.96810359   0.          28.        ]","[0.29916074 0.         0.        ]","[0.02354075 0.         0.        ]"
"161","[-53.64549085   0.          28.        ]","[0.32261274 0.         0.        ]","[0.023452 0.       0.      ]"
"162","[-53.29952253   0.          28.        ]","[0.34596832 0.         0.        ]","[0.02335558 0.         0.        ]"
"163","[-52.93030286   0.          28.        ]","[0.36921967 0.         0.        ]","[0.02325135 0.         0.        ]"
"164","[-52.53794401   0.          28.        ]","[0.39235885 0.         0.        ]","[0.02313918 0.         0.        ]"
"165","[-52.12256623   0.          28.        ]","[0.41537778 0.         0.        ]","[0.02301893 0.         0.        ]"
"166","[-51.684298   0.        28.      ]","[0.43826824 0.         0.        ]","[0.02289045 0.         0.        ]"
"167","[-51.22327617   0.          28.        ]","[0.46102182 0.         0.        ]","[0.02275359 0.         0.        ]"
"168","[-50.73964617   0.          28.        ]","[0.48363 0.      0.     ]","[0.02260818 0.         0.        ]"
"169","[-50.23356209   0.          28.        ]","[0.50608408 0.         0.        ]","[0.02245407 0.         0.        ]"
"170","[-49.70518692   0.          28.        ]","[0.52837517 0.         0.        ]","[0.02229109 0.         0.        ]"
"171","[-49.15469268   0.          28.        ]","[0.55049425 0.         0.        ]","[0.02211908 0.         0.        ]"
"172","[-48.58226056   0.          28.        ]","[0.57243211 0.         0.        ]","[0.02193787 0.         0.        ]"
"173","[-47.98808117   0.          28.        ]","[0.59417939 0.         0.        ]","[0.02174728 0.         0.        ]"
"174","[-47.37235461   0.          28.        ]","[0.61572656 0.         0.        ]","[0.02154716 0.         0.        ]"
"175","[-46.73529071   0.          28.        ]","[0.6370639 0.        0.       ]","[0.02133734 0.         0.        ]"
"176","[-46.07710916   0.          28.        ]","[0.65818156 0.         0.        ]","[0.02111766 0.         0.        ]"
"177","[-45.39803965   0.          28.        ]","[0.6790695 0.        0.       ]","[0.02088795 0.         0.        ]"
"178","[-44.69832209   0.          28.        ]","[0.69971756 0.         0.        ]","[0.02064806 0.         0.        ]"
"179","[-43.97820669   0.          28.        ]","[0.7201154 0.        0.       ]","[0.02039784 0.         0.        ]"
"180","[-43.23795413   0.          28.        ]","[0.74025256 0.         0.        ]","[0.02013716 0.         0.        ]"
"181","[-42.4778357   0.         28.       ]","[0.76011843 0.         0.        ]","[0.01986587 0.         0.        ]"
"182","[-41.69813344   0.          28.        ]","[0.77970227 0.         0.        ]","[0.01958384 0.         0.        ]"
"183","[-40.89914019   0.          28.        ]","[0.79899324 0.         0.        ]","[0.01929097 0.         0.        ]"
"184","[-40.08115979   0.          28.        ]","[0.8179804 0.        0.       ]","[0.01898715 0.         0.        ]"
"185","[-39.2445071   0.         28.       ]","[0.83665269 0.         0.        ]","[0.01867229 0.         0.        ]"
"186","[-38.38950811   0.          28.        ]","[0.85499899 0.         0.        ]","[0.0183463 0.        0.       ]"
"187","[-37.5165   0.      28.    ]","[0.87300811 0.         0.        ]","[0.01800912 0.         0.        ]"
"188","[-36.62583118   0.          28.        ]","[0.89066882 0.         0.        ]","[0.01766071 0.         0.        ]"
"189","[-35.71786134   0.          28.        ]","[0.90796984 0.         0.        ]","[0.01730102 0.         0.        ]"
"190","[-34.79296147   0.          28.        ]","[0.92489987 0.         0.        ]","[0.01693004 0.         0.        ]"
"191","[-33.85151383   0.          28.        ]","[0.94144764 0.         0.        ]","[0.01654777 0.         0.        ]"
"192","[-32.89391196   0.          28.        ]","[0.95760187 0.         0.        ]","[0.01615423 0.         0.        ]"
"193","[-31.92056061   0.          28.        ]","[0.97335134 0.         0.        ]","[0.01574947 0.         0.        ]"
"194","[-30.93187572   0.          28.        ]","[0.98868489 0.         0.        ]","[0.01533355 0.         0.        ]"
"195","[-29.9282843   0.         28.       ]","[1.00359143 0.         0.        ]","[0.01490654 0.         0.        ]"
"196","[-28.91022431   0.          28.        ]","[1.01805998 0.         0.        ]","[0.01446855 0.         0.        ]"
"197","[-27.87814461   0.          28.        ]","[1.0320797 0.        0.       ]","[0.01401972 0.         0.        ]"
"198","[-26.83250473   0.          28.        ]","[1.04563989 0.         0.        ]","[0.01356019 0.         0.        ]"
"199","[-25.77377471   0.          28.        ]","[1.05873002 0.         0.        ]","[0.01309013 0.         0.        ]"
"200","[-24.70243494   0.          28.        ]","[1.07133977 0.         0.        ]","[0.01260975 0.         0.        ]"
"201","[-23.6189759   0.         28.       ]","[1.08345903 0.         0.        ]","[0.01211926 0.         0.        ]"
"202","[-22.52389795   0.          28.        ]","[1.09507796 0.         0.        ]","[0.01161892 0.         0.        ]"
"203","[-21.41771099   0.          28.        ]","[1.10618695 0.         0.        ]","[0.01110899 0.         0.        ]"
"204","[-20.30093427   0.          28.        ]","[1.11677672 0.         0.        ]","[0.01058977 0.         0.        ]"
"205","[-19.17409597   0.          28.        ]","[1.1268383 0.        0.       ]","[0.01006158 0.         0.        ]"
"206","[-18.03773292   0.          28.        ]","[1.13636305 0.         0.        ]","[0.00952475 0.         0.        ]"
"207","[-16.89239022   0.          28.        ]","[1.1453427 0.        0.       ]","[0.00897965 0.         0.        ]"
"208","[-15.73862083   0.          28.        ]","[1.15376938 0.         0.        ]","[0.00842668 0.         0.        ]"
"209","[-14.57698522   0.          28.        ]","[1.16163561 0.         0.        ]","[0.00786623 0.         0.        ]"
"210","[-13.40805087   0.          28.        ]","[1.16893435 0.         0.        ]","[0.00729874 0.         0.        ]"
"211","[-12.23239187   0.          28.        ]","[1.175659 0.       0.      ]","[0.00672465 0.         0.        ]"
"212","[-11.05058842   0.          28.        ]","[1.18180345 0.         0.        ]","[0.00614444 0.         0.        ]"
"213","[-9.86322638  0.         28.        ]","[1.18736204 0.         0.        ]","[0.00555859 0.         0.        ]"
"214","[-8.67089673  0.         28.        ]","[1.19232965 0.         0.        ]","[0.00496761 0.         0.        ]"
"215","[-7.47419508  0.         28.        ]","[1.19670165 0.         0.        ]","[0.004372 0.       0.      ]"
"216","[-6.27372112  0.         28.        ]","[1.20047396 0.         0.        ]","[0.00377231 0.         0.        ]"
"217","[-5.07007809  0.         28.        ]","[1.20364303 0.         0.        ]","[0.00316907 0.         0.        ]"
"218","[-3.86387221  0.         28.        ]","[1.20620588 0.         0.        ]","[0.00256285 0.         0.        ]"
"219","[-2.65571212  0.         28.        ]","[1.20816008 0.         0.        ]","[0.0019542 0.        0.       ]"
"220","[-1.44620835  0.         28.        ]","[1.20950378 0.         0.        ]","[0.0013437 0.        0.       ]"
"221","[-0.23597265  0.         28.        ]","[1.21023569 0.         0.        ]","[0.00073191 0.         0.        ]"
"222","[ 0.97438247  0.         28.        ]","[1.21035513 0.         0.        ]","[0.00011944 0.         0.        ]"
"223","[ 2.18424445  0.         28.        ]","[1.20986197 0.         0.        ]","[-0.00049316 -0.         -0.        ]"
"224","[ 3.39300114  0.         28.        ]","[1.20875669 0.         0.        ]","[-0.00110528 -0.         -0.        ]"
"225","[ 4.60004149  0.         28.        ]","[1.20704035 0.         0.        ]","[-0.00171635 -0.         -0.        ]"
"226","[ 5.80475605  0.         28.        ]","[1.20471456 0.         0.        ]","[-0.00232579 -0.         -0.        ]"
"227","[ 7.00653757  0.         28.        ]","[1.20178153 0.         0.        ]","[-0.00293303 -0.         -0.        ]"
"228","[ 8.20478161  0.         28.        ]","[1.19824403 0.         0.        ]","[-0.0035375 -0.        -0.       ]"
"229","[ 9.39888701  0.         28.        ]","[1.1941054 0.        0.       ]","[-0.00413863 -0.         -0.        ]"
"230","[10.58825651  0.         28.        ]","[1.1893695 0.        0.       ]","[-0.0047359 -0.        -0.       ]"
"231","[11.77229726  0.         28.        ]","[1.18404076 0.         0.        ]","[-0.00532875 -0.         -0.        ]"
"232","[12.95042136  0.         28.        ]","[1.1781241 0.        0.       ]","[-0.00591666 -0.         -0.        ]"
"233","[14.12204633  0.         28.        ]","[1.17162497 0.         0.        ]","[-0.00649913 -0.         -0.        ]"
"234","[15.28659564  0.         28.        ]","[1.16454931 0.         0.        ]","[-0.00707566 -0.         -0.        ]"
"235","[16.44349918  0.         28.        ]","[1.15690354 0.         0.        ]","[-0.00764577 -0.         -0.        ]"
"236","[17.59219369  0.         28.        ]","[1.14869452 0.         0.        ]","[-0.00820902 -0.         -0.        ]"
"237","[18.73212325  0.         28.        ]","[1.13992956 0.         0.        ]","[-0.00876496 -0.         -0.        ]"
"238","[19.86273963  0.         28.        ]","[1.13061638 0.         0.        ]","[-0.00931318 -0.         -0.        ]"
"239","[20.98350274  0.         28.        ]","[1.12076311 0.         0.        ]","[-0.00985327 -0.         -0.        ]"
"240","[22.09388097  0.         28.        ]","[1.11037823 0.         0.        ]","[-0.01038487 -0.         -0.        ]"
"241","[23.19335157  0.         28.        ]","[1.0994706 0.        0.       ]","[-0.01090763 -0.         -0.        ]"
"242","[24.28140095  0.         28.        ]","[1.08804938 0.         0.        ]","[-0.01142122 -0.         -0.        ]"
"243","[25.35752499  0.         28.        ]","[1.07612404 0.         0.        ]","[-0.01192534 -0.         -0.        ]"
"244","[26.42122933  0.         28.        ]","[1.06370435 0.         0.        ]","[-0.0124197 -0.        -0.       ]"
"245","[27.47202964  0.         28.        ]","[1.0508003 0.        0.       ]","[-0.01290404 -0.         -0.        ]"
"246","[28.50945179  0.         28.        ]","[1.03742215 0.         0.        ]","[-0.01337815 -0.         -0.        ]"
"247","[29.53303213  0.         28.        ]","[1.02358034 0.         0.        ]","[-0.01384181 -0.         -0.        ]"
"248","[30.54231764  0.         28.        ]","[1.00928551 0.         0.        ]","[-0.01429483 -0.         -0.        ]"
"249","[31.53686609  0.         28.        ]","[0.99454845 0.         0.        ]","[-0.01473706 -0.         -0.        ]"
"250","[32.51624617  0.         28.        ]","[0.97938008 0.         0.        ]","[-0.01516837 -0.         -0.        ]"
"251","[33.48003763  0.         28.        ]","[0.96379146 0.         0.        ]","[-0.01558862 -0.         -0.        ]"
"252","[34.42783134  0.         28.        ]","[0.94779371 0.         0.        ]","[-0.01599775 -0.         -0.        ]"
"253","[35.35922939  0.         28.        ]","[0.93139805 0.         0.        ]","[-0.01639566 -0.         -0.        ]"
"254","[36.27384511  0.         28.        ]","[0.91461572 0.         0.        ]","[-0.01678233 -0.         -0.        ]"
"255","[37.17130312  0.         28.        ]","[0.89745801 0.         0.        ]","[-0.01715771 -0.         -0.        ]"
"256","[38.05123932  0.         28.        ]","[0.87993621 0.         0.        ]","[-0.0175218 -0.        -0.       ]"
"257","[38.91330092  0.         28.        ]","[0.86206159 0.         0.        ]","[-0.01787461 -0.         -0.        ]"
"258","[39.75714634  0.         28.        ]","[0.84384543 0.         0.        ]","[-0.01821617 -0.         -0.        ]"
"259","[40.58244526  0.         28.        ]","[0.82529891 0.         0.        ]","[-0.01854651 -0.         -0.        ]"
"260","[41.38887846  0.         28.        ]","[0.80643321 0.         0.        ]","[-0.01886571 -0.         -0.        ]"
"261","[42.17613785  0.         28.        ]","[0.78725939 0.         0.        ]","[-0.01917382 -0.         -0.        ]"
"262","[42.94392629  0.         28.        ]","[0.76778844 0.         0.        ]","[-0.01947095 -0.         -0.        ]"
"263","[43.69195754  0.         28.        ]","[0.74803125 0.         0.        ]","[-0.01975719 -0.         -0.        ]"
"264","[44.41995615  0.         28.        ]","[0.72799861 0.         0.        ]","[-0.02003265 -0.         -0.        ]"
"265","[45.1276573  0.        28.       ]","[0.70770115 0.         0.        ]","[-0.02029745 -0.         -0.        ]"
"266","[45.81480672  0.         28.        ]","[0.68714942 0.         0.        ]","[-0.02055173 -0.         -0.        ]"
"267","[46.48116051  0.         28.        ]","[0.66635379 0.         0.        ]","[-0.02079563 -0.         -0.        ]"
"268","[47.12648501  0.         28.        ]","[0.6453245 0.        0.       ]","[-0.02102929 -0.         -0.        ]"
"269","[47.75055664  0.         28.        ]","[0.62407163 0.         0.        ]","[-0.02125287 -0.         -0.        ]"
"270","[48.35316175  0.         28.        ]","[0.60260511 0.         0.        ]","[-0.02146652 -0.         -0.        ]"
"271","[48.93409647  0.         28.        ]","[0.58093472 0.         0.        ]","[-0.0216704 -0.        -0.       ]"
"272","[49.49316651  0.         28.        ]","[0.55907004 0.         0.        ]","[-0.02186468 -0.         -0.        ]"
"273","[50.03018702  0.         28.        ]","[0.53702051 0.         0.        ]","[-0.02204953 -0.         -0.        ]"
"274","[50.54498242  0.         28.        ]","[0.5147954 0.        0.       ]","[-0.02222511 -0.         -0.        ]"
"275","[51.03738624  0.         28.        ]","[0.49240382 0.         0.        ]","[-0.02239159 -0.         -0.        ]"
"276","[51.50724091  0.         28.        ]","[0.46985468 0.         0.        ]","[-0.02254914 -0.         -0.        ]"
"277","[51.95439768  0.         28.        ]","[0.44715676 0.         0.        ]","[-0.02269792 -0.         -0.        ]"
"278","[52.37871634  0.         28.        ]","[0.42431867 0.         0.        ]","[-0.02283809 -0.         -0.        ]"
"279","[52.78006518  0.         28.        ]","[0.40134884 0.         0.        ]","[-0.02296983 -0.         -0.        ]"
"280","[53.15832076  0.         28.        ]","[0.37825558 0.         0.        ]","[-0.02309327 -0.         -0.        ]"
"281","[53.51336777  0.         28.        ]","[0.35504701 0.         0.        ]","[-0.02320857 -0.         -0.        ]"
"282","[53.8450989  0.        28.       ]","[0.33173114 0.         0.        ]","[-0.02331587 -0.         -0.        ]"
"283","[54.15341472  0.         28.        ]","[0.30831581 0.         0.        ]","[-0.02341532 -0.         -0.        ]"
"284","[54.43822348  0.         28.        ]","[0.28480876 0.         0.        ]","[-0.02350705 -0.         -0.        ]"
"285","[54.69944106  0.         28.        ]","[0.26121758 0.         0.        ]","[-0.02359118 -0.         -0.        ]"
"286","[54.93699082  0.         28.        ]","[0.23754976 0.         0.        ]","[-0.02366783 -0.         -0.        ]"
"287","[55.15080347  0.         28.        ]","[0.21381265 0.         0.        ]","[-0.0237371 -0.        -0.       ]"
"288","[55.34081702  0.         28.        ]","[0.19001355 0.         0.        ]","[-0.02379911 -0.         -0.        ]"
"289","[55.50697664  0.         28.        ]","[0.16615962 0.         0.        ]","[-0.02385393 -0.         -0.        ]"
"290","[55.64923459  0.         28.        ]","[0.14225796 0.         0.        ]","[-0.02390166 -0.         -0.        ]"
"291","[55.76755019  0.         28.        ]","[0.11831559 0.         0.        ]","[-0.02394236 -0.         -0.        ]"
"292","[55.86188968  0.         28.        ]","[0.09433949 0.         0.        ]","[-0.0239761 -0.        -0.       ]"
"293","[55.93222624  0.         28.        ]","[0.07033656 0.         0.        ]","[-0.02400293 -0.         -0.        ]"
"294","[55.97853992  0.         28.        ]","[0.04631367 0.         0.        ]","[-0.02402289 -0.         -0.        ]"
"295","[56.00081757  0.         28.        ]","[0.02227766 0.         0.        ]","[-0.02403601 -0.         -0.        ]"
"296","[55.99905291  0.         28.        ]","[-0.00176466  0.          0.        ]","[-0.02404232 -0.         -0.        ]"
"297","[55.97324643  0.         28.        ]","[-0.02580648  0.          0.        ]","[-0.02404182 -0.         -0.        ]"
"298","[55.92340543  0.         28.        ]","[-0.049841  0.        0.      ]","[-0.02403451 -0.         -0.        ]"
"299","[55.84954404  0.         28.        ]","[-0.07386139  0.          0.        ]","[-0.02402039 -0.         -0.        ]"
"300","[55.75168323  0.         28.        ]","[-0.09786081  0.          0.        ]","[-0.02399942 -0.         -0.        ]"
"301","[55.62985084  0.         28.        ]","[-0.12183239  0.          0.        ]","[-0.02397158 -0.         -0.        ]"
"302","[55.48408162  0.         28.        ]","[-0.14576922  0.          0.        ]","[-0.02393682 -0.         -0.        ]"
"303","[55.31441731  0.         28.        ]","[-0.16966431  0.          0.        ]","[-0.0238951 -0.        -0.       ]"
"304","[55.12090666  0.         28.        ]","[-0.19351064  0.          0.        ]","[-0.02384633 -0.         -0.        ]"
"305","[54.90360556  0.         28.        ]","[-0.2173011  0.         0.       ]","[-0.02379046 -0.         -0.        ]"
"306","[54.66257707  0.         28.        ]","[-0.24102849  0.          0.        ]","[-0.02372739 -0.         -0.        ]"
"307","[54.39789154  0.         28.        ]","[-0.26468553  0.          0.        ]","[-0.02365704 -0.         -0.        ]"
"308","[54.10962671  0.         28.        ]","[-0.28826483  0.          0.        ]","[-0.0235793 -0.        -0.       ]"
"309","[53.79786781  0.         28.        ]","[-0.3117589  0.         0.       ]","[-0.02349406 -0.         -0.        ]"
"310","[53.46270771  0.         28.        ]","[-0.33516011  0.          0.        ]","[-0.02340121 -0.         -0.        ]"
"311","[53.10424698  0.         28.        ]","[-0.35846072  0.          0.        ]","[-0.02330062 -0.         -0.        ]"
"312","[52.72259411  0.         28.        ]","[-0.38165287  0.          0.        ]","[-0.02319215 -0.         -0.        ]"
"313","[52.31786558  0.         28.        ]","[-0.40472853  0.          0.        ]","[-0.02307566 -0.         -0.        ]"
"314","[51.89018604  0.         28.        ]","[-0.42767954  0.          0.        ]","[-0.02295101 -0.         -0.        ]"
"315","[51.43968845  0.         28.        ]","[-0.45049759  0.          0.        ]","[-0.02281805 -0.         -0.        ]"
"316","[50.96651424  0.         28.        ]","[-0.47317421  0.          0.        ]","[-0.02267662 -0.         -0.        ]"
"317","[50.47081347  0.         28.        ]","[-0.49570077  0.          0.        ]","[-0.02252656 -0.         -0.        ]"
"318","[49.95274498  0.         28.        ]","[-0.51806849  0.          0.        ]","[-0.02236771 -0.         -0.        ]"
"319","[49.41247658  0.         28.        ]","[-0.54026839  0.          0.        ]","[-0.02219991 -0.         -0.        ]"
"320","[48.85018521  0.         28.        ]","[-0.56229137  0.          0.        ]","[-0.02202298 -0.         -0.        ]"
"321","[48.26605709  0.         28.        ]","[-0.58412813  0.          0.        ]","[-0.02183676 -0.         -0.        ]"
"322","[47.66028788  0.         28.        ]","[-0.6057692  0.         0.       ]","[-0.02164107 -0.         -0.        ]"
"323","[47.03308291  0.         28.        ]","[-0.62720497  0.          0.        ]","[-0.02143577 -0.         -0.        ]"
"324","[46.38465727  0.         28.        ]","[-0.64842564  0.          0.        ]","[-0.02122067 -0.         -0.        ]"
"325","[45.715236  0.       28.      ]","[-0.66942127  0.          0.        ]","[-0.02099563 -0.         -0.        ]"
"326","[45.02505425  0.         28.        ]","[-0.69018175  0.          0.        ]","[-0.02076047 -0.         -0.        ]"
"327","[44.31435744  0.         28.        ]","[-0.71069681  0.          0.        ]","[-0.02051506 -0.         -0.        ]"
"328","[43.58340139  0.         28.        ]","[-0.73095605  0.          0.        ]","[-0.02025924 -0.         -0.        ]"
"329","[42.83245245  0.         28.        ]","[-0.75094893  0.          0.        ]","[-0.01999288 -0.         -0.        ]"
"330","[42.06178767  0.         28.        ]","[-0.77066478  0.          0.        ]","[-0.01971585 -0.         -0.        ]"
"331","[41.27169487  0.         28.        ]","[-0.7900928  0.         0.       ]","[-0.01942802 -0.         -0.        ]"
"332","[40.46247279  0.         28.        ]","[-0.80922208  0.          0.        ]","[-0.01912928 -0.         -0.        ]"
"333","[39.63443117  0.         28.        ]","[-0.82804163  0.          0.        ]","[-0.01881955 -0.         -0.        ]"
"334","[38.78789082  0.         28.        ]","[-0.84654035  0.          0.        ]","[-0.01849872 -0.         -0.        ]"
"335","[37.92318374  0.         28.        ]","[-0.86470708  0.          0.        ]","[-0.01816673 -0.         -0.        ]"
"336","[37.04065313  0.         28.        ]","[-0.88253061  0.          0.        ]","[-0.01782353 -0.         -0.        ]"
"337","[36.14065346  0.         28.        ]","[-0.89999967  0.          0.        ]","[-0.01746906 -0.         -0.        ]"
"338","[35.22355047  0.         28.        ]","[-0.91710299  0.          0.        ]","[-0.01710332 -0.         -0.        ]"
"339","[34.2897212  0.        28.       ]","[-0.93382927  0.          0.        ]","[-0.01672628 -0.         -0.        ]"
"340","[33.33955398  0.         28.        ]","[-0.95016722  0.          0.        ]","[-0.01633796 -0.         -0.        ]"
"341","[32.37344836  0.         28.        ]","[-0.96610561  0.          0.        ]","[-0.01593839 -0.         -0.        ]"
"342","[31.39181512  0.         28.        ]","[-0.98163324  0.          0.        ]","[-0.01552763 -0.         -0.        ]"
"343","[30.39507614  0.         28.        ]","[-0.99673899  0.          0.        ]","[-0.01510574 -0.         -0.        ]"
"344","[29.38366432  0.         28.        ]","[-1.01141181  0.          0.        ]","[-0.01467283 -0.         -0.        ]"
"345","[28.3580235  0.        28.       ]","[-1.02564082  0.          0.        ]","[-0.014229 -0.       -0.      ]"
"346","[27.31860827  0.         28.        ]","[-1.03941523  0.          0.        ]","[-0.01377441 -0.         -0.        ]"
"347","[26.26588384  0.         28.        ]","[-1.05272443  0.          0.        ]","[-0.01330921 -0.         -0.        ]"
"348","[25.20032582  0.         28.        ]","[-1.06555802  0.          0.        ]","[-0.01283358 -0.         -0.        ]"
"349","[24.12242006  0.         28.        ]","[-1.07790577  0.          0.        ]","[-0.01234775 -0.         -0.        ]"
"350","[23.03266235  0.         28.        ]","[-1.08975771  0.          0.        ]","[-0.01185194 -0.         -0.        ]"
"351","[21.93155822  0.         28.        ]","[-1.10110413  0.          0.        ]","[-0.01134642 -0.         -0.        ]"
"352","[20.81962263  0.         28.        ]","[-1.11193559  0.          0.        ]","[-0.01083146 -0.         -0.        ]"
"353","[19.69737966  0.         28.        ]","[-1.12224298  0.          0.        ]","[-0.01030739 -0.         -0.        ]"
"354","[18.56536217  0.         28.        ]","[-1.13201749  0.          0.        ]","[-0.00977451 -0.         -0.        ]"
"355","[17.42411148  0.         28.        ]","[-1.14125069  0.          0.        ]","[-0.0092332 -0.        -0.       ]"
"356","[16.27417696  0.         28.        ]","[-1.14993452  0.          0.        ]","[-0.00868383 -0.         -0.        ]"
"357","[15.11611565  0.         28.        ]","[-1.15806131  0.          0.        ]","[-0.00812679 -0.         -0.        ]"
"358","[13.95049184  0.         28.        ]","[-1.16562381  0.          0.        ]","[-0.00756251 -0.         -0.        ]"
"359","[12.77787661  0.         28.        ]","[-1.17261523  0.          0.        ]","[-0.00699142 -0.         -0.        ]"
"360","[11.59884739  0.         28.        ]","[-1.17902922  0.          0.        ]","[-0.00641399 -0.         -0.        ]"
"361","[10.41398748  0.         28.        ]","[-1.18485991  0.          0.        ]","[-0.00583069 -0.         -0.        ]"
"362","[ 9.22388555  0.         28.        ]","[-1.19010193  0.          0.        ]","[-0.00524202 -0.         -0.        ]"
"363","[ 8.02913514  0.         28.        ]","[-1.19475041  0.          0.        ]","[-0.00464849 -0.         -0.        ]"
"364","[ 6.83033411  0.         28.        ]","[-1.19880104  0.          0.        ]","[-0.00405062 -0.         -0.        ]"
"365","[ 5.62808411  0.         28.        ]","[-1.20225  0.       0.     ]","[-0.00344896 -0.         -0.        ]"
"366","[ 4.42299006  0.         28.        ]","[-1.20509405  0.          0.        ]","[-0.00284405 -0.         -0.        ]"
"367","[ 3.21565956  0.         28.        ]","[-1.2073305  0.         0.       ]","[-0.00223645 -0.         -0.        ]"
"368","[ 2.00670233  0.         28.        ]","[-1.20895724  0.          0.        ]","[-0.00162674 -0.         -0.        ]"
"369","[ 0.79672961  0.         28.        ]","[-1.20997271  0.          0.        ]","[-0.00101548 -0.         -0.        ]"
"370","[-0.41364635  0.         28.        ]","[-1.21037596  0.          0.        ]","[-0.00040325 -0.         -0.        ]"
"371","[-1.62381295  0.         28.        ]","[-1.2101666  0.         0.       ]","[0.00020936 0.         0.        ]"
"372","[-2.83315777  0.         28.        ]","[-1.20934482  0.          0.        ]","[0.00082178 0.         0.        ]"
"373","[-4.04106919  0.         28.        ]","[-1.20791142  0.          0.        ]","[0.00143341 0.         0.        ]"
"374","[-5.24693693  0.         28.        ]","[-1.20586774  0.          0.        ]","[0.00204367 0.         0.        ]"
"375","[-6.45015267  0.         28.        ]","[-1.20321574  0.          0.        ]","[0.002652 0.       0.      ]"
"376","[-7.65011058  0.         28.        ]","[-1.19995792  0.          0.        ]","[0.00325782 0.         0.        ]"
"377","[-8.84620793  0.         28.        ]","[-1.19609734  0.          0.        ]","[0.00386057 0.         0.        ]"
"378","[-10.03784557   0.          28.        ]","[-1.19163764  0.          0.        ]","[0.0044597 0.        0.       ]"
"379","[-11.22442855   0.          28.        ]","[-1.18658298  0.          0.        ]","[0.00505466 0.         0.        ]"
"380","[-12.4053666   0.         28.       ]","[-1.18093806  0.          0.        ]","[0.00564492 0.         0.        ]"
"381","[-13.58007468   0.          28.        ]","[-1.17470808  0.          0.        ]","[0.00622998 0.         0.        ]"
"382","[-14.74797344   0.          28.        ]","[-1.16789876  0.          0.        ]","[0.00680932 0.         0.        ]"
"383","[-15.90848974   0.          28.        ]","[-1.1605163  0.         0.       ]","[0.00738246 0.         0.        ]"
"384","[-17.06105708   0.          28.        ]","[-1.15256735  0.          0.        ]","[0.00794895 0.         0.        ]"
"385","[-18.2051161   0.         28.       ]","[-1.14405902  0.          0.        ]","[0.00850833 0.         0.        ]"
"386","[-19.34011495   0.          28.        ]","[-1.13499885  0.          0.        ]","[0.00906017 0.         0.        ]"
"387","[-20.46550971   0.          28.        ]","[-1.12539477  0.          0.        ]","[0.00960408 0.         0.        ]"
"388","[-21.58076482   0.          28.        ]","[-1.11525511  0.          0.        ]","[0.01013966 0.         0.        ]"
"389","[-22.68535337   0.          28.        ]","[-1.10458855  0.          0.        ]","[0.01066656 0.         0.        ]"
"390","[-23.77875748   0.          28.        ]","[-1.09340411  0.          0.        ]","[0.01118444 0.         0.        ]"
"391","[-24.86046861   0.          28.        ]","[-1.08171114  0.          0.        ]","[0.01169298 0.         0.        ]"
"392","[-25.92998786   0.          28.        ]","[-1.06951925  0.          0.        ]","[0.01219189 0.         0.        ]"
"393","[-26.98682621   0.          28.        ]","[-1.05683835  0.          0.        ]","[0.0126809 0.        0.       ]"
"394","[-28.03050477   0.          28.        ]","[-1.04367856  0.          0.        ]","[0.01315978 0.         0.        ]"
"395","[-29.06055503   0.          28.        ]","[-1.03005026  0.          0.        ]","[0.01362831 0.         0.        ]"
"396","[-30.07651901   0.          28.        ]","[-1.01596398  0.          0.        ]","[0.01408628 0.         0.        ]"
"397","[-31.07794946   0.          28.        ]","[-1.00143045  0.          0.        ]","[0.01453353 0.         0.        ]"
"398","[-32.06441   0.       28.     ]","[-0.98646054  0.          0.        ]","[0.01496991 0.         0.        ]"
"399","[-33.03547524   0.          28.        ]","[-0.97106525  0.          0.        ]","[0.0153953 0.        0.       ]"
"400","[-33.9907309   0.         28.       ]","[-0.95525566  0.          0.        ]","[0.01580959 0.         0.        ]"
"401","[-34.92977385   0.          28.        ]","[-0.93904295  0.          0.        ]","[0.0162127 0.        0.       ]"
"402","[-35.85221222   0.          28.        ]","[-0.92243837  0.          0.        ]","[0.01660459 0.         0.        ]"
"403","[-36.75766538   0.          28.        ]","[-0.90545317  0.          0.        ]","[0.0169852 0.        0.       ]"
"404","[-37.64576403   0.          28.        ]","[-0.88809864  0.          0.        ]","[0.01735452 0.         0.        ]"
"405","[-38.51615012   0.          28.        ]","[-0.87038609  0.          0.        ]","[0.01771256 0.         0.        ]"
"406","[-39.36847688   0.          28.        ]","[-0.85232677  0.          0.        ]","[0.01805932 0.         0.        ]"
"407","[-40.2024088   0.         28.       ]","[-0.83393191  0.          0.        ]","[0.01839485 0.         0.        ]"
"408","[-41.01762151   0.          28.        ]","[-0.81521271  0.          0.        ]","[0.0187192 0.        0.       ]"
"409","[-41.81380177   0.          28.        ]","[-0.79618027  0.          0.        ]","[0.01903244 0.         0.        ]"
"410","[-42.59064739   0.          28.        ]","[-0.77684562  0.          0.        ]","[0.01933465 0.         0.        ]"
"411","[-43.34786709   0.          28.        ]","[-0.7572197  0.         0.       ]","[0.01962592 0.         0.        ]"
"412","[-44.08518044   0.          28.        ]","[-0.73731334  0.          0.        ]","[0.01990636 0.         0.        ]"
"413","[-44.8023177   0.         28.       ]","[-0.71713726  0.          0.        ]","[0.02017608 0.         0.        ]"
"414","[-45.49901973   0.          28.        ]","[-0.69670203  0.          0.        ]","[0.02043522 0.         0.        ]"
"415","[-46.17503785   0.          28.        ]","[-0.67601812  0.          0.        ]","[0.02068392 0.         0.        ]"
"416","[-46.83013367   0.          28.        ]","[-0.65509582  0.          0.        ]","[0.0209223 0.        0.       ]"
"417","[-47.46407896   0.          28.        ]","[-0.63394529  0.          0.        ]","[0.02115053 0.         0.        ]"
"418","[-48.0766555   0.         28.       ]","[-0.61257654  0.          0.        ]","[0.02136876 0.         0.        ]"
"419","[-48.66765489   0.          28.        ]","[-0.59099939  0.          0.        ]","[0.02157714 0.         0.        ]"
"420","[-49.23687843   0.          28.        ]","[-0.56922354  0.          0.        ]","[0.02177585 0.         0.        ]"
"421","[-49.78413693   0.          28.        ]","[-0.54725849  0.          0.        ]","[0.02196505 0.         0.        ]"
"422","[-50.30925052   0.          28.        ]","[-0.52511359  0.          0.        ]","[0.0221449 0.        0.       ]"
"423","[-50.81204853   0.          28.        ]","[-0.50279801  0.          0.        ]","[0.02231558 0.         0.        ]"
"424","[-51.2923693   0.         28.       ]","[-0.48032077  0.          0.        ]","[0.02247724 0.         0.        ]"
"425","[-51.75006001   0.          28.        ]","[-0.4576907  0.         0.       ]","[0.02263007 0.         0.        ]"
"426","[-52.1849765   0.         28.       ]","[-0.43491649  0.          0.        ]","[0.02277421 0.         0.        ]"
"427","[-52.59698316   0.          28.        ]","[-0.41200666  0.          0.        ]","[0.02290983 0.         0.        ]"
"428","[-52.98595273   0.          28.        ]","[-0.38896956  0.          0.        ]","[0.0230371 0.        0.       ]"
"429","[-53.35176614   0.          28.        ]","[-0.36581341  0.          0.        ]","[0.02315615 0.         0.        ]"
"430","[-53.69431241   0.          28.        ]","[-0.34254627  0.          0.        ]","[0.02326714 0.         0.        ]"
"431","[-54.01348847   0.          28.        ]","[-0.31917605  0.          0.        ]","[0.02337022 0.         0.        ]"
"432","[-54.30919902   0.          28.        ]","[-0.29571055  0.          0.        ]","[0.02346551 0.         0.        ]"
"433","[-54.58135643   0.          28.        ]","[-0.27215741  0.          0.        ]","[0.02355314 0.         0.        ]"
"434","[-54.8298806   0.         28.       ]","[-0.24852417  0.          0.        ]","[0.02363324 0.         0.        ]"
"435","[-55.05469885   0.          28.        ]","[-0.22481826  0.          0.        ]","[0.02370592 0.         0.        ]"
"436","[-55.25574583   0.          28.        ]","[-0.20104698  0.          0.        ]","[0.02377128 0.         0.        ]"
"437","[-55.43296339   0.          28.        ]","[-0.17721756  0.          0.        ]","[0.02382942 0.         0.        ]"
"438","[-55.58630052   0.          28.        ]","[-0.15333713  0.          0.        ]","[0.02388042 0.         0.        ]"
"439","[-55.71571328   0.          28.        ]","[-0.12941276  0.          0.        ]","[0.02392437 0.         0.        ]"
"440","[-55.82116471   0.          28.        ]","[-0.10545143  0.          0.        ]","[0.02396133 0.         0.        ]"
"441","[-55.90262479   0.          28.        ]","[-0.08146007  0.          0.        ]","[0.02399136 0.         0.        ]"
"442","[-55.96007036   0.          28.        ]","[-0.05744558  0.          0.        ]","[0.02401449 0.         0.        ]"
"443","[-55.99348516   0.          28.        ]","[-0.0334148  0.         0.       ]","[0.02403078 0.         0.        ]"
"444","[-56.00285971   0.          28.        ]","[-0.00937455  0.          0.        ]","[0.02404025 0.         0.        ]"
"445","[-55.98819136   0.          28.        ]","[0.01466835 0.         0.        ]","[0.0240429 0.        0.       ]"
"446","[-55.94948427   0.          28.        ]","[0.0387071 0.        0.       ]","[0.02403875 0.         0.        ]"
"447","[-55.88674939   0.          28.        ]","[0.06273488 0.         0.        ]","[0.02402778 0.         0.        ]"
"448","[-55.80000452   0.          28.        ]","[0.08674487 0.         0.        ]","[0.02400999 0.         0.        ]"
"449","[-55.68927432   0.          28.        ]","[0.11073021 0.         0.        ]","[0.02398534 0.         0.        ]"
"450","[-55.55459032   0.          28.        ]","[0.134684 0.       0.      ]","[0.02395379 0.         0.        ]"
"451","[-55.39599103   0.          28.        ]","[0.15859929 0.         0.        ]","[0.0239153 0.        0.       ]"
"452","[-55.21352193   0.          28.        ]","[0.1824691 0.        0.       ]","[0.0238698 0.        0.       ]"
"453","[-55.0072356   0.         28.       ]","[0.20628633 0.         0.        ]","[0.02381723 0.         0.        ]"
"454","[-54.77719176   0.          28.        ]","[0.23004384 0.         0.        ]","[0.02375751 0.         0.        ]"
"455","[-54.52345737   0.          28.        ]","[0.25373438 0.         0.        ]","[0.02369055 0.         0.        ]"
"456","[-54.24610675   0.          28.        ]","[0.27735063 0.         0.        ]","[0.02361624 0.         0.        ]"
"457","[-53.94522163   0.          28.        ]","[0.30088512 0.         0.        ]","[0.02353449 0.         0.        ]"
"458","[-53.62089132   0.          28.        ]","[0.32433031 0.         0.        ]","[0.02344519 0.         0.        ]"
"459","[-53.27321282   0.          28.        ]","[0.3476785 0.        0.       ]","[0.02334819 0.         0.        ]"
"460","[-52.90229093   0.          28.        ]","[0.37092189 0.         0.        ]","[0.02324339 0.         0.        ]"
"461","[-52.50823841   0.          28.        ]","[0.39405252 0.         0.        ]","[0.02313063 0.         0.        ]"
"462","[-52.0911761   0.         28.       ]","[0.41706231 0.         0.        ]","[0.02300979 0.         0.        ]"
"463","[-51.6512331   0.         28.       ]","[0.439943 0.       0.      ]","[0.02288069 0.         0.        ]"
"464","[-51.18854689   0.          28.        ]","[0.46268621 0.         0.        ]","[0.02274321 0.         0.        ]"
"465","[-50.70326351   0.          28.        ]","[0.48528338 0.         0.        ]","[0.02259717 0.         0.        ]"
"466","[-50.19553772   0.          28.        ]","[0.50772579 0.         0.        ]","[0.02244241 0.         0.        ]"
"467","[-49.66553315   0.          28.        ]","[0.53000457 0.         0.        ]","[0.02227878 0.         0.        ]"
"468","[-49.11342249   0.          28.        ]","[0.55211066 0.         0.        ]","[0.02210609 0.         0.        ]"
"469","[-48.53938763   0.          28.        ]","[0.57403486 0.         0.        ]","[0.0219242 0.        0.       ]"
"470","[-47.94361985   0.          28.        ]","[0.59576778 0.         0.        ]","[0.02173292 0.         0.        ]"
"471","[-47.32631998   0.          28.        ]","[0.61729987 0.         0.        ]","[0.02153209 0.         0.        ]"
"472","[-46.68769855   0.          28.        ]","[0.63862143 0.         0.        ]","[0.02132156 0.         0.        ]"
"473","[-46.02797598   0.          28.        ]","[0.65972257 0.         0.        ]","[0.02110114 0.         0.        ]"
"474","[-45.34738272   0.          28.        ]","[0.68059326 0.         0.        ]","[0.02087069 0.         0.        ]"
"475","[-44.64615941   0.          28.        ]","[0.7012233 0.        0.       ]","[0.02063005 0.         0.        ]"
"476","[-43.92455704   0.          28.        ]","[0.72160237 0.         0.        ]","[0.02037907 0.         0.        ]"
"477","[-43.18283706   0.          28.        ]","[0.74171998 0.         0.        ]","[0.02011761 0.         0.        ]"
"478","[-42.42127155   0.          28.        ]","[0.76156551 0.         0.        ]","[0.01984553 0.         0.        ]"
"479","[-41.64014332   0.          28.        ]","[0.78112823 0.         0.        ]","[0.01956272 0.         0.        ]"
"480","[-40.83974604   0.          28.        ]","[0.80039728 0.         0.        ]","[0.01926905 0.         0.        ]"
"481","[-40.02038434   0.          28.        ]","[0.8193617 0.        0.       ]","[0.01896442 0.         0.        ]"
"482","[-39.1823739   0.         28.       ]","[0.83801044 0.         0.        ]","[0.01864874 0.         0.        ]"
"483","[-38.32604152   0.          28.        ]","[0.85633238 0.         0.        ]","[0.01832194 0.         0.        ]"
"484","[-37.4517252   0.         28.       ]","[0.87431631 0.         0.        ]","[0.01798393 0.         0.        ]"
"485","[-36.5597742   0.         28.       ]","[0.891951 0.       0.      ]","[0.01763469 0.         0.        ]"
"486","[-35.65054902   0.          28.        ]","[0.90922518 0.         0.        ]","[0.01727417 0.         0.        ]"
"487","[-34.72442149   0.          28.        ]","[0.92612754 0.         0.        ]","[0.01690236 0.         0.        ]"
"488","[-33.78177468   0.          28.        ]","[0.94264681 0.         0.        ]","[0.01651927 0.         0.        ]"
"489","[-32.82300297   0.          28.        ]","[0.95877171 0.         0.        ]","[0.01612491 0.         0.        ]"
"490","[-31.84851193   0.          28.        ]","[0.97449104 0.         0.        ]","[0.01571932 0.         0.        ]"
"491","[-30.85871832   0.          28.        ]","[0.98979362 0.         0.        ]","[0.01530258 0.         0.        ]"
"492","[-29.85404994   0.          28.        ]","[1.00466838 0.         0.        ]","[0.01487476 0.         0.        ]"
"493","[-28.83494558   0.          28.        ]","[1.01910436 0.         0.        ]","[0.01443598 0.         0.        ]"
"494","[-27.80185487   0.          28.        ]","[1.03309071 0.         0.        ]","[0.01398635 0.         0.        ]"
"495","[-26.75523811   0.          28.        ]","[1.04661675 0.         0.        ]","[0.01352604 0.         0.        ]"
"496","[-25.69556613   0.          28.        ]","[1.05967198 0.         0.        ]","[0.01305522 0.         0.        ]"
"497","[-24.62332007   0.          28.        ]","[1.07224607 0.         0.        ]","[0.01257409 0.         0.        ]"
"498","[-23.53899112   0.          28.        ]","[1.08432894 0.         0.        ]","[0.01208287 0.         0.        ]"
"499","[-22.44308036   0.          28.        ]","[1.09591076 0.         0.        ]","[0.01158182 0.         0.        ]"
