"time","theta3d","omega3d","alpha3d"
"0","[43.94720596  0.         19.        ]","[-0.05279404  0.          0.        ]","[-0.05279404 -0.         -0.        ]"
"1","[43.84166829  0.         19.        ]","[-0.10553768  0.          0.        ]","[-0.05274364 -0.         -0.        ]"
"2","[43.68348785  0.         19.        ]","[-0.15818044  0.          0.        ]","[-0.05264276 -0.         -0.        ]"
"3","[43.47281619  0.         19.        ]","[-0.21067166  0.          0.        ]","[-0.05249123 -0.         -0.        ]"
"4","[43.20985574  0.         19.        ]","[-0.26296045  0.          0.        ]","[-0.05228879 -0.         -0.        ]"
"5","[42.89486019  0.         19.        ]","[-0.31499556  0.          0.        ]","[-0.05203511 -0.         -0.        ]"
"6","[42.52813484  0.         19.        ]","[-0.36672535  0.          0.        ]","[-0.05172979 -0.         -0.        ]"
"7","[42.11003713  0.         19.        ]","[-0.41809771  0.          0.        ]","[-0.05137236 -0.         -0.        ]"
"8","[41.64097711  0.         19.        ]","[-0.46906001  0.          0.        ]","[-0.0509623 -0.        -0.       ]"
"9","[41.12141807  0.         19.        ]","[-0.51955904  0.          0.        ]","[-0.05049903 -0.         -0.        ]"
"10","[40.55187711  0.         19.        ]","[-0.56954096  0.          0.        ]","[-0.04998192 -0.         -0.        ]"
"11","[39.93292579  0.         19.        ]","[-0.61895132  0.          0.        ]","[-0.04941036 -0.         -0.        ]"
"12","[39.2651908  0.        19.       ]","[-0.66773499  0.          0.        ]","[-0.04878367 -0.         -0.        ]"
"13","[38.54935461  0.         19.        ]","[-0.7158362  0.         0.       ]","[-0.04810121 -0.         -0.        ]"
"14","[37.78615608  0.         19.        ]","[-0.76319853  0.          0.        ]","[-0.04736233 -0.         -0.        ]"
"15","[36.97639113  0.         19.        ]","[-0.80976495  0.          0.        ]","[-0.04656642 -0.         -0.        ]"
"16","[36.12091325  0.         19.        ]","[-0.85547788  0.          0.        ]","[-0.04571293 -0.         -0.        ]"
"17","[35.22063404  0.         19.        ]","[-0.90027921  0.          0.        ]","[-0.04480133 -0.         -0.        ]"
"18","[34.27652361  0.         19.        ]","[-0.94411043  0.          0.        ]","[-0.04383122 -0.         -0.        ]"
"19","[33.28961093  0.         19.        ]","[-0.98691268  0.          0.        ]","[-0.04280225 -0.         -0.        ]"
"20","[32.26098403  0.         19.        ]","[-1.0286269  0.         0.       ]","[-0.04171422 -0.         -0.        ]"
"21","[31.19179011  0.         19.        ]","[-1.06919392  0.          0.        ]","[-0.04056702 -0.         -0.        ]"
"22","[30.08323545  0.         19.        ]","[-1.10855466  0.          0.        ]","[-0.03936074 -0.         -0.        ]"
"23","[28.93658521  0.         19.        ]","[-1.14665024  0.          0.        ]","[-0.03809558 -0.         -0.        ]"
"24","[27.75316304  0.         19.        ]","[-1.18342217  0.          0.        ]","[-0.03677194 -0.         -0.        ]"
"25","[26.53435045  0.         19.        ]","[-1.21881259  0.          0.        ]","[-0.03539042 -0.         -0.        ]"
"26","[25.28158605  0.         19.        ]","[-1.25276439  0.          0.        ]","[-0.0339518 -0.        -0.       ]"
"27","[23.99636455  0.         19.        ]","[-1.28522151  0.          0.        ]","[-0.03245711 -0.         -0.        ]"
"28","[22.68023546  0.         19.        ]","[-1.31612909  0.          0.        ]","[-0.03090758 -0.         -0.        ]"
"29","[21.3348017  0.        19.       ]","[-1.34543376  0.          0.        ]","[-0.02930467 -0.         -0.        ]"
"30","[19.96171784  0.         19.        ]","[-1.37308386  0.          0.        ]","[-0.0276501 -0.        -0.       ]"
"31","[18.56268817  0.         19.        ]","[-1.39902967  0.          0.        ]","[-0.02594581 -0.         -0.        ]"
"32","[17.13946451  0.         19.        ]","[-1.42322366  0.          0.        ]","[-0.024194 -0.       -0.      ]"
"33","[15.69384376  0.         19.        ]","[-1.44562075  0.          0.        ]","[-0.02239709 -0.         -0.        ]"
"34","[14.22766523  0.         19.        ]","[-1.46617853  0.          0.        ]","[-0.02055777 -0.         -0.        ]"
"35","[12.74280777  0.         19.        ]","[-1.48485746  0.          0.        ]","[-0.01867893 -0.         -0.        ]"
"36","[11.24118661  0.         19.        ]","[-1.50162116  0.          0.        ]","[-0.0167637 -0.        -0.       ]"
"37","[ 9.72475005  0.         19.        ]","[-1.51643656  0.          0.        ]","[-0.0148154 -0.        -0.       ]"
"38","[ 8.19547594  0.         19.        ]","[-1.52927411  0.          0.        ]","[-0.01283755 -0.         -0.        ]"
"39","[ 6.65536797  0.         19.        ]","[-1.54010797  0.          0.        ]","[-0.01083386 -0.         -0.        ]"
"40","[ 5.10645183  0.         19.        ]","[-1.54891615  0.          0.        ]","[-0.00880818 -0.         -0.        ]"
"41","[ 3.55077119  0.         19.        ]","[-1.55568064  0.          0.        ]","[-0.00676449 -0.         -0.        ]"
"42","[ 1.99038365  0.         19.        ]","[-1.56038754  0.          0.        ]","[-0.00470691 -0.         -0.        ]"
"43","[ 0.42735649  0.         19.        ]","[-1.56302716  0.          0.        ]","[-0.00263961 -0.         -0.        ]"
"44","[-1.13623753  0.         19.        ]","[-1.56359402  0.          0.        ]","[-0.00056686 -0.         -0.        ]"
"45","[-2.69832449  0.         19.        ]","[-1.56208696  0.          0.        ]","[0.00150706 0.         0.        ]"
"46","[-4.25683357  0.         19.        ]","[-1.55850909  0.          0.        ]","[0.00357787 0.         0.        ]"
"47","[-5.80970137  0.         19.        ]","[-1.5528678  0.         0.       ]","[0.00564128 0.         0.        ]"
"48","[-7.35487609  0.         19.        ]","[-1.54517472  0.          0.        ]","[0.00769308 0.         0.        ]"
"49","[-8.8903217  0.        19.       ]","[-1.53544561  0.          0.        ]","[0.00972911 0.         0.        ]"
"50","[-10.41402201   0.          19.        ]","[-1.52370031  0.          0.        ]","[0.01174531 0.         0.        ]"
"51","[-11.92398457   0.          19.        ]","[-1.50996256  0.          0.        ]","[0.01373775 0.         0.        ]"
"52","[-13.41824448   0.          19.        ]","[-1.49425991  0.          0.        ]","[0.01570265 0.         0.        ]"
"53","[-14.89486801   0.          19.        ]","[-1.47662353  0.          0.        ]","[0.01763638 0.         0.        ]"
"54","[-16.35195603   0.          19.        ]","[-1.45708802  0.          0.        ]","[0.01953551 0.         0.        ]"
"55","[-17.78764724   0.          19.        ]","[-1.43569121  0.          0.        ]","[0.02139681 0.         0.        ]"
"56","[-19.2001212   0.         19.       ]","[-1.41247397  0.          0.        ]","[0.02321724 0.         0.        ]"
"57","[-20.58760115   0.          19.        ]","[-1.38747995  0.          0.        ]","[0.02499402 0.         0.        ]"
"58","[-21.94835653   0.          19.        ]","[-1.36075538  0.          0.        ]","[0.02672457 0.         0.        ]"
"59","[-23.28070534   0.          19.        ]","[-1.3323488  0.         0.       ]","[0.02840658 0.         0.        ]"
"60","[-24.58301619   0.          19.        ]","[-1.30231085  0.          0.        ]","[0.03003795 0.         0.        ]"
"61","[-25.85371019   0.          19.        ]","[-1.270694  0.        0.      ]","[0.03161686 0.         0.        ]"
"62","[-27.0912625   0.         19.       ]","[-1.23755231  0.          0.        ]","[0.03314169 0.         0.        ]"
"63","[-28.29420371   0.          19.        ]","[-1.20294121  0.          0.        ]","[0.0346111 0.        0.       ]"
"64","[-29.46112099   0.          19.        ]","[-1.16691728  0.          0.        ]","[0.03602393 0.         0.        ]"
"65","[-30.59065897   0.          19.        ]","[-1.12953798  0.          0.        ]","[0.0373793 0.        0.       ]"
"66","[-31.68152047   0.          19.        ]","[-1.0908615  0.         0.       ]","[0.03867648 0.         0.        ]"
"67","[-32.73246698   0.          19.        ]","[-1.05094651  0.          0.        ]","[0.03991499 0.         0.        ]"
"68","[-33.742319   0.        19.      ]","[-1.00985201  0.          0.        ]","[0.0410945 0.        0.       ]"
"69","[-34.70995614   0.          19.        ]","[-0.96763715  0.          0.        ]","[0.04221487 0.         0.        ]"
"70","[-35.63431719   0.          19.        ]","[-0.92436105  0.          0.        ]","[0.0432761 0.        0.       ]"
"71","[-36.51439989   0.          19.        ]","[-0.8800827  0.         0.       ]","[0.04427835 0.         0.        ]"
"72","[-37.3492607   0.         19.       ]","[-0.83486081  0.          0.        ]","[0.04522188 0.         0.        ]"
"73","[-38.13801443   0.          19.        ]","[-0.78875373  0.          0.        ]","[0.04610708 0.         0.        ]"
"74","[-38.87983377   0.          19.        ]","[-0.74181934  0.          0.        ]","[0.0469344 0.        0.       ]"
"75","[-39.57394873   0.          19.        ]","[-0.69411496  0.          0.        ]","[0.04770437 0.         0.        ]"
"76","[-40.2196461   0.         19.       ]","[-0.64569737  0.          0.        ]","[0.04841759 0.         0.        ]"
"77","[-40.81626879   0.          19.        ]","[-0.59662269  0.          0.        ]","[0.04907469 0.         0.        ]"
"78","[-41.36321518   0.          19.        ]","[-0.54694639  0.          0.        ]","[0.0496763 0.        0.       ]"
"79","[-41.85993847   0.          19.        ]","[-0.4967233  0.         0.       ]","[0.05022309 0.         0.        ]"
"80","[-42.30594606   0.          19.        ]","[-0.44600759  0.          0.        ]","[0.05071571 0.         0.        ]"
"81","[-42.70079886   0.          19.        ]","[-0.3948528  0.         0.       ]","[0.05115478 0.         0.        ]"
"82","[-43.04411075   0.          19.        ]","[-0.34331189  0.          0.        ]","[0.05154091 0.         0.        ]"
"83","[-43.33554798   0.          19.        ]","[-0.29143724  0.          0.        ]","[0.05187465 0.         0.        ]"
"84","[-43.57482872   0.          19.        ]","[-0.23928073  0.          0.        ]","[0.0521565 0.        0.       ]"
"85","[-43.76172255   0.          19.        ]","[-0.18689383  0.          0.        ]","[0.0523869 0.        0.       ]"
"86","[-43.89605016   0.          19.        ]","[-0.13432761  0.          0.        ]","[0.05256622 0.         0.        ]"
"87","[-43.97768301   0.          19.        ]","[-0.08163285  0.          0.        ]","[0.05269476 0.         0.        ]"
"88","[-44.00654312   0.          19.        ]","[-0.02886011  0.          0.        ]","[0.05277274 0.         0.        ]"
"89","[-43.98260295   0.          19.        ]","[0.02394017 0.         0.        ]","[0.05280028 0.         0.        ]"
"90","[-43.90588534   0.          19.        ]","[0.0767176 0.        0.       ]","[0.05277743 0.         0.        ]"
"91","[-43.77646357   0.          19.        ]","[0.12942177 0.         0.        ]","[0.05270416 0.         0.        ]"
"92","[-43.59446146   0.          19.        ]","[0.18200211 0.         0.        ]","[0.05258034 0.         0.        ]"
"93","[-43.36005358   0.          19.        ]","[0.23440788 0.         0.        ]","[0.05240576 0.         0.        ]"
"94","[-43.07346557   0.          19.        ]","[0.28658802 0.         0.        ]","[0.05218014 0.         0.        ]"
"95","[-42.73497445   0.          19.        ]","[0.33849112 0.         0.        ]","[0.0519031 0.        0.       ]"
"96","[-42.34490911   0.          19.        ]","[0.39006534 0.         0.        ]","[0.05157422 0.         0.        ]"
"97","[-41.90365078   0.          19.        ]","[0.44125833 0.         0.        ]","[0.05119299 0.         0.        ]"
"98","[-41.41163357   0.          19.        ]","[0.49201721 0.         0.        ]","[0.05075888 0.         0.        ]"
"99","[-40.86934508   0.          19.        ]","[0.54228849 0.         0.        ]","[0.05027128 0.         0.        ]"
"100","[-40.27732704   0.          19.        ]","[0.59201805 0.         0.        ]","[0.04972956 0.         0.        ]"
"101","[-39.63617591   0.          19.        ]","[0.64115113 0.         0.        ]","[0.04913308 0.         0.        ]"
"102","[-38.94654359   0.          19.        ]","[0.68963232 0.         0.        ]","[0.04848119 0.         0.        ]"
"103","[-38.20913805   0.          19.        ]","[0.73740554 0.         0.        ]","[0.04777322 0.         0.        ]"
"104","[-37.42472395   0.          19.        ]","[0.7844141 0.        0.       ]","[0.04700856 0.         0.        ]"
"105","[-36.59412323   0.          19.        ]","[0.83060072 0.         0.        ]","[0.04618661 0.         0.        ]"
"106","[-35.71821569   0.          19.        ]","[0.87590755 0.         0.        ]","[0.04530683 0.         0.        ]"
"107","[-34.79793939   0.          19.        ]","[0.9202763 0.        0.       ]","[0.04436875 0.         0.        ]"
"108","[-33.8342911   0.         19.       ]","[0.96364829 0.         0.        ]","[0.04337199 0.         0.        ]"
"109","[-32.82832656   0.          19.        ]","[1.00596454 0.         0.        ]","[0.04231626 0.         0.        ]"
"110","[-31.78116061   0.          19.        ]","[1.04716594 0.         0.        ]","[0.0412014 0.        0.       ]"
"111","[-30.69396727   0.          19.        ]","[1.08719334 0.         0.        ]","[0.0400274 0.        0.       ]"
"112","[-29.56797954   0.          19.        ]","[1.12598773 0.         0.        ]","[0.03879438 0.         0.        ]"
"113","[-28.40448917   0.          19.        ]","[1.16349037 0.         0.        ]","[0.03750265 0.         0.        ]"
"114","[-27.20484612   0.          19.        ]","[1.19964305 0.         0.        ]","[0.03615268 0.         0.        ]"
"115","[-25.97045792   0.          19.        ]","[1.23438821 0.         0.        ]","[0.03474516 0.         0.        ]"
"116","[-24.70278873   0.          19.        ]","[1.26766919 0.         0.        ]","[0.03328098 0.         0.        ]"
"117","[-23.40335828   0.          19.        ]","[1.29943045 0.         0.        ]","[0.03176126 0.         0.        ]"
"118","[-22.0737405   0.         19.       ]","[1.32961778 0.         0.        ]","[0.03018733 0.         0.        ]"
"119","[-20.71556195   0.          19.        ]","[1.35817855 0.         0.        ]","[0.02856077 0.         0.        ]"
"120","[-19.33050001   0.          19.        ]","[1.38506194 0.         0.        ]","[0.0268834 0.        0.       ]"
"121","[-17.9202808   0.         19.       ]","[1.41021922 0.         0.        ]","[0.02515727 0.         0.        ]"
"122","[-16.48667688   0.          19.        ]","[1.43360392 0.         0.        ]","[0.0233847 0.        0.       ]"
"123","[-15.03150474   0.          19.        ]","[1.45517214 0.         0.        ]","[0.02156822 0.         0.        ]"
"124","[-13.556622   0.        19.      ]","[1.47488275 0.         0.        ]","[0.01971061 0.         0.        ]"
"125","[-12.06392438   0.          19.        ]","[1.49269762 0.         0.        ]","[0.01781487 0.         0.        ]"
"126","[-10.55534254   0.          19.        ]","[1.50858184 0.         0.        ]","[0.01588422 0.         0.        ]"
"127","[-9.03283864  0.         19.        ]","[1.52250391 0.         0.        ]","[0.01392207 0.         0.        ]"
"128","[-7.49840269  0.         19.        ]","[1.53443595 0.         0.        ]","[0.01193204 0.         0.        ]"
"129","[-5.95404885  0.         19.        ]","[1.54435384 0.         0.        ]","[0.00991789 0.         0.        ]"
"130","[-4.40181147  0.         19.        ]","[1.55223738 0.         0.        ]","[0.00788354 0.         0.        ]"
"131","[-2.84374104  0.         19.        ]","[1.55807042 0.         0.        ]","[0.00583304 0.         0.        ]"
"132","[-1.28190009  0.         19.        ]","[1.56184096 0.         0.        ]","[0.00377053 0.         0.        ]"
"133","[ 0.2816411  0.        19.       ]","[1.56354119 0.         0.        ]","[0.00170023 0.         0.        ]"
"134","[ 1.84480871  0.         19.        ]","[1.56316761 0.         0.        ]","[-0.00037358 -0.         -0.        ]"
"135","[ 3.40552969  0.         19.        ]","[1.56072098 0.         0.        ]","[-0.00244662 -0.         -0.        ]"
"136","[ 4.96173607  0.         19.        ]","[1.55620638 0.         0.        ]","[-0.00451461 -0.         -0.        ]"
"137","[ 6.51136918  0.         19.        ]","[1.54963311 0.         0.        ]","[-0.00657327 -0.         -0.        ]"
"138","[ 8.05238386  0.         19.        ]","[1.54101468 0.         0.        ]","[-0.00861843 -0.         -0.        ]"
"139","[ 9.58275257  0.         19.        ]","[1.53036872 0.         0.        ]","[-0.01064596 -0.         -0.        ]"
"140","[11.10046943  0.         19.        ]","[1.51771685 0.         0.        ]","[-0.01265187 -0.         -0.        ]"
"141","[12.603554  0.       19.      ]","[1.50308457 0.         0.        ]","[-0.01463228 -0.         -0.        ]"
"142","[14.09005508  0.         19.        ]","[1.48650108 0.         0.        ]","[-0.01658349 -0.         -0.        ]"
"143","[15.55805422  0.         19.        ]","[1.46799914 0.         0.        ]","[-0.01850195 -0.         -0.        ]"
"144","[17.00566904  0.         19.        ]","[1.44761483 0.         0.        ]","[-0.02038431 -0.         -0.        ]"
"145","[18.43105643  0.         19.        ]","[1.42538739 0.         0.        ]","[-0.02222744 -0.         -0.        ]"
"146","[19.8324154  0.        19.       ]","[1.40135897 0.         0.        ]","[-0.02402841 -0.         -0.        ]"
"147","[21.20798984  0.         19.        ]","[1.37557444 0.         0.        ]","[-0.02578453 -0.         -0.        ]"
"148","[22.55607093  0.         19.        ]","[1.34808109 0.         0.        ]","[-0.02749335 -0.         -0.        ]"
"149","[23.87499939  0.         19.        ]","[1.31892845 0.         0.        ]","[-0.02915264 -0.         -0.        ]"
"150","[25.1631674  0.        19.       ]","[1.28816801 0.         0.        ]","[-0.03076044 -0.         -0.        ]"
"151","[26.4190204  0.        19.       ]","[1.255853 0.       0.      ]","[-0.03231501 -0.         -0.        ]"
"152","[27.64105853  0.         19.        ]","[1.22203813 0.         0.        ]","[-0.03381487 -0.         -0.        ]"
"153","[28.8278379  0.        19.       ]","[1.18677938 0.         0.        ]","[-0.03525875 -0.         -0.        ]"
"154","[29.97797164  0.         19.        ]","[1.15013374 0.         0.        ]","[-0.03664563 -0.         -0.        ]"
"155","[31.09013069  0.         19.        ]","[1.11215905 0.         0.        ]","[-0.03797469 -0.         -0.        ]"
"156","[32.16304442  0.         19.        ]","[1.07291373 0.         0.        ]","[-0.03924532 -0.         -0.        ]"
"157","[33.19550104  0.         19.        ]","[1.03245662 0.         0.        ]","[-0.04045711 -0.         -0.        ]"
"158","[34.18634785  0.         19.        ]","[0.99084681 0.         0.        ]","[-0.04160981 -0.         -0.        ]"
"159","[35.1344913  0.        19.       ]","[0.94814345 0.         0.        ]","[-0.04270336 -0.         -0.        ]"
"160","[36.03889692  0.         19.        ]","[0.90440563 0.         0.        ]","[-0.04373782 -0.         -0.        ]"
"161","[36.89858914  0.         19.        ]","[0.85969222 0.         0.        ]","[-0.04471341 -0.         -0.        ]"
"162","[37.71265092  0.         19.        ]","[0.81406178 0.         0.        ]","[-0.04563044 -0.         -0.        ]"
"163","[38.48022336  0.         19.        ]","[0.76757244 0.         0.        ]","[-0.04648933 -0.         -0.        ]"
"164","[39.20050523  0.         19.        ]","[0.72028187 0.         0.        ]","[-0.04729058 -0.         -0.        ]"
"165","[39.87275234  0.         19.        ]","[0.67224712 0.         0.        ]","[-0.04803475 -0.         -0.        ]"
"166","[40.49627702  0.         19.        ]","[0.62352468 0.         0.        ]","[-0.04872244 -0.         -0.        ]"
"167","[41.07044741  0.         19.        ]","[0.57417038 0.         0.        ]","[-0.0493543 -0.        -0.       ]"
"168","[41.59468682  0.         19.        ]","[0.52423941 0.         0.        ]","[-0.04993097 -0.         -0.        ]"
"169","[42.06847311  0.         19.        ]","[0.47378629 0.         0.        ]","[-0.05045312 -0.         -0.        ]"
"170","[42.49133801  0.         19.        ]","[0.4228649 0.        0.       ]","[-0.05092139 -0.         -0.        ]"
"171","[42.86286653  0.         19.        ]","[0.37152852 0.         0.        ]","[-0.05133638 -0.         -0.        ]"
"172","[43.18269635  0.         19.        ]","[0.31982983 0.         0.        ]","[-0.05169869 -0.         -0.        ]"
"173","[43.45051733  0.         19.        ]","[0.26782098 0.         0.        ]","[-0.05200885 -0.         -0.        ]"
"174","[43.666071  0.       19.      ]","[0.21555366 0.         0.        ]","[-0.05226732 -0.         -0.        ]"
"175","[43.82915014  0.         19.        ]","[0.16307915 0.         0.        ]","[-0.05247452 -0.         -0.        ]"
"176","[43.9395985  0.        19.       ]","[0.11044836 0.         0.        ]","[-0.05263078 -0.         -0.        ]"
"177","[43.99731049  0.         19.        ]","[0.05771199 0.         0.        ]","[-0.05273637 -0.         -0.        ]"
"178","[44.00223101  0.         19.        ]","[0.00492052 0.         0.        ]","[-0.05279147 -0.         -0.        ]"
"179","[43.95435537  0.         19.        ]","[-0.04787565  0.          0.        ]","[-0.05279616 -0.         -0.        ]"
"180","[43.85372925  0.         19.        ]","[-0.10062611  0.          0.        ]","[-0.05275047 -0.         -0.        ]"
"181","[43.70044885  0.         19.        ]","[-0.15328041  0.          0.        ]","[-0.0526543 -0.        -0.       ]"
"182","[43.49466094  0.         19.        ]","[-0.2057879  0.         0.       ]","[-0.05250749 -0.         -0.        ]"
"183","[43.23656323  0.         19.        ]","[-0.25809771  0.          0.        ]","[-0.05230981 -0.         -0.        ]"
"184","[42.92640459  0.         19.        ]","[-0.31015864  0.          0.        ]","[-0.05206092 -0.         -0.        ]"
"185","[42.56448552  0.         19.        ]","[-0.36191907  0.          0.        ]","[-0.05176044 -0.         -0.        ]"
"186","[42.15115855  0.         19.        ]","[-0.41332696  0.          0.        ]","[-0.05140789 -0.         -0.        ]"
"187","[41.68682884  0.         19.        ]","[-0.46432972  0.          0.        ]","[-0.05100275 -0.         -0.        ]"
"188","[41.17195466  0.         19.        ]","[-0.51487418  0.          0.        ]","[-0.05054446 -0.         -0.        ]"
"189","[40.60704808  0.         19.        ]","[-0.56490658  0.          0.        ]","[-0.0500324 -0.        -0.       ]"
"190","[39.99267557  0.         19.        ]","[-0.61437252  0.          0.        ]","[-0.04946594 -0.         -0.        ]"
"191","[39.32945863  0.         19.        ]","[-0.66321693  0.          0.        ]","[-0.04884442 -0.         -0.        ]"
"192","[38.61807452  0.         19.        ]","[-0.71138411  0.          0.        ]","[-0.04816718 -0.         -0.        ]"
"193","[37.85925683  0.         19.        ]","[-0.75881769  0.          0.        ]","[-0.04743358 -0.         -0.        ]"
"194","[37.05379611  0.         19.        ]","[-0.80546071  0.          0.        ]","[-0.04664302 -0.         -0.        ]"
"195","[36.20254049  0.         19.        ]","[-0.85125562  0.          0.        ]","[-0.04579491 -0.         -0.        ]"
"196","[35.30639612  0.         19.        ]","[-0.89614437  0.          0.        ]","[-0.04488875 -0.         -0.        ]"
"197","[34.36632764  0.         19.        ]","[-0.94006848  0.          0.        ]","[-0.0439241 -0.        -0.       ]"
"198","[33.38335853  0.         19.        ]","[-0.98296911  0.          0.        ]","[-0.04290063 -0.         -0.        ]"
"199","[32.35857132  0.         19.        ]","[-1.02478721  0.          0.        ]","[-0.04181811 -0.         -0.        ]"
"200","[31.29310767  0.         19.        ]","[-1.06546364  0.          0.        ]","[-0.04067643 -0.         -0.        ]"
"201","[30.18816839  0.         19.        ]","[-1.10493928  0.          0.        ]","[-0.03947564 -0.         -0.        ]"
"202","[29.04501316  0.         19.        ]","[-1.14315523  0.          0.        ]","[-0.03821595 -0.         -0.        ]"
"203","[27.86496018  0.         19.        ]","[-1.18005297  0.          0.        ]","[-0.03689774 -0.         -0.        ]"
"204","[26.64938562  0.         19.        ]","[-1.21557456  0.          0.        ]","[-0.03552158 -0.         -0.        ]"
"205","[25.39972281  0.         19.        ]","[-1.24966281  0.          0.        ]","[-0.03408825 -0.         -0.        ]"
"206","[24.11746127  0.         19.        ]","[-1.28226155  0.          0.        ]","[-0.03259874 -0.         -0.        ]"
"207","[22.80414546  0.         19.        ]","[-1.3133158  0.         0.       ]","[-0.03105426 -0.         -0.        ]"
"208","[21.46137341  0.         19.        ]","[-1.34277206  0.          0.        ]","[-0.02945625 -0.         -0.        ]"
"209","[20.09079493  0.         19.        ]","[-1.37057847  0.          0.        ]","[-0.02780642 -0.         -0.        ]"
"210","[18.69410979  0.         19.        ]","[-1.39668514  0.          0.        ]","[-0.02610667 -0.         -0.        ]"
"211","[17.27306546  0.         19.        ]","[-1.42104433  0.          0.        ]","[-0.02435919 -0.         -0.        ]"
"212","[15.82945475  0.         19.        ]","[-1.44361071  0.          0.        ]","[-0.02256638 -0.         -0.        ]"
"213","[14.36511316  0.         19.        ]","[-1.4643416  0.         0.       ]","[-0.02073089 -0.         -0.        ]"
"214","[12.88191595  0.         19.        ]","[-1.4831972  0.         0.       ]","[-0.01885561 -0.         -0.        ]"
"215","[11.38177512  0.         19.        ]","[-1.50014083  0.          0.        ]","[-0.01694363 -0.         -0.        ]"
"216","[ 9.86663603  0.         19.        ]","[-1.51513909  0.          0.        ]","[-0.01499826 -0.         -0.        ]"
"217","[ 8.33847393  0.         19.        ]","[-1.5281621  0.         0.       ]","[-0.01302301 -0.         -0.        ]"
"218","[ 6.79929026  0.         19.        ]","[-1.53918367  0.          0.        ]","[-0.01102157 -0.         -0.        ]"
"219","[ 5.25110883  0.         19.        ]","[-1.54818144  0.          0.        ]","[-0.00899777 -0.         -0.        ]"
"220","[ 3.6959718  0.        19.       ]","[-1.55513702  0.          0.        ]","[-0.00695559 -0.         -0.        ]"
"221","[ 2.13593566  0.         19.        ]","[-1.56003615  0.          0.        ]","[-0.00489912 -0.         -0.        ]"
"222","[ 0.57306695  0.         19.        ]","[-1.5628687  0.         0.       ]","[-0.00283256 -0.         -0.        ]"
"223","[-0.99056188  0.         19.        ]","[-1.56362884  0.          0.        ]","[-0.00076013 -0.         -0.        ]"
"224","[-2.55287685  0.         19.        ]","[-1.56231497  0.          0.        ]","[0.00131387 0.         0.        ]"
"225","[-4.11180668  0.         19.        ]","[-1.55892983  0.          0.        ]","[0.00338514 0.         0.        ]"
"226","[-5.66528708  0.         19.        ]","[-1.5534804  0.         0.       ]","[0.00544943 0.         0.        ]"
"227","[-7.21126499  0.         19.        ]","[-1.54597792  0.          0.        ]","[0.00750248 0.         0.        ]"
"228","[-8.74770276  0.         19.        ]","[-1.53643777  0.          0.        ]","[0.00954015 0.         0.        ]"
"229","[-10.27258216   0.          19.        ]","[-1.5248794  0.         0.       ]","[0.01155837 0.         0.        ]"
"230","[-11.78390838   0.          19.        ]","[-1.51132622  0.          0.        ]","[0.01355318 0.         0.        ]"
"231","[-13.27971379   0.          19.        ]","[-1.49580541  0.          0.        ]","[0.01552081 0.         0.        ]"
"232","[-14.75806161   0.          19.        ]","[-1.47834782  0.          0.        ]","[0.01745759 0.         0.        ]"
"233","[-16.21704934   0.          19.        ]","[-1.45898773  0.          0.        ]","[0.01936009 0.         0.        ]"
"234","[-17.65481203   0.          19.        ]","[-1.43776269  0.          0.        ]","[0.02122504 0.         0.        ]"
"235","[-19.06952532   0.          19.        ]","[-1.41471329  0.          0.        ]","[0.0230494 0.        0.       ]"
"236","[-20.45940824   0.          19.        ]","[-1.38988293  0.          0.        ]","[0.02483036 0.         0.        ]"
"237","[-21.82272585   0.          19.        ]","[-1.36331761  0.          0.        ]","[0.02656532 0.         0.        ]"
"238","[-23.15779152   0.          19.        ]","[-1.33506566  0.          0.        ]","[0.02825194 0.         0.        ]"
"239","[-24.46296906   0.          19.        ]","[-1.30517755  0.          0.        ]","[0.02988812 0.         0.        ]"
"240","[-25.73667463   0.          19.        ]","[-1.27370556  0.          0.        ]","[0.03147198 0.         0.        ]"
"241","[-26.97737827   0.          19.        ]","[-1.24070365  0.          0.        ]","[0.03300192 0.         0.        ]"
"242","[-28.18360538   0.          19.        ]","[-1.20622711  0.          0.        ]","[0.03447654 0.         0.        ]"
"243","[-29.3539378   0.         19.       ]","[-1.17033242  0.          0.        ]","[0.03589469 0.         0.        ]"
"244","[-30.48701477   0.          19.        ]","[-1.13307697  0.          0.        ]","[0.03725544 0.         0.        ]"
"245","[-31.58153367   0.          19.        ]","[-1.0945189  0.         0.       ]","[0.03855807 0.         0.        ]"
"246","[-32.6362505   0.         19.       ]","[-1.05471684  0.          0.        ]","[0.03980206 0.         0.        ]"
"247","[-33.64998026   0.          19.        ]","[-1.01372975  0.          0.        ]","[0.04098708 0.         0.        ]"
"248","[-34.62159705   0.          19.        ]","[-0.97161679  0.          0.        ]","[0.04211296 0.         0.        ]"
"249","[-35.55003414   0.          19.        ]","[-0.92843709  0.          0.        ]","[0.0431797 0.        0.       ]"
"250","[-36.4342838   0.         19.       ]","[-0.88424965  0.          0.        ]","[0.04418744 0.         0.        ]"
"251","[-37.27339702   0.          19.        ]","[-0.83911322  0.          0.        ]","[0.04513643 0.         0.        ]"
"252","[-38.0664832   0.         19.       ]","[-0.79308618  0.          0.        ]","[0.04602704 0.         0.        ]"
"253","[-38.81270964   0.          19.        ]","[-0.74622645  0.          0.        ]","[0.04685973 0.         0.        ]"
"254","[-39.51130106   0.          19.        ]","[-0.69859142  0.          0.        ]","[0.04763503 0.         0.        ]"
"255","[-40.16153897   0.          19.        ]","[-0.65023791  0.          0.        ]","[0.04835351 0.         0.        ]"
"256","[-40.76276107   0.          19.        ]","[-0.6012221  0.         0.       ]","[0.04901581 0.         0.        ]"
"257","[-41.31436061   0.          19.        ]","[-0.55159954  0.          0.        ]","[0.04962256 0.         0.        ]"
"258","[-41.81578571   0.          19.        ]","[-0.5014251  0.         0.       ]","[0.05017444 0.         0.        ]"
"259","[-42.26653874   0.          19.        ]","[-0.45075303  0.          0.        ]","[0.05067208 0.         0.        ]"
"260","[-42.66617565   0.          19.        ]","[-0.39963691  0.          0.        ]","[0.05111611 0.         0.        ]"
"261","[-43.01430542   0.          19.        ]","[-0.34812976  0.          0.        ]","[0.05150715 0.         0.        ]"
"262","[-43.31058942   0.          19.        ]","[-0.29628401  0.          0.        ]","[0.05184575 0.         0.        ]"
"263","[-43.55474102   0.          19.        ]","[-0.24415159  0.          0.        ]","[0.05213242 0.         0.        ]"
"264","[-43.74652501   0.          19.        ]","[-0.191784  0.        0.      ]","[0.05236759 0.         0.        ]"
"265","[-43.88575735   0.          19.        ]","[-0.13923234  0.          0.        ]","[0.05255166 0.         0.        ]"
"266","[-43.97230476   0.          19.        ]","[-0.08654741  0.          0.        ]","[0.05268492 0.         0.        ]"
"267","[-44.00608457   0.          19.        ]","[-0.03377981  0.          0.        ]","[0.0527676 0.        0.       ]"
"268","[-43.98706453   0.          19.        ]","[0.01902003 0.         0.        ]","[0.05279984 0.         0.        ]"
"269","[-43.91526281   0.          19.        ]","[0.07180173 0.         0.        ]","[0.05278169 0.         0.        ]"
"270","[-43.79074795   0.          19.        ]","[0.12451485 0.         0.        ]","[0.05271312 0.         0.        ]"
"271","[-43.61363908   0.          19.        ]","[0.17710887 0.         0.        ]","[0.05259402 0.         0.        ]"
"272","[-43.38410602   0.          19.        ]","[0.22953306 0.         0.        ]","[0.05242419 0.         0.        ]"
"273","[-43.10236963   0.          19.        ]","[0.28173639 0.         0.        ]","[0.05220333 0.         0.        ]"
"274","[-42.76870214   0.          19.        ]","[0.33366749 0.         0.        ]","[0.0519311 0.        0.       ]"
"275","[-42.38342757   0.          19.        ]","[0.38527456 0.         0.        ]","[0.05160707 0.         0.        ]"
"276","[-41.94692227   0.          19.        ]","[0.43650531 0.         0.        ]","[0.05123075 0.         0.        ]"
"277","[-41.45961537   0.          19.        ]","[0.48730689 0.         0.        ]","[0.05080158 0.         0.        ]"
"278","[-40.92198949   0.          19.        ]","[0.53762588 0.         0.        ]","[0.05031899 0.         0.        ]"
"279","[-40.33458126   0.          19.        ]","[0.58740823 0.         0.        ]","[0.04978234 0.         0.        ]"
"280","[-39.69798204   0.          19.        ]","[0.63659923 0.         0.        ]","[0.049191 0.       0.      ]"
"281","[-39.01283851   0.          19.        ]","[0.68514352 0.         0.        ]","[0.04854429 0.         0.        ]"
"282","[-38.27985341   0.          19.        ]","[0.7329851 0.        0.       ]","[0.04784158 0.         0.        ]"
"283","[-37.49978608   0.          19.        ]","[0.78006734 0.         0.        ]","[0.04708223 0.         0.        ]"
"284","[-36.6734531   0.         19.       ]","[0.82633298 0.         0.        ]","[0.04626564 0.         0.        ]"
"285","[-35.80172884   0.          19.        ]","[0.87172425 0.         0.        ]","[0.04539127 0.         0.        ]"
"286","[-34.88554595   0.          19.        ]","[0.9161829 0.        0.       ]","[0.04445864 0.         0.        ]"
"287","[-33.92589569   0.          19.        ]","[0.95965026 0.         0.        ]","[0.04346736 0.         0.        ]"
"288","[-32.9238283   0.         19.       ]","[1.00206739 0.         0.        ]","[0.04241713 0.         0.        ]"
"289","[-31.88045312   0.          19.        ]","[1.04337518 0.         0.        ]","[0.04130779 0.         0.        ]"
"290","[-30.79693864   0.          19.        ]","[1.08351448 0.         0.        ]","[0.0401393 0.        0.       ]"
"291","[-29.67451239   0.          19.        ]","[1.12242625 0.         0.        ]","[0.03891177 0.         0.        ]"
"292","[-28.51446065   0.          19.        ]","[1.16005174 0.         0.        ]","[0.03762549 0.         0.        ]"
"293","[-27.31812799   0.          19.        ]","[1.19633266 0.         0.        ]","[0.03628092 0.         0.        ]"
"294","[-26.08691659   0.          19.        ]","[1.23121139 0.         0.        ]","[0.03487873 0.         0.        ]"
"295","[-24.82228541   0.          19.        ]","[1.26463118 0.         0.        ]","[0.03341979 0.         0.        ]"
"296","[-23.52574903   0.          19.        ]","[1.29653637 0.         0.        ]","[0.03190519 0.         0.        ]"
"297","[-22.19887641   0.          19.        ]","[1.32687262 0.         0.        ]","[0.03033625 0.         0.        ]"
"298","[-20.84328927   0.          19.        ]","[1.35558714 0.         0.        ]","[0.02871452 0.         0.        ]"
"299","[-19.46066032   0.          19.        ]","[1.38262894 0.         0.        ]","[0.0270418 0.        0.       ]"
"300","[-18.05271125   0.          19.        ]","[1.40794907 0.         0.        ]","[0.02532013 0.         0.        ]"
"301","[-16.62121041   0.          19.        ]","[1.43150085 0.         0.        ]","[0.02355178 0.         0.        ]"
"302","[-15.16797028   0.          19.        ]","[1.45324012 0.         0.        ]","[0.02173928 0.         0.        ]"
"303","[-13.69484478   0.          19.        ]","[1.4731255 0.        0.       ]","[0.01988537 0.         0.        ]"
"304","[-12.20372623   0.          19.        ]","[1.49111855 0.         0.        ]","[0.01799306 0.         0.        ]"
"305","[-10.69654216   0.          19.        ]","[1.50718407 0.         0.        ]","[0.01606552 0.         0.        ]"
"306","[-9.17525193  0.         19.        ]","[1.52129023 0.         0.        ]","[0.01410616 0.         0.        ]"
"307","[-7.64184314  0.         19.        ]","[1.53340879 0.         0.        ]","[0.01211856 0.         0.        ]"
"308","[-6.09832785  0.         19.        ]","[1.54351529 0.         0.        ]","[0.0101065 0.        0.       ]"
"309","[-4.5467387  0.        19.       ]","[1.55158915 0.         0.        ]","[0.00807386 0.         0.        ]"
"310","[-2.98912486  0.         19.        ]","[1.55761385 0.         0.        ]","[0.00602469 0.         0.        ]"
"311","[-1.42754788  0.         19.        ]","[1.56157697 0.         0.        ]","[0.00396313 0.         0.        ]"
"312","[ 0.13592247  0.         19.        ]","[1.56347035 0.         0.        ]","[0.00189338 0.         0.        ]"
"313","[ 1.69921252  0.         19.        ]","[1.56329006 0.         0.        ]","[-0.00018029 -0.         -0.        ]"
"314","[ 3.26024899  0.         19.        ]","[1.56103646 0.         0.        ]","[-0.00225359 -0.         -0.        ]"
"315","[ 4.81696323  0.         19.        ]","[1.55671424 0.         0.        ]","[-0.00432222 -0.         -0.        ]"
"316","[ 6.36729553  0.         19.        ]","[1.5503323 0.        0.       ]","[-0.00638194 -0.         -0.        ]"
"317","[ 7.90919931  0.         19.        ]","[1.54190378 0.         0.        ]","[-0.00842853 -0.         -0.        ]"
"318","[ 9.44064521  0.         19.        ]","[1.5314459 0.        0.       ]","[-0.01045787 -0.         -0.        ]"
"319","[10.95962515  0.         19.        ]","[1.51897994 0.         0.        ]","[-0.01246596 -0.         -0.        ]"
"320","[12.46415619  0.         19.        ]","[1.50453103 0.         0.        ]","[-0.01444891 -0.         -0.        ]"
"321","[13.95228423  0.         19.        ]","[1.48812805 0.         0.        ]","[-0.01640299 -0.         -0.        ]"
"322","[15.42208763  0.         19.        ]","[1.4698034 0.        0.       ]","[-0.01832465 -0.         -0.        ]"
"323","[16.87168052  0.         19.        ]","[1.44959289 0.         0.        ]","[-0.02021051 -0.         -0.        ]"
"324","[18.29921599  0.         19.        ]","[1.42753547 0.         0.        ]","[-0.02205742 -0.         -0.        ]"
"325","[19.70288902  0.         19.        ]","[1.40367303 0.         0.        ]","[-0.02386244 -0.         -0.        ]"
"326","[21.0809392  0.        19.       ]","[1.37805018 0.         0.        ]","[-0.02562285 -0.         -0.        ]"
"327","[22.43165322  0.         19.        ]","[1.35071401 0.         0.        ]","[-0.02733617 -0.         -0.        ]"
"328","[23.75336707  0.         19.        ]","[1.32171385 0.         0.        ]","[-0.02900016 -0.         -0.        ]"
"329","[25.04446808  0.         19.        ]","[1.29110101 0.         0.        ]","[-0.03061284 -0.         -0.        ]"
"330","[26.30339666  0.         19.        ]","[1.25892858 0.         0.        ]","[-0.03217244 -0.         -0.        ]"
"331","[27.52864779  0.         19.        ]","[1.22525113 0.         0.        ]","[-0.03367745 -0.         -0.        ]"
"332","[28.71877232  0.         19.        ]","[1.19012453 0.         0.        ]","[-0.0351266 -0.        -0.       ]"
"333","[29.87237803  0.         19.        ]","[1.15360571 0.         0.        ]","[-0.03651883 -0.         -0.        ]"
"334","[30.98813044  0.         19.        ]","[1.11575241 0.         0.        ]","[-0.0378533 -0.        -0.       ]"
"335","[32.06475344  0.         19.        ]","[1.07662301 0.         0.        ]","[-0.0391294 -0.        -0.       ]"
"336","[33.10102977  0.         19.        ]","[1.03627633 0.         0.        ]","[-0.04034668 -0.         -0.        ]"
"337","[34.09580121  0.         19.        ]","[0.99477144 0.         0.        ]","[-0.04150489 -0.         -0.        ]"
"338","[35.04796869  0.         19.        ]","[0.95216748 0.         0.        ]","[-0.04260395 -0.         -0.        ]"
"339","[35.95649226  0.         19.        ]","[0.90852357 0.         0.        ]","[-0.04364391 -0.         -0.        ]"
"340","[36.82039086  0.         19.        ]","[0.86389859 0.         0.        ]","[-0.04462498 -0.         -0.        ]"
"341","[37.638742  0.       19.      ]","[0.81835114 0.         0.        ]","[-0.04554745 -0.         -0.        ]"
"342","[38.41068141  0.         19.        ]","[0.77193941 0.         0.        ]","[-0.04641174 -0.         -0.        ]"
"343","[39.13540248  0.         19.        ]","[0.72472107 0.         0.        ]","[-0.04721833 -0.         -0.        ]"
"344","[39.81215576  0.         19.        ]","[0.67675328 0.         0.        ]","[-0.0479678 -0.        -0.       ]"
"345","[40.44024831  0.         19.        ]","[0.62809255 0.         0.        ]","[-0.04866072 -0.         -0.        ]"
"346","[41.01904311  0.         19.        ]","[0.5787948 0.        0.       ]","[-0.04929776 -0.         -0.        ]"
"347","[41.54795836  0.         19.        ]","[0.52891525 0.         0.        ]","[-0.04987955 -0.         -0.        ]"
"348","[42.02646686  0.         19.        ]","[0.4785085 0.        0.       ]","[-0.05040675 -0.         -0.        ]"
"349","[42.45409534  0.         19.        ]","[0.42762849 0.         0.        ]","[-0.05088001 -0.         -0.        ]"
"350","[42.83042389  0.         19.        ]","[0.37632854 0.         0.        ]","[-0.05129995 -0.         -0.        ]"
"351","[43.15508529  0.         19.        ]","[0.3246614 0.        0.       ]","[-0.05166714 -0.         -0.        ]"
"352","[43.42776455  0.         19.        ]","[0.27267927 0.         0.        ]","[-0.05198213 -0.         -0.        ]"
"353","[43.64819842  0.         19.        ]","[0.22043386 0.         0.        ]","[-0.0522454 -0.        -0.       ]"
"354","[43.81617492  0.         19.        ]","[0.1679765 0.        0.       ]","[-0.05245737 -0.         -0.        ]"
"355","[43.93153305  0.         19.        ]","[0.11535813 0.         0.        ]","[-0.05261836 -0.         -0.        ]"
"356","[43.99416251  0.         19.        ]","[0.06262946 0.         0.        ]","[-0.05272867 -0.         -0.        ]"
"357","[44.00400351  0.         19.        ]","[0.009841 0.       0.      ]","[-0.05278847 -0.         -0.        ]"
"358","[43.96104665  0.         19.        ]","[-0.04295686  0.          0.        ]","[-0.05279786 -0.         -0.        ]"
"359","[43.86533294  0.         19.        ]","[-0.09571371  0.          0.        ]","[-0.05275686 -0.         -0.        ]"
"360","[43.71695383  0.         19.        ]","[-0.14837911  0.          0.        ]","[-0.0526654 -0.        -0.       ]"
"361","[43.5160514  0.        19.       ]","[-0.20090243  0.          0.        ]","[-0.05252332 -0.         -0.        ]"
"362","[43.26281858  0.         19.        ]","[-0.25323282  0.          0.        ]","[-0.05233039 -0.         -0.        ]"
"363","[42.95749947  0.         19.        ]","[-0.30531911  0.          0.        ]","[-0.05208629 -0.         -0.        ]"
"364","[42.60038973  0.         19.        ]","[-0.35710974  0.          0.        ]","[-0.05179063 -0.         -0.        ]"
"365","[42.19183704  0.         19.        ]","[-0.40855269  0.          0.        ]","[-0.05144295 -0.         -0.        ]"
"366","[41.7322416  0.        19.       ]","[-0.45959544  0.          0.        ]","[-0.05104274 -0.         -0.        ]"
"367","[41.22205673  0.         19.        ]","[-0.51018487  0.          0.        ]","[-0.05058943 -0.         -0.        ]"
"368","[40.66178946  0.         19.        ]","[-0.56026728  0.          0.        ]","[-0.05008241 -0.         -0.        ]"
"369","[40.05200114  0.         19.        ]","[-0.60978832  0.          0.        ]","[-0.04952104 -0.         -0.        ]"
"370","[39.39330814  0.         19.        ]","[-0.658693  0.        0.      ]","[-0.04890468 -0.         -0.        ]"
"371","[38.68638249  0.         19.        ]","[-0.70692566  0.          0.        ]","[-0.04823266 -0.         -0.        ]"
"372","[37.93195249  0.         19.        ]","[-0.75443  0.       0.     ]","[-0.04750434 -0.         -0.        ]"
"373","[37.13080338  0.         19.        ]","[-0.80114911  0.          0.        ]","[-0.04671911 -0.         -0.        ]"
"374","[36.28377787  0.         19.        ]","[-0.8470255  0.         0.       ]","[-0.04587639 -0.         -0.        ]"
"375","[35.39177672  0.         19.        ]","[-0.89200116  0.          0.        ]","[-0.04497566 -0.         -0.        ]"
"376","[34.45575908  0.         19.        ]","[-0.93601764  0.          0.        ]","[-0.04401648 -0.         -0.        ]"
"377","[33.47674295  0.         19.        ]","[-0.97901613  0.          0.        ]","[-0.0429985 -0.        -0.       ]"
"378","[32.45580533  0.         19.        ]","[-1.02093762  0.          0.        ]","[-0.04192148 -0.         -0.        ]"
"379","[31.39408239  0.         19.        ]","[-1.06172293  0.          0.        ]","[-0.04078532 -0.         -0.        ]"
"380","[30.29276943  0.         19.        ]","[-1.10131297  0.          0.        ]","[-0.03959003 -0.         -0.        ]"
"381","[29.15312064  0.         19.        ]","[-1.13964878  0.          0.        ]","[-0.03833582 -0.         -0.        ]"
"382","[27.97644882  0.         19.        ]","[-1.17667182  0.          0.        ]","[-0.03702304 -0.         -0.        ]"
"383","[26.76412474  0.         19.        ]","[-1.21232408  0.          0.        ]","[-0.03565225 -0.         -0.        ]"
"384","[25.51757645  0.         19.        ]","[-1.24654829  0.          0.        ]","[-0.03422421 -0.         -0.        ]"
"385","[24.23828828  0.         19.        ]","[-1.27928817  0.          0.        ]","[-0.03273988 -0.         -0.        ]"
"386","[22.92779964  0.         19.        ]","[-1.31048864  0.          0.        ]","[-0.03120047 -0.         -0.        ]"
"387","[21.58770361  0.         19.        ]","[-1.34009603  0.          0.        ]","[-0.02960739 -0.         -0.        ]"
"388","[20.21964528  0.         19.        ]","[-1.36805833  0.          0.        ]","[-0.0279623 -0.        -0.       ]"
"389","[18.82531984  0.         19.        ]","[-1.39432544  0.          0.        ]","[-0.02626712 -0.         -0.        ]"
"390","[17.40647041  0.         19.        ]","[-1.41884943  0.          0.        ]","[-0.02452398 -0.         -0.        ]"
"391","[15.96488569  0.         19.        ]","[-1.44158472  0.          0.        ]","[-0.02273529 -0.         -0.        ]"
"392","[14.50239731  0.         19.        ]","[-1.46248838  0.          0.        ]","[-0.02090366 -0.         -0.        ]"
"393","[13.02087697  0.         19.        ]","[-1.48152034  0.          0.        ]","[-0.01903196 -0.         -0.        ]"
"394","[11.52223337  0.         19.        ]","[-1.4986436  0.         0.       ]","[-0.01712326 -0.         -0.        ]"
"395","[10.00840891  0.         19.        ]","[-1.51382446  0.          0.        ]","[-0.01518086 -0.         -0.        ]"
"396","[ 8.4813762  0.        19.       ]","[-1.52703271  0.          0.        ]","[-0.01320825 -0.         -0.        ]"
"397","[ 6.94313441  0.         19.        ]","[-1.53824179  0.          0.        ]","[-0.01120908 -0.         -0.        ]"
"398","[ 5.39570542  0.         19.        ]","[-1.54742899  0.          0.        ]","[-0.0091872 -0.        -0.       ]"
"399","[ 3.84112987  0.         19.        ]","[-1.55457555  0.          0.        ]","[-0.00714656 -0.         -0.        ]"
"400","[ 2.28146307  0.         19.        ]","[-1.5596668  0.         0.       ]","[-0.00509125 -0.         -0.        ]"
"401","[ 0.71877082  0.         19.        ]","[-1.56269225  0.          0.        ]","[-0.00302545 -0.         -0.        ]"
"402","[-0.84487482  0.         19.        ]","[-1.56364564  0.          0.        ]","[-0.00095339 -0.         -0.        ]"
"403","[-2.40739982  0.         19.        ]","[-1.56252499  0.          0.        ]","[0.00112064 0.         0.        ]"
"404","[-3.96673245  0.         19.        ]","[-1.55933264  0.          0.        ]","[0.00319236 0.         0.        ]"
"405","[-5.52080762  0.         19.        ]","[-1.55407517  0.          0.        ]","[0.00525747 0.         0.        ]"
"406","[-7.06757104  0.         19.        ]","[-1.54676342  0.          0.        ]","[0.00731175 0.         0.        ]"
"407","[-8.60498343  0.         19.        ]","[-1.53741239  0.          0.        ]","[0.00935103 0.         0.        ]"
"408","[-10.1310246   0.         19.       ]","[-1.52604117  0.          0.        ]","[0.01137122 0.         0.        ]"
"409","[-11.64369738   0.          19.        ]","[-1.51267279  0.          0.        ]","[0.01336838 0.         0.        ]"
"410","[-13.14103147   0.          19.        ]","[-1.49733409  0.          0.        ]","[0.0153387 0.        0.       ]"
"411","[-14.62108706   0.          19.        ]","[-1.48005558  0.          0.        ]","[0.0172785 0.        0.       ]"
"412","[-16.08195831   0.          19.        ]","[-1.46087125  0.          0.        ]","[0.01918434 0.         0.        ]"
"413","[-17.52177663   0.          19.        ]","[-1.43981833  0.          0.        ]","[0.02105292 0.         0.        ]"
"414","[-18.93871377   0.          19.        ]","[-1.41693714  0.          0.        ]","[0.02288119 0.         0.        ]"
"415","[-20.33098461   0.          19.        ]","[-1.39227084  0.          0.        ]","[0.0246663 0.        0.       ]"
"416","[-21.6968498   0.         19.       ]","[-1.36586519  0.          0.        ]","[0.02640565 0.         0.        ]"
"417","[-23.03461811   0.          19.        ]","[-1.33776831  0.          0.        ]","[0.02809687 0.         0.        ]"
"418","[-24.3426486   0.         19.       ]","[-1.30803049  0.          0.        ]","[0.02973783 0.         0.        ]"
"419","[-25.61935244   0.          19.        ]","[-1.27670384  0.          0.        ]","[0.03132664 0.         0.        ]"
"420","[-26.86319462   0.          19.        ]","[-1.24384218  0.          0.        ]","[0.03286167 0.         0.        ]"
"421","[-28.0726953   0.         19.       ]","[-1.20950069  0.          0.        ]","[0.03434149 0.         0.        ]"
"422","[-29.24643104   0.          19.        ]","[-1.17373574  0.          0.        ]","[0.03576495 0.         0.        ]"
"423","[-30.38303569   0.          19.        ]","[-1.13660465  0.          0.        ]","[0.03713108 0.         0.        ]"
"424","[-31.48120119   0.          19.        ]","[-1.0981655  0.         0.       ]","[0.03843916 0.         0.        ]"
"425","[-32.53967806   0.          19.        ]","[-1.05847687  0.          0.        ]","[0.03968863 0.         0.        ]"
"426","[-33.55727578   0.          19.        ]","[-1.01759772  0.          0.        ]","[0.04087915 0.         0.        ]"
"427","[-34.53286295   0.          19.        ]","[-0.97558718  0.          0.        ]","[0.04201054 0.         0.        ]"
"428","[-35.46536734   0.          19.        ]","[-0.93250439  0.          0.        ]","[0.04308279 0.         0.        ]"
"429","[-36.3537757   0.         19.       ]","[-0.88840837  0.          0.        ]","[0.04409602 0.         0.        ]"
"430","[-37.1971336   0.         19.       ]","[-0.8433579  0.         0.       ]","[0.04505047 0.         0.        ]"
"431","[-37.994545   0.        19.      ]","[-0.79741139  0.          0.        ]","[0.0459465 0.        0.       ]"
"432","[-38.74517182   0.          19.        ]","[-0.75062682  0.          0.        ]","[0.04678457 0.         0.        ]"
"433","[-39.44823346   0.          19.        ]","[-0.70306164  0.          0.        ]","[0.04756519 0.         0.        ]"
"434","[-40.10300615   0.          19.        ]","[-0.65477269  0.          0.        ]","[0.04828894 0.         0.        ]"
"435","[-40.7088224   0.         19.       ]","[-0.60581625  0.          0.        ]","[0.04895645 0.         0.        ]"
"436","[-41.2650703   0.         19.       ]","[-0.5562479  0.         0.       ]","[0.04956835 0.         0.        ]"
"437","[-41.77119289   0.          19.        ]","[-0.50612259  0.          0.        ]","[0.05012531 0.         0.        ]"
"438","[-42.2266875   0.         19.       ]","[-0.45549461  0.          0.        ]","[0.05062798 0.         0.        ]"
"439","[-42.63110513   0.          19.        ]","[-0.40441763  0.          0.        ]","[0.05107698 0.         0.        ]"
"440","[-42.98404982   0.          19.        ]","[-0.35294469  0.          0.        ]","[0.05147294 0.         0.        ]"
"441","[-43.28517811   0.          19.        ]","[-0.30112829  0.          0.        ]","[0.0518164 0.        0.       ]"
"442","[-43.53419852   0.          19.        ]","[-0.24902041  0.          0.        ]","[0.05210788 0.         0.        ]"
"443","[-43.73087109   0.          19.        ]","[-0.19667256  0.          0.        ]","[0.05234784 0.         0.        ]"
"444","[-43.87500699   0.          19.        ]","[-0.1441359  0.         0.       ]","[0.05253666 0.         0.        ]"
"445","[-43.96646825   0.          19.        ]","[-0.09146126  0.          0.        ]","[0.05267465 0.         0.        ]"
"446","[-44.00516747   0.          19.        ]","[-0.03869923  0.          0.        ]","[0.05276203 0.         0.        ]"
"447","[-43.99106773   0.          19.        ]","[0.01409974 0.         0.        ]","[0.05279897 0.         0.        ]"
"448","[-43.92418248   0.          19.        ]","[0.06688525 0.         0.        ]","[0.05278551 0.         0.        ]"
"449","[-43.80457558   0.          19.        ]","[0.1196069 0.        0.       ]","[0.05272165 0.         0.        ]"
"450","[-43.63236142   0.          19.        ]","[0.17221416 0.         0.        ]","[0.05260726 0.         0.        ]"
"451","[-43.40770509   0.          19.        ]","[0.22465633 0.         0.        ]","[0.05244216 0.         0.        ]"
"452","[-43.13082269   0.          19.        ]","[0.2768824 0.        0.       ]","[0.05222608 0.         0.        ]"
"453","[-42.80198164   0.          19.        ]","[0.32884105 0.         0.        ]","[0.05195865 0.         0.        ]"
"454","[-42.42150112   0.          19.        ]","[0.38048052 0.         0.        ]","[0.05163947 0.         0.        ]"
"455","[-41.98975256   0.          19.        ]","[0.43174856 0.         0.        ]","[0.05126804 0.         0.        ]"
"456","[-41.50716017   0.          19.        ]","[0.48259238 0.         0.        ]","[0.05084382 0.         0.        ]"
"457","[-40.97420155   0.          19.        ]","[0.53295862 0.         0.        ]","[0.05036624 0.         0.        ]"
"458","[-40.39140828   0.          19.        ]","[0.58279327 0.         0.        ]","[0.04983465 0.         0.        ]"
"459","[-39.75936657   0.          19.        ]","[0.63204171 0.         0.        ]","[0.04924843 0.         0.        ]"
"460","[-39.07871795   0.          19.        ]","[0.68064862 0.         0.        ]","[0.04860692 0.         0.        ]"
"461","[-38.35015987   0.          19.        ]","[0.72855807 0.         0.        ]","[0.04790945 0.         0.        ]"
"462","[-37.57444639   0.          19.        ]","[0.77571348 0.         0.        ]","[0.0471554 0.        0.       ]"
"463","[-36.75238874   0.          19.        ]","[0.82205765 0.         0.        ]","[0.04634417 0.         0.        ]"
"464","[-35.88485589   0.          19.        ]","[0.86753286 0.         0.        ]","[0.04547521 0.         0.        ]"
"465","[-34.972775   0.        19.      ]","[0.91208088 0.         0.        ]","[0.04454803 0.         0.        ]"
"466","[-34.0171319   0.         19.       ]","[0.95564311 0.         0.        ]","[0.04356222 0.         0.        ]"
"467","[-33.01897129   0.          19.        ]","[0.9981606 0.        0.       ]","[0.0425175 0.        0.       ]"
"468","[-31.97939702   0.          19.        ]","[1.03957427 0.         0.        ]","[0.04141367 0.         0.        ]"
"469","[-30.89957206   0.          19.        ]","[1.07982496 0.         0.        ]","[0.04025069 0.         0.        ]"
"470","[-29.78071845   0.          19.        ]","[1.11885361 0.         0.        ]","[0.03902865 0.         0.        ]"
"471","[-28.62411702   0.          19.        ]","[1.15660143 0.         0.        ]","[0.03774782 0.         0.        ]"
"472","[-27.43110692   0.          19.        ]","[1.1930101 0.        0.       ]","[0.03640866 0.         0.        ]"
"473","[-26.20308501   0.          19.        ]","[1.22802191 0.         0.        ]","[0.03501181 0.         0.        ]"
"474","[-24.94150499   0.          19.        ]","[1.26158002 0.         0.        ]","[0.03355812 0.         0.        ]"
"475","[-23.64787631   0.          19.        ]","[1.29362867 0.         0.        ]","[0.03204865 0.         0.        ]"
"476","[-22.32376293   0.          19.        ]","[1.32411338 0.         0.        ]","[0.03048471 0.         0.        ]"
"477","[-20.97078172   0.          19.        ]","[1.35298121 0.         0.        ]","[0.02886783 0.         0.        ]"
"478","[-19.59060072   0.          19.        ]","[1.38018099 0.         0.        ]","[0.02719978 0.         0.        ]"
"479","[-18.18493716   0.          19.        ]","[1.40566357 0.         0.        ]","[0.02548257 0.         0.        ]"
"480","[-16.75555512   0.          19.        ]","[1.42938204 0.         0.        ]","[0.02371847 0.         0.        ]"
"481","[-15.30426311   0.          19.        ]","[1.45129201 0.         0.        ]","[0.02190997 0.         0.        ]"
"482","[-13.8329113   0.         19.       ]","[1.47135182 0.         0.        ]","[0.02005981 0.         0.        ]"
"483","[-12.34338854   0.          19.        ]","[1.48952275 0.         0.        ]","[0.01817093 0.         0.        ]"
"484","[-10.83761926   0.          19.        ]","[1.50576929 0.         0.        ]","[0.01624654 0.         0.        ]"
"485","[-9.31755998  0.         19.        ]","[1.52005928 0.         0.        ]","[0.01428999 0.         0.        ]"
"486","[-7.78519582  0.         19.        ]","[1.53236416 0.         0.        ]","[0.01230488 0.         0.        ]"
"487","[-6.24253674  0.         19.        ]","[1.54265908 0.         0.        ]","[0.01029493 0.         0.        ]"
"488","[-4.69161361  0.         19.        ]","[1.55092313 0.         0.        ]","[0.00826404 0.         0.        ]"
"489","[-3.13447424  0.         19.        ]","[1.55713937 0.         0.        ]","[0.00621624 0.         0.        ]"
"490","[-1.57317923  0.         19.        ]","[1.56129502 0.         0.        ]","[0.00415565 0.         0.        ]"
"491","[-9.79773045e-03  0.00000000e+00  1.90000000e+01]","[1.5633815 0.        0.       ]","[0.00208648 0.         0.        ]"
"492","[ 1.55359676  0.         19.        ]","[1.56339449 0.         0.        ]","[1.29962018e-05 0.00000000e+00 0.00000000e+00]"
"493","[ 3.11493074  0.         19.        ]","[1.56133398 0.         0.        ]","[-0.00206052 -0.         -0.        ]"
"494","[ 4.67213495  0.         19.        ]","[1.55720421 0.         0.        ]","[-0.00412977 -0.         -0.        ]"
"495","[ 6.22314868  0.         19.        ]","[1.55101372 0.         0.        ]","[-0.00619049 -0.         -0.        ]"
"496","[ 7.76592392  0.         19.        ]","[1.54277525 0.         0.        ]","[-0.00823848 -0.         -0.        ]"
"497","[ 9.29842957  0.         19.        ]","[1.53250565 0.         0.        ]","[-0.0102696 -0.        -0.       ]"
"498","[10.81865539  0.         19.        ]","[1.52022581 0.         0.        ]","[-0.01227983 -0.         -0.        ]"
"499","[12.32461591  0.         19.        ]","[1.50596053 0.         0.        ]","[-0.01426529 -0.         -0.        ]"
