"time","theta3d","omega3d","alpha3d"
"0","[27.94084658  0.         24.        ]","[-0.05915342  0.          0.        ]","[-0.05915342 -0.         -0.        ]"
"1","[27.82265464  0.         24.        ]","[-0.11819194  0.          0.        ]","[-0.05903853 -0.         -0.        ]"
"2","[27.64565391  0.         24.        ]","[-0.17700073  0.          0.        ]","[-0.05880878 -0.         -0.        ]"
"3","[27.41018893  0.         24.        ]","[-0.23546498  0.          0.        ]","[-0.05846426 -0.         -0.        ]"
"4","[27.11671889  0.         24.        ]","[-0.29347005  0.          0.        ]","[-0.05800506 -0.         -0.        ]"
"5","[26.76581745  0.         24.        ]","[-0.35090143  0.          0.        ]","[-0.05743139 -0.         -0.        ]"
"6","[26.35817256  0.         24.        ]","[-0.4076449  0.         0.       ]","[-0.05674346 -0.         -0.        ]"
"7","[25.89458604  0.         24.        ]","[-0.46358652  0.          0.        ]","[-0.05594163 -0.         -0.        ]"
"8","[25.3759732  0.        24.       ]","[-0.51861284  0.          0.        ]","[-0.05502632 -0.         -0.        ]"
"9","[24.80336227  0.         24.        ]","[-0.57261093  0.          0.        ]","[-0.05399809 -0.         -0.        ]"
"10","[24.17789367  0.         24.        ]","[-0.6254686  0.         0.       ]","[-0.05285767 -0.         -0.        ]"
"11","[23.50081911  0.         24.        ]","[-0.67707456  0.          0.        ]","[-0.05160596 -0.         -0.        ]"
"12","[22.77350051  0.         24.        ]","[-0.72731859  0.          0.        ]","[-0.05024403 -0.         -0.        ]"
"13","[21.99740868  0.         24.        ]","[-0.77609183  0.          0.        ]","[-0.04877324 -0.         -0.        ]"
"14","[21.1741217  0.        24.       ]","[-0.82328698  0.          0.        ]","[-0.04719515 -0.         -0.        ]"
"15","[20.30532309  0.         24.        ]","[-0.86879861  0.          0.        ]","[-0.04551163 -0.         -0.        ]"
"16","[19.39279961  0.         24.        ]","[-0.91252348  0.          0.        ]","[-0.04372487 -0.         -0.        ]"
"17","[18.43843876  0.         24.        ]","[-0.95436085  0.          0.        ]","[-0.04183737 -0.         -0.        ]"
"18","[17.44422593  0.         24.        ]","[-0.99421283  0.          0.        ]","[-0.03985198 -0.         -0.        ]"
"19","[16.41224116  0.         24.        ]","[-1.03198476  0.          0.        ]","[-0.03777194 -0.         -0.        ]"
"20","[15.34465555  0.         24.        ]","[-1.06758561  0.          0.        ]","[-0.03560085 -0.         -0.        ]"
"21","[14.24372722  0.         24.        ]","[-1.10092833  0.          0.        ]","[-0.03334272 -0.         -0.        ]"
"22","[13.11179695  0.         24.        ]","[-1.13193027  0.          0.        ]","[-0.03100194 -0.         -0.        ]"
"23","[11.95128335  0.         24.        ]","[-1.1605136  0.         0.       ]","[-0.02858333 -0.         -0.        ]"
"24","[10.76467767  0.         24.        ]","[-1.18660568  0.          0.        ]","[-0.02609207 -0.         -0.        ]"
"25","[ 9.55453826  0.         24.        ]","[-1.21013942  0.          0.        ]","[-0.02353374 -0.         -0.        ]"
"26","[ 8.32348456  0.         24.        ]","[-1.2310537  0.         0.       ]","[-0.02091428 -0.         -0.        ]"
"27","[ 7.07419088  0.         24.        ]","[-1.24929368  0.          0.        ]","[-0.01823998 -0.         -0.        ]"
"28","[ 5.80937974  0.         24.        ]","[-1.26481114  0.          0.        ]","[-0.01551746 -0.         -0.        ]"
"29","[ 4.53181498  0.         24.        ]","[-1.27756476  0.          0.        ]","[-0.01275361 -0.         -0.        ]"
"30","[ 3.24429463  0.         24.        ]","[-1.28752035  0.          0.        ]","[-0.00995559 -0.         -0.        ]"
"31","[ 1.94964352  0.         24.        ]","[-1.29465111  0.          0.        ]","[-0.00713076 -0.         -0.        ]"
"32","[ 0.65070574  0.         24.        ]","[-1.29893778  0.          0.        ]","[-0.00428666 -0.         -0.        ]"
"33","[-0.64966298  0.         24.        ]","[-1.30036872  0.          0.        ]","[-0.00143095 -0.         -0.        ]"
"34","[-1.94860305  0.         24.        ]","[-1.29894007  0.          0.        ]","[0.00142865 0.         0.        ]"
"35","[-3.24325875  0.         24.        ]","[-1.29465569  0.          0.        ]","[0.00428438 0.         0.        ]"
"36","[-4.53078595  0.         24.        ]","[-1.2875272  0.         0.       ]","[0.00712849 0.         0.        ]"
"37","[-5.80835982  0.         24.        ]","[-1.27757387  0.          0.        ]","[0.00995334 0.         0.        ]"
"38","[-7.0731823  0.        24.       ]","[-1.26482248  0.          0.        ]","[0.01275138 0.         0.        ]"
"39","[-8.32248952  0.         24.        ]","[-1.24930722  0.          0.        ]","[0.01551526 0.         0.        ]"
"40","[-9.55355893  0.         24.        ]","[-1.2310694  0.         0.       ]","[0.01823782 0.         0.        ]"
"41","[-10.76371617   0.          24.        ]","[-1.21015725  0.          0.        ]","[0.02091216 0.         0.        ]"
"42","[-11.95034176   0.          24.        ]","[-1.18662558  0.          0.        ]","[0.02353166 0.         0.        ]"
"43","[-13.1108773   0.         24.       ]","[-1.16053554  0.          0.        ]","[0.02609005 0.         0.        ]"
"44","[-14.24283147   0.          24.        ]","[-1.13195418  0.          0.        ]","[0.02858136 0.         0.        ]"
"45","[-15.34378561   0.          24.        ]","[-1.10095414  0.          0.        ]","[0.03100004 0.         0.        ]"
"46","[-16.41139889   0.          24.        ]","[-1.06761327  0.          0.        ]","[0.03334087 0.         0.        ]"
"47","[-17.44341308   0.          24.        ]","[-1.0320142  0.         0.       ]","[0.03559907 0.         0.        ]"
"48","[-18.43765705   0.          24.        ]","[-0.99424397  0.          0.        ]","[0.03777023 0.         0.        ]"
"49","[-19.39205068   0.          24.        ]","[-0.95439362  0.          0.        ]","[0.03985035 0.         0.        ]"
"50","[-20.30460848   0.          24.        ]","[-0.91255781  0.          0.        ]","[0.04183581 0.         0.        ]"
"51","[-21.17344289   0.          24.        ]","[-0.86883441  0.          0.        ]","[0.0437234 0.        0.       ]"
"52","[-21.99676706   0.          24.        ]","[-0.82332417  0.          0.        ]","[0.04551024 0.         0.        ]"
"53","[-22.77289739   0.          24.        ]","[-0.77613033  0.          0.        ]","[0.04719384 0.         0.        ]"
"54","[-23.50025571   0.          24.        ]","[-0.72735832  0.          0.        ]","[0.04877201 0.         0.        ]"
"55","[-24.17737113   0.          24.        ]","[-0.67711542  0.          0.        ]","[0.0502429 0.        0.       ]"
"56","[-24.80288164   0.          24.        ]","[-0.62551051  0.          0.        ]","[0.05160491 0.         0.        ]"
"57","[-25.37553543   0.          24.        ]","[-0.5726538  0.         0.       ]","[0.05285671 0.         0.        ]"
"58","[-25.89419201   0.          24.        ]","[-0.51865657  0.          0.        ]","[0.05399722 0.         0.        ]"
"59","[-26.35782304   0.          24.        ]","[-0.46363104  0.          0.        ]","[0.05502554 0.         0.        ]"
"60","[-26.76551314   0.          24.        ]","[-0.4076901  0.         0.       ]","[0.05594094 0.         0.        ]"
"61","[-27.11646038   0.          24.        ]","[-0.35094723  0.          0.        ]","[0.05674287 0.         0.        ]"
"62","[-27.40997673   0.          24.        ]","[-0.29351635  0.          0.        ]","[0.05743088 0.         0.        ]"
"63","[-27.64548843   0.          24.        ]","[-0.2355117  0.         0.       ]","[0.05800465 0.         0.        ]"
"64","[-27.8225362   0.         24.       ]","[-0.17704777  0.          0.        ]","[0.05846393 0.         0.        ]"
"65","[-27.94077542   0.          24.        ]","[-0.11823922  0.          0.        ]","[0.05880855 0.         0.        ]"
"66","[-27.99997625   0.          24.        ]","[-0.05920083  0.          0.        ]","[0.05903839 0.         0.        ]"
"67","[-28.00002371   0.          24.        ]","[-4.74589039e-05  0.00000000e+00  0.00000000e+00]","[0.05915337 0.         0.        ]"
"68","[-27.94091771   0.          24.        ]","[0.059106 0.       0.      ]","[0.05915346 0.         0.        ]"
"69","[-27.82277304   0.          24.        ]","[0.11814467 0.         0.        ]","[0.05903867 0.         0.        ]"
"70","[-27.64581936   0.          24.        ]","[0.17695368 0.         0.        ]","[0.05880901 0.         0.        ]"
"71","[-27.4104011   0.         24.       ]","[0.23541826 0.         0.        ]","[0.05846458 0.         0.        ]"
"72","[-27.11697736   0.          24.        ]","[0.29342374 0.         0.        ]","[0.05800548 0.         0.        ]"
"73","[-26.76612173   0.          24.        ]","[0.35085563 0.         0.        ]","[0.05743189 0.         0.        ]"
"74","[-26.35852204   0.          24.        ]","[0.40759969 0.         0.        ]","[0.05674406 0.         0.        ]"
"75","[-25.89498003   0.          24.        ]","[0.46354201 0.         0.        ]","[0.05594232 0.         0.        ]"
"76","[-25.37641093   0.          24.        ]","[0.5185691 0.        0.       ]","[0.05502709 0.         0.        ]"
"77","[-24.80384287   0.          24.        ]","[0.57256806 0.         0.        ]","[0.05399896 0.         0.        ]"
"78","[-24.17841617   0.          24.        ]","[0.6254267 0.        0.       ]","[0.05285863 0.         0.        ]"
"79","[-23.50138247   0.          24.        ]","[0.6770337 0.        0.       ]","[0.051607 0.       0.      ]"
"80","[-22.7741036   0.         24.       ]","[0.72727887 0.         0.        ]","[0.05024517 0.         0.        ]"
"81","[-21.99805027   0.          24.        ]","[0.77605333 0.         0.        ]","[0.04877446 0.         0.        ]"
"82","[-21.17480048   0.          24.        ]","[0.82324979 0.         0.        ]","[0.04719646 0.         0.        ]"
"83","[-20.30603767   0.          24.        ]","[0.86876281 0.         0.        ]","[0.04551303 0.         0.        ]"
"84","[-19.39354851   0.          24.        ]","[0.91248916 0.         0.        ]","[0.04372634 0.         0.        ]"
"85","[-18.43922044   0.          24.        ]","[0.95432808 0.         0.        ]","[0.04183892 0.         0.        ]"
"86","[-17.44503875   0.          24.        ]","[0.99418169 0.         0.        ]","[0.03985361 0.         0.        ]"
"87","[-16.41308342   0.          24.        ]","[1.03195533 0.         0.        ]","[0.03777364 0.         0.        ]"
"88","[-15.34552547   0.          24.        ]","[1.06755795 0.         0.        ]","[0.03560262 0.         0.        ]"
"89","[-14.24462296   0.          24.        ]","[1.10090251 0.         0.        ]","[0.03334456 0.         0.        ]"
"90","[-13.11271659   0.          24.        ]","[1.13190637 0.         0.        ]","[0.03100385 0.         0.        ]"
"91","[-11.95222492   0.          24.        ]","[1.16049167 0.         0.        ]","[0.0285853 0.        0.       ]"
"92","[-10.76563916   0.          24.        ]","[1.18658577 0.         0.        ]","[0.0260941 0.        0.       ]"
"93","[-9.55551757  0.         24.        ]","[1.21012158 0.         0.        ]","[0.02353582 0.         0.        ]"
"94","[-8.32447959  0.         24.        ]","[1.23103799 0.         0.        ]","[0.0209164 0.        0.       ]"
"95","[-7.07519945  0.         24.        ]","[1.24928013 0.         0.        ]","[0.01824215 0.         0.        ]"
"96","[-5.81039965  0.         24.        ]","[1.2647998 0.        0.       ]","[0.01551966 0.         0.        ]"
"97","[-4.53284401  0.         24.        ]","[1.27755564 0.         0.        ]","[0.01275585 0.         0.        ]"
"98","[-3.24533052  0.         24.        ]","[1.28751349 0.         0.        ]","[0.00995785 0.         0.        ]"
"99","[-1.95068398  0.         24.        ]","[1.29464653 0.         0.        ]","[0.00713304 0.         0.        ]"
"100","[-0.6517485  0.        24.       ]","[1.29893548 0.         0.        ]","[0.00428895 0.         0.        ]"
"101","[ 0.64862022  0.         24.        ]","[1.30036872 0.         0.        ]","[0.00143324 0.         0.        ]"
"102","[ 1.94756258  0.         24.        ]","[1.29894236 0.         0.        ]","[-0.00142636 -0.         -0.        ]"
"103","[ 3.24222286  0.         24.        ]","[1.29466027 0.         0.        ]","[-0.00428209 -0.         -0.        ]"
"104","[ 4.52975691  0.         24.        ]","[1.28753406 0.         0.        ]","[-0.00712622 -0.         -0.        ]"
"105","[ 5.80733989  0.         24.        ]","[1.27758297 0.         0.        ]","[-0.00995108 -0.         -0.        ]"
"106","[ 7.07217371  0.         24.        ]","[1.26483382 0.         0.        ]","[-0.01274915 -0.         -0.        ]"
"107","[ 8.32149447  0.         24.        ]","[1.24932076 0.         0.        ]","[-0.01551306 -0.         -0.        ]"
"108","[ 9.55257958  0.         24.        ]","[1.23108511 0.         0.        ]","[-0.01823565 -0.         -0.        ]"
"109","[10.76275466  0.         24.        ]","[1.21017508 0.         0.        ]","[-0.02091003 -0.         -0.        ]"
"110","[11.94940015  0.         24.        ]","[1.18664549 0.         0.        ]","[-0.02352958 -0.         -0.        ]"
"111","[13.10995762  0.         24.        ]","[1.16055747 0.         0.        ]","[-0.02608802 -0.         -0.        ]"
"112","[14.2419357  0.        24.       ]","[1.13197808 0.         0.        ]","[-0.02857939 -0.         -0.        ]"
"113","[15.34291565  0.         24.        ]","[1.10097995 0.         0.        ]","[-0.03099813 -0.         -0.        ]"
"114","[16.41055658  0.         24.        ]","[1.06764093 0.         0.        ]","[-0.03333903 -0.         -0.        ]"
"115","[17.44260022  0.         24.        ]","[1.03204363 0.         0.        ]","[-0.03559729 -0.         -0.        ]"
"116","[18.43687532  0.         24.        ]","[0.99427511 0.         0.        ]","[-0.03776853 -0.         -0.        ]"
"117","[19.39130172  0.         24.        ]","[0.95442639 0.         0.        ]","[-0.03984872 -0.         -0.        ]"
"118","[20.30389385  0.         24.        ]","[0.91259213 0.         0.        ]","[-0.04183426 -0.         -0.        ]"
"119","[21.17276405  0.         24.        ]","[0.86887021 0.         0.        ]","[-0.04372192 -0.         -0.        ]"
"120","[21.99612541  0.         24.        ]","[0.82336136 0.         0.        ]","[-0.04550885 -0.         -0.        ]"
"121","[22.77229424  0.         24.        ]","[0.77616883 0.         0.        ]","[-0.04719253 -0.         -0.        ]"
"122","[23.49969228  0.         24.        ]","[0.72739804 0.         0.        ]","[-0.04877079 -0.         -0.        ]"
"123","[24.17684856  0.         24.        ]","[0.67715628 0.         0.        ]","[-0.05024176 -0.         -0.        ]"
"124","[24.80240097  0.         24.        ]","[0.62555242 0.         0.        ]","[-0.05160386 -0.         -0.        ]"
"125","[25.37509763  0.         24.        ]","[0.57269666 0.         0.        ]","[-0.05285576 -0.         -0.        ]"
"126","[25.89379794  0.         24.        ]","[0.51870031 0.         0.        ]","[-0.05399635 -0.         -0.        ]"
"127","[26.35747349  0.         24.        ]","[0.46367555 0.         0.        ]","[-0.05502476 -0.         -0.        ]"
"128","[26.7652088  0.        24.       ]","[0.4077353 0.        0.       ]","[-0.05594025 -0.         -0.        ]"
"129","[27.11620183  0.         24.        ]","[0.35099303 0.         0.        ]","[-0.05674227 -0.         -0.        ]"
"130","[27.40976449  0.         24.        ]","[0.29356266 0.         0.        ]","[-0.05743037 -0.         -0.        ]"
"131","[27.64532292  0.         24.        ]","[0.23555842 0.         0.        ]","[-0.05800424 -0.         -0.        ]"
"132","[27.82241773  0.         24.        ]","[0.17709481 0.         0.        ]","[-0.05846361 -0.         -0.        ]"
"133","[27.94070422  0.         24.        ]","[0.11828649 0.         0.        ]","[-0.05880832 -0.         -0.        ]"
"134","[27.99995246  0.         24.        ]","[0.05924824 0.         0.        ]","[-0.05903825 -0.         -0.        ]"
"135","[28.00004738  0.         24.        ]","[9.49178077e-05 0.00000000e+00 0.00000000e+00]","[-0.05915332 -0.         -0.        ]"
"136","[27.94098879  0.         24.        ]","[-0.05905859  0.          0.        ]","[-0.05915351 -0.         -0.        ]"
"137","[27.8228914  0.        24.       ]","[-0.11809739  0.          0.        ]","[-0.0590388 -0.        -0.       ]"
"138","[27.64598476  0.         24.        ]","[-0.17690664  0.          0.        ]","[-0.05880924 -0.         -0.        ]"
"139","[27.41061322  0.         24.        ]","[-0.23537154  0.          0.        ]","[-0.0584649 -0.        -0.       ]"
"140","[27.11723579  0.         24.        ]","[-0.29337743  0.          0.        ]","[-0.05800589 -0.         -0.        ]"
"141","[26.76642597  0.         24.        ]","[-0.35080983  0.          0.        ]","[-0.0574324 -0.        -0.       ]"
"142","[26.35887148  0.         24.        ]","[-0.40755449  0.          0.        ]","[-0.05674466 -0.         -0.        ]"
"143","[25.89537399  0.         24.        ]","[-0.46349749  0.          0.        ]","[-0.055943 -0.       -0.      ]"
"144","[25.37684863  0.         24.        ]","[-0.51852536  0.          0.        ]","[-0.05502787 -0.         -0.        ]"
"145","[24.80432343  0.         24.        ]","[-0.5725252  0.         0.       ]","[-0.05399983 -0.         -0.        ]"
"146","[24.17893864  0.         24.        ]","[-0.62538479  0.          0.        ]","[-0.05285959 -0.         -0.        ]"
"147","[23.5019458  0.        24.       ]","[-0.67699284  0.          0.        ]","[-0.05160805 -0.         -0.        ]"
"148","[22.77470666  0.         24.        ]","[-0.72723915  0.          0.        ]","[-0.05024631 -0.         -0.        ]"
"149","[21.99869182  0.         24.        ]","[-0.77601483  0.          0.        ]","[-0.04877568 -0.         -0.        ]"
"150","[21.17547923  0.         24.        ]","[-0.82321259  0.          0.        ]","[-0.04719776 -0.         -0.        ]"
"151","[20.30675222  0.         24.        ]","[-0.86872701  0.          0.        ]","[-0.04551442 -0.         -0.        ]"
"152","[19.39429739  0.         24.        ]","[-0.91245483  0.          0.        ]","[-0.04372782 -0.         -0.        ]"
"153","[18.44000209  0.         24.        ]","[-0.9542953  0.         0.       ]","[-0.04184047 -0.         -0.        ]"
"154","[17.44585155  0.         24.        ]","[-0.99415054  0.          0.        ]","[-0.03985524 -0.         -0.        ]"
"155","[16.41392566  0.         24.        ]","[-1.03192589  0.          0.        ]","[-0.03777535 -0.         -0.        ]"
"156","[15.34639536  0.         24.        ]","[-1.06753029  0.          0.        ]","[-0.0356044 -0.        -0.       ]"
"157","[14.24551867  0.         24.        ]","[-1.1008767  0.         0.       ]","[-0.03334641 -0.         -0.        ]"
"158","[13.11363621  0.         24.        ]","[-1.13188246  0.          0.        ]","[-0.03100576 -0.         -0.        ]"
"159","[11.95316648  0.         24.        ]","[-1.16046973  0.          0.        ]","[-0.02858727 -0.         -0.        ]"
"160","[10.76660062  0.         24.        ]","[-1.18656585  0.          0.        ]","[-0.02609612 -0.         -0.        ]"
"161","[ 9.55649688  0.         24.        ]","[-1.21010375  0.          0.        ]","[-0.02353789 -0.         -0.        ]"
"162","[ 8.3254746  0.        24.       ]","[-1.23102227  0.          0.        ]","[-0.02091853 -0.         -0.        ]"
"163","[ 7.07620801  0.         24.        ]","[-1.24926659  0.          0.        ]","[-0.01824431 -0.         -0.        ]"
"164","[ 5.81141956  0.         24.        ]","[-1.26478845  0.          0.        ]","[-0.01552186 -0.         -0.        ]"
"165","[ 4.53387303  0.         24.        ]","[-1.27754653  0.          0.        ]","[-0.01275808 -0.         -0.        ]"
"166","[ 3.24636639  0.         24.        ]","[-1.28750664  0.          0.        ]","[-0.00996011 -0.         -0.        ]"
"167","[ 1.95172444  0.         24.        ]","[-1.29464195  0.          0.        ]","[-0.00713531 -0.         -0.        ]"
"168","[ 0.65279126  0.         24.        ]","[-1.29893319  0.          0.        ]","[-0.00429124 -0.         -0.        ]"
"169","[-0.64757746  0.         24.        ]","[-1.30036872  0.          0.        ]","[-0.00143553 -0.         -0.        ]"
"170","[-1.94652211  0.         24.        ]","[-1.29894465  0.          0.        ]","[0.00142407 0.         0.        ]"
"171","[-3.24118696  0.         24.        ]","[-1.29466485  0.          0.        ]","[0.0042798 0.        0.       ]"
"172","[-4.52872787  0.         24.        ]","[-1.28754091  0.          0.        ]","[0.00712394 0.         0.        ]"
"173","[-5.80631995  0.         24.        ]","[-1.27759208  0.          0.        ]","[0.00994883 0.         0.        ]"
"174","[-7.07116511  0.         24.        ]","[-1.26484516  0.          0.        ]","[0.01274692 0.         0.        ]"
"175","[-8.32049941  0.         24.        ]","[-1.2493343  0.         0.       ]","[0.01551086 0.         0.        ]"
"176","[-9.55160022  0.         24.        ]","[-1.23110081  0.          0.        ]","[0.01823349 0.         0.        ]"
"177","[-10.76179313   0.          24.        ]","[-1.2101929  0.         0.       ]","[0.02090791 0.         0.        ]"
"178","[-11.94845852   0.          24.        ]","[-1.1866654  0.         0.       ]","[0.02352751 0.         0.        ]"
"179","[-13.10903793   0.          24.        ]","[-1.1605794  0.         0.       ]","[0.02608599 0.         0.        ]"
"180","[-14.24103991   0.          24.        ]","[-1.13200198  0.          0.        ]","[0.02857742 0.         0.        ]"
"181","[-15.34204567   0.          24.        ]","[-1.10100576  0.          0.        ]","[0.03099622 0.         0.        ]"
"182","[-16.40971426   0.          24.        ]","[-1.06766858  0.          0.        ]","[0.03333718 0.         0.        ]"
"183","[-17.44178732   0.          24.        ]","[-1.03207307  0.          0.        ]","[0.03559552 0.         0.        ]"
"184","[-18.43609357   0.          24.        ]","[-0.99430625  0.          0.        ]","[0.03776682 0.         0.        ]"
"185","[-19.39055273   0.          24.        ]","[-0.95445916  0.          0.        ]","[0.03984709 0.         0.        ]"
"186","[-20.30317918   0.          24.        ]","[-0.91262645  0.          0.        ]","[0.04183271 0.         0.        ]"
"187","[-21.17208519   0.          24.        ]","[-0.868906  0.        0.      ]","[0.04372045 0.         0.        ]"
"188","[-21.99548373   0.          24.        ]","[-0.82339855  0.          0.        ]","[0.04550746 0.         0.        ]"
"189","[-22.77169106   0.          24.        ]","[-0.77620733  0.          0.        ]","[0.04719122 0.         0.        ]"
"190","[-23.49912882   0.          24.        ]","[-0.72743776  0.          0.        ]","[0.04876957 0.         0.        ]"
"191","[-24.17632595   0.          24.        ]","[-0.67719713  0.          0.        ]","[0.05024063 0.         0.        ]"
"192","[-24.80192027   0.          24.        ]","[-0.62559432  0.          0.        ]","[0.05160281 0.         0.        ]"
"193","[-25.3746598   0.         24.       ]","[-0.57273953  0.          0.        ]","[0.0528548 0.        0.       ]"
"194","[-25.89340384   0.          24.        ]","[-0.51874404  0.          0.        ]","[0.05399548 0.         0.        ]"
"195","[-26.35712391   0.          24.        ]","[-0.46372007  0.          0.        ]","[0.05502398 0.         0.        ]"
"196","[-26.76490441   0.          24.        ]","[-0.40778051  0.          0.        ]","[0.05593956 0.         0.        ]"
"197","[-27.11594325   0.          24.        ]","[-0.35103884  0.          0.        ]","[0.05674167 0.         0.        ]"
"198","[-27.40955221   0.          24.        ]","[-0.29360897  0.          0.        ]","[0.05742987 0.         0.        ]"
"199","[-27.64515736   0.          24.        ]","[-0.23560515  0.          0.        ]","[0.05800382 0.         0.        ]"
"200","[-27.82229922   0.          24.        ]","[-0.17714186  0.          0.        ]","[0.05846329 0.         0.        ]"
"201","[-27.94063299   0.          24.        ]","[-0.11833377  0.          0.        ]","[0.05880809 0.         0.        ]"
"202","[-27.99992864   0.          24.        ]","[-0.05929566  0.          0.        ]","[0.05903811 0.         0.        ]"
"203","[-28.00007102   0.          24.        ]","[-0.00014238  0.          0.        ]","[0.05915328 0.         0.        ]"
"204","[-27.94105984   0.          24.        ]","[0.05901118 0.         0.        ]","[0.05915355 0.         0.        ]"
"205","[-27.82300972   0.          24.        ]","[0.11805012 0.         0.        ]","[0.05903894 0.         0.        ]"
"206","[-27.64615013   0.          24.        ]","[0.17685959 0.         0.        ]","[0.05880947 0.         0.        ]"
"207","[-27.41082531   0.          24.        ]","[0.23532481 0.         0.        ]","[0.05846522 0.         0.        ]"
"208","[-27.11749419   0.          24.        ]","[0.29333112 0.         0.        ]","[0.05800631 0.         0.        ]"
"209","[-26.76673017   0.          24.        ]","[0.35076402 0.         0.        ]","[0.0574329 0.        0.       ]"
"210","[-26.35922089   0.          24.        ]","[0.40750928 0.         0.        ]","[0.05674526 0.         0.        ]"
"211","[-25.89576791   0.          24.        ]","[0.46345297 0.         0.        ]","[0.05594369 0.         0.        ]"
"212","[-25.37728629   0.          24.        ]","[0.51848163 0.         0.        ]","[0.05502865 0.         0.        ]"
"213","[-24.80480396   0.          24.        ]","[0.57248233 0.         0.        ]","[0.0540007 0.        0.       ]"
"214","[-24.17946108   0.          24.        ]","[0.62534288 0.         0.        ]","[0.05286055 0.         0.        ]"
"215","[-23.5025091   0.         24.       ]","[0.67695198 0.         0.        ]","[0.0516091 0.        0.       ]"
"216","[-22.77530968   0.          24.        ]","[0.72719942 0.         0.        ]","[0.05024744 0.         0.        ]"
"217","[-21.99933335   0.          24.        ]","[0.77597633 0.         0.        ]","[0.04877691 0.         0.        ]"
"218","[-21.17615795   0.          24.        ]","[0.8231754 0.        0.       ]","[0.04719907 0.         0.        ]"
"219","[-20.30746674   0.          24.        ]","[0.86869121 0.         0.        ]","[0.04551581 0.         0.        ]"
"220","[-19.39504624   0.          24.        ]","[0.9124205 0.        0.       ]","[0.04372929 0.         0.        ]"
"221","[-18.44078372   0.          24.        ]","[0.95426253 0.         0.        ]","[0.04184203 0.         0.        ]"
"222","[-17.44666432   0.          24.        ]","[0.9941194 0.        0.       ]","[0.03985687 0.         0.        ]"
"223","[-16.41476787   0.          24.        ]","[1.03189645 0.         0.        ]","[0.03777705 0.         0.        ]"
"224","[-15.34726524   0.          24.        ]","[1.06750263 0.         0.        ]","[0.03560618 0.         0.        ]"
"225","[-14.24641436   0.          24.        ]","[1.10085088 0.         0.        ]","[0.03334825 0.         0.        ]"
"226","[-13.11455581   0.          24.        ]","[1.13185855 0.         0.        ]","[0.03100767 0.         0.        ]"
"227","[-11.95410802   0.          24.        ]","[1.16044779 0.         0.        ]","[0.02858924 0.         0.        ]"
"228","[-10.76756208   0.          24.        ]","[1.18654594 0.         0.        ]","[0.02609815 0.         0.        ]"
"229","[-9.55747617  0.         24.        ]","[1.21008591 0.         0.        ]","[0.02353997 0.         0.        ]"
"230","[-8.32646961  0.         24.        ]","[1.23100656 0.         0.        ]","[0.02092065 0.         0.        ]"
"231","[-7.07721657  0.         24.        ]","[1.24925304 0.         0.        ]","[0.01824648 0.         0.        ]"
"232","[-5.81243946  0.         24.        ]","[1.26477711 0.         0.        ]","[0.01552407 0.         0.        ]"
"233","[-4.53490204  0.         24.        ]","[1.27753742 0.         0.        ]","[0.01276031 0.         0.        ]"
"234","[-3.24740227  0.         24.        ]","[1.28749978 0.         0.        ]","[0.00996236 0.         0.        ]"
"235","[-1.9527649  0.        24.       ]","[1.29463736 0.         0.        ]","[0.00713759 0.         0.        ]"
"236","[-0.65383401  0.         24.        ]","[1.29893089 0.         0.        ]","[0.00429352 0.         0.        ]"
"237","[ 0.6465347  0.        24.       ]","[1.30036871 0.         0.        ]","[0.00143782 0.         0.        ]"
"238","[ 1.94548164  0.         24.        ]","[1.29894694 0.         0.        ]","[-0.00142177 -0.         -0.        ]"
"239","[ 3.24015106  0.         24.        ]","[1.29466942 0.         0.        ]","[-0.00427752 -0.         -0.        ]"
"240","[ 4.52769881  0.         24.        ]","[1.28754776 0.         0.        ]","[-0.00712167 -0.         -0.        ]"
"241","[ 5.8053  0.     24.    ]","[1.27760119 0.         0.        ]","[-0.00994657 -0.         -0.        ]"
"242","[ 7.0701565  0.        24.       ]","[1.2648565 0.        0.       ]","[-0.01274469 -0.         -0.        ]"
"243","[ 8.31950434  0.         24.        ]","[1.24934784 0.         0.        ]","[-0.01550866 -0.         -0.        ]"
"244","[ 9.55062085  0.         24.        ]","[1.23111652 0.         0.        ]","[-0.01823132 -0.         -0.        ]"
"245","[10.76083158  0.         24.        ]","[1.21021073 0.         0.        ]","[-0.02090578 -0.         -0.        ]"
"246","[11.94751688  0.         24.        ]","[1.1866853 0.        0.       ]","[-0.02352543 -0.         -0.        ]"
"247","[13.10811822  0.         24.        ]","[1.16060133 0.         0.        ]","[-0.02608397 -0.         -0.        ]"
"248","[14.2401441  0.        24.       ]","[1.13202588 0.         0.        ]","[-0.02857545 -0.         -0.        ]"
"249","[15.34117567  0.         24.        ]","[1.10103157 0.         0.        ]","[-0.03099431 -0.         -0.        ]"
"250","[16.40887191  0.         24.        ]","[1.06769624 0.         0.        ]","[-0.03333534 -0.         -0.        ]"
"251","[17.44097441  0.         24.        ]","[1.0321025 0.        0.       ]","[-0.03559374 -0.         -0.        ]"
"252","[18.43531179  0.         24.        ]","[0.99433738 0.         0.        ]","[-0.03776511 -0.         -0.        ]"
"253","[19.38980372  0.         24.        ]","[0.95449193 0.         0.        ]","[-0.03984546 -0.         -0.        ]"
"254","[20.30246449  0.         24.        ]","[0.91266078 0.         0.        ]","[-0.04183115 -0.         -0.        ]"
"255","[21.17140629  0.         24.        ]","[0.8689418 0.        0.       ]","[-0.04371898 -0.         -0.        ]"
"256","[21.99484203  0.         24.        ]","[0.82343574 0.         0.        ]","[-0.04550606 -0.         -0.        ]"
"257","[22.77108785  0.         24.        ]","[0.77624582 0.         0.        ]","[-0.04718991 -0.         -0.        ]"
"258","[23.49856532  0.         24.        ]","[0.72747748 0.         0.        ]","[-0.04876834 -0.         -0.        ]"
"259","[24.17580331  0.         24.        ]","[0.67723799 0.         0.        ]","[-0.05023949 -0.         -0.        ]"
"260","[24.80143954  0.         24.        ]","[0.62563623 0.         0.        ]","[-0.05160176 -0.         -0.        ]"
"261","[25.37422193  0.         24.        ]","[0.57278239 0.         0.        ]","[-0.05285384 -0.         -0.        ]"
"262","[25.8930097  0.        24.       ]","[0.51878778 0.         0.        ]","[-0.05399461 -0.         -0.        ]"
"263","[26.35677428  0.         24.        ]","[0.46376458 0.         0.        ]","[-0.0550232 -0.        -0.       ]"
"264","[26.76459999  0.         24.        ]","[0.40782571 0.         0.        ]","[-0.05593887 -0.         -0.        ]"
"265","[27.11568463  0.         24.        ]","[0.35108464 0.         0.        ]","[-0.05674107 -0.         -0.        ]"
"266","[27.4093399  0.        24.       ]","[0.29365527 0.         0.        ]","[-0.05742936 -0.         -0.        ]"
"267","[27.64499177  0.         24.        ]","[0.23565187 0.         0.        ]","[-0.05800341 -0.         -0.        ]"
"268","[27.82218067  0.         24.        ]","[0.1771889 0.        0.       ]","[-0.05846297 -0.         -0.        ]"
"269","[27.94056171  0.         24.        ]","[0.11838104 0.         0.        ]","[-0.05880786 -0.         -0.        ]"
"270","[27.99990478  0.         24.        ]","[0.05934307 0.         0.        ]","[-0.05903797 -0.         -0.        ]"
"271","[28.00009461  0.         24.        ]","[0.00018984 0.         0.        ]","[-0.05915323 -0.         -0.        ]"
"272","[27.94113085  0.         24.        ]","[-0.05896377  0.          0.        ]","[-0.0591536 -0.        -0.       ]"
"273","[27.823128  0.       24.      ]","[-0.11800284  0.          0.        ]","[-0.05903908 -0.         -0.        ]"
"274","[27.64631546  0.         24.        ]","[-0.17681255  0.          0.        ]","[-0.0588097 -0.        -0.       ]"
"275","[27.41103737  0.         24.        ]","[-0.23527809  0.          0.        ]","[-0.05846554 -0.         -0.        ]"
"276","[27.11775255  0.         24.        ]","[-0.29328481  0.          0.        ]","[-0.05800672 -0.         -0.        ]"
"277","[26.76703433  0.         24.        ]","[-0.35071822  0.          0.        ]","[-0.05743341 -0.         -0.        ]"
"278","[26.35957026  0.         24.        ]","[-0.40746407  0.          0.        ]","[-0.05674585 -0.         -0.        ]"
"279","[25.8961618  0.        24.       ]","[-0.46340846  0.          0.        ]","[-0.05594438 -0.         -0.        ]"
"280","[25.37772392  0.         24.        ]","[-0.51843789  0.          0.        ]","[-0.05502943 -0.         -0.        ]"
"281","[24.80528446  0.         24.        ]","[-0.57243946  0.          0.        ]","[-0.05400157 -0.         -0.        ]"
"282","[24.17998349  0.         24.        ]","[-0.62530097  0.          0.        ]","[-0.05286151 -0.         -0.        ]"
"283","[23.50307237  0.         24.        ]","[-0.67691112  0.          0.        ]","[-0.05161015 -0.         -0.        ]"
"284","[22.77591267  0.         24.        ]","[-0.7271597  0.         0.       ]","[-0.05024858 -0.         -0.        ]"
"285","[21.99997485  0.         24.        ]","[-0.77593782  0.          0.        ]","[-0.04877813 -0.         -0.        ]"
"286","[21.17683664  0.         24.        ]","[-0.8231382  0.         0.       ]","[-0.04720038 -0.         -0.        ]"
"287","[20.30818124  0.         24.        ]","[-0.8686554  0.         0.       ]","[-0.0455172 -0.        -0.       ]"
"288","[19.39579507  0.         24.        ]","[-0.91238617  0.          0.        ]","[-0.04373077 -0.         -0.        ]"
"289","[18.44156532  0.         24.        ]","[-0.95422975  0.          0.        ]","[-0.04184358 -0.         -0.        ]"
"290","[17.44747706  0.         24.        ]","[-0.99408825  0.          0.        ]","[-0.0398585 -0.        -0.       ]"
"291","[16.41561005  0.         24.        ]","[-1.03186701  0.          0.        ]","[-0.03777876 -0.         -0.        ]"
"292","[15.34813509  0.         24.        ]","[-1.06747496  0.          0.        ]","[-0.03560795 -0.         -0.        ]"
"293","[14.24731003  0.         24.        ]","[-1.10082506  0.          0.        ]","[-0.0333501 -0.        -0.       ]"
"294","[13.11547539  0.         24.        ]","[-1.13183464  0.          0.        ]","[-0.03100958 -0.         -0.        ]"
"295","[11.95504954  0.         24.        ]","[-1.16042585  0.          0.        ]","[-0.02859121 -0.         -0.        ]"
"296","[10.76852352  0.         24.        ]","[-1.18652602  0.          0.        ]","[-0.02610017 -0.         -0.        ]"
"297","[ 9.55845544  0.         24.        ]","[-1.21006807  0.          0.        ]","[-0.02354205 -0.         -0.        ]"
"298","[ 8.3274646  0.        24.       ]","[-1.23099085  0.          0.        ]","[-0.02092277 -0.         -0.        ]"
"299","[ 7.07822511  0.         24.        ]","[-1.24923949  0.          0.        ]","[-0.01824864 -0.         -0.        ]"
"300","[ 5.81345935  0.         24.        ]","[-1.26476576  0.          0.        ]","[-0.01552627 -0.         -0.        ]"
"301","[ 4.53593105  0.         24.        ]","[-1.2775283  0.         0.       ]","[-0.01276254 -0.         -0.        ]"
"302","[ 3.24843813  0.         24.        ]","[-1.28749292  0.          0.        ]","[-0.00996462 -0.         -0.        ]"
"303","[ 1.95380536  0.         24.        ]","[-1.29463278  0.          0.        ]","[-0.00713986 -0.         -0.        ]"
"304","[ 0.65487677  0.         24.        ]","[-1.29892859  0.          0.        ]","[-0.00429581 -0.         -0.        ]"
"305","[-0.64549193  0.         24.        ]","[-1.3003687  0.         0.       ]","[-0.00144012 -0.         -0.        ]"
"306","[-1.94444116  0.         24.        ]","[-1.29894922  0.          0.        ]","[0.00141948 0.         0.        ]"
"307","[-3.23911515  0.         24.        ]","[-1.294674  0.        0.      ]","[0.00427523 0.         0.        ]"
"308","[-4.52666976  0.         24.        ]","[-1.2875546  0.         0.       ]","[0.00711939 0.         0.        ]"
"309","[-5.80428005  0.         24.        ]","[-1.27761029  0.          0.        ]","[0.00994431 0.         0.        ]"
"310","[-7.06914788  0.         24.        ]","[-1.26486783  0.          0.        ]","[0.01274246 0.         0.        ]"
"311","[-8.31850925  0.         24.        ]","[-1.24936137  0.          0.        ]","[0.01550646 0.         0.        ]"
"312","[-9.54964147  0.         24.        ]","[-1.23113222  0.          0.        ]","[0.01822916 0.         0.        ]"
"313","[-10.75987002   0.          24.        ]","[-1.21022856  0.          0.        ]","[0.02090366 0.         0.        ]"
"314","[-11.94657523   0.          24.        ]","[-1.1867052  0.         0.       ]","[0.02352335 0.         0.        ]"
"315","[-13.10719849   0.          24.        ]","[-1.16062326  0.          0.        ]","[0.02608194 0.         0.        ]"
"316","[-14.23924827   0.          24.        ]","[-1.13204978  0.          0.        ]","[0.02857348 0.         0.        ]"
"317","[-15.34030565   0.          24.        ]","[-1.10105738  0.          0.        ]","[0.0309924 0.        0.       ]"
"318","[-16.40802954   0.          24.        ]","[-1.06772389  0.          0.        ]","[0.03333349 0.         0.        ]"
"319","[-17.44016146   0.          24.        ]","[-1.03213193  0.          0.        ]","[0.03559196 0.         0.        ]"
"320","[-18.43452998   0.          24.        ]","[-0.99436852  0.          0.        ]","[0.03776341 0.         0.        ]"
"321","[-19.38905468   0.          24.        ]","[-0.95452469  0.          0.        ]","[0.03984382 0.         0.        ]"
"322","[-20.30174977   0.          24.        ]","[-0.9126951  0.         0.       ]","[0.0418296 0.        0.       ]"
"323","[-21.17072736   0.          24.        ]","[-0.86897759  0.          0.        ]","[0.0437175 0.        0.       ]"
"324","[-21.99420029   0.          24.        ]","[-0.82347292  0.          0.        ]","[0.04550467 0.         0.        ]"
"325","[-22.7704846   0.         24.       ]","[-0.77628432  0.          0.        ]","[0.04718861 0.         0.        ]"
"326","[-23.4980018   0.         24.       ]","[-0.7275172  0.         0.       ]","[0.04876712 0.         0.        ]"
"327","[-24.17528064   0.          24.        ]","[-0.67727884  0.          0.        ]","[0.05023835 0.         0.        ]"
"328","[-24.80095877   0.          24.        ]","[-0.62567813  0.          0.        ]","[0.05160071 0.         0.        ]"
"329","[-25.37378402   0.          24.        ]","[-0.57282525  0.          0.        ]","[0.05285288 0.         0.        ]"
"330","[-25.89261553   0.          24.        ]","[-0.51883151  0.          0.        ]","[0.05399374 0.         0.        ]"
"331","[-26.35642462   0.          24.        ]","[-0.46380909  0.          0.        ]","[0.05502242 0.         0.        ]"
"332","[-26.76429553   0.          24.        ]","[-0.40787091  0.          0.        ]","[0.05593818 0.         0.        ]"
"333","[-27.11542597   0.          24.        ]","[-0.35113044  0.          0.        ]","[0.05674047 0.         0.        ]"
"334","[-27.40912755   0.          24.        ]","[-0.29370158  0.          0.        ]","[0.05742886 0.         0.        ]"
"335","[-27.64482614   0.          24.        ]","[-0.23569859  0.          0.        ]","[0.05800299 0.         0.        ]"
"336","[-27.82206208   0.          24.        ]","[-0.17723594  0.          0.        ]","[0.05846264 0.         0.        ]"
"337","[-27.9404904   0.         24.       ]","[-0.11842832  0.          0.        ]","[0.05880763 0.         0.        ]"
"338","[-27.99988088   0.          24.        ]","[-0.05939048  0.          0.        ]","[0.05903784 0.         0.        ]"
"339","[-28.00011817   0.          24.        ]","[-0.00023729  0.          0.        ]","[0.05915319 0.         0.        ]"
"340","[-27.94120182   0.          24.        ]","[0.05891635 0.         0.        ]","[0.05915365 0.         0.        ]"
"341","[-27.82324625   0.          24.        ]","[0.11795557 0.         0.        ]","[0.05903922 0.         0.        ]"
"342","[-27.64648075   0.          24.        ]","[0.1767655 0.        0.       ]","[0.05880993 0.         0.        ]"
"343","[-27.41124938   0.          24.        ]","[0.23523137 0.         0.        ]","[0.05846587 0.         0.        ]"
"344","[-27.11801088   0.          24.        ]","[0.2932385 0.        0.       ]","[0.05800714 0.         0.        ]"
"345","[-26.76733846   0.          24.        ]","[0.35067242 0.         0.        ]","[0.05743392 0.         0.        ]"
"346","[-26.35991959   0.          24.        ]","[0.40741887 0.         0.        ]","[0.05674645 0.         0.        ]"
"347","[-25.89655566   0.          24.        ]","[0.46336394 0.         0.        ]","[0.05594507 0.         0.        ]"
"348","[-25.37816151   0.          24.        ]","[0.51839415 0.         0.        ]","[0.05503021 0.         0.        ]"
"349","[-24.80576492   0.          24.        ]","[0.57239659 0.         0.        ]","[0.05400244 0.         0.        ]"
"350","[-24.18050586   0.          24.        ]","[0.62525906 0.         0.        ]","[0.05286247 0.         0.        ]"
"351","[-23.50363561   0.          24.        ]","[0.67687026 0.         0.        ]","[0.0516112 0.        0.       ]"
"352","[-22.77651564   0.          24.        ]","[0.72711997 0.         0.        ]","[0.05024971 0.         0.        ]"
"353","[-22.00061631   0.          24.        ]","[0.77589932 0.         0.        ]","[0.04877935 0.         0.        ]"
"354","[-21.17751531   0.          24.        ]","[0.82310101 0.         0.        ]","[0.04720169 0.         0.        ]"
"355","[-20.30889571   0.          24.        ]","[0.8686196 0.        0.       ]","[0.04551859 0.         0.        ]"
"356","[-19.39654387   0.          24.        ]","[0.91235184 0.         0.        ]","[0.04373224 0.         0.        ]"
"357","[-18.44234689   0.          24.        ]","[0.95419697 0.         0.        ]","[0.04184513 0.         0.        ]"
"358","[-17.44828979   0.          24.        ]","[0.99405711 0.         0.        ]","[0.03986013 0.         0.        ]"
"359","[-16.41645222   0.          24.        ]","[1.03183757 0.         0.        ]","[0.03778046 0.         0.        ]"
"360","[-15.34900492   0.          24.        ]","[1.0674473 0.        0.       ]","[0.03560973 0.         0.        ]"
"361","[-14.24820568   0.          24.        ]","[1.10079924 0.         0.        ]","[0.03335194 0.         0.        ]"
"362","[-13.11639496   0.          24.        ]","[1.13181073 0.         0.        ]","[0.03101149 0.         0.        ]"
"363","[-11.95599105   0.          24.        ]","[1.16040391 0.         0.        ]","[0.02859318 0.         0.        ]"
"364","[-10.76948494   0.          24.        ]","[1.18650611 0.         0.        ]","[0.0261022 0.        0.       ]"
"365","[-9.55943471  0.         24.        ]","[1.21005023 0.         0.        ]","[0.02354412 0.         0.        ]"
"366","[-8.32845958  0.         24.        ]","[1.23097513 0.         0.        ]","[0.0209249 0.        0.       ]"
"367","[-7.07923364  0.         24.        ]","[1.24922594 0.         0.        ]","[0.01825081 0.         0.        ]"
"368","[-5.81447923  0.         24.        ]","[1.26475441 0.         0.        ]","[0.01552847 0.         0.        ]"
"369","[-4.53696005  0.         24.        ]","[1.27751918 0.         0.        ]","[0.01276477 0.         0.        ]"
"370","[-3.249474  0.       24.      ]","[1.28748605 0.         0.        ]","[0.00996687 0.         0.        ]"
"371","[-1.95484581  0.         24.        ]","[1.29462819 0.         0.        ]","[0.00714214 0.         0.        ]"
"372","[-0.65591953  0.         24.        ]","[1.29892628 0.         0.        ]","[0.0042981 0.        0.       ]"
"373","[ 0.64444917  0.         24.        ]","[1.3003687 0.        0.       ]","[0.00144241 0.         0.        ]"
"374","[ 1.94340068  0.         24.        ]","[1.29895151 0.         0.        ]","[-0.00141719 -0.         -0.        ]"
"375","[ 3.23807924  0.         24.        ]","[1.29467857 0.         0.        ]","[-0.00427294 -0.         -0.        ]"
"376","[ 4.52564069  0.         24.        ]","[1.28756145 0.         0.        ]","[-0.00711712 -0.         -0.        ]"
"377","[ 5.80326008  0.         24.        ]","[1.27761939 0.         0.        ]","[-0.00994206 -0.         -0.        ]"
"378","[ 7.06813925  0.         24.        ]","[1.26487916 0.         0.        ]","[-0.01274023 -0.         -0.        ]"
"379","[ 8.31751415  0.         24.        ]","[1.24937491 0.         0.        ]","[-0.01550426 -0.         -0.        ]"
"380","[ 9.54866207  0.         24.        ]","[1.23114792 0.         0.        ]","[-0.01822699 -0.         -0.        ]"
"381","[10.75890845  0.         24.        ]","[1.21024638 0.         0.        ]","[-0.02090154 -0.         -0.        ]"
"382","[11.94563355  0.         24.        ]","[1.1867251 0.        0.       ]","[-0.02352128 -0.         -0.        ]"
"383","[13.10627874  0.         24.        ]","[1.16064519 0.         0.        ]","[-0.02607992 -0.         -0.        ]"
"384","[14.23835241  0.         24.        ]","[1.13207368 0.         0.        ]","[-0.02857151 -0.         -0.        ]"
"385","[15.3394356  0.        24.       ]","[1.10108319 0.         0.        ]","[-0.03099049 -0.         -0.        ]"
"386","[16.40718714  0.         24.        ]","[1.06775154 0.         0.        ]","[-0.03333165 -0.         -0.        ]"
"387","[17.4393485  0.        24.       ]","[1.03216136 0.         0.        ]","[-0.03559019 -0.         -0.        ]"
"388","[18.43374815  0.         24.        ]","[0.99439965 0.         0.        ]","[-0.0377617 -0.        -0.       ]"
"389","[19.38830561  0.         24.        ]","[0.95455746 0.         0.        ]","[-0.03984219 -0.         -0.        ]"
"390","[20.30103502  0.         24.        ]","[0.91272941 0.         0.        ]","[-0.04182804 -0.         -0.        ]"
"391","[21.17004841  0.         24.        ]","[0.86901339 0.         0.        ]","[-0.04371603 -0.         -0.        ]"
"392","[21.99355852  0.         24.        ]","[0.82351011 0.         0.        ]","[-0.04550328 -0.         -0.        ]"
"393","[22.76988133  0.         24.        ]","[0.77632281 0.         0.        ]","[-0.0471873 -0.        -0.       ]"
"394","[23.49743824  0.         24.        ]","[0.72755691 0.         0.        ]","[-0.0487659 -0.        -0.       ]"
"395","[24.17475794  0.         24.        ]","[0.6773197 0.        0.       ]","[-0.05023722 -0.         -0.        ]"
"396","[24.80047797  0.         24.        ]","[0.62572003 0.         0.        ]","[-0.05159967 -0.         -0.        ]"
"397","[25.37334608  0.         24.        ]","[0.57286811 0.         0.        ]","[-0.05285192 -0.         -0.        ]"
"398","[25.89222132  0.         24.        ]","[0.51887524 0.         0.        ]","[-0.05399287 -0.         -0.        ]"
"399","[26.35607493  0.         24.        ]","[0.46385361 0.         0.        ]","[-0.05502164 -0.         -0.        ]"
"400","[26.76399104  0.         24.        ]","[0.40791611 0.         0.        ]","[-0.05593749 -0.         -0.        ]"
"401","[27.11516728  0.         24.        ]","[0.35117623 0.         0.        ]","[-0.05673988 -0.         -0.        ]"
"402","[27.40891516  0.         24.        ]","[0.29374789 0.         0.        ]","[-0.05742835 -0.         -0.        ]"
"403","[27.64466047  0.         24.        ]","[0.23574531 0.         0.        ]","[-0.05800258 -0.         -0.        ]"
"404","[27.82194346  0.         24.        ]","[0.17728299 0.         0.        ]","[-0.05846232 -0.         -0.        ]"
"405","[27.94041905  0.         24.        ]","[0.11847559 0.         0.        ]","[-0.0588074 -0.        -0.       ]"
"406","[27.99985694  0.         24.        ]","[0.05943789 0.         0.        ]","[-0.0590377 -0.        -0.       ]"
"407","[28.00014169  0.         24.        ]","[0.00028475 0.         0.        ]","[-0.05915314 -0.         -0.        ]"
"408","[27.94127275  0.         24.        ]","[-0.05886894  0.          0.        ]","[-0.05915369 -0.         -0.        ]"
"409","[27.82336446  0.         24.        ]","[-0.11790829  0.          0.        ]","[-0.05903935 -0.         -0.        ]"
"410","[27.646646  0.       24.      ]","[-0.17671846  0.          0.        ]","[-0.05881016 -0.         -0.        ]"
"411","[27.41146136  0.         24.        ]","[-0.23518464  0.          0.        ]","[-0.05846619 -0.         -0.        ]"
"412","[27.11826917  0.         24.        ]","[-0.29319219  0.          0.        ]","[-0.05800755 -0.         -0.        ]"
"413","[26.76764255  0.         24.        ]","[-0.35062661  0.          0.        ]","[-0.05743442 -0.         -0.        ]"
"414","[26.36026889  0.         24.        ]","[-0.40737366  0.          0.        ]","[-0.05674705 -0.         -0.        ]"
"415","[25.89694947  0.         24.        ]","[-0.46331942  0.          0.        ]","[-0.05594576 -0.         -0.        ]"
"416","[25.37859907  0.         24.        ]","[-0.51835041  0.          0.        ]","[-0.05503099 -0.         -0.        ]"
"417","[24.80624535  0.         24.        ]","[-0.57235372  0.          0.        ]","[-0.05400331 -0.         -0.        ]"
"418","[24.1810282  0.        24.       ]","[-0.62521715  0.          0.        ]","[-0.05286343 -0.         -0.        ]"
"419","[23.50419881  0.         24.        ]","[-0.67682939  0.          0.        ]","[-0.05161224 -0.         -0.        ]"
"420","[22.77711857  0.         24.        ]","[-0.72708024  0.          0.        ]","[-0.05025085 -0.         -0.        ]"
"421","[22.00125775  0.         24.        ]","[-0.77586082  0.          0.        ]","[-0.04878057 -0.         -0.        ]"
"422","[21.17819394  0.         24.        ]","[-0.82306381  0.          0.        ]","[-0.047203 -0.       -0.      ]"
"423","[20.30961014  0.         24.        ]","[-0.86858379  0.          0.        ]","[-0.04551998 -0.         -0.        ]"
"424","[19.39729264  0.         24.        ]","[-0.91231751  0.          0.        ]","[-0.04373371 -0.         -0.        ]"
"425","[18.44312844  0.         24.        ]","[-0.95416419  0.          0.        ]","[-0.04184669 -0.         -0.        ]"
"426","[17.44910249  0.         24.        ]","[-0.99402596  0.          0.        ]","[-0.03986176 -0.         -0.        ]"
"427","[16.41729436  0.         24.        ]","[-1.03180812  0.          0.        ]","[-0.03778217 -0.         -0.        ]"
"428","[15.34987473  0.         24.        ]","[-1.06741963  0.          0.        ]","[-0.03561151 -0.         -0.        ]"
"429","[14.24910132  0.         24.        ]","[-1.10077342  0.          0.        ]","[-0.03335378 -0.         -0.        ]"
"430","[13.1173145  0.        24.       ]","[-1.13178681  0.          0.        ]","[-0.0310134 -0.        -0.       ]"
"431","[11.95693254  0.         24.        ]","[-1.16038196  0.          0.        ]","[-0.02859515 -0.         -0.        ]"
"432","[10.77044635  0.         24.        ]","[-1.18648619  0.          0.        ]","[-0.02610423 -0.         -0.        ]"
"433","[ 9.56041396  0.         24.        ]","[-1.21003239  0.          0.        ]","[-0.0235462 -0.        -0.       ]"
"434","[ 8.32945455  0.         24.        ]","[-1.23095941  0.          0.        ]","[-0.02092702 -0.         -0.        ]"
"435","[ 7.08024216  0.         24.        ]","[-1.24921239  0.          0.        ]","[-0.01825297 -0.         -0.        ]"
"436","[ 5.8154991  0.        24.       ]","[-1.26474306  0.          0.        ]","[-0.01553067 -0.         -0.        ]"
"437","[ 4.53798905  0.         24.        ]","[-1.27751006  0.          0.        ]","[-0.012767 -0.       -0.      ]"
"438","[ 3.25050986  0.         24.        ]","[-1.28747919  0.          0.        ]","[-0.00996913 -0.         -0.        ]"
"439","[ 1.95588626  0.         24.        ]","[-1.2946236  0.         0.       ]","[-0.00714441 -0.         -0.        ]"
"440","[ 0.65696228  0.         24.        ]","[-1.29892398  0.          0.        ]","[-0.00430038 -0.         -0.        ]"
"441","[-0.6434064  0.        24.       ]","[-1.30036868  0.          0.        ]","[-0.0014447 -0.        -0.       ]"
"442","[-1.94236019  0.         24.        ]","[-1.29895379  0.          0.        ]","[0.00141489 0.         0.        ]"
"443","[-3.23704333  0.         24.        ]","[-1.29468313  0.          0.        ]","[0.00427066 0.         0.        ]"
"444","[-4.52461162  0.         24.        ]","[-1.28756829  0.          0.        ]","[0.00711484 0.         0.        ]"
"445","[-5.80224011  0.         24.        ]","[-1.27762849  0.          0.        ]","[0.0099398 0.        0.       ]"
"446","[-7.0671306  0.        24.       ]","[-1.26489049  0.          0.        ]","[0.01273799 0.         0.        ]"
"447","[-8.31651904  0.         24.        ]","[-1.24938844  0.          0.        ]","[0.01550205 0.         0.        ]"
"448","[-9.54768266  0.         24.        ]","[-1.23116361  0.          0.        ]","[0.01822483 0.         0.        ]"
"449","[-10.75794686   0.          24.        ]","[-1.2102642  0.         0.       ]","[0.02089941 0.         0.        ]"
"450","[-11.94469186   0.          24.        ]","[-1.186745  0.        0.      ]","[0.0235192 0.        0.       ]"
"451","[-13.10535897   0.          24.        ]","[-1.16066711  0.          0.        ]","[0.02607789 0.         0.        ]"
"452","[-14.23745654   0.          24.        ]","[-1.13209757  0.          0.        ]","[0.02856954 0.         0.        ]"
"453","[-15.33856553   0.          24.        ]","[-1.10110899  0.          0.        ]","[0.03098858 0.         0.        ]"
"454","[-16.40634473   0.          24.        ]","[-1.06777919  0.          0.        ]","[0.0333298 0.        0.       ]"
"455","[-17.43853551   0.          24.        ]","[-1.03219078  0.          0.        ]","[0.03558841 0.         0.        ]"
"456","[-18.43296629   0.          24.        ]","[-0.99443078  0.          0.        ]","[0.03776 0.      0.     ]"
"457","[-19.38755651   0.          24.        ]","[-0.95459022  0.          0.        ]","[0.03984056 0.         0.        ]"
"458","[-20.30032025   0.          24.        ]","[-0.91276373  0.          0.        ]","[0.04182649 0.         0.        ]"
"459","[-21.16936943   0.          24.        ]","[-0.86904918  0.          0.        ]","[0.04371455 0.         0.        ]"
"460","[-21.99291672   0.          24.        ]","[-0.82354729  0.          0.        ]","[0.04550189 0.         0.        ]"
"461","[-22.76927802   0.          24.        ]","[-0.7763613  0.         0.       ]","[0.04718599 0.         0.        ]"
"462","[-23.49687465   0.          24.        ]","[-0.72759663  0.          0.        ]","[0.04876467 0.         0.        ]"
"463","[-24.1742352   0.         24.       ]","[-0.67736055  0.          0.        ]","[0.05023608 0.         0.        ]"
"464","[-24.79999713   0.          24.        ]","[-0.62576193  0.          0.        ]","[0.05159862 0.         0.        ]"
"465","[-25.37290811   0.          24.        ]","[-0.57291098  0.          0.        ]","[0.05285096 0.         0.        ]"
"466","[-25.89182708   0.          24.        ]","[-0.51891897  0.          0.        ]","[0.053992 0.       0.      ]"
"467","[-26.3557252   0.         24.       ]","[-0.46389812  0.          0.        ]","[0.05502086 0.         0.        ]"
"468","[-26.76368651   0.          24.        ]","[-0.40796131  0.          0.        ]","[0.0559368 0.        0.       ]"
"469","[-27.11490854   0.          24.        ]","[-0.35122203  0.          0.        ]","[0.05673928 0.         0.        ]"
"470","[-27.40870274   0.          24.        ]","[-0.29379419  0.          0.        ]","[0.05742784 0.         0.        ]"
"471","[-27.64449476   0.          24.        ]","[-0.23579203  0.          0.        ]","[0.05800216 0.         0.        ]"
"472","[-27.82182479   0.          24.        ]","[-0.17733003  0.          0.        ]","[0.058462 0.       0.      ]"
"473","[-27.94034766   0.          24.        ]","[-0.11852286  0.          0.        ]","[0.05880717 0.         0.        ]"
"474","[-27.99983296   0.          24.        ]","[-0.0594853  0.         0.       ]","[0.05903756 0.         0.        ]"
"475","[-28.00016517   0.          24.        ]","[-0.00033221  0.          0.        ]","[0.05915309 0.         0.        ]"
"476","[-27.94134365   0.          24.        ]","[0.05882153 0.         0.        ]","[0.05915374 0.         0.        ]"
"477","[-27.82348263   0.          24.        ]","[0.11786102 0.         0.        ]","[0.05903949 0.         0.        ]"
"478","[-27.64681122   0.          24.        ]","[0.17667141 0.         0.        ]","[0.05881039 0.         0.        ]"
"479","[-27.4116733   0.         24.       ]","[0.23513792 0.         0.        ]","[0.05846651 0.         0.        ]"
"480","[-27.11852742   0.          24.        ]","[0.29314588 0.         0.        ]","[0.05800796 0.         0.        ]"
"481","[-26.76794661   0.          24.        ]","[0.35058081 0.         0.        ]","[0.05743493 0.         0.        ]"
"482","[-26.36061816   0.          24.        ]","[0.40732845 0.         0.        ]","[0.05674764 0.         0.        ]"
"483","[-25.89734326   0.          24.        ]","[0.4632749 0.        0.       ]","[0.05594645 0.         0.        ]"
"484","[-25.37903659   0.          24.        ]","[0.51830667 0.         0.        ]","[0.05503177 0.         0.        ]"
"485","[-24.80672574   0.          24.        ]","[0.57231085 0.         0.        ]","[0.05400418 0.         0.        ]"
"486","[-24.18155051   0.          24.        ]","[0.62517524 0.         0.        ]","[0.05286439 0.         0.        ]"
"487","[-23.50476198   0.          24.        ]","[0.67678853 0.         0.        ]","[0.05161329 0.         0.        ]"
"488","[-22.77772147   0.          24.        ]","[0.72704051 0.         0.        ]","[0.05025199 0.         0.        ]"
"489","[-22.00189916   0.          24.        ]","[0.77582231 0.         0.        ]","[0.0487818 0.        0.       ]"
"490","[-21.17887254   0.          24.        ]","[0.82302661 0.         0.        ]","[0.0472043 0.        0.       ]"
"491","[-20.31032456   0.          24.        ]","[0.86854799 0.         0.        ]","[0.04552138 0.         0.        ]"
"492","[-19.39804138   0.          24.        ]","[0.91228317 0.         0.        ]","[0.04373519 0.         0.        ]"
"493","[-18.44390997   0.          24.        ]","[0.95413141 0.         0.        ]","[0.04184824 0.         0.        ]"
"494","[-17.44991516   0.          24.        ]","[0.99399481 0.         0.        ]","[0.03986339 0.         0.        ]"
"495","[-16.41813648   0.          24.        ]","[1.03177868 0.         0.        ]","[0.03778387 0.         0.        ]"
"496","[-15.35074452   0.          24.        ]","[1.06739196 0.         0.        ]","[0.03561328 0.         0.        ]"
"497","[-14.24999693   0.          24.        ]","[1.10074759 0.         0.        ]","[0.03335563 0.         0.        ]"
"498","[-13.11823403   0.          24.        ]","[1.1317629 0.        0.       ]","[0.03101531 0.         0.        ]"
"499","[-11.95787401   0.          24.        ]","[1.16036002 0.         0.        ]","[0.02859712 0.         0.        ]"
