"time","theta3d","omega3d","alpha3d"
"0","[40.92291306  0.          8.        ]","[-0.07708694  0.          0.        ]","[-0.07708694 -0.         -0.        ]"
"1","[40.76885857  0.          8.        ]","[-0.15405449  0.          0.        ]","[-0.07696756 -0.         -0.        ]"
"2","[40.53807551  0.          8.        ]","[-0.23078306  0.          0.        ]","[-0.07672857 -0.         -0.        ]"
"3","[40.23092295  0.          8.        ]","[-0.30715256  0.          0.        ]","[-0.0763695 -0.        -0.       ]"
"4","[39.84788069  0.          8.        ]","[-0.38304227  0.          0.        ]","[-0.0758897 -0.        -0.       ]"
"5","[39.38955012  0.          8.        ]","[-0.45833057  0.          0.        ]","[-0.0752883 -0.        -0.       ]"
"6","[38.85665528  0.          8.        ]","[-0.53289484  0.          0.        ]","[-0.07456427 -0.         -0.        ]"
"7","[38.25004397  0.          8.        ]","[-0.6066113  0.         0.       ]","[-0.07371646 -0.         -0.        ]"
"8","[37.57068906  0.          8.        ]","[-0.67935491  0.          0.        ]","[-0.07274361 -0.         -0.        ]"
"9","[36.81968973  0.          8.        ]","[-0.75099934  0.          0.        ]","[-0.07164442 -0.         -0.        ]"
"10","[35.99827279  0.          8.        ]","[-0.82141694  0.          0.        ]","[-0.0704176 -0.        -0.       ]"
"11","[35.10779395  0.          8.        ]","[-0.89047884  0.          0.        ]","[-0.0690619 -0.        -0.       ]"
"12","[34.14973892  0.          8.        ]","[-0.95805503  0.          0.        ]","[-0.06757619 -0.         -0.        ]"
"13","[33.12572436  0.          8.        ]","[-1.02401455  0.          0.        ]","[-0.06595952 -0.         -0.        ]"
"14","[32.03749864  0.          8.        ]","[-1.08822572  0.          0.        ]","[-0.06421117 -0.         -0.        ]"
"15","[30.88694221  0.          8.        ]","[-1.15055644  0.          0.        ]","[-0.06233072 -0.         -0.        ]"
"16","[29.67606765  0.          8.        ]","[-1.21087455  0.          0.        ]","[-0.06031812 -0.         -0.        ]"
"17","[28.40701934  0.          8.        ]","[-1.26904831  0.          0.        ]","[-0.05817376 -0.         -0.        ]"
"18","[27.08207252  0.          8.        ]","[-1.32494682  0.          0.        ]","[-0.05589851 -0.         -0.        ]"
"19","[25.70363191  0.          8.        ]","[-1.37844061  0.          0.        ]","[-0.0534938 -0.        -0.       ]"
"20","[24.27422964  0.          8.        ]","[-1.42940227  0.          0.        ]","[-0.05096165 -0.         -0.        ]"
"21","[22.79652261  0.          8.        ]","[-1.47770703  0.          0.        ]","[-0.04830477 -0.         -0.        ]"
"22","[21.27328907  0.          8.        ]","[-1.52323354  0.          0.        ]","[-0.04552651 -0.         -0.        ]"
"23","[19.70742455  0.          8.        ]","[-1.56586452  0.          0.        ]","[-0.04263098 -0.         -0.        ]"
"24","[18.10193701  0.          8.        ]","[-1.60548755  0.          0.        ]","[-0.03962303 -0.         -0.        ]"
"25","[16.45994121  0.          8.        ]","[-1.6419958  0.         0.       ]","[-0.03650826 -0.         -0.        ]"
"26","[14.78465238  0.          8.        ]","[-1.67528883  0.          0.        ]","[-0.03329303 -0.         -0.        ]"
"27","[13.0793791  0.         8.       ]","[-1.70527327  0.          0.        ]","[-0.02998445 -0.         -0.        ]"
"28","[11.34751549  0.          8.        ]","[-1.73186361  0.          0.        ]","[-0.02659034 -0.         -0.        ]"
"29","[9.59253266 0.         8.        ]","[-1.75498283  0.          0.        ]","[-0.02311922 -0.         -0.        ]"
"30","[7.8179696 0.        8.       ]","[-1.77456306  0.          0.        ]","[-0.01958023 -0.         -0.        ]"
"31","[6.02742345 0.         8.        ]","[-1.79054615  0.          0.        ]","[-0.01598309 -0.         -0.        ]"
"32","[4.22453928 0.         8.        ]","[-1.80288417  0.          0.        ]","[-0.01233802 -0.         -0.        ]"
"33","[2.41299943 0.         8.        ]","[-1.81153985  0.          0.        ]","[-0.00865568 -0.         -0.        ]"
"34","[0.59651256 0.         8.        ]","[-1.81648687  0.          0.        ]","[-0.00494702 -0.         -0.        ]"
"35","[-1.2211976  0.         8.       ]","[-1.81771016  0.          0.        ]","[-0.00122328 -0.         -0.        ]"
"36","[-3.03640356  0.          8.        ]","[-1.81520596  0.          0.        ]","[0.0025042 0.        0.       ]"
"37","[-4.8453855  0.         8.       ]","[-1.80898193  0.          0.        ]","[0.00622403 0.         0.        ]"
"38","[-6.64444254  0.          8.        ]","[-1.79905704  0.          0.        ]","[0.00992489 0.         0.        ]"
"39","[-8.42990393  0.          8.        ]","[-1.78546139  0.          0.        ]","[0.01359565 0.         0.        ]"
"40","[-10.19813991   0.           8.        ]","[-1.76823597  0.          0.        ]","[0.01722542 0.         0.        ]"
"41","[-11.94557218   0.           8.        ]","[-1.74743227  0.          0.        ]","[0.0208037 0.        0.       ]"
"42","[-13.66868401   0.           8.        ]","[-1.72311184  0.          0.        ]","[0.02432043 0.         0.        ]"
"43","[-15.36402977   0.           8.        ]","[-1.69534575  0.          0.        ]","[0.02776608 0.         0.        ]"
"44","[-17.0282438   0.          8.       ]","[-1.66421403  0.          0.        ]","[0.03113172 0.         0.        ]"
"45","[-18.65804877   0.           8.        ]","[-1.62980497  0.          0.        ]","[0.03440906 0.         0.        ]"
"46","[-20.25026322   0.           8.        ]","[-1.59221445  0.          0.        ]","[0.03759053 0.         0.        ]"
"47","[-21.80180841   0.           8.        ]","[-1.55154519  0.          0.        ]","[0.04066926 0.         0.        ]"
"48","[-23.30971443   0.           8.        ]","[-1.50790602  0.          0.        ]","[0.04363916 0.         0.        ]"
"49","[-24.77112556   0.           8.        ]","[-1.46141113  0.          0.        ]","[0.04649489 0.         0.        ]"
"50","[-26.18330482   0.           8.        ]","[-1.41217927  0.          0.        ]","[0.04923186 0.         0.        ]"
"51","[-27.54363788   0.           8.        ]","[-1.36033305  0.          0.        ]","[0.05184622 0.         0.        ]"
"52","[-28.84963611   0.           8.        ]","[-1.30599823  0.          0.        ]","[0.05433483 0.         0.        ]"
"53","[-30.0989391   0.          8.       ]","[-1.24930299  0.          0.        ]","[0.05669524 0.         0.        ]"
"54","[-31.28931646   0.           8.        ]","[-1.19037736  0.          0.        ]","[0.05892563 0.         0.        ]"
"55","[-32.41866905   0.           8.        ]","[-1.12935259  0.          0.        ]","[0.06102477 0.         0.        ]"
"56","[-33.48502966   0.           8.        ]","[-1.06636062  0.          0.        ]","[0.06299197 0.         0.        ]"
"57","[-34.48656329   0.           8.        ]","[-1.00153362  0.          0.        ]","[0.06482699 0.         0.        ]"
"58","[-35.42156689   0.           8.        ]","[-0.9350036  0.         0.       ]","[0.06653002 0.         0.        ]"
"59","[-36.28846891   0.           8.        ]","[-0.86690202  0.          0.        ]","[0.06810158 0.         0.        ]"
"60","[-37.08582844   0.           8.        ]","[-0.79735953  0.          0.        ]","[0.06954249 0.         0.        ]"
"61","[-37.81233421   0.           8.        ]","[-0.72650577  0.          0.        ]","[0.07085376 0.         0.        ]"
"62","[-38.46680342   0.           8.        ]","[-0.65446921  0.          0.        ]","[0.07203656 0.         0.        ]"
"63","[-39.04818045   0.           8.        ]","[-0.58137703  0.          0.        ]","[0.07309218 0.         0.        ]"
"64","[-39.55553557   0.           8.        ]","[-0.50735512  0.          0.        ]","[0.07402191 0.         0.        ]"
"65","[-39.98806366   0.           8.        ]","[-0.43252809  0.          0.        ]","[0.07482704 0.         0.        ]"
"66","[-40.34508295   0.           8.        ]","[-0.3570193  0.         0.       ]","[0.07550879 0.         0.        ]"
"67","[-40.62603396   0.           8.        ]","[-0.28095101  0.          0.        ]","[0.07606829 0.         0.        ]"
"68","[-40.83047847   0.           8.        ]","[-0.20444451  0.          0.        ]","[0.0765065 0.        0.       ]"
"69","[-40.95809875   0.           8.        ]","[-0.12762028  0.          0.        ]","[0.07682423 0.         0.        ]"
"70","[-41.00869697   0.           8.        ]","[-0.05059822  0.          0.        ]","[0.07702206 0.         0.        ]"
"71","[-40.9821948   0.          8.       ]","[0.02650218 0.         0.        ]","[0.0771004 0.        0.       ]"
"72","[-40.87863325   0.           8.        ]","[0.10356155 0.         0.        ]","[0.07705937 0.         0.        ]"
"73","[-40.69817277   0.           8.        ]","[0.18046047 0.         0.        ]","[0.07689892 0.         0.        ]"
"74","[-40.44109358   0.           8.        ]","[0.25707919 0.         0.        ]","[0.07661872 0.         0.        ]"
"75","[-40.10779614   0.           8.        ]","[0.33329744 0.         0.        ]","[0.07621825 0.         0.        ]"
"76","[-39.69880195   0.           8.        ]","[0.40899419 0.         0.        ]","[0.07569676 0.         0.        ]"
"77","[-39.21475443   0.           8.        ]","[0.48404752 0.         0.        ]","[0.07505333 0.         0.        ]"
"78","[-38.65642002   0.           8.        ]","[0.55833441 0.         0.        ]","[0.07428689 0.         0.        ]"
"79","[-38.02468936   0.           8.        ]","[0.63173065 0.         0.        ]","[0.07339624 0.         0.        ]"
"80","[-37.3205786   0.          8.       ]","[0.70411077 0.         0.        ]","[0.07238012 0.         0.        ]"
"81","[-36.54523063   0.           8.        ]","[0.77534797 0.         0.        ]","[0.0712372 0.        0.       ]"
"82","[-35.69991644   0.           8.        ]","[0.84531419 0.         0.        ]","[0.06996622 0.         0.        ]"
"83","[-34.78603629   0.           8.        ]","[0.91388014 0.         0.        ]","[0.06856595 0.         0.        ]"
"84","[-33.80512082   0.           8.        ]","[0.98091547 0.         0.        ]","[0.06703533 0.         0.        ]"
"85","[-32.75883189   0.           8.        ]","[1.04628893 0.         0.        ]","[0.06537346 0.         0.        ]"
"86","[-31.64896322   0.           8.        ]","[1.10986866 0.         0.        ]","[0.06357973 0.         0.        ]"
"87","[-30.47744071   0.           8.        ]","[1.17152251 0.         0.        ]","[0.06165384 0.         0.        ]"
"88","[-29.24632231   0.           8.        ]","[1.2311184 0.        0.       ]","[0.05959589 0.         0.        ]"
"89","[-27.9577975   0.          8.       ]","[1.28852482 0.         0.        ]","[0.05740642 0.         0.        ]"
"90","[-26.61418621   0.           8.        ]","[1.34361129 0.         0.        ]","[0.05508648 0.         0.        ]"
"91","[-25.21793721   0.           8.        ]","[1.396249 0.       0.      ]","[0.0526377 0.        0.       ]"
"92","[-23.77162586   0.           8.        ]","[1.44631135 0.         0.        ]","[0.05006235 0.         0.        ]"
"93","[-22.27795119   0.           8.        ]","[1.49367467 0.         0.        ]","[0.04736333 0.         0.        ]"
"94","[-20.73973226   0.           8.        ]","[1.53821893 0.         0.        ]","[0.04454426 0.         0.        ]"
"95","[-19.15990382   0.           8.        ]","[1.57982844 0.         0.        ]","[0.04160951 0.         0.        ]"
"96","[-17.54151122   0.           8.        ]","[1.61839261 0.         0.        ]","[0.03856417 0.         0.        ]"
"97","[-15.8877045   0.          8.       ]","[1.65380672 0.         0.        ]","[0.03541411 0.         0.        ]"
"98","[-14.20173182   0.           8.        ]","[1.68597267 0.         0.        ]","[0.03216596 0.         0.        ]"
"99","[-12.48693209   0.           8.        ]","[1.71479973 0.         0.        ]","[0.02882706 0.         0.        ]"
"100","[-10.74672686   0.           8.        ]","[1.74020522 0.         0.        ]","[0.02540549 0.         0.        ]"
"101","[-8.98461166  0.          8.        ]","[1.7621152 0.        0.       ]","[0.02190998 0.         0.        ]"
"102","[-7.20414658  0.          8.        ]","[1.78046508 0.         0.        ]","[0.01834988 0.         0.        ]"
"103","[-5.4089464  0.         8.       ]","[1.79520018 0.         0.        ]","[0.01473509 0.         0.        ]"
"104","[-3.60267023  0.          8.        ]","[1.80627617 0.         0.        ]","[0.01107599 0.         0.        ]"
"105","[-1.78901071  0.          8.        ]","[1.81365952 0.         0.        ]","[0.00738335 0.         0.        ]"
"106","[0.02831704 0.         8.        ]","[1.81732776 0.         0.        ]","[0.00366824 0.         0.        ]"
"107","[1.84558673 0.         8.        ]","[1.81726969 0.         0.        ]","[-5.80715124e-05 -0.00000000e+00 -0.00000000e+00]"
"108","[3.65907221 0.         8.        ]","[1.81348548 0.         0.        ]","[-0.0037842 -0.        -0.       ]"
"109","[5.46505891 0.         8.        ]","[1.8059867 0.        0.       ]","[-0.00749879 -0.         -0.        ]"
"110","[7.25985506 0.         8.        ]","[1.79479615 0.         0.        ]","[-0.01119055 -0.         -0.        ]"
"111","[9.03980278 0.         8.        ]","[1.77994772 0.         0.        ]","[-0.01484843 -0.         -0.        ]"
"112","[10.80128883  0.          8.        ]","[1.76148605 0.         0.        ]","[-0.01846167 -0.         -0.        ]"
"113","[12.54075499  0.          8.        ]","[1.73946615 0.         0.        ]","[-0.0220199 -0.        -0.       ]"
"114","[14.25470789  0.          8.        ]","[1.71395291 0.         0.        ]","[-0.02551325 -0.         -0.        ]"
"115","[15.93972843  0.          8.        ]","[1.68502054 0.         0.        ]","[-0.02893237 -0.         -0.        ]"
"116","[17.59248041  0.          8.        ]","[1.65275198 0.         0.        ]","[-0.03226856 -0.         -0.        ]"
"117","[19.20971863  0.          8.        ]","[1.61723822 0.         0.        ]","[-0.03551376 -0.         -0.        ]"
"118","[20.7882962  0.         8.       ]","[1.57857757 0.         0.        ]","[-0.03866065 -0.         -0.        ]"
"119","[22.32517113  0.          8.        ]","[1.53687494 0.         0.        ]","[-0.04170263 -0.         -0.        ]"
"120","[23.81741222  0.          8.        ]","[1.49224108 0.         0.        ]","[-0.04463385 -0.         -0.        ]"
"121","[25.26220406  0.          8.        ]","[1.44479184 0.         0.        ]","[-0.04744924 -0.         -0.        ]"
"122","[26.65685144  0.          8.        ]","[1.39464738 0.         0.        ]","[-0.05014446 -0.         -0.        ]"
"123","[27.9987829  0.         8.       ]","[1.34193146 0.         0.        ]","[-0.05271592 -0.         -0.        ]"
"124","[29.28555366  0.          8.        ]","[1.28677076 0.         0.        ]","[-0.0551607 -0.        -0.       ]"
"125","[30.51484782  0.          8.        ]","[1.22929416 0.         0.        ]","[-0.0574766 -0.        -0.       ]"
"126","[31.68447998  0.          8.        ]","[1.16963217 0.         0.        ]","[-0.05966199 -0.         -0.        ]"
"127","[32.79239631  0.          8.        ]","[1.10791633 0.         0.        ]","[-0.06171584 -0.         -0.        ]"
"128","[33.83667503  0.          8.        ]","[1.04427872 0.         0.        ]","[-0.06363761 -0.         -0.        ]"
"129","[34.81552654  0.          8.        ]","[0.9788515 0.        0.       ]","[-0.06542722 -0.         -0.        ]"
"130","[35.72729305  0.          8.        ]","[0.91176651 0.         0.        ]","[-0.06708499 -0.         -0.        ]"
"131","[36.57044802  0.          8.        ]","[0.84315497 0.         0.        ]","[-0.06861154 -0.         -0.        ]"
"132","[37.34359524  0.          8.        ]","[0.77314722 0.         0.        ]","[-0.07000776 -0.         -0.        ]"
"133","[38.04546772  0.          8.        ]","[0.70187248 0.         0.        ]","[-0.07127473 -0.         -0.        ]"
"134","[38.67492652  0.          8.        ]","[0.6294588 0.        0.       ]","[-0.07241368 -0.         -0.        ]"
"135","[39.23095945  0.          8.        ]","[0.55603293 0.         0.        ]","[-0.07342588 -0.         -0.        ]"
"136","[39.71267975  0.          8.        ]","[0.48172029 0.         0.        ]","[-0.07431263 -0.         -0.        ]"
"137","[40.11932482  0.          8.        ]","[0.40664507 0.         0.        ]","[-0.07507522 -0.         -0.        ]"
"138","[40.45025505  0.          8.        ]","[0.33093023 0.         0.        ]","[-0.07571484 -0.         -0.        ]"
"139","[40.70495274  0.          8.        ]","[0.25469769 0.         0.        ]","[-0.07623254 -0.         -0.        ]"
"140","[40.88302117  0.          8.        ]","[0.17806843 0.         0.        ]","[-0.07662926 -0.         -0.        ]"
"141","[40.98418387  0.          8.        ]","[0.1011627 0.        0.       ]","[-0.07690572 -0.         -0.        ]"
"142","[41.00828412  0.          8.        ]","[0.02410025 0.         0.        ]","[-0.07706245 -0.         -0.        ]"
"143","[40.95528462  0.          8.        ]","[-0.05299951  0.          0.        ]","[-0.07709976 -0.         -0.        ]"
"144","[40.8252674  0.         8.       ]","[-0.13001721  0.          0.        ]","[-0.07701771 -0.         -0.        ]"
"145","[40.61843405  0.          8.        ]","[-0.20683335  0.          0.        ]","[-0.07681614 -0.         -0.        ]"
"146","[40.33510603  0.          8.        ]","[-0.28332802  0.          0.        ]","[-0.07649467 -0.         -0.        ]"
"147","[39.97572532  0.          8.        ]","[-0.35938071  0.          0.        ]","[-0.07605269 -0.         -0.        ]"
"148","[39.5408552  0.         8.       ]","[-0.43487012  0.          0.        ]","[-0.0754894 -0.        -0.       ]"
"149","[39.03118127  0.          8.        ]","[-0.50967394  0.          0.        ]","[-0.07480382 -0.         -0.        ]"
"150","[38.4475125  0.         8.       ]","[-0.58366877  0.          0.        ]","[-0.07399483 -0.         -0.        ]"
"151","[37.79078253  0.          8.        ]","[-0.65672997  0.          0.        ]","[-0.0730612 -0.        -0.       ]"
"152","[37.06205092  0.          8.        ]","[-0.72873161  0.          0.        ]","[-0.07200164 -0.         -0.        ]"
"153","[36.26250446  0.          8.        ]","[-0.79954646  0.          0.        ]","[-0.07081485 -0.         -0.        ]"
"154","[35.39345844  0.          8.        ]","[-0.86904602  0.          0.        ]","[-0.06949956 -0.         -0.        ]"
"155","[34.45635781  0.          8.        ]","[-0.93710062  0.          0.        ]","[-0.0680546 -0.        -0.       ]"
"156","[33.45277824  0.          8.        ]","[-1.00357958  0.          0.        ]","[-0.06647895 -0.         -0.        ]"
"157","[32.38442684  0.          8.        ]","[-1.0683514  0.         0.       ]","[-0.06477182 -0.         -0.        ]"
"158","[31.25314276  0.          8.        ]","[-1.13128408  0.          0.        ]","[-0.06293268 -0.         -0.        ]"
"159","[30.06089731  0.          8.        ]","[-1.19224545  0.          0.        ]","[-0.06096137 -0.         -0.        ]"
"160","[28.80979374  0.          8.        ]","[-1.25110357  0.          0.        ]","[-0.05885812 -0.         -0.        ]"
"161","[27.50206652  0.          8.        ]","[-1.30772722  0.          0.        ]","[-0.05662366 -0.         -0.        ]"
"162","[26.14008007  0.          8.        ]","[-1.36198645  0.          0.        ]","[-0.05425922 -0.         -0.        ]"
"163","[24.72632697  0.          8.        ]","[-1.4137531  0.         0.       ]","[-0.05176665 -0.         -0.        ]"
"164","[23.26342545  0.          8.        ]","[-1.46290153  0.          0.        ]","[-0.04914843 -0.         -0.        ]"
"165","[21.75411622  0.          8.        ]","[-1.50930922  0.          0.        ]","[-0.0464077 -0.        -0.       ]"
"166","[20.20125866  0.          8.        ]","[-1.55285756  0.          0.        ]","[-0.04354834 -0.         -0.        ]"
"167","[18.60782613  0.          8.        ]","[-1.59343252  0.          0.        ]","[-0.04057496 -0.         -0.        ]"
"168","[16.97690068  0.          8.        ]","[-1.63092545  0.          0.        ]","[-0.03749293 -0.         -0.        ]"
"169","[15.31166686  0.          8.        ]","[-1.66523382  0.          0.        ]","[-0.03430837 -0.         -0.        ]"
"170","[13.61540487  0.          8.        ]","[-1.69626199  0.          0.        ]","[-0.03102816 -0.         -0.        ]"
"171","[11.89148298  0.          8.        ]","[-1.72392189  0.          0.        ]","[-0.0276599 -0.        -0.       ]"
"172","[10.14334919  0.          8.        ]","[-1.74813379  0.          0.        ]","[-0.0242119 -0.        -0.       ]"
"173","[8.3745223 0.        8.       ]","[-1.76882689  0.          0.        ]","[-0.02069311 -0.         -0.        ]"
"174","[6.58858234 0.         8.        ]","[-1.78593996  0.          0.        ]","[-0.01711307 -0.         -0.        ]"
"175","[4.78916052 0.         8.        ]","[-1.79942182  0.          0.        ]","[-0.01348186 -0.         -0.        ]"
"176","[2.97992871 0.         8.        ]","[-1.80923181  0.          0.        ]","[-0.00981 -0.      -0.     ]"
"177","[1.16458853 0.         8.        ]","[-1.81534018  0.          0.        ]","[-0.00610837 -0.         -0.        ]"
"178","[-0.65313978  0.          8.        ]","[-1.81772831  0.          0.        ]","[-0.00238813 -0.         -0.        ]"
"179","[-2.46952869  0.          8.        ]","[-1.8163889  0.         0.       ]","[0.00133941 0.         0.        ]"
"180","[-4.28085474  0.          8.        ]","[-1.81132606  0.          0.        ]","[0.00506285 0.         0.        ]"
"181","[-6.08340995  0.          8.        ]","[-1.80255521  0.          0.        ]","[0.00877085 0.         0.        ]"
"182","[-7.87351296  0.          8.        ]","[-1.79010301  0.          0.        ]","[0.0124522 0.        0.       ]"
"183","[-9.64752005  0.          8.        ]","[-1.77400708  0.          0.        ]","[0.01609593 0.         0.        ]"
"184","[-11.40183572   0.           8.        ]","[-1.75431567  0.          0.        ]","[0.01969141 0.         0.        ]"
"185","[-13.13292296   0.           8.        ]","[-1.73108725  0.          0.        ]","[0.02322843 0.         0.        ]"
"186","[-14.83731293   0.           8.        ]","[-1.70438996  0.          0.        ]","[0.02669728 0.         0.        ]"
"187","[-16.51161404   0.           8.        ]","[-1.67430111  0.          0.        ]","[0.03008885 0.         0.        ]"
"188","[-18.15252051   0.           8.        ]","[-1.64090647  0.          0.        ]","[0.03339464 0.         0.        ]"
"189","[-19.75682013   0.           8.        ]","[-1.60429963  0.          0.        ]","[0.03660684 0.         0.        ]"
"190","[-21.32140138   0.           8.        ]","[-1.56458125  0.          0.        ]","[0.03971838 0.         0.        ]"
"191","[-22.84325973   0.           8.        ]","[-1.52185834  0.          0.        ]","[0.04272291 0.         0.        ]"
"192","[-24.31950322   0.           8.        ]","[-1.47624349  0.          0.        ]","[0.04561485 0.         0.        ]"
"193","[-25.74735732   0.           8.        ]","[-1.4278541  0.         0.       ]","[0.04838939 0.         0.        ]"
"194","[-27.12416899   0.           8.        ]","[-1.37681167  0.          0.        ]","[0.05104244 0.         0.        ]"
"195","[-28.44741001   0.           8.        ]","[-1.32324102  0.          0.        ]","[0.05357065 0.         0.        ]"
"196","[-29.71467968   0.           8.        ]","[-1.26726967  0.          0.        ]","[0.05597135 0.         0.        ]"
"197","[-30.92370681   0.           8.        ]","[-1.20902713  0.          0.        ]","[0.05824254 0.         0.        ]"
"198","[-32.07235113   0.           8.        ]","[-1.14864432  0.          0.        ]","[0.06038281 0.         0.        ]"
"199","[-33.15860416   0.           8.        ]","[-1.08625303  0.          0.        ]","[0.06239129 0.         0.        ]"
"200","[-34.18058956   0.           8.        ]","[-1.0219854  0.         0.       ]","[0.06426763 0.         0.        ]"
"201","[-35.1365631   0.          8.       ]","[-0.95597353  0.          0.        ]","[0.06601187 0.         0.        ]"
"202","[-36.02491218   0.           8.        ]","[-0.88834908  0.          0.        ]","[0.06762445 0.         0.        ]"
"203","[-36.84415517   0.           8.        ]","[-0.81924299  0.          0.        ]","[0.06910609 0.         0.        ]"
"204","[-37.5929404   0.          8.       ]","[-0.74878523  0.          0.        ]","[0.07045776 0.         0.        ]"
"205","[-38.27004504   0.           8.        ]","[-0.67710464  0.          0.        ]","[0.07168059 0.         0.        ]"
"206","[-38.87437387   0.           8.        ]","[-0.60432883  0.          0.        ]","[0.07277582 0.         0.        ]"
"207","[-39.40495794   0.           8.        ]","[-0.53058407  0.          0.        ]","[0.07374475 0.         0.        ]"
"208","[-39.86095332   0.           8.        ]","[-0.45599538  0.          0.        ]","[0.07458869 0.         0.        ]"
"209","[-40.24163982   0.           8.        ]","[-0.3806865  0.         0.       ]","[0.07530888 0.         0.        ]"
"210","[-40.54641984   0.           8.        ]","[-0.30478002  0.          0.        ]","[0.07590648 0.         0.        ]"
"211","[-40.77481735   0.           8.        ]","[-0.22839751  0.          0.        ]","[0.07638251 0.         0.        ]"
"212","[-40.92647704   0.           8.        ]","[-0.15165969  0.          0.        ]","[0.07673782 0.         0.        ]"
"213","[-41.00116365   0.           8.        ]","[-0.07468661  0.          0.        ]","[0.07697308 0.         0.        ]"
"214","[-40.99876152   0.           8.        ]","[0.00240213 0.         0.        ]","[0.07708874 0.         0.        ]"
"215","[-40.91927438   0.           8.        ]","[0.07948714 0.         0.        ]","[0.07708502 0.         0.        ]"
"216","[-40.76282532   0.           8.        ]","[0.15644906 0.         0.        ]","[0.07696192 0.         0.        ]"
"217","[-40.52965706   0.           8.        ]","[0.23316826 0.         0.        ]","[0.07671919 0.         0.        ]"
"218","[-40.22013242   0.           8.        ]","[0.30952464 0.         0.        ]","[0.07635638 0.         0.        ]"
"219","[-39.83473497   0.           8.        ]","[0.38539745 0.         0.        ]","[0.07587281 0.         0.        ]"
"220","[-39.37406992   0.           8.        ]","[0.46066505 0.         0.        ]","[0.0752676 0.        0.       ]"
"221","[-38.83886513   0.           8.        ]","[0.53520479 0.         0.        ]","[0.07453974 0.         0.        ]"
"222","[-38.2299723   0.          8.       ]","[0.60889283 0.         0.        ]","[0.07368805 0.         0.        ]"
"223","[-37.54836818   0.           8.        ]","[0.68160411 0.         0.        ]","[0.07271128 0.         0.        ]"
"224","[-36.79515593   0.           8.        ]","[0.75321225 0.         0.        ]","[0.07160814 0.         0.        ]"
"225","[-35.97156636   0.           8.        ]","[0.82358957 0.         0.        ]","[0.07037732 0.         0.        ]"
"226","[-35.07895921   0.           8.        ]","[0.89260715 0.         0.        ]","[0.06901758 0.         0.        ]"
"227","[-34.11882425   0.           8.        ]","[0.96013496 0.         0.        ]","[0.06752781 0.         0.        ]"
"228","[-33.09278224   0.           8.        ]","[1.02604201 0.         0.        ]","[0.06590704 0.         0.        ]"
"229","[-32.00258565   0.           8.        ]","[1.09019659 0.         0.        ]","[0.06415458 0.         0.        ]"
"230","[-30.85011905   0.           8.        ]","[1.1524666 0.        0.       ]","[0.06227001 0.         0.        ]"
"231","[-29.63739915   0.           8.        ]","[1.2127199 0.        0.       ]","[0.0602533 0.        0.       ]"
"232","[-28.36657441   0.           8.        ]","[1.27082474 0.         0.        ]","[0.05810484 0.         0.        ]"
"233","[-27.03992413   0.           8.        ]","[1.32665028 0.         0.        ]","[0.05582554 0.         0.        ]"
"234","[-25.65985703   0.           8.        ]","[1.3800671 0.        0.       ]","[0.05341682 0.         0.        ]"
"235","[-24.22890918   0.           8.        ]","[1.43094785 0.         0.        ]","[0.05088075 0.         0.        ]"
"236","[-22.7497413   0.          8.       ]","[1.47916788 0.         0.        ]","[0.04822003 0.         0.        ]"
"237","[-21.22513538   0.           8.        ]","[1.52460593 0.         0.        ]","[0.04543805 0.         0.        ]"
"238","[-19.65799051   0.           8.        ]","[1.56714487 0.         0.        ]","[0.04253894 0.         0.        ]"
"239","[-18.05131807   0.           8.        ]","[1.60667244 0.         0.        ]","[0.03952757 0.         0.        ]"
"240","[-16.40823606   0.           8.        ]","[1.64308201 0.         0.        ]","[0.03640957 0.         0.        ]"
"241","[-14.73196272   0.           8.        ]","[1.67627334 0.         0.        ]","[0.03319132 0.         0.        ]"
"242","[-13.02580943   0.           8.        ]","[1.70615329 0.         0.        ]","[0.02987996 0.         0.        ]"
"243","[-11.29317282   0.           8.        ]","[1.73263661 0.         0.        ]","[0.02648332 0.         0.        ]"
"244","[-9.53752626  0.          8.        ]","[1.75564655 0.         0.        ]","[0.02300994 0.         0.        ]"
"245","[-7.76241072  0.          8.        ]","[1.77511555 0.         0.        ]","[0.01946899 0.         0.        ]"
"246","[-5.97142497  0.          8.        ]","[1.79098575 0.         0.        ]","[0.0158702 0.        0.       ]"
"247","[-4.16821541  0.          8.        ]","[1.80320956 0.         0.        ]","[0.01222381 0.         0.        ]"
"248","[-2.35646537  0.          8.        ]","[1.81175004 0.         0.        ]","[0.00854048 0.         0.        ]"
"249","[-0.53988414  0.          8.        ]","[1.81658123 0.         0.        ]","[0.00483119 0.         0.        ]"
"250","[1.27780424 0.         8.        ]","[1.81768839 0.         0.        ]","[0.00110716 0.         0.        ]"
"251","[3.09287237 0.         8.        ]","[1.81506813 0.         0.        ]","[-0.00262026 -0.         -0.        ]"
"252","[4.90160084 0.         8.        ]","[1.80872847 0.         0.        ]","[-0.00633966 -0.         -0.        ]"
"253","[6.70028954 0.         8.        ]","[1.79868871 0.         0.        ]","[-0.01003976 -0.         -0.        ]"
"254","[8.48526885 0.         8.        ]","[1.7849793 0.        0.       ]","[-0.0137094 -0.        -0.       ]"
"255","[10.25291043  0.          8.        ]","[1.76764158 0.         0.        ]","[-0.01733773 -0.         -0.        ]"
"256","[11.99963776  0.          8.        ]","[1.74672734 0.         0.        ]","[-0.02091424 -0.         -0.        ]"
"257","[13.72193621  0.          8.        ]","[1.72229844 0.         0.        ]","[-0.0244289 -0.        -0.       ]"
"258","[15.41636246  0.          8.        ]","[1.69442625 0.         0.        ]","[-0.02787219 -0.         -0.        ]"
"259","[17.07955352  0.          8.        ]","[1.66319106 0.         0.        ]","[-0.03123519 -0.         -0.        ]"
"260","[18.70823492  0.          8.        ]","[1.6286814 0.        0.       ]","[-0.03450966 -0.         -0.        ]"
"261","[20.2992283  0.         8.       ]","[1.59099338 0.         0.        ]","[-0.03768802 -0.         -0.        ]"
"262","[21.84945823  0.          8.        ]","[1.55022993 0.         0.        ]","[-0.04076345 -0.         -0.        ]"
"263","[23.35595828  0.          8.        ]","[1.50650005 0.         0.        ]","[-0.04372988 -0.         -0.        ]"
"264","[24.81587635  0.          8.        ]","[1.45991807 0.         0.        ]","[-0.04658197 -0.         -0.        ]"
"265","[26.22647925  0.          8.        ]","[1.4106029 0.        0.       ]","[-0.04931517 -0.         -0.        ]"
"266","[27.5851565  0.         8.       ]","[1.35867725 0.         0.        ]","[-0.05192566 -0.         -0.        ]"
"267","[28.88942344  0.          8.        ]","[1.30426694 0.         0.        ]","[-0.05441031 -0.         -0.        ]"
"268","[30.13692369  0.          8.        ]","[1.24750025 0.         0.        ]","[-0.05676669 -0.         -0.        ]"
"269","[31.32543092  0.          8.        ]","[1.18850724 0.         0.        ]","[-0.05899301 -0.         -0.        ]"
"270","[32.45285011  0.          8.        ]","[1.12741919 0.         0.        ]","[-0.06108805 -0.         -0.        ]"
"271","[33.51721817  0.          8.        ]","[1.06436805 0.         0.        ]","[-0.06305113 -0.         -0.        ]"
"272","[34.51670418  0.          8.        ]","[0.99948602 0.         0.        ]","[-0.06488204 -0.         -0.        ]"
"273","[35.44960924  0.          8.        ]","[0.93290506 0.         0.        ]","[-0.06658096 -0.         -0.        ]"
"274","[36.31436585  0.          8.        ]","[0.86475661 0.         0.        ]","[-0.06814844 -0.         -0.        ]"
"275","[37.10953718  0.          8.        ]","[0.79517133 0.         0.        ]","[-0.06958529 -0.         -0.        ]"
"276","[37.83381597  0.          8.        ]","[0.72427879 0.         0.        ]","[-0.07089254 -0.         -0.        ]"
"277","[38.48602339  0.          8.        ]","[0.65220743 0.         0.        ]","[-0.07207136 -0.         -0.        ]"
"278","[39.06510778  0.          8.        ]","[0.57908439 0.         0.        ]","[-0.07312304 -0.         -0.        ]"
"279","[39.57014331  0.          8.        ]","[0.50503553 0.         0.        ]","[-0.07404886 -0.         -0.        ]"
"280","[40.0003287  0.         8.       ]","[0.4301854 0.        0.       ]","[-0.07485013 -0.         -0.        ]"
"281","[40.35498604  0.          8.        ]","[0.35465734 0.         0.        ]","[-0.07552806 -0.         -0.        ]"
"282","[40.63355961  0.          8.        ]","[0.27857357 0.         0.        ]","[-0.07608377 -0.         -0.        ]"
"283","[40.83561497  0.          8.        ]","[0.20205536 0.         0.        ]","[-0.07651821 -0.         -0.        ]"
"284","[40.96083813  0.          8.        ]","[0.12522316 0.         0.        ]","[-0.0768322 -0.        -0.       ]"
"285","[41.00903498  0.          8.        ]","[0.04819686 0.         0.        ]","[-0.07702631 -0.         -0.        ]"
"286","[40.98013092  0.          8.        ]","[-0.02890406  0.          0.        ]","[-0.07710092 -0.         -0.        ]"
"287","[40.87417068  0.          8.        ]","[-0.10596024  0.          0.        ]","[-0.07705618 -0.         -0.        ]"
"288","[40.69131844  0.          8.        ]","[-0.18285224  0.          0.        ]","[-0.076892 -0.       -0.      ]"
"289","[40.43185813  0.          8.        ]","[-0.25946031  0.          0.        ]","[-0.07660806 -0.         -0.        ]"
"290","[40.096194  0.        8.      ]","[-0.33566414  0.          0.        ]","[-0.07620383 -0.         -0.        ]"
"291","[39.6848513  0.         8.       ]","[-0.41134269  0.          0.        ]","[-0.07567856 -0.         -0.        ]"
"292","[39.1984773  0.         8.       ]","[-0.48637401  0.          0.        ]","[-0.07503131 -0.         -0.        ]"
"293","[38.63784227  0.          8.        ]","[-0.56063503  0.          0.        ]","[-0.07426102 -0.         -0.        ]"
"294","[38.00384075  0.          8.        ]","[-0.63400152  0.          0.        ]","[-0.07336649 -0.         -0.        ]"
"295","[37.29749281  0.          8.        ]","[-0.70634795  0.          0.        ]","[-0.07234643 -0.         -0.        ]"
"296","[36.51994531  0.          8.        ]","[-0.77754749  0.          0.        ]","[-0.07119955 -0.         -0.        ]"
"297","[35.67247327  0.          8.        ]","[-0.84747205  0.          0.        ]","[-0.06992455 -0.         -0.        ]"
"298","[34.75648098  0.          8.        ]","[-0.91599229  0.          0.        ]","[-0.06852024 -0.         -0.        ]"
"299","[33.77350315  0.          8.        ]","[-0.98297783  0.          0.        ]","[-0.06698554 -0.         -0.        ]"
"300","[32.72520575  0.          8.        ]","[-1.0482974  0.         0.       ]","[-0.06531957 -0.         -0.        ]"
"301","[31.61338662  0.          8.        ]","[-1.11181913  0.          0.        ]","[-0.06352173 -0.         -0.        ]"
"302","[30.43997576  0.          8.        ]","[-1.17341086  0.          0.        ]","[-0.06159172 -0.         -0.        ]"
"303","[29.20703525  0.          8.        ]","[-1.23294052  0.          0.        ]","[-0.05952966 -0.         -0.        ]"
"304","[27.91675862  0.          8.        ]","[-1.29027662  0.          0.        ]","[-0.0573361 -0.        -0.       ]"
"305","[26.57146988  0.          8.        ]","[-1.34528875  0.          0.        ]","[-0.05501212 -0.         -0.        ]"
"306","[25.17362176  0.          8.        ]","[-1.39784812  0.          0.        ]","[-0.05255937 -0.         -0.        ]"
"307","[23.72579353  0.          8.        ]","[-1.44782823  0.          0.        ]","[-0.04998011 -0.         -0.        ]"
"308","[22.23068801  0.          8.        ]","[-1.49510552  0.          0.        ]","[-0.04727729 -0.         -0.        ]"
"309","[20.69112793  0.          8.        ]","[-1.53956008  0.          0.        ]","[-0.04445455 -0.         -0.        ]"
"310","[19.11005157  0.          8.        ]","[-1.58107635  0.          0.        ]","[-0.04151627 -0.         -0.        ]"
"311","[17.49050764  0.          8.        ]","[-1.61954393  0.          0.        ]","[-0.03846758 -0.         -0.        ]"
"312","[15.83564934  0.          8.        ]","[-1.6548583  0.         0.       ]","[-0.03531437 -0.         -0.        ]"
"313","[14.14872777  0.          8.        ]","[-1.68692157  0.          0.        ]","[-0.03206327 -0.         -0.        ]"
"314","[12.43308453  0.          8.        ]","[-1.71564324  0.          0.        ]","[-0.02872167 -0.         -0.        ]"
"315","[10.69214363  0.          8.        ]","[-1.7409409  0.         0.       ]","[-0.02529766 -0.         -0.        ]"
"316","[8.92940273 0.         8.        ]","[-1.7627409  0.         0.       ]","[-0.0218 -0.     -0.    ]"
"317","[7.14842379 0.         8.        ]","[-1.78097894  0.          0.        ]","[-0.01823804 -0.         -0.        ]"
"318","[5.35282314 0.         8.        ]","[-1.79560065  0.          0.        ]","[-0.01462171 -0.         -0.        ]"
"319","[3.54626109 0.         8.        ]","[-1.80656206  0.          0.        ]","[-0.0109614 -0.        -0.       ]"
"320","[1.73243114 0.         8.        ]","[-1.81382995  0.          0.        ]","[-0.00726789 -0.         -0.        ]"
"321","[-0.08495108  0.          8.        ]","[-1.81738221  0.          0.        ]","[-0.00355226 -0.         -0.        ]"
"322","[-1.90215907  0.          8.        ]","[-1.817208  0.        0.      ]","[0.00017421 0.         0.        ]"
"323","[-3.71546691  0.          8.        ]","[-1.81330784  0.          0.        ]","[0.00390016 0.         0.        ]"
"324","[-5.52116055  0.          8.        ]","[-1.80569364  0.          0.        ]","[0.0076142 0.        0.       ]"
"325","[-7.31554912  0.          8.        ]","[-1.79438857  0.          0.        ]","[0.01130507 0.         0.        ]"
"326","[-9.09497597  0.          8.        ]","[-1.77942685  0.          0.        ]","[0.01496172 0.         0.        ]"
"327","[-10.85582942   0.           8.        ]","[-1.76085345  0.          0.        ]","[0.0185734 0.        0.       ]"
"328","[-12.59455311   0.           8.        ]","[-1.73872369  0.          0.        ]","[0.02212976 0.         0.        ]"
"329","[-14.30765588   0.           8.        ]","[-1.71310276  0.          0.        ]","[0.02562093 0.         0.        ]"
"330","[-15.99172104   0.           8.        ]","[-1.68406516  0.          0.        ]","[0.0290376 0.        0.       ]"
"331","[-17.64341513   0.           8.        ]","[-1.6516941  0.         0.       ]","[0.03237107 0.         0.        ]"
"332","[-19.25949591   0.           8.        ]","[-1.61608078  0.          0.        ]","[0.03561332 0.         0.        ]"
"333","[-20.83681965   0.           8.        ]","[-1.57732374  0.          0.        ]","[0.03875704 0.         0.        ]"
"334","[-22.37234775   0.           8.        ]","[-1.5355281  0.         0.       ]","[0.04179565 0.         0.        ]"
"335","[-23.86315251   0.           8.        ]","[-1.49080476  0.          0.        ]","[0.04472333 0.         0.        ]"
"336","[-25.30642223   0.           8.        ]","[-1.44326972  0.          0.        ]","[0.04753504 0.         0.        ]"
"337","[-26.69946549   0.           8.        ]","[-1.39304326  0.          0.        ]","[0.05022646 0.         0.        ]"
"338","[-28.03971475   0.           8.        ]","[-1.34024926  0.          0.        ]","[0.052794 0.       0.      ]"
"339","[-29.32472921   0.           8.        ]","[-1.28501445  0.          0.        ]","[0.05523481 0.         0.        ]"
"340","[-30.552197   0.         8.      ]","[-1.22746779  0.          0.        ]","[0.05754666 0.         0.        ]"
"341","[-31.71993683   0.           8.        ]","[-1.16773983  0.          0.        ]","[0.05972796 0.         0.        ]"
"342","[-32.82589896   0.           8.        ]","[-1.10596213  0.          0.        ]","[0.0617777 0.        0.       ]"
"343","[-33.86816574   0.           8.        ]","[-1.04226678  0.          0.        ]","[0.06369535 0.         0.        ]"
"344","[-34.84495166   0.           8.        ]","[-0.97678592  0.          0.        ]","[0.06548085 0.         0.        ]"
"345","[-35.75460306   0.           8.        ]","[-0.9096514  0.         0.       ]","[0.06713452 0.         0.        ]"
"346","[-36.59559747   0.           8.        ]","[-0.8409944  0.         0.       ]","[0.068657 0.       0.      ]"
"347","[-37.3665427   0.          8.       ]","[-0.77094523  0.          0.        ]","[0.07004917 0.         0.        ]"
"348","[-38.06617579   0.           8.        ]","[-0.69963309  0.          0.        ]","[0.07131214 0.         0.        ]"
"349","[-38.69336176   0.           8.        ]","[-0.62718597  0.          0.        ]","[0.07244712 0.         0.        ]"
"350","[-39.24709234   0.           8.        ]","[-0.55373058  0.          0.        ]","[0.07345539 0.         0.        ]"
"351","[-39.72648467   0.           8.        ]","[-0.47939233  0.          0.        ]","[0.07433826 0.         0.        ]"
"352","[-40.13078   0.        8.     ]","[-0.40429533  0.          0.        ]","[0.075097 0.       0.      ]"
"353","[-40.45934252   0.           8.        ]","[-0.32856253  0.          0.        ]","[0.0757328 0.        0.       ]"
"354","[-40.71165833   0.           8.        ]","[-0.2523158  0.         0.       ]","[0.07624672 0.         0.        ]"
"355","[-40.88733444   0.           8.        ]","[-0.17567612  0.          0.        ]","[0.07663969 0.         0.        ]"
"356","[-40.98609815   0.           8.        ]","[-0.0987637  0.         0.       ]","[0.07691241 0.         0.        ]"
"357","[-41.00779643   0.           8.        ]","[-0.02169829  0.          0.        ]","[0.07706542 0.         0.        ]"
"358","[-40.95239572   0.           8.        ]","[0.05540071 0.         0.        ]","[0.077099 0.       0.      ]"
"359","[-40.81998178   0.           8.        ]","[0.13241395 0.         0.        ]","[0.07701323 0.         0.        ]"
"360","[-40.61075989   0.           8.        ]","[0.20922188 0.         0.        ]","[0.07680794 0.         0.        ]"
"361","[-40.32505529   0.           8.        ]","[0.2857046 0.        0.       ]","[0.07648272 0.         0.        ]"
"362","[-39.96331371   0.           8.        ]","[0.36174158 0.         0.        ]","[0.07603698 0.         0.        ]"
"363","[-39.52610223   0.           8.        ]","[0.43721148 0.         0.        ]","[0.0754699 0.        0.       ]"
"364","[-39.01411026   0.           8.        ]","[0.51199197 0.         0.        ]","[0.07478049 0.         0.        ]"
"365","[-38.42815066   0.           8.        ]","[0.5859596 0.        0.       ]","[0.07396763 0.         0.        ]"
"366","[-37.76916096   0.           8.        ]","[0.6589897 0.        0.       ]","[0.0730301 0.        0.       ]"
"367","[-37.03820467   0.           8.        ]","[0.73095629 0.         0.        ]","[0.0719666 0.        0.       ]"
"368","[-36.23647255   0.           8.        ]","[0.80173212 0.         0.        ]","[0.07077582 0.         0.        ]"
"369","[-35.36528393   0.           8.        ]","[0.87118862 0.         0.        ]","[0.06945651 0.         0.        ]"
"370","[-34.42608781   0.           8.        ]","[0.93919612 0.         0.        ]","[0.06800749 0.         0.        ]"
"371","[-33.42046393   0.           8.        ]","[1.00562388 0.         0.        ]","[0.06642776 0.         0.        ]"
"372","[-32.35012354   0.           8.        ]","[1.0703404 0.        0.       ]","[0.06471652 0.         0.        ]"
"373","[-31.21690988   0.           8.        ]","[1.13321366 0.         0.        ]","[0.06287326 0.         0.        ]"
"374","[-30.02279839   0.           8.        ]","[1.19411149 0.         0.        ]","[0.06089783 0.         0.        ]"
"375","[-28.76989641   0.           8.        ]","[1.25290198 0.         0.        ]","[0.05879049 0.         0.        ]"
"376","[-27.46044248   0.           8.        ]","[1.30945393 0.         0.        ]","[0.05655195 0.         0.        ]"
"377","[-26.09680506   0.           8.        ]","[1.36363742 0.         0.        ]","[0.05418349 0.         0.        ]"
"378","[-24.68148068   0.           8.        ]","[1.41532439 0.         0.        ]","[0.05168697 0.         0.        ]"
"379","[-23.21709141   0.           8.        ]","[1.46438926 0.         0.        ]","[0.04906487 0.         0.        ]"
"380","[-21.70638176   0.           8.        ]","[1.51070965 0.         0.        ]","[0.04632039 0.         0.        ]"
"381","[-20.15221471   0.           8.        ]","[1.55416705 0.         0.        ]","[0.0434574 0.        0.       ]"
"382","[-18.5575671   0.          8.       ]","[1.59464761 0.         0.        ]","[0.04048056 0.         0.        ]"
"383","[-16.92552425   0.           8.        ]","[1.63204284 0.         0.        ]","[0.03739523 0.         0.        ]"
"384","[-15.25927382   0.           8.        ]","[1.66625043 0.         0.        ]","[0.03420759 0.         0.        ]"
"385","[-13.56209887   0.           8.        ]","[1.69717495 0.         0.        ]","[0.03092452 0.         0.        ]"
"386","[-11.83737028   0.           8.        ]","[1.72472859 0.         0.        ]","[0.02755365 0.         0.        ]"
"387","[-10.08853839   0.           8.        ]","[1.74883189 0.         0.        ]","[0.0241033 0.        0.       ]"
"388","[-8.31912405  0.          8.        ]","[1.76941434 0.         0.        ]","[0.02058245 0.         0.        ]"
"389","[-6.53270905  0.          8.        ]","[1.786415 0.       0.      ]","[0.01700066 0.         0.        ]"
"390","[-4.73292602  0.          8.        ]","[1.79978302 0.         0.        ]","[0.01336802 0.         0.        ]"
"391","[-2.92344793  0.          8.        ]","[1.80947809 0.         0.        ]","[0.00969507 0.         0.        ]"
"392","[-1.10797714  0.          8.        ]","[1.81547079 0.         0.        ]","[0.00599269 0.         0.        ]"
"393","[0.70976571 0.         8.        ]","[1.81774284 0.         0.        ]","[0.00227206 0.         0.        ]"
"394","[2.52605303 0.         8.        ]","[1.81628732 0.         0.        ]","[-0.00145552 -0.         -0.        ]"
"395","[4.3371617 0.        8.       ]","[1.81110867 0.         0.        ]","[-0.00517866 -0.         -0.        ]"
"396","[6.13938437 0.         8.        ]","[1.80222267 0.         0.        ]","[-0.00888599 -0.         -0.        ]"
"397","[7.9290407 0.        8.       ]","[1.78965634 0.         0.        ]","[-0.01256634 -0.         -0.        ]"
"398","[9.70248832 0.         8.        ]","[1.77344761 0.         0.        ]","[-0.01620872 -0.         -0.        ]"
"399","[11.4561334  0.         8.       ]","[1.75364508 0.         0.        ]","[-0.01980253 -0.         -0.        ]"
"400","[13.18644091  0.          8.        ]","[1.73030751 0.         0.        ]","[-0.02333757 -0.         -0.        ]"
"401","[14.88994427  0.          8.        ]","[1.70350336 0.         0.        ]","[-0.02680415 -0.         -0.        ]"
"402","[16.56325445  0.          8.        ]","[1.67331018 0.         0.        ]","[-0.03019317 -0.         -0.        ]"
"403","[18.20306847  0.          8.        ]","[1.63981402 0.         0.        ]","[-0.03349616 -0.         -0.        ]"
"404","[19.80617716  0.          8.        ]","[1.60310869 0.         0.        ]","[-0.03670533 -0.         -0.        ]"
"405","[21.36947222  0.          8.        ]","[1.56329507 0.         0.        ]","[-0.03981362 -0.         -0.        ]"
"406","[22.88995256  0.          8.        ]","[1.52048034 0.         0.        ]","[-0.04281473 -0.         -0.        ]"
"407","[24.36472982  0.          8.        ]","[1.47477726 0.         0.        ]","[-0.04570308 -0.         -0.        ]"
"408","[25.79103318  0.          8.        ]","[1.42630337 0.         0.        ]","[-0.04847389 -0.         -0.        ]"
"409","[27.16621345  0.          8.        ]","[1.37518027 0.         0.        ]","[-0.0511231 -0.        -0.       ]"
"410","[28.48774635  0.          8.        ]","[1.3215329 0.        0.       ]","[-0.05364737 -0.         -0.        ]"
"411","[29.75323517  0.          8.        ]","[1.26548883 0.         0.        ]","[-0.05604407 -0.         -0.        ]"
"412","[30.9604128  0.         8.       ]","[1.20717763 0.         0.        ]","[-0.0583112 -0.        -0.       ]"
"413","[32.10714306  0.          8.        ]","[1.14673026 0.         0.        ]","[-0.06044737 -0.         -0.        ]"
"414","[33.19142158  0.          8.        ]","[1.08427852 0.         0.        ]","[-0.06245174 -0.         -0.        ]"
"415","[34.21137613  0.          8.        ]","[1.01995456 0.         0.        ]","[-0.06432396 -0.         -0.        ]"
"416","[35.1652666  0.         8.       ]","[0.95389047 0.         0.        ]","[-0.06606409 -0.         -0.        ]"
"417","[36.05148449  0.          8.        ]","[0.88621789 0.         0.        ]","[-0.06767258 -0.         -0.        ]"
"418","[36.86855222  0.          8.        ]","[0.81706773 0.         0.        ]","[-0.06915016 -0.         -0.        ]"
"419","[37.61512215  0.          8.        ]","[0.74656994 0.         0.        ]","[-0.07049779 -0.         -0.        ]"
"420","[38.28997547  0.          8.        ]","[0.67485331 0.         0.        ]","[-0.07171662 -0.         -0.        ]"
"421","[38.89202088  0.          8.        ]","[0.60204541 0.         0.        ]","[-0.0728079 -0.        -0.       ]"
"422","[39.42029336  0.          8.        ]","[0.52827249 0.         0.        ]","[-0.07377292 -0.         -0.        ]"
"423","[39.87395286  0.          8.        ]","[0.4536595 0.        0.       ]","[-0.07461299 -0.         -0.        ]"
"424","[40.25228301  0.          8.        ]","[0.37833015 0.         0.        ]","[-0.07532934 -0.         -0.        ]"
"425","[40.55469003  0.          8.        ]","[0.30240701 0.         0.        ]","[-0.07592314 -0.         -0.        ]"
"426","[40.78070164  0.          8.        ]","[0.22601162 0.         0.        ]","[-0.0763954 -0.        -0.       ]"
"427","[40.9299663  0.         8.       ]","[0.14926466 0.         0.        ]","[-0.07674696 -0.         -0.        ]"
"428","[41.00225248  0.          8.        ]","[0.07228617 0.         0.        ]","[-0.07697849 -0.         -0.        ]"
"429","[40.99744823  0.          8.        ]","[-0.00480425  0.          0.        ]","[-0.07709042 -0.         -0.        ]"
"430","[40.91556099  0.          8.        ]","[-0.08188723  0.          0.        ]","[-0.07708299 -0.         -0.        ]"
"431","[40.7567176  0.         8.       ]","[-0.1588434  0.         0.       ]","[-0.07695616 -0.         -0.        ]"
"432","[40.52116449  0.          8.        ]","[-0.2355531  0.         0.       ]","[-0.07670971 -0.         -0.        ]"
"433","[40.20926824  0.          8.        ]","[-0.31189625  0.          0.        ]","[-0.07634314 -0.         -0.        ]"
"434","[39.8215162  0.         8.       ]","[-0.38775204  0.          0.        ]","[-0.07585579 -0.         -0.        ]"
"435","[39.35851737  0.          8.        ]","[-0.46299883  0.          0.        ]","[-0.07524678 -0.         -0.        ]"
"436","[38.82100346  0.          8.        ]","[-0.53751391  0.          0.        ]","[-0.07451508 -0.         -0.        ]"
"437","[38.20983004  0.          8.        ]","[-0.61117342  0.          0.        ]","[-0.07365951 -0.         -0.        ]"
"438","[37.5259778  0.         8.       ]","[-0.68385225  0.          0.        ]","[-0.07267883 -0.         -0.        ]"
"439","[36.77055382  0.          8.        ]","[-0.75542397  0.          0.        ]","[-0.07157173 -0.         -0.        ]"
"440","[35.94479294  0.          8.        ]","[-0.82576088  0.          0.        ]","[-0.07033691 -0.         -0.        ]"
"441","[35.05005892  0.          8.        ]","[-0.89473402  0.          0.        ]","[-0.06897314 -0.         -0.        ]"
"442","[34.0878456  0.         8.       ]","[-0.96221332  0.          0.        ]","[-0.0674793 -0.        -0.       ]"
"443","[33.05977784  0.          8.        ]","[-1.02806776  0.          0.        ]","[-0.06585444 -0.         -0.        ]"
"444","[31.96761221  0.          8.        ]","[-1.09216563  0.          0.        ]","[-0.06409786 -0.         -0.        ]"
"445","[30.81323741  0.          8.        ]","[-1.1543748  0.         0.       ]","[-0.06220918 -0.         -0.        ]"
"446","[29.59867425  0.          8.        ]","[-1.21456316  0.          0.        ]","[-0.06018835 -0.         -0.        ]"
"447","[28.32607529  0.          8.        ]","[-1.27259896  0.          0.        ]","[-0.05803581 -0.         -0.        ]"
"448","[26.99772389  0.          8.        ]","[-1.3283514  0.         0.       ]","[-0.05575244 -0.         -0.        ]"
"449","[25.61603276  0.          8.        ]","[-1.38169113  0.          0.        ]","[-0.05333972 -0.         -0.        ]"
"450","[24.18354191  0.          8.        ]","[-1.43249085  0.          0.        ]","[-0.05079973 -0.         -0.        ]"
"451","[22.70291589  0.          8.        ]","[-1.48062602  0.          0.        ]","[-0.04813517 -0.         -0.        ]"
"452","[21.17694039  0.          8.        ]","[-1.5259755  0.         0.       ]","[-0.04534948 -0.         -0.        ]"
"453","[19.6085181  0.         8.       ]","[-1.56842229  0.          0.        ]","[-0.04244679 -0.         -0.        ]"
"454","[18.00066379  0.          8.        ]","[-1.60785431  0.          0.        ]","[-0.03943202 -0.         -0.        ]"
"455","[16.35649869  0.          8.        ]","[-1.6441651  0.         0.       ]","[-0.03631079 -0.         -0.        ]"
"456","[14.67924406  0.          8.        ]","[-1.67725463  0.          0.        ]","[-0.03308953 -0.         -0.        ]"
"457","[12.97221405  0.          8.        ]","[-1.70703001  0.          0.        ]","[-0.02977538 -0.         -0.        ]"
"458","[11.23880781  0.          8.        ]","[-1.73340624  0.          0.        ]","[-0.02637622 -0.         -0.        ]"
"459","[9.48250097 0.         8.        ]","[-1.75630684  0.          0.        ]","[-0.0229006 -0.        -0.       ]"
"460","[7.70683643 0.         8.        ]","[-1.77566454  0.          0.        ]","[-0.0193577 -0.        -0.       ]"
"461","[5.91541462 0.         8.        ]","[-1.79142181  0.          0.        ]","[-0.01575727 -0.         -0.        ]"
"462","[4.11188325 0.         8.        ]","[-1.80353137  0.          0.        ]","[-0.01210957 -0.         -0.        ]"
"463","[2.29992662 0.         8.        ]","[-1.81195663  0.          0.        ]","[-0.00842526 -0.         -0.        ]"
"464","[0.48325465 0.         8.        ]","[-1.81667197  0.          0.        ]","[-0.00471534 -0.         -0.        ]"
"465","[-1.33440834  0.          8.        ]","[-1.81766299  0.          0.        ]","[-0.00099103 -0.         -0.        ]"
"466","[-3.14933503  0.          8.        ]","[-1.81492669  0.          0.        ]","[0.00273631 0.         0.        ]"
"467","[-4.95780643  0.          8.        ]","[-1.8084714  0.         0.       ]","[0.00645528 0.         0.        ]"
"468","[-6.75612324  0.          8.        ]","[-1.79831681  0.          0.        ]","[0.0101546 0.        0.       ]"
"469","[-8.54061693  0.          8.        ]","[-1.78449369  0.          0.        ]","[0.01382311 0.         0.        ]"
"470","[-10.30766064   0.           8.        ]","[-1.76704371  0.          0.        ]","[0.01744998 0.         0.        ]"
"471","[-12.05367964   0.           8.        ]","[-1.74601899  0.          0.        ]","[0.02102472 0.         0.        ]"
"472","[-13.77516134   0.           8.        ]","[-1.7214817  0.         0.       ]","[0.02453729 0.         0.        ]"
"473","[-15.46866483   0.           8.        ]","[-1.69350349  0.          0.        ]","[0.02797821 0.         0.        ]"
"474","[-17.13082974   0.           8.        ]","[-1.66216491  0.          0.        ]","[0.03133858 0.         0.        ]"
"475","[-18.75838449   0.           8.        ]","[-1.62755475  0.          0.        ]","[0.03461016 0.         0.        ]"
"476","[-20.34815382   0.           8.        ]","[-1.58976933  0.          0.        ]","[0.03778542 0.         0.        ]"
"477","[-21.8970656   0.          8.       ]","[-1.54891179  0.          0.        ]","[0.04085754 0.         0.        ]"
"478","[-23.40215691   0.           8.        ]","[-1.5050913  0.         0.       ]","[0.04382048 0.         0.        ]"
"479","[-24.86057927   0.           8.        ]","[-1.45842237  0.          0.        ]","[0.04666894 0.         0.        ]"
"480","[-26.26960327   0.           8.        ]","[-1.409024  0.        0.      ]","[0.04939837 0.         0.        ]"
"481","[-27.6266223   0.          8.       ]","[-1.35701903  0.          0.        ]","[0.05200497 0.         0.        ]"
"482","[-28.92915566   0.           8.        ]","[-1.30253336  0.          0.        ]","[0.05448566 0.         0.        ]"
"483","[-30.17485101   0.           8.        ]","[-1.24569535  0.          0.        ]","[0.05683802 0.         0.        ]"
"484","[-31.36148609   0.           8.        ]","[-1.18663508  0.          0.        ]","[0.05906026 0.         0.        ]"
"485","[-32.48696997   0.           8.        ]","[-1.12548388  0.          0.        ]","[0.0611512 0.        0.       ]"
"486","[-33.54934369   0.           8.        ]","[-1.06237372  0.          0.        ]","[0.06311017 0.         0.        ]"
"487","[-34.54678045   0.           8.        ]","[-0.99743676  0.          0.        ]","[0.06493695 0.         0.        ]"
"488","[-35.47758544   0.           8.        ]","[-0.93080499  0.          0.        ]","[0.06663177 0.         0.        ]"
"489","[-36.34019525   0.           8.        ]","[-0.86260982  0.          0.        ]","[0.06819517 0.         0.        ]"
"490","[-37.13317711   0.           8.        ]","[-0.79298185  0.          0.        ]","[0.06962796 0.         0.        ]"
"491","[-37.85522777   0.           8.        ]","[-0.72205066  0.          0.        ]","[0.07093119 0.         0.        ]"
"492","[-38.50517239   0.           8.        ]","[-0.64994462  0.          0.        ]","[0.07210604 0.         0.        ]"
"493","[-39.08196324   0.           8.        ]","[-0.57679085  0.          0.        ]","[0.07315377 0.         0.        ]"
"494","[-39.58467839   0.           8.        ]","[-0.50271515  0.          0.        ]","[0.0740757 0.        0.       ]"
"495","[-40.01252044   0.           8.        ]","[-0.42784205  0.          0.        ]","[0.07487311 0.         0.        ]"
"496","[-40.36481527   0.           8.        ]","[-0.35229484  0.          0.        ]","[0.07554721 0.         0.        ]"
"497","[-40.64101098   0.           8.        ]","[-0.27619571  0.          0.        ]","[0.07609912 0.         0.        ]"
"498","[-40.84067689   0.           8.        ]","[-0.1996659  0.         0.       ]","[0.07652981 0.         0.        ]"
"499","[-40.96350274   0.           8.        ]","[-0.12282585  0.          0.        ]","[0.07684005 0.         0.        ]"
