"time","theta3d","omega3d","alpha3d"
"0","[ 46.87713258   0.         -10.        ]","[-0.12286742  0.          0.        ]","[-0.12286742 -0.         -0.        ]"
"1","[ 46.63164372   0.         -10.        ]","[-0.24548886  0.          0.        ]","[-0.12262144 -0.         -0.        ]"
"2","[ 46.26402658   0.         -10.        ]","[-0.36761714  0.          0.        ]","[-0.12212828 -0.         -0.        ]"
"3","[ 45.77502386   0.         -10.        ]","[-0.48900272  0.          0.        ]","[-0.12138558 -0.         -0.        ]"
"4","[ 45.16563123   0.         -10.        ]","[-0.60939263  0.          0.        ]","[-0.12038991 -0.         -0.        ]"
"5","[ 44.43710174   0.         -10.        ]","[-0.72852949  0.          0.        ]","[-0.11913685 -0.         -0.        ]"
"6","[ 43.59095111   0.         -10.        ]","[-0.84615063  0.          0.        ]","[-0.11762114 -0.         -0.        ]"
"7","[ 42.62896361   0.         -10.        ]","[-0.9619875  0.         0.       ]","[-0.11583687 -0.         -0.        ]"
"8","[ 41.55319845   0.         -10.        ]","[-1.07576516  0.          0.        ]","[-0.11377766 -0.         -0.        ]"
"9","[ 40.36599634   0.         -10.        ]","[-1.18720211  0.          0.        ]","[-0.11143695 -0.         -0.        ]"
"10","[ 39.06998604   0.         -10.        ]","[-1.2960103  0.         0.       ]","[-0.1088082 -0.        -0.       ]"
"11","[ 37.66809051   0.         -10.        ]","[-1.40189553  0.          0.        ]","[-0.10588522 -0.         -0.        ]"
"12","[ 36.16353249   0.         -10.        ]","[-1.50455802  0.          0.        ]","[-0.1026625 -0.        -0.       ]"
"13","[ 34.55983902   0.         -10.        ]","[-1.60369347  0.          0.        ]","[-0.09913545 -0.         -0.        ]"
"14","[ 32.86084475   0.         -10.        ]","[-1.69899426  0.          0.        ]","[-0.09530079 -0.         -0.        ]"
"15","[ 31.0706936   0.        -10.       ]","[-1.79015115  0.          0.        ]","[-0.09115689 -0.         -0.        ]"
"16","[ 29.19383844   0.         -10.        ]","[-1.87685516  0.          0.        ]","[-0.08670401 -0.         -0.        ]"
"17","[ 27.23503862   0.         -10.        ]","[-1.95879981  0.          0.        ]","[-0.08194465 -0.         -0.        ]"
"18","[ 25.19935499   0.         -10.        ]","[-2.03568363  0.          0.        ]","[-0.07688381 -0.         -0.        ]"
"19","[ 23.09214216   0.         -10.        ]","[-2.10721284  0.          0.        ]","[-0.07152921 -0.         -0.        ]"
"20","[ 20.91903787   0.         -10.        ]","[-2.17310428  0.          0.        ]","[-0.06589144 -0.         -0.        ]"
"21","[ 18.68594946   0.         -10.        ]","[-2.23308841  0.          0.        ]","[-0.05998413 -0.         -0.        ]"
"22","[ 16.3990371   0.        -10.       ]","[-2.28691237  0.          0.        ]","[-0.05382396 -0.         -0.        ]"
"23","[ 14.06469407   0.         -10.        ]","[-2.33434302  0.          0.        ]","[-0.04743066 -0.         -0.        ]"
"24","[ 11.68952414   0.         -10.        ]","[-2.37516993  0.          0.        ]","[-0.04082691 -0.         -0.        ]"
"25","[  9.28031602   0.         -10.        ]","[-2.40920812  0.          0.        ]","[-0.03403819 -0.         -0.        ]"
"26","[  6.84401541   0.         -10.        ]","[-2.4363006  0.         0.       ]","[-0.02709248 -0.         -0.        ]"
"27","[  4.3876948   0.        -10.       ]","[-2.45632062  0.          0.        ]","[-0.02002001 -0.         -0.        ]"
"28","[  1.91852136   0.         -10.        ]","[-2.46917344  0.          0.        ]","[-0.01285282 -0.         -0.        ]"
"29","[ -0.55627643   0.         -10.        ]","[-2.47479779  0.          0.        ]","[-0.00562435 -0.         -0.        ]"
"30","[ -3.02944315   0.         -10.        ]","[-2.47316672  0.          0.        ]","[0.00163106 0.         0.        ]"
"31","[ -5.49373122   0.         -10.        ]","[-2.46428807  0.          0.        ]","[0.00887865 0.         0.        ]"
"32","[ -7.9419355   0.        -10.       ]","[-2.44820428  0.          0.        ]","[0.01608379 0.         0.        ]"
"33","[-10.36692731   0.         -10.        ]","[-2.42499181  0.          0.        ]","[0.02321247 0.         0.        ]"
"34","[-12.76168729   0.         -10.        ]","[-2.39475998  0.          0.        ]","[0.03023183 0.         0.        ]"
"35","[-15.11933668   0.         -10.        ]","[-2.35764939  0.          0.        ]","[0.03711059 0.         0.        ]"
"36","[-17.43316657   0.         -10.        ]","[-2.31382989  0.          0.        ]","[0.0438195 0.        0.       ]"
"37","[-19.69666481   0.         -10.        ]","[-2.26349825  0.          0.        ]","[0.05033164 0.         0.        ]"
"38","[-21.90354026   0.         -10.        ]","[-2.20687545  0.          0.        ]","[0.0566228 0.        0.       ]"
"39","[-24.04774414   0.         -10.        ]","[-2.14420387  0.          0.        ]","[0.06267158 0.         0.        ]"
"40","[-26.12348839   0.         -10.        ]","[-2.07574425  0.          0.        ]","[0.06845962 0.         0.        ]"
"41","[-28.12526101   0.         -10.        ]","[-2.00177263  0.          0.        ]","[0.07397162 0.         0.        ]"
"42","[-30.04783831   0.         -10.        ]","[-1.9225773  0.         0.       ]","[0.07919533 0.         0.        ]"
"43","[-31.88629416   0.         -10.        ]","[-1.83845585  0.          0.        ]","[0.08412145 0.         0.        ]"
"44","[-33.6360065   0.        -10.       ]","[-1.74971233  0.          0.        ]","[0.08874352 0.         0.        ]"
"45","[-35.29266113   0.         -10.        ]","[-1.65665463  0.          0.        ]","[0.0930577 0.        0.       ]"
"46","[-36.85225325   0.         -10.        ]","[-1.55959212  0.          0.        ]","[0.09706252 0.         0.        ]"
"47","[-38.31108675   0.         -10.        ]","[-1.45883351  0.          0.        ]","[0.10075861 0.         0.        ]"
"48","[-39.66577188   0.         -10.        ]","[-1.35468512  0.          0.        ]","[0.10414839 0.         0.        ]"
"49","[-40.91322124   0.         -10.        ]","[-1.24744937  0.          0.        ]","[0.10723576 0.         0.        ]"
"50","[-42.05064486   0.         -10.        ]","[-1.13742361  0.          0.        ]","[0.11002576 0.         0.        ]"
"51","[-43.07554421   0.         -10.        ]","[-1.02489936  0.          0.        ]","[0.11252425 0.         0.        ]"
"52","[-43.98570595   0.         -10.        ]","[-0.91016173  0.          0.        ]","[0.11473762 0.         0.        ]"
"53","[-44.77919522   0.         -10.        ]","[-0.79348928  0.          0.        ]","[0.11667245 0.         0.        ]"
"54","[-45.45434925   0.         -10.        ]","[-0.67515403  0.          0.        ]","[0.11833525 0.         0.        ]"
"55","[-46.00977106   0.         -10.        ]","[-0.55542181  0.          0.        ]","[0.11973222 0.         0.        ]"
"56","[-46.44432388   0.         -10.        ]","[-0.43455282  0.          0.        ]","[0.12086899 0.         0.        ]"
"57","[-46.75712624   0.         -10.        ]","[-0.31280236  0.          0.        ]","[0.12175046 0.         0.        ]"
"58","[-46.94754796   0.         -10.        ]","[-0.19042172  0.          0.        ]","[0.12238064 0.         0.        ]"
"59","[-47.0152072   0.        -10.       ]","[-0.06765924  0.          0.        ]","[0.12276248 0.         0.        ]"
"60","[-46.95996861   0.         -10.        ]","[0.05523859 0.         0.        ]","[0.12289783 0.         0.        ]"
"61","[-46.78194268   0.         -10.        ]","[0.17802593 0.         0.        ]","[0.12278734 0.         0.        ]"
"62","[-46.48148627   0.         -10.        ]","[0.30045641 0.         0.        ]","[0.12243048 0.         0.        ]"
"63","[-46.05920434   0.         -10.        ]","[0.42228193 0.         0.        ]","[0.12182552 0.         0.        ]"
"64","[-45.5159528   0.        -10.       ]","[0.54325154 0.         0.        ]","[0.12096961 0.         0.        ]"
"65","[-44.85284241   0.         -10.        ]","[0.6631104 0.        0.       ]","[0.11985886 0.         0.        ]"
"66","[-44.07124357   0.         -10.        ]","[0.78159884 0.         0.        ]","[0.11848844 0.         0.        ]"
"67","[-43.17279195   0.         -10.        ]","[0.89845162 0.         0.        ]","[0.11685278 0.         0.        ]"
"68","[-42.15939459   0.         -10.        ]","[1.01339736 0.         0.        ]","[0.11494575 0.         0.        ]"
"69","[-41.03323639   0.         -10.        ]","[1.12615819 0.         0.        ]","[0.11276083 0.         0.        ]"
"70","[-39.79678675   0.         -10.        ]","[1.23644964 0.         0.        ]","[0.11029145 0.         0.        ]"
"71","[-38.45280592   0.         -10.        ]","[1.34398083 0.         0.        ]","[0.10753119 0.         0.        ]"
"72","[-37.00435096   0.         -10.        ]","[1.44845496 0.         0.        ]","[0.10447413 0.         0.        ]"
"73","[-35.45478089   0.         -10.        ]","[1.54957007 0.         0.        ]","[0.10111511 0.         0.        ]"
"74","[-33.80776069   0.         -10.        ]","[1.64702019 0.         0.        ]","[0.09745012 0.         0.        ]"
"75","[-32.06726393   0.         -10.        ]","[1.74049677 0.         0.        ]","[0.09347657 0.         0.        ]"
"76","[-30.23757353   0.         -10.        ]","[1.8296904 0.        0.       ]","[0.08919363 0.         0.        ]"
"77","[-28.32328057   0.         -10.        ]","[1.91429295 0.         0.        ]","[0.08460255 0.         0.        ]"
"78","[-26.32928071   0.         -10.        ]","[1.99399987 0.         0.        ]","[0.07970692 0.         0.        ]"
"79","[-24.26076792   0.         -10.        ]","[2.06851279 0.         0.        ]","[0.07451292 0.         0.        ]"
"80","[-22.12322558   0.         -10.        ]","[2.13754234 0.         0.        ]","[0.06902955 0.         0.        ]"
"81","[-19.92241447   0.         -10.        ]","[2.20081111 0.         0.        ]","[0.06326877 0.         0.        ]"
"82","[-17.66435781   0.         -10.        ]","[2.25805667 0.         0.        ]","[0.05724556 0.         0.        ]"
"83","[-15.35532316   0.         -10.        ]","[2.30903465 0.         0.        ]","[0.05097798 0.         0.        ]"
"84","[-13.00180139   0.         -10.        ]","[2.35352177 0.         0.        ]","[0.04448712 0.         0.        ]"
"85","[-10.6104827   0.        -10.       ]","[2.39131869 0.         0.        ]","[0.03779692 0.         0.        ]"
"86","[ -8.18822997   0.         -10.        ]","[2.42225273 0.         0.        ]","[0.03093404 0.         0.        ]"
"87","[ -5.74204974   0.         -10.        ]","[2.44618023 0.         0.        ]","[0.0239275 0.        0.       ]"
"88","[ -3.2790611   0.        -10.       ]","[2.46298863 0.         0.        ]","[0.0168084 0.        0.       ]"
"89","[ -0.80646301   0.         -10.        ]","[2.47259809 0.         0.        ]","[0.00960946 0.         0.        ]"
"90","[  1.66849968   0.         -10.        ]","[2.47496269 0.         0.        ]","[0.00236459 0.         0.        ]"
"91","[  4.13857076   0.         -10.        ]","[2.47007108 0.         0.        ]","[-0.00489161 -0.         -0.        ]"
"92","[  6.59651747   0.         -10.        ]","[2.45794671 0.         0.        ]","[-0.01212437 -0.         -0.        ]"
"93","[  9.03516488   0.         -10.        ]","[2.43864741 0.         0.        ]","[-0.0192993 -0.        -0.       ]"
"94","[ 11.44742947   0.         -10.        ]","[2.41226459 0.         0.        ]","[-0.02638282 -0.         -0.        ]"
"95","[ 13.82635131   0.         -10.        ]","[2.37892184 0.         0.        ]","[-0.03334275 -0.         -0.        ]"
"96","[ 16.1651245   0.        -10.       ]","[2.33877319 0.         0.        ]","[-0.04014865 -0.         -0.        ]"
"97","[ 18.45712539   0.         -10.        ]","[2.29200089 0.         0.        ]","[-0.0467723 -0.        -0.       ]"
"98","[ 20.69593833   0.         -10.        ]","[2.23881294 0.         0.        ]","[-0.05318795 -0.         -0.        ]"
"99","[ 22.87537863   0.         -10.        ]","[2.17944031 0.         0.        ]","[-0.05937263 -0.         -0.        ]"
"100","[ 24.98951263   0.         -10.        ]","[2.11413399 0.         0.        ]","[-0.06530631 -0.         -0.        ]"
"101","[ 27.03267462   0.         -10.        ]","[2.043162 0.       0.      ]","[-0.070972 -0.       -0.      ]"
"102","[ 28.99948086   0.         -10.        ]","[1.96680624 0.         0.        ]","[-0.07635576 -0.         -0.        ]"
"103","[ 30.88484042   0.         -10.        ]","[1.88535956 0.         0.        ]","[-0.08144668 -0.         -0.        ]"
"104","[ 32.68396319   0.         -10.        ]","[1.79912277 0.         0.        ]","[-0.08623679 -0.         -0.        ]"
"105","[ 34.39236516   0.         -10.        ]","[1.70840197 0.         0.        ]","[-0.0907208 -0.        -0.       ]"
"106","[ 36.00587114   0.         -10.        ]","[1.61350598 0.         0.        ]","[-0.09489598 -0.         -0.        ]"
"107","[ 37.52061528   0.         -10.        ]","[1.51474414 0.         0.        ]","[-0.09876185 -0.         -0.        ]"
"108","[ 38.93303954   0.         -10.        ]","[1.41242427 0.         0.        ]","[-0.10231987 -0.         -0.        ]"
"109","[ 40.23989064   0.         -10.        ]","[1.3068511 0.        0.       ]","[-0.10557317 -0.         -0.        ]"
"110","[ 41.43821553   0.         -10.        ]","[1.19832489 0.         0.        ]","[-0.1085262 -0.        -0.       ]"
"111","[ 42.525356   0.       -10.      ]","[1.08714047 0.         0.        ]","[-0.11118442 -0.         -0.        ]"
"112","[ 43.49894251   0.         -10.        ]","[0.97358651 0.         0.        ]","[-0.11355396 -0.         -0.        ]"
"113","[ 44.35688771   0.         -10.        ]","[0.85794519 0.         0.        ]","[-0.11564132 -0.         -0.        ]"
"114","[ 45.09737981   0.         -10.        ]","[0.7404921 0.        0.       ]","[-0.11745309 -0.         -0.        ]"
"115","[ 45.71887624   0.         -10.        ]","[0.62149643 0.         0.        ]","[-0.11899567 -0.         -0.        ]"
"116","[ 46.22009765   0.         -10.        ]","[0.5012214 0.        0.       ]","[-0.12027503 -0.         -0.        ]"
"117","[ 46.60002255   0.         -10.        ]","[0.37992491 0.         0.        ]","[-0.1212965 -0.        -0.       ]"
"118","[ 46.85788287   0.         -10.        ]","[0.25786032 0.         0.        ]","[-0.12206459 -0.         -0.        ]"
"119","[ 46.99316034   0.         -10.        ]","[0.13527747 0.         0.        ]","[-0.12258285 -0.         -0.        ]"
"120","[ 47.00558406   0.         -10.        ]","[0.01242372 0.         0.        ]","[-0.12285374 -0.         -0.        ]"
"121","[ 46.8951292   0.        -10.       ]","[-0.11045486  0.          0.        ]","[-0.12287859 -0.         -0.        ]"
"122","[ 46.66201683   0.         -10.        ]","[-0.23311237  0.          0.        ]","[-0.1226575 -0.        -0.       ]"
"123","[ 46.30671505   0.         -10.        ]","[-0.35530178  0.          0.        ]","[-0.12218942 -0.         -0.        ]"
"124","[ 45.82994118   0.         -10.        ]","[-0.47677387  0.          0.        ]","[-0.12147208 -0.         -0.        ]"
"125","[ 45.23266514   0.         -10.        ]","[-0.59727604  0.          0.        ]","[-0.12050217 -0.         -0.        ]"
"126","[ 44.51611375   0.         -10.        ]","[-0.71655139  0.          0.        ]","[-0.11927535 -0.         -0.        ]"
"127","[ 43.68177591   0.         -10.        ]","[-0.83433784  0.          0.        ]","[-0.11778645 -0.         -0.        ]"
"128","[ 42.73140846   0.         -10.        ]","[-0.95036745  0.          0.        ]","[-0.11602961 -0.         -0.        ]"
"129","[ 41.66704252   0.         -10.        ]","[-1.06436594  0.          0.        ]","[-0.11399849 -0.         -0.        ]"
"130","[ 40.49099005   0.         -10.        ]","[-1.17605247  0.          0.        ]","[-0.11168653 -0.         -0.        ]"
"131","[ 39.20585041   0.         -10.        ]","[-1.28513965  0.          0.        ]","[-0.10908718 -0.         -0.        ]"
"132","[ 37.81451654   0.         -10.        ]","[-1.39133386  0.          0.        ]","[-0.10619422 -0.         -0.        ]"
"133","[ 36.32018066   0.         -10.        ]","[-1.49433588  0.          0.        ]","[-0.10300201 -0.         -0.        ]"
"134","[ 34.72633889   0.         -10.        ]","[-1.59384178  0.          0.        ]","[-0.0995059 -0.        -0.       ]"
"135","[ 33.03679467   0.         -10.        ]","[-1.68954422  0.          0.        ]","[-0.09570244 -0.         -0.        ]"
"136","[ 31.25566063   0.         -10.        ]","[-1.78113404  0.          0.        ]","[-0.09158982 -0.         -0.        ]"
"137","[ 29.38735849   0.         -10.        ]","[-1.86830214  0.          0.        ]","[-0.0871681 -0.        -0.       ]"
"138","[ 27.43661682   0.         -10.        ]","[-1.95074167  0.          0.        ]","[-0.08243954 -0.         -0.        ]"
"139","[ 25.40846627   0.         -10.        ]","[-2.02815054  0.          0.        ]","[-0.07740887 -0.         -0.        ]"
"140","[ 23.3082322   0.        -10.       ]","[-2.10023407  0.          0.        ]","[-0.07208353 -0.         -0.        ]"
"141","[ 21.14152432   0.         -10.        ]","[-2.16670788  0.          0.        ]","[-0.06647381 -0.         -0.        ]"
"142","[ 18.9142234   0.        -10.       ]","[-2.22730092  0.          0.        ]","[-0.06059304 -0.         -0.        ]"
"143","[ 16.6324649   0.        -10.       ]","[-2.2817585  0.         0.       ]","[-0.05445758 -0.         -0.        ]"
"144","[ 14.30261953   0.         -10.        ]","[-2.32984537  0.          0.        ]","[-0.04808686 -0.         -0.        ]"
"145","[ 11.93127089   0.         -10.        ]","[-2.37134864  0.          0.        ]","[-0.04150328 -0.         -0.        ]"
"146","[  9.52519023   0.         -10.        ]","[-2.40608066  0.          0.        ]","[-0.03473202 -0.         -0.        ]"
"147","[  7.09130872   0.         -10.        ]","[-2.43388151  0.          0.        ]","[-0.02780084 -0.         -0.        ]"
"148","[  4.63668746   0.         -10.        ]","[-2.45462126  0.          0.        ]","[-0.02073976 -0.         -0.        ]"
"149","[  2.16848555   0.         -10.        ]","[-2.46820191  0.          0.        ]","[-0.01358064 -0.         -0.        ]"
"150","[ -0.30607317   0.         -10.        ]","[-2.47455872  0.          0.        ]","[-0.00635681 -0.         -0.        ]"
"151","[ -2.77973445   0.         -10.        ]","[-2.47366127  0.          0.        ]","[0.00089745 0.         0.        ]"
"152","[ -5.24524831   0.         -10.        ]","[-2.46551386  0.          0.        ]","[0.00814741 0.         0.        ]"
"153","[ -7.69540377   0.         -10.        ]","[-2.45015546  0.          0.        ]","[0.0153584 0.        0.       ]"
"154","[-10.12306291   0.         -10.        ]","[-2.42765914  0.          0.        ]","[0.02249632 0.         0.        ]"
"155","[-12.52119387   0.         -10.        ]","[-2.39813096  0.          0.        ]","[0.02952818 0.         0.        ]"
"156","[-14.8829023   0.        -10.       ]","[-2.36170843  0.          0.        ]","[0.03642252 0.         0.        ]"
"157","[-17.20146088   0.         -10.        ]","[-2.31855857  0.          0.        ]","[0.04314986 0.         0.        ]"
"158","[-19.47033641   0.         -10.        ]","[-2.26887553  0.          0.        ]","[0.04968304 0.         0.        ]"
"159","[-21.68321438   0.         -10.        ]","[-2.21287797  0.          0.        ]","[0.05599756 0.         0.        ]"
"160","[-23.83402063   0.         -10.        ]","[-2.15080625  0.          0.        ]","[0.06207172 0.         0.        ]"
"161","[-25.91694002   0.         -10.        ]","[-2.08291938  0.          0.        ]","[0.06788687 0.         0.        ]"
"162","[-27.92643202   0.         -10.        ]","[-2.009492  0.        0.      ]","[0.07342738 0.         0.        ]"
"163","[-29.85724333   0.         -10.        ]","[-1.93081131  0.          0.        ]","[0.07868069 0.         0.        ]"
"164","[-31.70441741   0.         -10.        ]","[-1.84717407  0.          0.        ]","[0.08363723 0.         0.        ]"
"165","[-33.46330122   0.         -10.        ]","[-1.75888382  0.          0.        ]","[0.08829026 0.         0.        ]"
"166","[-35.12954938   0.         -10.        ]","[-1.66624815  0.          0.        ]","[0.09263566 0.         0.        ]"
"167","[-36.69912578   0.         -10.        ]","[-1.5695764  0.         0.       ]","[0.09667176 0.         0.        ]"
"168","[-38.1683032   0.        -10.       ]","[-1.46917743  0.          0.        ]","[0.10039897 0.         0.        ]"
"169","[-39.53366108   0.         -10.        ]","[-1.36535787  0.          0.        ]","[0.10381956 0.         0.        ]"
"170","[-40.79208167   0.         -10.        ]","[-1.25842059  0.          0.        ]","[0.10693728 0.         0.        ]"
"171","[-41.94074517   0.         -10.        ]","[-1.14866351  0.          0.        ]","[0.10975708 0.         0.        ]"
"172","[-42.97712391   0.         -10.        ]","[-1.03637874  0.          0.        ]","[0.11228476 0.         0.        ]"
"173","[-43.89897599   0.         -10.        ]","[-0.92185208  0.          0.        ]","[0.11452666 0.         0.        ]"
"174","[-44.70433873   0.         -10.        ]","[-0.80536274  0.          0.        ]","[0.11648934 0.         0.        ]"
"175","[-45.39152212   0.         -10.        ]","[-0.68718339  0.          0.        ]","[0.11817935 0.         0.        ]"
"176","[-45.95910258   0.         -10.        ]","[-0.56758047  0.          0.        ]","[0.11960292 0.         0.        ]"
"177","[-46.40591729   0.         -10.        ]","[-0.44681471  0.          0.        ]","[0.12076575 0.         0.        ]"
"178","[-46.73105917   0.         -10.        ]","[-0.32514187  0.          0.        ]","[0.12167284 0.         0.        ]"
"179","[-46.93387278   0.         -10.        ]","[-0.20281361  0.          0.        ]","[0.12232826 0.         0.        ]"
"180","[-47.01395129   0.         -10.        ]","[-0.08007851  0.          0.        ]","[0.1227351 0.        0.       ]"
"181","[-46.97113448   0.         -10.        ]","[0.04281681 0.         0.        ]","[0.12289532 0.         0.        ]"
"182","[-46.80550798   0.         -10.        ]","[0.16562649 0.         0.        ]","[0.12280968 0.         0.        ]"
"183","[-46.51740371   0.         -10.        ]","[0.28810428 0.         0.        ]","[0.12247778 0.         0.        ]"
"184","[-46.10740141   0.         -10.        ]","[0.41000229 0.         0.        ]","[0.12189802 0.         0.        ]"
"185","[-45.57633149   0.         -10.        ]","[0.53106993 0.         0.        ]","[0.12106763 0.         0.        ]"
"186","[-44.92527872   0.         -10.        ]","[0.65105277 0.         0.        ]","[0.11998284 0.         0.        ]"
"187","[-44.15558703   0.         -10.        ]","[0.76969169 0.         0.        ]","[0.11863892 0.         0.        ]"
"188","[-43.268865   0.       -10.      ]","[0.88672203 0.         0.        ]","[0.11703034 0.         0.        ]"
"189","[-42.26699195   0.         -10.        ]","[1.00187305 0.         0.        ]","[0.11515103 0.         0.        ]"
"190","[-41.1521244   0.        -10.       ]","[1.11486755 0.         0.        ]","[0.1129945 0.        0.       ]"
"191","[-39.92670268   0.         -10.        ]","[1.22542172 0.         0.        ]","[0.11055417 0.         0.        ]"
"192","[-38.59345736   0.         -10.        ]","[1.33324531 0.         0.        ]","[0.10782359 0.         0.        ]"
"193","[-37.15541527   0.         -10.        ]","[1.43804209 0.         0.        ]","[0.10479678 0.         0.        ]"
"194","[-35.61590469   0.         -10.        ]","[1.53951058 0.         0.        ]","[0.10146849 0.         0.        ]"
"195","[-33.97855953   0.         -10.        ]","[1.63734516 0.         0.        ]","[0.09783457 0.         0.        ]"
"196","[-32.24732209   0.         -10.        ]","[1.73123744 0.         0.        ]","[0.09389228 0.         0.        ]"
"197","[-30.42644406   0.         -10.        ]","[1.82087804 0.         0.        ]","[0.0896406 0.        0.       ]"
"198","[-28.52048548   0.         -10.        ]","[1.90595858 0.         0.        ]","[0.08508054 0.         0.        ]"
"199","[-26.53431145   0.         -10.        ]","[1.98617403 0.         0.        ]","[0.08021545 0.         0.        ]"
"200","[-24.47308616   0.         -10.        ]","[2.06122529 0.         0.        ]","[0.07505126 0.         0.        ]"
"201","[-22.34226423   0.         -10.        ]","[2.13082193 0.         0.        ]","[0.06959665 0.         0.        ]"
"202","[-20.14757902   0.         -10.        ]","[2.19468521 0.         0.        ]","[0.06386327 0.         0.        ]"
"203","[-17.89502799   0.         -10.        ]","[2.25255103 0.         0.        ]","[0.05786582 0.         0.        ]"
"204","[-15.59085492   0.         -10.        ]","[2.30417307 0.         0.        ]","[0.05162204 0.         0.        ]"
"205","[-13.24152915   0.         -10.        ]","[2.34932577 0.         0.        ]","[0.0451527 0.        0.       ]"
"206","[-10.85372189   0.         -10.        ]","[2.38780726 0.         0.        ]","[0.03848149 0.         0.        ]"
"207","[ -8.43427986   0.         -10.        ]","[2.41944204 0.         0.        ]","[0.03163478 0.         0.        ]"
"208","[ -5.99019644   0.         -10.        ]","[2.44408342 0.         0.        ]","[0.02464138 0.         0.        ]"
"209","[ -3.52858083   0.         -10.        ]","[2.46161561 0.         0.        ]","[0.01753219 0.         0.        ]"
"210","[ -1.05662542   0.         -10.        ]","[2.47195541 0.         0.        ]","[0.0103398 0.        0.       ]"
"211","[  1.418428   0.       -10.      ]","[2.47505342 0.         0.        ]","[0.00309801 0.         0.        ]"
"212","[  3.8893228   0.        -10.       ]","[2.4708948 0.        0.       ]","[-0.00415862 -0.         -0.        ]"
"213","[  6.34882226   0.         -10.        ]","[2.45949946 0.         0.        ]","[-0.01139533 -0.         -0.        ]"
"214","[  8.78974408   0.         -10.        ]","[2.44092182 0.         0.        ]","[-0.01857765 -0.         -0.        ]"
"215","[ 11.204994   0.       -10.      ]","[2.41524992 0.         0.        ]","[-0.0256719 -0.        -0.       ]"
"216","[ 13.58759818   0.         -10.        ]","[2.38260418 0.         0.        ]","[-0.03264574 -0.         -0.        ]"
"217","[ 15.93073383   0.         -10.        ]","[2.34313565 0.         0.        ]","[-0.03946853 -0.         -0.        ]"
"218","[ 18.22775767   0.         -10.        ]","[2.29702384 0.         0.        ]","[-0.04611181 -0.         -0.        ]"
"219","[ 20.47223193   0.         -10.        ]","[2.24447426 0.         0.        ]","[-0.05254958 -0.         -0.        ]"
"220","[ 22.65794762   0.         -10.        ]","[2.18571569 0.         0.        ]","[-0.05875857 -0.         -0.        ]"
"221","[ 24.77894487   0.         -10.        ]","[2.12099725 0.         0.        ]","[-0.06471845 -0.         -0.        ]"
"222","[ 26.82953021   0.         -10.        ]","[2.05058535 0.         0.        ]","[-0.0704119 -0.        -0.       ]"
"223","[ 28.80429086   0.         -10.        ]","[1.97476064 0.         0.        ]","[-0.0758247 -0.        -0.       ]"
"224","[ 30.69810586   0.         -10.        ]","[1.893815 0.       0.      ]","[-0.08094564 -0.         -0.        ]"
"225","[ 32.50615442   0.         -10.        ]","[1.80804857 0.         0.        ]","[-0.08576643 -0.         -0.        ]"
"226","[ 34.22392144   0.         -10.        ]","[1.71776701 0.         0.        ]","[-0.09028155 -0.         -0.        ]"
"227","[ 35.84720044   0.         -10.        ]","[1.623279 0.       0.      ]","[-0.09448801 -0.         -0.        ]"
"228","[ 37.37209433   0.         -10.        ]","[1.52489389 0.         0.        ]","[-0.09838511 -0.         -0.        ]"
"229","[ 38.7950141   0.        -10.       ]","[1.42291977 0.         0.        ]","[-0.10197413 -0.         -0.        ]"
"230","[ 40.11267582   0.         -10.        ]","[1.31766172 0.         0.        ]","[-0.10525805 -0.         -0.        ]"
"231","[ 41.32209634   0.         -10.        ]","[1.20942052 0.         0.        ]","[-0.1082412 -0.        -0.       ]"
"232","[ 42.42058792   0.         -10.        ]","[1.09849158 0.         0.        ]","[-0.11092895 -0.         -0.        ]"
"233","[ 43.40575213   0.         -10.        ]","[0.98516421 0.         0.        ]","[-0.11332737 -0.         -0.        ]"
"234","[ 44.27547338   0.         -10.        ]","[0.86972125 0.         0.        ]","[-0.11544296 -0.         -0.        ]"
"235","[ 45.02791234   0.         -10.        ]","[0.75243896 0.         0.        ]","[-0.11728229 -0.         -0.        ]"
"236","[ 45.6614995   0.        -10.       ]","[0.63358716 0.         0.        ]","[-0.1188518 -0.        -0.       ]"
"237","[ 46.17492916   0.         -10.        ]","[0.51342966 0.         0.        ]","[-0.12015751 -0.         -0.        ]"
"238","[ 46.56715399   0.         -10.        ]","[0.39222483 0.         0.        ]","[-0.12120483 -0.         -0.        ]"
"239","[ 46.83738047   0.         -10.        ]","[0.27022648 0.         0.        ]","[-0.12199835 -0.         -0.        ]"
"240","[ 46.98506521   0.         -10.        ]","[0.14768475 0.         0.        ]","[-0.12254173 -0.         -0.        ]"
"241","[ 47.00991241   0.         -10.        ]","[0.02484719 0.         0.        ]","[-0.12283755 -0.         -0.        ]"
"242","[ 46.91187236   0.         -10.        ]","[-0.09804005  0.          0.        ]","[-0.12288724 -0.         -0.        ]"
"243","[ 46.69114126   0.         -10.        ]","[-0.22073109  0.          0.        ]","[-0.12269105 -0.         -0.        ]"
"244","[ 46.34816216   0.         -10.        ]","[-0.3429791  0.         0.       ]","[-0.12224801 -0.         -0.        ]"
"245","[ 45.88362705   0.         -10.        ]","[-0.46453511  0.          0.        ]","[-0.121556 -0.       -0.      ]"
"246","[ 45.29848015   0.         -10.        ]","[-0.58514691  0.          0.        ]","[-0.1206118 -0.        -0.       ]"
"247","[ 44.59392206   0.         -10.        ]","[-0.70455809  0.          0.        ]","[-0.11941118 -0.         -0.        ]"
"248","[ 43.77141495   0.         -10.        ]","[-0.82250711  0.          0.        ]","[-0.11794902 -0.         -0.        ]"
"249","[ 42.8326883   0.        -10.       ]","[-0.93872665  0.          0.        ]","[-0.11621954 -0.         -0.        ]"
"250","[ 41.7797452   0.        -10.       ]","[-1.0529431  0.         0.       ]","[-0.11421645 -0.         -0.        ]"
"251","[ 40.61486892   0.         -10.        ]","[-1.16487627  0.          0.        ]","[-0.11193317 -0.         -0.        ]"
"252","[ 39.34062948   0.         -10.        ]","[-1.27423944  0.          0.        ]","[-0.10936317 -0.         -0.        ]"
"253","[ 37.95988989   0.         -10.        ]","[-1.38073959  0.          0.        ]","[-0.10650015 -0.         -0.        ]"
"254","[ 36.47581188   0.         -10.        ]","[-1.48407802  0.          0.        ]","[-0.10333843 -0.         -0.        ]"
"255","[ 34.89186066   0.         -10.        ]","[-1.58395122  0.          0.        ]","[-0.09987321 -0.         -0.        ]"
"256","[ 33.2118085   0.        -10.       ]","[-1.68005215  0.          0.        ]","[-0.09610093 -0.         -0.        ]"
"257","[ 31.43973676   0.         -10.        ]","[-1.77207175  0.          0.        ]","[-0.09201959 -0.         -0.        ]"
"258","[ 29.58003596   0.         -10.        ]","[-1.85970079  0.          0.        ]","[-0.08762905 -0.         -0.        ]"
"259","[ 27.63740384   0.         -10.        ]","[-1.94263212  0.          0.        ]","[-0.08293133 -0.         -0.        ]"
"260","[ 25.6168408   0.        -10.       ]","[-2.02056304  0.          0.        ]","[-0.07793091 -0.         -0.        ]"
"261","[ 23.52364283   0.         -10.        ]","[-2.09319797  0.          0.        ]","[-0.07263493 -0.         -0.        ]"
"262","[ 21.36339145   0.         -10.        ]","[-2.16025138  0.          0.        ]","[-0.06705341 -0.         -0.        ]"
"263","[ 19.14194072   0.         -10.        ]","[-2.22145073  0.          0.        ]","[-0.06119935 -0.         -0.        ]"
"264","[ 16.86540119   0.         -10.        ]","[-2.27653953  0.          0.        ]","[-0.0550888 -0.        -0.       ]"
"265","[ 14.54012077   0.         -10.        ]","[-2.32528042  0.          0.        ]","[-0.04874089 -0.         -0.        ]"
"266","[ 12.17266263   0.         -10.        ]","[-2.36745814  0.          0.        ]","[-0.04217772 -0.         -0.        ]"
"267","[  9.76978027   0.         -10.        ]","[-2.40288236  0.          0.        ]","[-0.03542421 -0.         -0.        ]"
"268","[  7.33839004   0.         -10.        ]","[-2.43139023  0.          0.        ]","[-0.02850788 -0.         -0.        ]"
"269","[  4.8855413   0.        -10.       ]","[-2.45284874  0.          0.        ]","[-0.0214585 -0.        -0.       ]"
"270","[  2.41838476   0.         -10.        ]","[-2.46715654  0.          0.        ]","[-0.0143078 -0.        -0.       ]"
"271","[ -0.05586075   0.         -10.        ]","[-2.47424551  0.          0.        ]","[-0.00708897 -0.         -0.        ]"
"272","[ -2.52994246   0.         -10.        ]","[-2.47408172  0.          0.        ]","[0.00016379 0.         0.        ]"
"273","[ -4.99660841   0.         -10.        ]","[-2.46666595  0.          0.        ]","[0.00741577 0.         0.        ]"
"274","[ -7.4486421   0.        -10.       ]","[-2.45203369  0.          0.        ]","[0.01463226 0.         0.        ]"
"275","[ -9.8788967   0.        -10.       ]","[-2.4302546  0.         0.       ]","[0.02177909 0.         0.        ]"
"276","[-12.28032816   0.         -10.        ]","[-2.40143147  0.          0.        ]","[0.02882313 0.         0.        ]"
"277","[-14.64602689   0.         -10.        ]","[-2.36569872  0.          0.        ]","[0.03573275 0.         0.        ]"
"278","[-16.96924737   0.         -10.        ]","[-2.32322048  0.          0.        ]","[0.04247824 0.         0.        ]"
"279","[-19.24343565   0.         -10.        ]","[-2.27418828  0.          0.        ]","[0.04903221 0.         0.        ]"
"280","[-21.46225407   0.         -10.        ]","[-2.21881842  0.          0.        ]","[0.05536986 0.         0.        ]"
"281","[-23.61960327   0.         -10.        ]","[-2.1573492  0.         0.       ]","[0.06146922 0.         0.        ]"
"282","[-25.70964117   0.         -10.        ]","[-2.0900379  0.         0.       ]","[0.06731131 0.         0.        ]"
"283","[-27.72679886   0.         -10.        ]","[-2.0171577  0.         0.       ]","[0.0728802 0.        0.       ]"
"284","[-29.66579353   0.         -10.        ]","[-1.93899467  0.          0.        ]","[0.07816303 0.         0.        ]"
"285","[-31.52163829   0.         -10.        ]","[-1.85584475  0.          0.        ]","[0.08314992 0.         0.        ]"
"286","[-33.28964919   0.         -10.        ]","[-1.7680109  0.         0.       ]","[0.08783385 0.         0.        ]"
"287","[-34.96544963   0.         -10.        ]","[-1.67580044  0.          0.        ]","[0.09221047 0.         0.        ]"
"288","[-36.54497222   0.         -10.        ]","[-1.5795226  0.         0.       ]","[0.09627784 0.         0.        ]"
"289","[-38.02445862   0.         -10.        ]","[-1.4794864  0.         0.       ]","[0.1000362 0.        0.       ]"
"290","[-39.40045739   0.         -10.        ]","[-1.37599877  0.          0.        ]","[0.10348763 0.         0.        ]"
"291","[-40.6698204   0.        -10.       ]","[-1.26936301  0.          0.        ]","[0.10663576 0.         0.        ]"
"292","[-41.82969798   0.         -10.        ]","[-1.15987758  0.          0.        ]","[0.10948543 0.         0.        ]"
"293","[-42.8775332   0.        -10.       ]","[-1.04783522  0.          0.        ]","[0.11204236 0.         0.        ]"
"294","[-43.81105558   0.         -10.        ]","[-0.93352238  0.          0.        ]","[0.11431284 0.         0.        ]"
"295","[-44.62827452   0.         -10.        ]","[-0.81721893  0.          0.        ]","[0.11630345 0.         0.        ]"
"296","[-45.32747272   0.         -10.        ]","[-0.69919821  0.          0.        ]","[0.11802073 0.         0.        ]"
"297","[-45.90719997   0.         -10.        ]","[-0.57972725  0.          0.        ]","[0.11947096 0.         0.        ]"
"298","[-46.3662673   0.        -10.       ]","[-0.45906734  0.          0.        ]","[0.12065991 0.         0.        ]"
"299","[-46.703742   0.       -10.      ]","[-0.3374747  0.         0.       ]","[0.12159264 0.         0.        ]"
"300","[-46.91894335   0.         -10.        ]","[-0.21520135  0.          0.        ]","[0.12227335 0.         0.        ]"
"301","[-47.01143949   0.         -10.        ]","[-0.09249614  0.          0.        ]","[0.12270521 0.         0.        ]"
"302","[-46.98104533   0.         -10.        ]","[0.03039416 0.         0.        ]","[0.1228903 0.        0.       ]"
"303","[-46.82782166   0.         -10.        ]","[0.15322367 0.         0.        ]","[0.12282951 0.         0.        ]"
"304","[-46.55207544   0.         -10.        ]","[0.27574623 0.         0.        ]","[0.12252256 0.         0.        ]"
"305","[-46.15436126   0.         -10.        ]","[0.39771418 0.         0.        ]","[0.12196795 0.         0.        ]"
"306","[-45.63548403   0.         -10.        ]","[0.51887723 0.         0.        ]","[0.12116306 0.         0.        ]"
"307","[-44.99650261   0.         -10.        ]","[0.63898142 0.         0.        ]","[0.12010418 0.         0.        ]"
"308","[-44.2387345   0.        -10.       ]","[0.75776811 0.         0.        ]","[0.11878669 0.         0.        ]"
"309","[-43.36376127   0.         -10.        ]","[0.87497324 0.         0.        ]","[0.11720513 0.         0.        ]"
"310","[-42.37343455   0.         -10.        ]","[0.99032671 0.         0.        ]","[0.11535347 0.         0.        ]"
"311","[-41.26988257   0.         -10.        ]","[1.10355198 0.         0.        ]","[0.11322527 0.         0.        ]"
"312","[-40.05551667   0.         -10.        ]","[1.2143659 0.        0.       ]","[0.11081392 0.         0.        ]"
"313","[-38.7330378   0.        -10.       ]","[1.32247887 0.         0.        ]","[0.10811297 0.         0.        ]"
"314","[-37.30544258   0.         -10.        ]","[1.42759522 0.         0.        ]","[0.10511635 0.         0.        ]"
"315","[-35.77602861   0.         -10.        ]","[1.52941397 0.         0.        ]","[0.10181875 0.         0.        ]"
"316","[-34.14839877   0.         -10.        ]","[1.62762984 0.         0.        ]","[0.09821587 0.         0.        ]"
"317","[-32.4264641   0.        -10.       ]","[1.72193467 0.         0.        ]","[0.09430483 0.         0.        ]"
"318","[-30.61444503   0.         -10.        ]","[1.81201908 0.         0.        ]","[0.09008441 0.         0.        ]"
"319","[-28.71687054   0.         -10.        ]","[1.89757449 0.         0.        ]","[0.08555541 0.         0.        ]"
"320","[-26.73857511   0.         -10.        ]","[1.97829542 0.         0.        ]","[0.08072093 0.         0.        ]"
"321","[-24.68469307   0.         -10.        ]","[2.05388205 0.         0.        ]","[0.07558662 0.         0.        ]"
"322","[-22.56065013   0.         -10.        ]","[2.12404294 0.         0.        ]","[0.07016089 0.         0.        ]"
"323","[-20.37215212   0.         -10.        ]","[2.18849801 0.         0.        ]","[0.06445508 0.         0.        ]"
"324","[-18.12517054   0.         -10.        ]","[2.24698158 0.         0.        ]","[0.05848356 0.         0.        ]"
"325","[-15.82592517   0.         -10.        ]","[2.29924537 0.         0.        ]","[0.05226379 0.         0.        ]"
"326","[-13.48086359   0.         -10.        ]","[2.34506159 0.         0.        ]","[0.04581622 0.         0.        ]"
"327","[-11.09663774   0.         -10.        ]","[2.38422585 0.         0.        ]","[0.03916426 0.         0.        ]"
"328","[ -8.68007788   0.         -10.        ]","[2.41655986 0.         0.        ]","[0.03233402 0.         0.        ]"
"329","[ -6.23816394   0.         -10.        ]","[2.44191394 0.         0.        ]","[0.02535407 0.         0.        ]"
"330","[ -3.77799487   0.         -10.        ]","[2.46016907 0.         0.        ]","[0.01825514 0.         0.        ]"
"331","[ -1.30675617   0.         -10.        ]","[2.4712387 0.        0.       ]","[0.01106963 0.         0.        ]"
"332","[  1.16831381   0.         -10.        ]","[2.47506998 0.         0.        ]","[0.00383128 0.         0.        ]"
"333","[  3.63995836   0.         -10.        ]","[2.47164454 0.         0.        ]","[-0.00342544 -0.         -0.        ]"
"334","[  6.10093716   0.         -10.        ]","[2.46097881 0.         0.        ]","[-0.01066574 -0.         -0.        ]"
"335","[  8.54406087   0.         -10.        ]","[2.44312371 0.         0.        ]","[-0.0178551 -0.        -0.       ]"
"336","[ 10.96222484   0.         -10.        ]","[2.41816396 0.         0.        ]","[-0.02495975 -0.         -0.        ]"
"337","[ 13.34844162   0.         -10.        ]","[2.38621679 0.         0.        ]","[-0.03194718 -0.         -0.        ]"
"338","[ 15.69587184   0.         -10.        ]","[2.34743022 0.         0.        ]","[-0.03878657 -0.         -0.        ]"
"339","[ 17.99785283   0.         -10.        ]","[2.30198099 0.         0.        ]","[-0.04544922 -0.         -0.        ]"
"340","[ 20.24792496   0.         -10.        ]","[2.25007213 0.         0.        ]","[-0.05190887 -0.         -0.        ]"
"341","[ 22.43985512   0.         -10.        ]","[2.19193017 0.         0.        ]","[-0.05814196 -0.         -0.        ]"
"342","[ 24.56765744   0.         -10.        ]","[2.12780232 0.         0.        ]","[-0.06412785 -0.         -0.        ]"
"343","[ 26.62561082   0.         -10.        ]","[2.05795338 0.         0.        ]","[-0.06984894 -0.         -0.        ]"
"344","[ 28.60827354   0.         -10.        ]","[1.98266272 0.         0.        ]","[-0.07529067 -0.         -0.        ]"
"345","[ 30.51049472   0.         -10.        ]","[1.90222118 0.         0.        ]","[-0.08044153 -0.         -0.        ]"
"346","[ 32.32742295   0.         -10.        ]","[1.81692823 0.         0.        ]","[-0.08529296 -0.         -0.        ]"
"347","[ 34.05451203   0.         -10.        ]","[1.72708908 0.         0.        ]","[-0.08983915 -0.         -0.        ]"
"348","[ 35.68752423   0.         -10.        ]","[1.6330122 0.        0.       ]","[-0.09407688 -0.         -0.        ]"
"349","[ 37.22253121   0.         -10.        ]","[1.53500699 0.         0.        ]","[-0.09800521 -0.         -0.        ]"
"350","[ 38.65591293   0.         -10.        ]","[1.43338172 0.         0.        ]","[-0.10162527 -0.         -0.        ]"
"351","[ 39.9843548   0.        -10.       ]","[1.32844187 0.         0.        ]","[-0.10493985 -0.         -0.        ]"
"352","[ 41.2048435   0.        -10.       ]","[1.2204887 0.        0.       ]","[-0.10795317 -0.         -0.        ]"
"353","[ 42.31466168   0.         -10.        ]","[1.10981818 0.         0.        ]","[-0.11067051 -0.         -0.        ]"
"354","[ 43.31138197   0.         -10.        ]","[0.99672029 0.         0.        ]","[-0.1130979 -0.        -0.       ]"
"355","[ 44.19286049   0.         -10.        ]","[0.88147852 0.         0.        ]","[-0.11524177 -0.         -0.        ]"
"356","[ 44.95723028   0.         -10.        ]","[0.76436979 0.         0.        ]","[-0.11710873 -0.         -0.        ]"
"357","[ 45.60289484   0.         -10.        ]","[0.64566456 0.         0.        ]","[-0.11870523 -0.         -0.        ]"
"358","[ 46.12852205   0.         -10.        ]","[0.52562721 0.         0.        ]","[-0.12003735 -0.         -0.        ]"
"359","[ 46.5330387   0.        -10.       ]","[0.40451665 0.         0.        ]","[-0.12111056 -0.         -0.        ]"
"360","[ 46.81562579   0.         -10.        ]","[0.28258709 0.         0.        ]","[-0.12192956 -0.         -0.        ]"
"361","[ 46.97571479   0.         -10.        ]","[0.160089 0.       0.      ]","[-0.12249809 -0.         -0.        ]"
"362","[ 47.01298495   0.         -10.        ]","[0.03727016 0.         0.        ]","[-0.12281885 -0.         -0.        ]"
"363","[ 46.92736172   0.         -10.        ]","[-0.08562323  0.          0.        ]","[-0.12289339 -0.         -0.        ]"
"364","[ 46.71901642   0.         -10.        ]","[-0.2083453  0.         0.       ]","[-0.12272207 -0.         -0.        ]"
"365","[ 46.38836707   0.         -10.        ]","[-0.33064935  0.          0.        ]","[-0.12230406 -0.         -0.        ]"
"366","[ 45.93608037   0.         -10.        ]","[-0.4522867  0.         0.       ]","[-0.12163735 -0.         -0.        ]"
"367","[ 45.36307485   0.         -10.        ]","[-0.57300552  0.          0.        ]","[-0.12071882 -0.         -0.        ]"
"368","[ 44.670525   0.       -10.      ]","[-0.69254985  0.          0.        ]","[-0.11954433 -0.         -0.        ]"
"369","[ 43.85986629   0.         -10.        ]","[-0.81065871  0.          0.        ]","[-0.11810886 -0.         -0.        ]"
"370","[ 42.93280089   0.         -10.        ]","[-0.9270654  0.         0.       ]","[-0.11640669 -0.         -0.        ]"
"371","[ 41.89130396   0.         -10.        ]","[-1.04149694  0.          0.        ]","[-0.11443154 -0.         -0.        ]"
"372","[ 40.73763013   0.         -10.        ]","[-1.15367383  0.          0.        ]","[-0.11217689 -0.         -0.        ]"
"373","[ 39.47432015   0.         -10.        ]","[-1.26330999  0.          0.        ]","[-0.10963616 -0.         -0.        ]"
"374","[ 38.10420713   0.         -10.        ]","[-1.37011301  0.          0.        ]","[-0.10680303 -0.         -0.        ]"
"375","[ 36.63042238   0.         -10.        ]","[-1.47378475  0.          0.        ]","[-0.10367173 -0.         -0.        ]"
"376","[ 35.05640026   0.         -10.        ]","[-1.57402213  0.          0.        ]","[-0.10023738 -0.         -0.        ]"
"377","[ 33.38588187   0.         -10.        ]","[-1.67051839  0.          0.        ]","[-0.09649626 -0.         -0.        ]"
"378","[ 31.62291728   0.         -10.        ]","[-1.76296459  0.          0.        ]","[-0.0924462 -0.        -0.       ]"
"379","[ 29.77186583   0.         -10.        ]","[-1.85105145  0.          0.        ]","[-0.08808686 -0.         -0.        ]"
"380","[ 27.83739435   0.         -10.        ]","[-1.93447148  0.          0.        ]","[-0.08342003 -0.         -0.        ]"
"381","[ 25.82447294   0.         -10.        ]","[-2.01292141  0.          0.        ]","[-0.07844993 -0.         -0.        ]"
"382","[ 23.73836811   0.         -10.        ]","[-2.08610483  0.          0.        ]","[-0.07318342 -0.         -0.        ]"
"383","[ 21.58463305   0.         -10.        ]","[-2.15373506  0.          0.        ]","[-0.06763022 -0.         -0.        ]"
"384","[ 19.36909497   0.         -10.        ]","[-2.21553808  0.          0.        ]","[-0.06180303 -0.         -0.        ]"
"385","[ 17.0978393   0.        -10.       ]","[-2.27125567  0.          0.        ]","[-0.05571759 -0.         -0.        ]"
"386","[ 14.7771909   0.        -10.       ]","[-2.32064839  0.          0.        ]","[-0.04939272 -0.         -0.        ]"
"387","[ 12.41369229   0.         -10.        ]","[-2.36349862  0.          0.        ]","[-0.04285022 -0.         -0.        ]"
"388","[ 10.01407893   0.         -10.        ]","[-2.39961336  0.          0.        ]","[-0.03611475 -0.         -0.        ]"
"389","[  7.58525202   0.         -10.        ]","[-2.42882691  0.          0.        ]","[-0.02921355 -0.         -0.        ]"
"390","[  5.1342489   0.        -10.       ]","[-2.45100312  0.          0.        ]","[-0.02217621 -0.         -0.        ]"
"391","[  2.66821152   0.         -10.        ]","[-2.46603738  0.          0.        ]","[-0.01503426 -0.         -0.        ]"
"392","[  0.19435336   0.         -10.        ]","[-2.47385816  0.          0.        ]","[-0.00782078 -0.         -0.        ]"
"393","[ -2.28007468   0.         -10.        ]","[-2.47442803  0.          0.        ]","[-0.00056987 -0.         -0.        ]"
"394","[ -4.74781894   0.         -10.        ]","[-2.46774427  0.          0.        ]","[0.00668376 0.         0.        ]"
"395","[ -7.20165781   0.         -10.        ]","[-2.45383886  0.          0.        ]","[0.01390541 0.         0.        ]"
"396","[ -9.63443587   0.         -10.        ]","[-2.43277806  0.          0.        ]","[0.02106081 0.         0.        ]"
"397","[-12.03909722   0.         -10.        ]","[-2.40466136  0.          0.        ]","[0.0281167 0.        0.       ]"
"398","[-14.40871729   0.         -10.        ]","[-2.36962007  0.          0.        ]","[0.03504129 0.         0.        ]"
"399","[-16.73653269   0.         -10.        ]","[-2.32781541  0.          0.        ]","[0.04180466 0.         0.        ]"
"400","[-19.01596894   0.         -10.        ]","[-2.27943625  0.          0.        ]","[0.04837916 0.         0.        ]"
"401","[-21.24066547   0.         -10.        ]","[-2.22469653  0.          0.        ]","[0.05473972 0.         0.        ]"
"402","[-23.40449792   0.         -10.        ]","[-2.16383245  0.          0.        ]","[0.06086408 0.         0.        ]"
"403","[-25.50159742   0.         -10.        ]","[-2.0970995  0.         0.       ]","[0.06673295 0.         0.        ]"
"404","[-27.52636683   0.         -10.        ]","[-2.02476941  0.          0.        ]","[0.07233009 0.         0.        ]"
"405","[-29.4734939   0.        -10.       ]","[-1.94712707  0.          0.        ]","[0.07764234 0.         0.        ]"
"406","[-31.33796147   0.         -10.        ]","[-1.86446757  0.          0.        ]","[0.08265951 0.         0.        ]"
"407","[-33.11505473   0.         -10.        ]","[-1.77709327  0.          0.        ]","[0.0873743 0.        0.       ]"
"408","[-34.8003659   0.        -10.       ]","[-1.68531116  0.          0.        ]","[0.09178211 0.         0.        ]"
"409","[-36.3897963   0.        -10.       ]","[-1.5894304  0.         0.       ]","[0.09588076 0.         0.        ]"
"410","[-37.87955641   0.         -10.        ]","[-1.48976011  0.          0.        ]","[0.09967029 0.         0.        ]"
"411","[-39.26616391   0.         -10.        ]","[-1.3866075  0.         0.       ]","[0.10315261 0.         0.        ]"
"412","[-40.54644022   0.         -10.        ]","[-1.28027631  0.          0.        ]","[0.10633119 0.         0.        ]"
"413","[-41.71750575   0.         -10.        ]","[-1.17106553  0.          0.        ]","[0.10921078 0.         0.        ]"
"414","[-42.77677426   0.         -10.        ]","[-1.05926851  0.          0.        ]","[0.11179702 0.         0.        ]"
"415","[-43.72194661   0.         -10.        ]","[-0.94517235  0.          0.        ]","[0.11409616 0.         0.        ]"
"416","[-44.5510042   0.        -10.       ]","[-0.82905759  0.          0.        ]","[0.11611476 0.         0.        ]"
"417","[-45.26220242   0.         -10.        ]","[-0.71119821  0.          0.        ]","[0.11785938 0.         0.        ]"
"418","[-45.8540643   0.        -10.       ]","[-0.59186188  0.          0.        ]","[0.11933633 0.         0.        ]"
"419","[-46.32537473   0.         -10.        ]","[-0.47131044  0.          0.        ]","[0.12055145 0.         0.        ]"
"420","[-46.6751753   0.        -10.       ]","[-0.34980056  0.          0.        ]","[0.12150987 0.         0.        ]"
"421","[-46.90275997   0.         -10.        ]","[-0.22758467  0.          0.        ]","[0.12221589 0.         0.        ]"
"422","[-47.00767185   0.         -10.        ]","[-0.10491188  0.          0.        ]","[0.12267279 0.         0.        ]"
"423","[-46.98970097   0.         -10.        ]","[0.01797088 0.         0.        ]","[0.12288276 0.         0.        ]"
"424","[-46.84888326   0.         -10.        ]","[0.14081771 0.         0.        ]","[0.12284682 0.         0.        ]"
"425","[-46.58550075   0.         -10.        ]","[0.26338251 0.         0.        ]","[0.1225648 0.        0.       ]"
"426","[-46.20008292   0.         -10.        ]","[0.38541784 0.         0.        ]","[0.12203533 0.         0.        ]"
"427","[-45.69340919   0.         -10.        ]","[0.50667373 0.         0.        ]","[0.12125589 0.         0.        ]"
"428","[-45.06651258   0.         -10.        ]","[0.62689661 0.         0.        ]","[0.12022288 0.         0.        ]"
"429","[-44.32068421   0.         -10.        ]","[0.74582837 0.         0.        ]","[0.11893176 0.         0.        ]"
"430","[-43.45747868   0.         -10.        ]","[0.86320554 0.         0.        ]","[0.11737717 0.         0.        ]"
"431","[-42.47872004   0.         -10.        ]","[0.97875863 0.         0.        ]","[0.1155531 0.        0.       ]"
"432","[-41.38650826   0.         -10.        ]","[1.09221178 0.         0.        ]","[0.11345314 0.         0.        ]"
"433","[-40.18322577   0.         -10.        ]","[1.20328249 0.         0.        ]","[0.11107072 0.         0.        ]"
"434","[-38.87154395   0.         -10.        ]","[1.31168181 0.         0.        ]","[0.10839932 0.         0.        ]"
"435","[-37.45442929   0.         -10.        ]","[1.41711466 0.         0.        ]","[0.10543285 0.         0.        ]"
"436","[-35.93514875   0.         -10.        ]","[1.51928054 0.         0.        ]","[0.10216588 0.         0.        ]"
"437","[-34.31727419   0.         -10.        ]","[1.61787456 0.         0.        ]","[0.09859402 0.         0.        ]"
"438","[-32.60468542   0.         -10.        ]","[1.71258878 0.         0.        ]","[0.09471421 0.         0.        ]"
"439","[-30.80157158   0.         -10.        ]","[1.80311384 0.         0.        ]","[0.09052507 0.         0.        ]"
"440","[-28.91243057   0.         -10.        ]","[1.889141 0.       0.      ]","[0.08602716 0.         0.        ]"
"441","[-26.94206623   0.         -10.        ]","[1.97036435 0.         0.        ]","[0.08122335 0.         0.        ]"
"442","[-24.89558287   0.         -10.        ]","[2.04648336 0.         0.        ]","[0.07611901 0.         0.        ]"
"443","[-22.77837724   0.         -10.        ]","[2.11720563 0.         0.        ]","[0.07072227 0.         0.        ]"
"444","[-20.59612745   0.         -10.        ]","[2.18224979 0.         0.        ]","[0.06504417 0.         0.        ]"
"445","[-18.35477889   0.         -10.        ]","[2.24134856 0.         0.        ]","[0.05909877 0.         0.        ]"
"446","[-16.06052712   0.         -10.        ]","[2.29425177 0.         0.        ]","[0.05290321 0.         0.        ]"
"447","[-13.71979771   0.         -10.        ]","[2.34072942 0.         0.        ]","[0.04647765 0.         0.        ]"
"448","[-11.33922309   0.         -10.        ]","[2.38057462 0.         0.        ]","[0.0398452 0.        0.       ]"
"449","[ -8.92561674   0.         -10.        ]","[2.41360634 0.         0.        ]","[0.03303172 0.         0.        ]"
"450","[ -6.48594485   0.         -10.        ]","[2.43967189 0.         0.        ]","[0.02606555 0.         0.        ]"
"451","[ -4.02729577   0.         -10.        ]","[2.45864909 0.         0.        ]","[0.01897719 0.         0.        ]"
"452","[ -1.55684775   0.         -10.        ]","[2.47044801 0.         0.        ]","[0.01179893 0.         0.        ]"
"453","[  0.91816461   0.         -10.        ]","[2.47501237 0.         0.        ]","[0.00456435 0.         0.        ]"
"454","[  3.3904849   0.        -10.       ]","[2.47232028 0.         0.        ]","[-0.00269208 -0.         -0.        ]"
"455","[  5.85286956   0.         -10.        ]","[2.46238466 0.         0.        ]","[-0.00993562 -0.         -0.        ]"
"456","[  8.29812254   0.         -10.        ]","[2.44525298 0.         0.        ]","[-0.01713168 -0.         -0.        ]"
"457","[ 10.71912913   0.         -10.        ]","[2.42100659 0.         0.        ]","[-0.02424639 -0.         -0.        ]"
"458","[ 13.10888862   0.         -10.        ]","[2.38975949 0.         0.        ]","[-0.0312471 -0.        -0.       ]"
"459","[ 15.4605453   0.        -10.       ]","[2.35165668 0.         0.        ]","[-0.0381028 -0.        -0.       ]"
"460","[ 17.76741743   0.         -10.        ]","[2.30687213 0.         0.        ]","[-0.04478456 -0.         -0.        ]"
"461","[ 20.02302371   0.         -10.        ]","[2.25560629 0.         0.        ]","[-0.05126584 -0.         -0.        ]"
"462","[ 22.22110718   0.         -10.        ]","[2.19808347 0.         0.        ]","[-0.05752282 -0.         -0.        ]"
"463","[ 24.3556561   0.        -10.       ]","[2.13454892 0.         0.        ]","[-0.06353455 -0.         -0.        ]"
"464","[ 26.4209219   0.        -10.       ]","[2.06526581 0.         0.        ]","[-0.06928311 -0.         -0.        ]"
"465","[ 28.41143406   0.         -10.        ]","[1.99051215 0.         0.        ]","[-0.07475365 -0.         -0.        ]"
"466","[ 30.32201185   0.         -10.        ]","[1.91057779 0.         0.        ]","[-0.07993436 -0.         -0.        ]"
"467","[ 32.14777329   0.         -10.        ]","[1.82576144 0.         0.        ]","[-0.08481636 -0.         -0.        ]"
"468","[ 33.88414113   0.         -10.        ]","[1.73636784 0.         0.        ]","[-0.08939359 -0.         -0.        ]"
"469","[ 35.52684639   0.         -10.        ]","[1.64270526 0.         0.        ]","[-0.09366258 -0.         -0.        ]"
"470","[ 37.07192948   0.         -10.        ]","[1.54508309 0.         0.        ]","[-0.09762217 -0.         -0.        ]"
"471","[ 38.51573929   0.         -10.        ]","[1.44380981 0.         0.        ]","[-0.10127328 -0.         -0.        ]"
"472","[ 39.85493053   0.         -10.        ]","[1.33919124 0.         0.        ]","[-0.10461857 -0.         -0.        ]"
"473","[ 41.08645964   0.         -10.        ]","[1.23152911 0.         0.        ]","[-0.10766212 -0.         -0.        ]"
"474","[ 42.20757963   0.         -10.        ]","[1.12111999 0.         0.        ]","[-0.11040912 -0.         -0.        ]"
"475","[ 43.2158341   0.        -10.       ]","[1.00825447 0.         0.        ]","[-0.11286552 -0.         -0.        ]"
"476","[ 44.10905082   0.         -10.        ]","[0.89321672 0.         0.        ]","[-0.11503775 -0.         -0.        ]"
"477","[ 44.88533513   0.         -10.        ]","[0.77628431 0.         0.        ]","[-0.11693241 -0.         -0.        ]"
"478","[ 45.54306348   0.         -10.        ]","[0.65772835 0.         0.        ]","[-0.11855596 -0.         -0.        ]"
"479","[ 46.08087728   0.         -10.        ]","[0.5378138 0.        0.       ]","[-0.11991454 -0.         -0.        ]"
"480","[ 46.49767738   0.         -10.        ]","[0.4168001 0.        0.       ]","[-0.1210137 -0.        -0.       ]"
"481","[ 46.79261928   0.         -10.        ]","[0.2949419 0.        0.       ]","[-0.12185821 -0.         -0.        ]"
"482","[ 46.96510926   0.         -10.        ]","[0.17248998 0.         0.        ]","[-0.12245191 -0.         -0.        ]"
"483","[ 47.01480162   0.         -10.        ]","[0.04969236 0.         0.        ]","[-0.12279763 -0.         -0.        ]"
"484","[ 46.94159696   0.         -10.        ]","[-0.07320466  0.          0.        ]","[-0.12289702 -0.         -0.        ]"
"485","[ 46.74564173   0.         -10.        ]","[-0.19595523  0.          0.        ]","[-0.12275057 -0.         -0.        ]"
"486","[ 46.42732894   0.         -10.        ]","[-0.3183128  0.         0.       ]","[-0.12235757 -0.         -0.        ]"
"487","[ 45.98730002   0.         -10.        ]","[-0.44002892  0.          0.        ]","[-0.12171612 -0.         -0.        ]"
"488","[ 45.42644789   0.         -10.        ]","[-0.56085213  0.          0.        ]","[-0.12082322 -0.         -0.        ]"
"489","[ 44.74592094   0.         -10.        ]","[-0.68052695  0.          0.        ]","[-0.11967481 -0.         -0.        ]"
"490","[ 43.94712802   0.         -10.        ]","[-0.79879292  0.          0.        ]","[-0.11826598 -0.         -0.        ]"
"491","[ 43.03174406   0.         -10.        ]","[-0.91538396  0.          0.        ]","[-0.11659104 -0.         -0.        ]"
"492","[ 42.00171631   0.         -10.        ]","[-1.03002774  0.          0.        ]","[-0.11464378 -0.         -0.        ]"
"493","[ 40.85927089   0.         -10.        ]","[-1.14244542  0.          0.        ]","[-0.11241768 -0.         -0.        ]"
"494","[ 39.6069193   0.        -10.       ]","[-1.25235159  0.          0.        ]","[-0.10990616 -0.         -0.        ]"
"495","[ 38.24746485   0.         -10.        ]","[-1.35945445  0.          0.        ]","[-0.10710286 -0.         -0.        ]"
"496","[ 36.78400846   0.         -10.        ]","[-1.46345639  0.          0.        ]","[-0.10400195 -0.         -0.        ]"
"497","[ 35.21995365   0.         -10.        ]","[-1.56405481  0.          0.        ]","[-0.10059841 -0.         -0.        ]"
"498","[ 33.55901041   0.         -10.        ]","[-1.66094324  0.          0.        ]","[-0.09688843 -0.         -0.        ]"
"499","[ 31.80519752   0.         -10.        ]","[-1.75381289  0.          0.        ]","[-0.09286965 -0.         -0.        ]"
