"time","theta3d","omega3d","alpha3d"
"0","[41.8929391  0.        -6.       ]","[-0.1070609  0.         0.       ]","[-0.1070609 -0.        -0.       ]"
"1","[41.67903967  0.         -6.        ]","[-0.21389943  0.          0.        ]","[-0.10683853 -0.         -0.        ]"
"2","[41.3587471  0.        -6.       ]","[-0.32029258  0.          0.        ]","[-0.10639315 -0.         -0.        ]"
"3","[40.93273106  0.         -6.        ]","[-0.42601603  0.          0.        ]","[-0.10572346 -0.         -0.        ]"
"4","[40.40188743  0.         -6.        ]","[-0.53084363  0.          0.        ]","[-0.1048276 -0.        -0.       ]"
"5","[39.7673406  0.        -6.       ]","[-0.63454683  0.          0.        ]","[-0.1037032 -0.        -0.       ]"
"6","[39.0304463  0.        -6.       ]","[-0.7368943  0.         0.       ]","[-0.10234747 -0.         -0.        ]"
"7","[38.19279468  0.         -6.        ]","[-0.83765162  0.          0.        ]","[-0.10075732 -0.         -0.        ]"
"8","[37.25621353  0.         -6.        ]","[-0.93658115  0.          0.        ]","[-0.09892953 -0.         -0.        ]"
"9","[36.22277152  0.         -6.        ]","[-1.033442  0.        0.      ]","[-0.09686085 -0.         -0.        ]"
"10","[35.09478131  0.         -6.        ]","[-1.12799021  0.          0.        ]","[-0.09454821 -0.         -0.        ]"
"11","[33.87480218  0.         -6.        ]","[-1.21997913  0.          0.        ]","[-0.09198892 -0.         -0.        ]"
"12","[32.56564224  0.         -6.        ]","[-1.30915994  0.          0.        ]","[-0.0891808 -0.        -0.       ]"
"13","[31.17035982  0.         -6.        ]","[-1.39528242  0.          0.        ]","[-0.08612248 -0.         -0.        ]"
"14","[29.6922639  0.        -6.       ]","[-1.47809593  0.          0.        ]","[-0.08281351 -0.         -0.        ]"
"15","[28.13491335  0.         -6.        ]","[-1.55735055  0.          0.        ]","[-0.07925462 -0.         -0.        ]"
"16","[26.50211491  0.         -6.        ]","[-1.63279844  0.          0.        ]","[-0.07544789 -0.         -0.        ]"
"17","[24.79791953  0.         -6.        ]","[-1.70419538  0.          0.        ]","[-0.07139694 -0.         -0.        ]"
"18","[23.0266171  0.        -6.       ]","[-1.77130244  0.          0.        ]","[-0.06710706 -0.         -0.        ]"
"19","[21.19272927  0.         -6.        ]","[-1.83388783  0.          0.        ]","[-0.06258539 -0.         -0.        ]"
"20","[19.30100044  0.         -6.        ]","[-1.89172883  0.          0.        ]","[-0.057841 -0.       -0.      ]"
"21","[17.35638667  0.         -6.        ]","[-1.94461377  0.          0.        ]","[-0.05288494 -0.         -0.        ]"
"22","[15.3640426  0.        -6.       ]","[-1.99234406  0.          0.        ]","[-0.04773029 -0.         -0.        ]"
"23","[13.32930637  0.         -6.        ]","[-2.03473623  0.          0.        ]","[-0.04239216 -0.         -0.        ]"
"24","[11.25768255  0.         -6.        ]","[-2.07162383  0.          0.        ]","[-0.0368876 -0.        -0.       ]"
"25","[ 9.15482323  0.         -6.        ]","[-2.10285932  0.          0.        ]","[-0.03123549 -0.         -0.        ]"
"26","[ 7.02650747  0.         -6.        ]","[-2.12831577  0.          0.        ]","[-0.02545645 -0.         -0.        ]"
"27","[ 4.87861914  0.         -6.        ]","[-2.14788833  0.          0.        ]","[-0.01957256 -0.         -0.        ]"
"28","[ 2.71712359  0.         -6.        ]","[-2.16149555  0.          0.        ]","[-0.01360722 -0.         -0.        ]"
"29","[ 0.54804324  0.         -6.        ]","[-2.16908034  0.          0.        ]","[-0.0075848 -0.        -0.       ]"
"30","[-1.6225675  0.        -6.       ]","[-2.17061075  0.          0.        ]","[-0.0015304 -0.        -0.       ]"
"31","[-3.78864779  0.         -6.        ]","[-2.16608029  0.          0.        ]","[0.00453046 0.         0.        ]"
"32","[-5.94415589  0.         -6.        ]","[-2.1555081  0.         0.       ]","[0.01057219 0.         0.        ]"
"33","[-8.08309453  0.         -6.        ]","[-2.13893864  0.          0.        ]","[0.01656945 0.         0.        ]"
"34","[-10.19953571   0.          -6.        ]","[-2.11644118  0.          0.        ]","[0.02249746 0.         0.        ]"
"35","[-12.28764462   0.          -6.        ]","[-2.0881089  0.         0.       ]","[0.02833228 0.         0.        ]"
"36","[-14.34170237   0.          -6.        ]","[-2.05405775  0.          0.        ]","[0.03405115 0.         0.        ]"
"37","[-16.35612744   0.          -6.        ]","[-2.01442507  0.          0.        ]","[0.03963268 0.         0.        ]"
"38","[-18.32549543   0.          -6.        ]","[-1.96936798  0.          0.        ]","[0.04505709 0.         0.        ]"
"39","[-20.24455703   0.          -6.        ]","[-1.9190616  0.         0.       ]","[0.05030638 0.         0.        ]"
"40","[-22.10825416   0.          -6.        ]","[-1.86369713  0.          0.        ]","[0.05536447 0.         0.        ]"
"41","[-23.91173405   0.          -6.        ]","[-1.80347989  0.          0.        ]","[0.06021724 0.         0.        ]"
"42","[-25.65036133   0.          -6.        ]","[-1.73862728  0.          0.        ]","[0.06485261 0.         0.        ]"
"43","[-27.31972809   0.          -6.        ]","[-1.66936676  0.          0.        ]","[0.06926052 0.         0.        ]"
"44","[-28.91566197   0.          -6.        ]","[-1.59593388  0.          0.        ]","[0.07343288 0.         0.        ]"
"45","[-30.43423239   0.          -6.        ]","[-1.51857041  0.          0.        ]","[0.07736347 0.         0.        ]"
"46","[-31.87175496   0.          -6.        ]","[-1.43752257  0.          0.        ]","[0.08104784 0.         0.        ]"
"47","[-33.22479437   0.          -6.        ]","[-1.35303941  0.          0.        ]","[0.08448316 0.         0.        ]"
"48","[-34.49016574   0.          -6.        ]","[-1.26537137  0.          0.        ]","[0.08766804 0.         0.        ]"
"49","[-35.66493475   0.          -6.        ]","[-1.174769  0.        0.      ]","[0.09060236 0.         0.        ]"
"50","[-36.74641669   0.          -6.        ]","[-1.08148195  0.          0.        ]","[0.09328706 0.         0.        ]"
"51","[-37.73217472   0.          -6.        ]","[-0.98575803  0.          0.        ]","[0.09572392 0.         0.        ]"
"52","[-38.62001735   0.          -6.        ]","[-0.88784263  0.          0.        ]","[0.0979154 0.        0.       ]"
"53","[-39.40799556   0.          -6.        ]","[-0.78797821  0.          0.        ]","[0.09986442 0.         0.        ]"
"54","[-40.09439964   0.          -6.        ]","[-0.68640408  0.          0.        ]","[0.10157413 0.         0.        ]"
"55","[-40.6777559   0.         -6.       ]","[-0.58335626  0.          0.        ]","[0.10304782 0.         0.        ]"
"56","[-41.15682352   0.          -6.        ]","[-0.47906762  0.          0.        ]","[0.10428864 0.         0.        ]"
"57","[-41.53059157   0.          -6.        ]","[-0.37376805  0.          0.        ]","[0.10529956 0.         0.        ]"
"58","[-41.79827645   0.          -6.        ]","[-0.26768488  0.          0.        ]","[0.10608317 0.         0.        ]"
"59","[-41.95931972   0.          -6.        ]","[-0.16104327  0.          0.        ]","[0.10664161 0.         0.        ]"
"60","[-42.01338655   0.          -6.        ]","[-0.05406682  0.          0.        ]","[0.10697645 0.         0.        ]"
"61","[-41.96036469   0.          -6.        ]","[0.05302185 0.         0.        ]","[0.10708867 0.         0.        ]"
"62","[-41.80036422   0.          -6.        ]","[0.16000047 0.         0.        ]","[0.10697862 0.         0.        ]"
"63","[-41.5337178   0.         -6.       ]","[0.26664642 0.         0.        ]","[0.10664595 0.         0.        ]"
"64","[-41.16098167   0.          -6.        ]","[0.37273613 0.         0.        ]","[0.10608971 0.         0.        ]"
"65","[-40.68293723   0.          -6.        ]","[0.47804444 0.         0.        ]","[0.10530831 0.         0.        ]"
"66","[-40.10059318   0.          -6.        ]","[0.58234405 0.         0.        ]","[0.10429962 0.         0.        ]"
"67","[-39.41518807   0.          -6.        ]","[0.6854051 0.        0.       ]","[0.10306105 0.         0.        ]"
"68","[-38.62819332   0.          -6.        ]","[0.78699476 0.         0.        ]","[0.10158965 0.         0.        ]"
"69","[-37.74131631   0.          -6.        ]","[0.88687701 0.         0.        ]","[0.09988225 0.         0.        ]"
"70","[-36.75650371   0.          -6.        ]","[0.9848126 0.        0.       ]","[0.09793559 0.         0.        ]"
"71","[-35.67594463   0.          -6.        ]","[1.08055909 0.         0.        ]","[0.09574649 0.         0.        ]"
"72","[-34.50207351   0.          -6.        ]","[1.17387112 0.         0.        ]","[0.09331203 0.         0.        ]"
"73","[-33.23757262   0.          -6.        ]","[1.26450089 0.         0.        ]","[0.09062977 0.         0.        ]"
"74","[-31.88537384   0.          -6.        ]","[1.35219878 0.         0.        ]","[0.08769789 0.         0.        ]"
"75","[-30.4486596   0.         -6.       ]","[1.43671424 0.         0.        ]","[0.08451546 0.         0.        ]"
"76","[-28.93086279   0.          -6.        ]","[1.51779681 0.         0.        ]","[0.08108257 0.         0.        ]"
"77","[-27.33566535   0.          -6.        ]","[1.59519743 0.         0.        ]","[0.07740062 0.         0.        ]"
"78","[-25.6669955   0.         -6.       ]","[1.66866985 0.         0.        ]","[0.07347242 0.         0.        ]"
"79","[-23.92902326   0.          -6.        ]","[1.73797224 0.         0.        ]","[0.06930239 0.         0.        ]"
"80","[-22.12615427   0.          -6.        ]","[1.80286899 0.         0.        ]","[0.06489674 0.         0.        ]"
"81","[-20.26302174   0.          -6.        ]","[1.86313253 0.         0.        ]","[0.06026355 0.         0.        ]"
"82","[-18.34447636   0.          -6.        ]","[1.91854538 0.         0.        ]","[0.05541284 0.         0.        ]"
"83","[-16.37557428   0.          -6.        ]","[1.96890208 0.         0.        ]","[0.0503567 0.        0.       ]"
"84","[-14.36156301   0.          -6.        ]","[2.01401127 0.         0.        ]","[0.04510919 0.         0.        ]"
"85","[-12.30786533   0.          -6.        ]","[2.05369768 0.         0.        ]","[0.03968641 0.         0.        ]"
"86","[-10.22006133   0.          -6.        ]","[2.087804 0.       0.      ]","[0.03410632 0.         0.        ]"
"87","[-8.10386863  0.         -6.        ]","[2.11619269 0.         0.        ]","[0.02838869 0.         0.        ]"
"88","[-5.96512105  0.         -6.        ]","[2.13874759 0.         0.        ]","[0.02255489 0.         0.        ]"
"89","[-3.80974578  0.         -6.        ]","[2.15537527 0.         0.        ]","[0.01662768 0.         0.        ]"
"90","[-1.64373953  0.         -6.        ]","[2.16600625 0.         0.        ]","[0.01063098 0.         0.        ]"
"91","[ 0.52685628  0.         -6.        ]","[2.17059581 0.         0.        ]","[0.00458956 0.         0.        ]"
"92","[ 2.69598085  0.         -6.        ]","[2.16912457 0.         0.        ]","[-0.00147124 -0.         -0.        ]"
"93","[ 4.8575796  0.        -6.       ]","[2.16159875 0.         0.        ]","[-0.00752582 -0.         -0.        ]"
"94","[ 7.00562967  0.         -6.        ]","[2.14805007 0.         0.        ]","[-0.01354868 -0.         -0.        ]"
"95","[ 9.13416504  0.         -6.        ]","[2.12853537 0.         0.        ]","[-0.0195147 -0.        -0.       ]"
"96","[11.23730092  0.         -6.        ]","[2.10313588 0.         0.        ]","[-0.02539949 -0.         -0.        ]"
"97","[13.30925713  0.         -6.        ]","[2.07195621 0.         0.        ]","[-0.03117967 -0.         -0.        ]"
"98","[15.34438022  0.         -6.        ]","[2.03512309 0.         0.        ]","[-0.03683311 -0.         -0.        ]"
"99","[17.3371641  0.        -6.       ]","[1.99278388 0.         0.        ]","[-0.04233922 -0.         -0.        ]"
"100","[19.28226893  0.         -6.        ]","[1.94510482 0.         0.        ]","[-0.04767906 -0.         -0.        ]"
"101","[21.17453818  0.         -6.        ]","[1.89226925 0.         0.        ]","[-0.05283557 -0.         -0.        ]"
"102","[23.0090138  0.        -6.       ]","[1.83447562 0.         0.        ]","[-0.05779363 -0.         -0.        ]"
"103","[24.78094927  0.         -6.        ]","[1.77193547 0.         0.        ]","[-0.06254015 -0.         -0.        ]"
"104","[26.4858207  0.        -6.       ]","[1.70487143 0.         0.        ]","[-0.06706404 -0.         -0.        ]"
"105","[28.11933592  0.         -6.        ]","[1.63351522 0.         0.        ]","[-0.07135621 -0.         -0.        ]"
"106","[29.67744162  0.         -6.        ]","[1.55810569 0.         0.        ]","[-0.07540953 -0.         -0.        ]"
"107","[31.15632865  0.         -6.        ]","[1.47888703 0.         0.        ]","[-0.07921866 -0.         -0.        ]"
"108","[32.5524357  0.        -6.       ]","[1.39610705 0.         0.        ]","[-0.08277998 -0.         -0.        ]"
"109","[33.86245135  0.         -6.        ]","[1.31001565 0.         0.        ]","[-0.0860914 -0.        -0.       ]"
"110","[35.08331483  0.         -6.        ]","[1.22086348 0.         0.        ]","[-0.08915217 -0.         -0.        ]"
"111","[36.2122156  0.        -6.       ]","[1.12890077 0.         0.        ]","[-0.09196272 -0.         -0.        ]"
"112","[37.24659194  0.         -6.        ]","[1.03437634 0.         0.        ]","[-0.09452443 -0.         -0.        ]"
"113","[38.18412881  0.         -6.        ]","[0.93753687 0.         0.        ]","[-0.09683946 -0.         -0.        ]"
"114","[39.02275518  0.         -6.        ]","[0.83862636 0.         0.        ]","[-0.09891051 -0.         -0.        ]"
"115","[39.7606409  0.        -6.       ]","[0.73788573 0.         0.        ]","[-0.10074064 -0.         -0.        ]"
"116","[40.39619355  0.         -6.        ]","[0.63555264 0.         0.        ]","[-0.10233308 -0.         -0.        ]"
"117","[40.9280551  0.        -6.       ]","[0.53186155 0.         0.        ]","[-0.10369109 -0.         -0.        ]"
"118","[41.35509892  0.         -6.        ]","[0.42704382 0.         0.        ]","[-0.10481773 -0.         -0.        ]"
"119","[41.67642692  0.         -6.        ]","[0.32132801 0.         0.        ]","[-0.10571581 -0.         -0.        ]"
"120","[41.89136723  0.         -6.        ]","[0.21494031 0.         0.        ]","[-0.1063877 -0.        -0.       ]"
"121","[41.99947228  0.         -6.        ]","[0.10810504 0.         0.        ]","[-0.10683526 -0.         -0.        ]"
"122","[42.00051752  0.         -6.        ]","[0.00104524 0.         0.        ]","[-0.1070598 -0.        -0.       ]"
"123","[41.89450079  0.         -6.        ]","[-0.10601673  0.          0.        ]","[-0.10706197 -0.         -0.        ]"
"124","[41.68164229  0.         -6.        ]","[-0.21285851  0.          0.        ]","[-0.10684178 -0.         -0.        ]"
"125","[41.36238521  0.         -6.        ]","[-0.31925708  0.          0.        ]","[-0.10639858 -0.         -0.        ]"
"126","[40.93739704  0.         -6.        ]","[-0.42498817  0.          0.        ]","[-0.10573108 -0.         -0.        ]"
"127","[40.40757143  0.         -6.        ]","[-0.52982561  0.          0.        ]","[-0.10483744 -0.         -0.        ]"
"128","[39.77403054  0.         -6.        ]","[-0.63354089  0.          0.        ]","[-0.10371528 -0.         -0.        ]"
"129","[39.03812782  0.         -6.        ]","[-0.73590272  0.          0.        ]","[-0.10236183 -0.         -0.        ]"
"130","[38.20145112  0.         -6.        ]","[-0.8366767  0.         0.       ]","[-0.10077399 -0.         -0.        ]"
"131","[37.26582588  0.         -6.        ]","[-0.93562523  0.          0.        ]","[-0.09894853 -0.         -0.        ]"
"132","[36.23331844  0.         -6.        ]","[-1.03250744  0.          0.        ]","[-0.09688221 -0.         -0.        ]"
"133","[35.10623902  0.         -6.        ]","[-1.12707942  0.          0.        ]","[-0.09457197 -0.         -0.        ]"
"134","[33.88714451  0.         -6.        ]","[-1.21909451  0.          0.        ]","[-0.09201509 -0.         -0.        ]"
"135","[32.57884058  0.         -6.        ]","[-1.30830393  0.          0.        ]","[-0.08920942 -0.         -0.        ]"
"136","[31.18438311  0.         -6.        ]","[-1.39445747  0.          0.        ]","[-0.08615354 -0.         -0.        ]"
"137","[29.70707863  0.         -6.        ]","[-1.47730449  0.          0.        ]","[-0.08284702 -0.         -0.        ]"
"138","[28.15048358  0.         -6.        ]","[-1.55659504  0.          0.        ]","[-0.07929056 -0.         -0.        ]"
"139","[26.51840231  0.         -6.        ]","[-1.63208127  0.          0.        ]","[-0.07548623 -0.         -0.        ]"
"140","[24.8148834  0.        -6.       ]","[-1.70351891  0.          0.        ]","[-0.07143764 -0.         -0.        ]"
"141","[23.04421443  0.         -6.        ]","[-1.77066897  0.          0.        ]","[-0.06715006 -0.         -0.        ]"
"142","[21.21091484  0.         -6.        ]","[-1.83329959  0.          0.        ]","[-0.06263062 -0.         -0.        ]"
"143","[19.31972691  0.         -6.        ]","[-1.89118793  0.          0.        ]","[-0.05788835 -0.         -0.        ]"
"144","[17.37560468  0.         -6.        ]","[-1.94412223  0.          0.        ]","[-0.05293429 -0.         -0.        ]"
"145","[15.38370094  0.         -6.        ]","[-1.99190374  0.          0.        ]","[-0.04778152 -0.         -0.        ]"
"146","[13.3493521  0.        -6.       ]","[-2.03434884  0.          0.        ]","[-0.0424451 -0.        -0.       ]"
"147","[11.2780612  0.        -6.       ]","[-2.0712909  0.         0.       ]","[-0.03694206 -0.         -0.        ]"
"148","[ 9.175479  0.       -6.      ]","[-2.10258221  0.          0.        ]","[-0.0312913 -0.        -0.       ]"
"149","[ 7.0473834  0.        -6.       ]","[-2.1280956  0.         0.       ]","[-0.02551339 -0.         -0.        ]"
"150","[ 4.89965738  0.         -6.        ]","[-2.14772602  0.          0.        ]","[-0.01963042 -0.         -0.        ]"
"151","[ 2.7382656  0.        -6.       ]","[-2.16139177  0.          0.        ]","[-0.01366575 -0.         -0.        ]"
"152","[ 0.56923006  0.         -6.        ]","[-2.16903554  0.          0.        ]","[-0.00764377 -0.         -0.        ]"
"153","[-1.60139505  0.         -6.        ]","[-2.17062511  0.          0.        ]","[-0.00158956 -0.         -0.        ]"
"154","[-3.7675488  0.        -6.       ]","[-2.16615375  0.          0.        ]","[0.00447136 0.         0.        ]"
"155","[-5.92318915  0.         -6.        ]","[-2.15564035  0.          0.        ]","[0.0105134 0.        0.       ]"
"156","[-8.06231828  0.         -6.        ]","[-2.13912913  0.          0.        ]","[0.01651122 0.         0.        ]"
"157","[-10.1790074   0.         -6.       ]","[-2.11668912  0.          0.        ]","[0.02244001 0.         0.        ]"
"158","[-12.26742066   0.          -6.        ]","[-2.08841326  0.          0.        ]","[0.02827586 0.         0.        ]"
"159","[-14.32183795   0.          -6.        ]","[-2.05441729  0.          0.        ]","[0.03399597 0.         0.        ]"
"160","[-16.33667631   0.          -6.        ]","[-2.01483836  0.          0.        ]","[0.03957893 0.         0.        ]"
"161","[-18.3065097   0.         -6.       ]","[-1.96983339  0.          0.        ]","[0.04500497 0.         0.        ]"
"162","[-20.22608704   0.          -6.        ]","[-1.91957734  0.          0.        ]","[0.05025605 0.         0.        ]"
"163","[-22.09034831   0.          -6.        ]","[-1.86426127  0.          0.        ]","[0.05531607 0.         0.        ]"
"164","[-23.89443866   0.          -6.        ]","[-1.80409036  0.          0.        ]","[0.06017091 0.         0.        ]"
"165","[-25.63372056   0.          -6.        ]","[-1.7392819  0.         0.       ]","[0.06480846 0.         0.        ]"
"166","[-27.30378384   0.          -6.        ]","[-1.67006327  0.          0.        ]","[0.06921863 0.         0.        ]"
"167","[-28.90045379   0.          -6.        ]","[-1.59666995  0.          0.        ]","[0.07339332 0.         0.        ]"
"168","[-30.41979745   0.          -6.        ]","[-1.51934366  0.          0.        ]","[0.07732629 0.         0.        ]"
"169","[-31.85812804   0.          -6.        ]","[-1.43833058  0.          0.        ]","[0.08101308 0.         0.        ]"
"170","[-33.21200778   0.          -6.        ]","[-1.35387974  0.          0.        ]","[0.08445084 0.         0.        ]"
"171","[-34.47824935   0.          -6.        ]","[-1.26624157  0.          0.        ]","[0.08763817 0.         0.        ]"
"172","[-35.65391598   0.          -6.        ]","[-1.17566663  0.          0.        ]","[0.09057493 0.         0.        ]"
"173","[-36.73632056   0.          -6.        ]","[-1.08240458  0.          0.        ]","[0.09326206 0.         0.        ]"
"174","[-37.72302381   0.          -6.        ]","[-0.98670325  0.          0.        ]","[0.09570133 0.         0.        ]"
"175","[-38.61183187   0.          -6.        ]","[-0.88880806  0.          0.        ]","[0.09789519 0.         0.        ]"
"176","[-39.40079338   0.          -6.        ]","[-0.78896151  0.          0.        ]","[0.09984656 0.         0.        ]"
"177","[-40.08819629   0.          -6.        ]","[-0.68740291  0.          0.        ]","[0.10155859 0.         0.        ]"
"178","[-40.67256464   0.          -6.        ]","[-0.58436835  0.          0.        ]","[0.10303457 0.         0.        ]"
"179","[-41.15265534   0.          -6.        ]","[-0.4800907  0.         0.       ]","[0.10427765 0.         0.        ]"
"180","[-41.52745524   0.          -6.        ]","[-0.3747999  0.         0.       ]","[0.1052908 0.        0.       ]"
"181","[-41.79617852   0.          -6.        ]","[-0.26872328  0.          0.        ]","[0.10607662 0.         0.        ]"
"182","[-41.95826456   0.          -6.        ]","[-0.16208604  0.          0.        ]","[0.10663724 0.         0.        ]"
"183","[-42.01337634   0.          -6.        ]","[-0.05511178  0.          0.        ]","[0.10697426 0.         0.        ]"
"184","[-41.96139947   0.          -6.        ]","[0.05197687 0.         0.        ]","[0.10708865 0.         0.        ]"
"185","[-41.80244184   0.          -6.        ]","[0.15895764 0.         0.        ]","[0.10698077 0.         0.        ]"
"186","[-41.53683392   0.          -6.        ]","[0.26560791 0.         0.        ]","[0.10665028 0.         0.        ]"
"187","[-41.16512979   0.          -6.        ]","[0.37170414 0.         0.        ]","[0.10609622 0.         0.        ]"
"188","[-40.68810862   0.          -6.        ]","[0.47702116 0.         0.        ]","[0.10531703 0.         0.        ]"
"189","[-40.10677689   0.          -6.        ]","[0.58133173 0.         0.        ]","[0.10431057 0.         0.        ]"
"190","[-39.4223709   0.         -6.       ]","[0.68440599 0.         0.        ]","[0.10307426 0.         0.        ]"
"191","[-38.63635977   0.          -6.        ]","[0.78601114 0.         0.        ]","[0.10160515 0.         0.        ]"
"192","[-37.75044857   0.          -6.        ]","[0.8859112 0.        0.       ]","[0.09990007 0.         0.        ]"
"193","[-36.76658161   0.          -6.        ]","[0.98386696 0.         0.        ]","[0.09795576 0.         0.        ]"
"194","[-35.68694562   0.          -6.        ]","[1.07963599 0.         0.        ]","[0.09576903 0.         0.        ]"
"195","[-34.51397264   0.          -6.        ]","[1.17297298 0.         0.        ]","[0.09333699 0.         0.        ]"
"196","[-33.25034251   0.          -6.        ]","[1.26363013 0.         0.        ]","[0.09065715 0.         0.        ]"
"197","[-31.89898466   0.          -6.        ]","[1.35135785 0.         0.        ]","[0.08772772 0.         0.        ]"
"198","[-30.46307908   0.          -6.        ]","[1.43590557 0.         0.        ]","[0.08454773 0.         0.        ]"
"199","[-28.94605623   0.          -6.        ]","[1.51702286 0.         0.        ]","[0.08111728 0.         0.        ]"
"200","[-27.35159561   0.          -6.        ]","[1.59446061 0.         0.        ]","[0.07743775 0.         0.        ]"
"201","[-25.68362307   0.          -6.        ]","[1.66797254 0.         0.        ]","[0.07351193 0.         0.        ]"
"202","[-23.94630628   0.          -6.        ]","[1.73731679 0.         0.        ]","[0.06934424 0.         0.        ]"
"203","[-22.14404864   0.          -6.        ]","[1.80225764 0.         0.        ]","[0.06494086 0.         0.        ]"
"204","[-20.28148117   0.          -6.        ]","[1.86256748 0.         0.        ]","[0.06030983 0.         0.        ]"
"205","[-18.36345249   0.          -6.        ]","[1.91802868 0.         0.        ]","[0.0554612 0.        0.       ]"
"206","[-16.39501682   0.          -6.        ]","[1.96843567 0.         0.        ]","[0.05040699 0.         0.        ]"
"207","[-14.38141987   0.          -6.        ]","[2.01359695 0.         0.        ]","[0.04516128 0.         0.        ]"
"208","[-12.32808279   0.          -6.        ]","[2.05333708 0.         0.        ]","[0.03974012 0.         0.        ]"
"209","[-10.24058424   0.          -6.        ]","[2.08749856 0.         0.        ]","[0.03416148 0.         0.        ]"
"210","[-8.12464059  0.         -6.        ]","[2.11594365 0.         0.        ]","[0.02844509 0.         0.        ]"
"211","[-5.98608462  0.         -6.        ]","[2.13855597 0.         0.        ]","[0.02261232 0.         0.        ]"
"212","[-3.83084275  0.         -6.        ]","[2.15524187 0.         0.        ]","[0.01668591 0.         0.        ]"
"213","[-1.66491111  0.         -6.        ]","[2.16593164 0.         0.        ]","[0.01068976 0.         0.        ]"
"214","[ 0.50566918  0.         -6.        ]","[2.17058029 0.         0.        ]","[0.00464865 0.         0.        ]"
"215","[ 2.67483739  0.         -6.        ]","[2.16916821 0.         0.        ]","[-0.00141208 -0.         -0.        ]"
"216","[ 4.83653877  0.         -6.        ]","[2.16170137 0.         0.        ]","[-0.00746684 -0.         -0.        ]"
"217","[ 6.98475001  0.         -6.        ]","[2.14821124 0.         0.        ]","[-0.01349013 -0.         -0.        ]"
"218","[ 9.11350443  0.         -6.        ]","[2.12875442 0.         0.        ]","[-0.01945683 -0.         -0.        ]"
"219","[11.21691632  0.         -6.        ]","[2.10341189 0.         0.        ]","[-0.02534253 -0.         -0.        ]"
"220","[13.28920437  0.         -6.        ]","[2.07228806 0.         0.        ]","[-0.03112383 -0.         -0.        ]"
"221","[15.32471381  0.         -6.        ]","[2.03550944 0.         0.        ]","[-0.03677862 -0.         -0.        ]"
"222","[17.317937  0.       -6.      ]","[1.99322319 0.         0.        ]","[-0.04228625 -0.         -0.        ]"
"223","[19.26353238  0.         -6.        ]","[1.94559538 0.         0.        ]","[-0.0476278 -0.        -0.       ]"
"224","[21.15634159  0.         -6.        ]","[1.89280921 0.         0.        ]","[-0.05278618 -0.         -0.        ]"
"225","[22.99140454  0.         -6.        ]","[1.83506296 0.         0.        ]","[-0.05774625 -0.         -0.        ]"
"226","[24.76397262  0.         -6.        ]","[1.77256807 0.         0.        ]","[-0.06249488 -0.         -0.        ]"
"227","[26.4695197  0.        -6.       ]","[1.70554708 0.         0.        ]","[-0.06702099 -0.         -0.        ]"
"228","[28.10375131  0.         -6.        ]","[1.63423162 0.         0.        ]","[-0.07131547 -0.         -0.        ]"
"229","[29.66261179  0.         -6.        ]","[1.55886047 0.         0.        ]","[-0.07537114 -0.         -0.        ]"
"230","[31.14228958  0.         -6.        ]","[1.4796778 0.        0.       ]","[-0.07918268 -0.         -0.        ]"
"231","[32.53922095  0.         -6.        ]","[1.39693137 0.         0.        ]","[-0.08274643 -0.         -0.        ]"
"232","[33.85009202  0.         -6.        ]","[1.31087108 0.         0.        ]","[-0.08606029 -0.         -0.        ]"
"233","[35.07183959  0.         -6.        ]","[1.22174757 0.         0.        ]","[-0.08912351 -0.         -0.        ]"
"234","[36.20165067  0.         -6.        ]","[1.12981108 0.         0.        ]","[-0.09193649 -0.         -0.        ]"
"235","[37.23696112  0.         -6.        ]","[1.03531045 0.         0.        ]","[-0.09450063 -0.         -0.        ]"
"236","[38.17545352  0.         -6.        ]","[0.9384924 0.        0.       ]","[-0.09681805 -0.         -0.        ]"
"237","[39.01505446  0.         -6.        ]","[0.83960093 0.         0.        ]","[-0.09889147 -0.         -0.        ]"
"238","[39.75393146  0.         -6.        ]","[0.738877 0.       0.      ]","[-0.10072393 -0.         -0.        ]"
"239","[40.39048978  0.         -6.        ]","[0.63655832 0.         0.        ]","[-0.10231868 -0.         -0.        ]"
"240","[40.92336915  0.         -6.        ]","[0.53287936 0.         0.        ]","[-0.10367896 -0.         -0.        ]"
"241","[41.35144067  0.         -6.        ]","[0.42807152 0.         0.        ]","[-0.10480785 -0.         -0.        ]"
"242","[41.67380404  0.         -6.        ]","[0.32236337 0.         0.        ]","[-0.10570814 -0.         -0.        ]"
"243","[41.88978519  0.         -6.        ]","[0.21598115 0.         0.        ]","[-0.10638223 -0.         -0.        ]"
"244","[41.99893436  0.         -6.        ]","[0.10914917 0.         0.        ]","[-0.10683198 -0.         -0.        ]"
"245","[42.00102484  0.         -6.        ]","[0.00209049 0.         0.        ]","[-0.10705869 -0.         -0.        ]"
"246","[41.89605231  0.         -6.        ]","[-0.10497254  0.          0.        ]","[-0.10706302 -0.         -0.        ]"
"247","[41.68423476  0.         -6.        ]","[-0.21181754  0.          0.        ]","[-0.106845 -0.       -0.      ]"
"248","[41.36601324  0.         -6.        ]","[-0.31822152  0.          0.        ]","[-0.10640398 -0.         -0.        ]"
"249","[40.94205303  0.         -6.        ]","[-0.42396021  0.          0.        ]","[-0.10573869 -0.         -0.        ]"
"250","[40.41324555  0.         -6.        ]","[-0.52880748  0.          0.        ]","[-0.10484727 -0.         -0.        ]"
"251","[39.78071073  0.         -6.        ]","[-0.63253483  0.          0.        ]","[-0.10372735 -0.         -0.        ]"
"252","[39.04579974  0.         -6.        ]","[-0.73491099  0.          0.        ]","[-0.10237616 -0.         -0.        ]"
"253","[38.21009813  0.         -6.        ]","[-0.83570161  0.          0.        ]","[-0.10079063 -0.         -0.        ]"
"254","[37.27542901  0.         -6.        ]","[-0.93466911  0.          0.        ]","[-0.0989675 -0.        -0.       ]"
"255","[36.24385635  0.         -6.        ]","[-1.03157267  0.          0.        ]","[-0.09690355 -0.         -0.        ]"
"256","[35.11768797  0.         -6.        ]","[-1.12616838  0.          0.        ]","[-0.09459571 -0.         -0.        ]"
"257","[33.89947835  0.         -6.        ]","[-1.21820962  0.          0.        ]","[-0.09204125 -0.         -0.        ]"
"258","[32.59203071  0.         -6.        ]","[-1.30744763  0.          0.        ]","[-0.08923801 -0.         -0.        ]"
"259","[31.19839851  0.         -6.        ]","[-1.39363221  0.          0.        ]","[-0.08618458 -0.         -0.        ]"
"260","[29.7218858  0.        -6.       ]","[-1.4765127  0.         0.       ]","[-0.0828805 -0.        -0.       ]"
"261","[28.16604663  0.         -6.        ]","[-1.55583917  0.          0.        ]","[-0.07932647 -0.         -0.        ]"
"262","[26.53468291  0.         -6.        ]","[-1.63136372  0.          0.        ]","[-0.07552455 -0.         -0.        ]"
"263","[24.83184087  0.         -6.        ]","[-1.70284204  0.          0.        ]","[-0.07147831 -0.         -0.        ]"
"264","[23.0618058  0.        -6.       ]","[-1.77003507  0.          0.        ]","[-0.06719304 -0.         -0.        ]"
"265","[21.2290949  0.        -6.       ]","[-1.83271089  0.          0.        ]","[-0.06267582 -0.         -0.        ]"
"266","[19.33844834  0.         -6.        ]","[-1.89064657  0.          0.        ]","[-0.05793567 -0.         -0.        ]"
"267","[17.39481815  0.         -6.        ]","[-1.94363019  0.          0.        ]","[-0.05298362 -0.         -0.        ]"
"268","[15.40335524  0.         -6.        ]","[-1.99146291  0.          0.        ]","[-0.04783272 -0.         -0.        ]"
"269","[13.36939432  0.         -6.        ]","[-2.03396092  0.          0.        ]","[-0.04249801 -0.         -0.        ]"
"270","[11.29843687  0.         -6.        ]","[-2.07095744  0.          0.        ]","[-0.03699652 -0.         -0.        ]"
"271","[ 9.19613233  0.         -6.        ]","[-2.10230454  0.          0.        ]","[-0.0313471 -0.        -0.       ]"
"272","[ 7.06825746  0.         -6.        ]","[-2.12787487  0.          0.        ]","[-0.02557033 -0.         -0.        ]"
"273","[ 4.92069432  0.         -6.        ]","[-2.14756314  0.          0.        ]","[-0.01968827 -0.         -0.        ]"
"274","[ 2.75940689  0.         -6.        ]","[-2.16128743  0.          0.        ]","[-0.01372429 -0.         -0.        ]"
"275","[ 0.59041673  0.         -6.        ]","[-2.16899017  0.          0.        ]","[-0.00770274 -0.         -0.        ]"
"276","[-1.58022217  0.         -6.        ]","[-2.17063889  0.          0.        ]","[-0.00164873 -0.         -0.        ]"
"277","[-3.7464488  0.        -6.       ]","[-2.16622664  0.          0.        ]","[0.00441225 0.         0.        ]"
"278","[-5.90222084  0.         -6.        ]","[-2.15577203  0.          0.        ]","[0.01045461 0.         0.        ]"
"279","[-8.0415399  0.        -6.       ]","[-2.13931906  0.          0.        ]","[0.01645297 0.         0.        ]"
"280","[-10.15847639   0.          -6.        ]","[-2.1169365  0.         0.       ]","[0.02238256 0.         0.        ]"
"281","[-12.24719346   0.          -6.        ]","[-2.08871707  0.          0.        ]","[0.02821943 0.         0.        ]"
"282","[-14.30196976   0.          -6.        ]","[-2.0547763  0.         0.       ]","[0.03394077 0.         0.        ]"
"283","[-16.31722089   0.          -6.        ]","[-2.01525113  0.          0.        ]","[0.03952517 0.         0.        ]"
"284","[-18.28751919   0.          -6.        ]","[-1.9702983  0.         0.       ]","[0.04495283 0.         0.        ]"
"285","[-20.20761178   0.          -6.        ]","[-1.9200926  0.         0.       ]","[0.0502057 0.        0.       ]"
"286","[-22.07243672   0.          -6.        ]","[-1.86482494  0.          0.        ]","[0.05526766 0.         0.        ]"
"287","[-23.8771371   0.         -6.       ]","[-1.80470038  0.          0.        ]","[0.06012456 0.         0.        ]"
"288","[-25.6170732   0.         -6.       ]","[-1.7399361  0.         0.       ]","[0.06476428 0.         0.        ]"
"289","[-27.28783259   0.          -6.        ]","[-1.67075939  0.          0.        ]","[0.06917671 0.         0.        ]"
"290","[-28.88523824   0.          -6.        ]","[-1.59740565  0.          0.        ]","[0.07335373 0.         0.        ]"
"291","[-30.4053548   0.         -6.       ]","[-1.52011656  0.          0.        ]","[0.07728909 0.         0.        ]"
"292","[-31.84449307   0.          -6.        ]","[-1.43913826  0.          0.        ]","[0.0809783 0.        0.       ]"
"293","[-33.19921283   0.          -6.        ]","[-1.35471976  0.          0.        ]","[0.0844185 0.        0.       ]"
"294","[-34.46632432   0.          -6.        ]","[-1.26711149  0.          0.        ]","[0.08760828 0.         0.        ]"
"295","[-35.64288833   0.          -6.        ]","[-1.17656401  0.          0.        ]","[0.09054748 0.         0.        ]"
"296","[-36.7262153   0.         -6.       ]","[-1.08332698  0.          0.        ]","[0.09323703 0.         0.        ]"
"297","[-37.71386357   0.          -6.        ]","[-0.98764827  0.          0.        ]","[0.09567871 0.         0.        ]"
"298","[-38.60363688   0.          -6.        ]","[-0.88977331  0.          0.        ]","[0.09787496 0.         0.        ]"
"299","[-39.39358152   0.          -6.        ]","[-0.78994464  0.          0.        ]","[0.09982867 0.         0.        ]"
"300","[-40.08198312   0.          -6.        ]","[-0.68840161  0.          0.        ]","[0.10154303 0.         0.        ]"
"301","[-40.66736344   0.          -6.        ]","[-0.58538032  0.          0.        ]","[0.10302129 0.         0.        ]"
"302","[-41.14847712   0.          -6.        ]","[-0.48111368  0.          0.        ]","[0.10426663 0.         0.        ]"
"303","[-41.52430879   0.          -6.        ]","[-0.37583167  0.          0.        ]","[0.10528201 0.         0.        ]"
"304","[-41.79407042   0.          -6.        ]","[-0.26976163  0.          0.        ]","[0.10607004 0.         0.        ]"
"305","[-41.9571992   0.         -6.       ]","[-0.16312878  0.          0.        ]","[0.10663285 0.         0.        ]"
"306","[-42.01335594   0.          -6.        ]","[-0.05615673  0.          0.        ]","[0.10697204 0.         0.        ]"
"307","[-41.96242406   0.          -6.        ]","[0.05093188 0.         0.        ]","[0.10708861 0.         0.        ]"
"308","[-41.80450929   0.          -6.        ]","[0.15791477 0.         0.        ]","[0.10698289 0.         0.        ]"
"309","[-41.53993994   0.          -6.        ]","[0.26456935 0.         0.        ]","[0.10665458 0.         0.        ]"
"310","[-41.16926787   0.          -6.        ]","[0.37067207 0.         0.        ]","[0.10610272 0.         0.        ]"
"311","[-40.69327008   0.          -6.        ]","[0.47599779 0.         0.        ]","[0.10532573 0.         0.        ]"
"312","[-40.11295079   0.          -6.        ]","[0.58031929 0.         0.        ]","[0.1043215 0.        0.       ]"
"313","[-39.42954405   0.          -6.        ]","[0.68340673 0.         0.        ]","[0.10308744 0.         0.        ]"
"314","[-38.6445167   0.         -6.       ]","[0.78502735 0.         0.        ]","[0.10162062 0.         0.        ]"
"315","[-37.75957149   0.          -6.        ]","[0.88494521 0.         0.        ]","[0.09991786 0.         0.        ]"
"316","[-36.77665038   0.          -6.        ]","[0.98292111 0.         0.        ]","[0.0979759 0.        0.       ]"
"317","[-35.69793771   0.          -6.        ]","[1.07871267 0.         0.        ]","[0.09579156 0.         0.        ]"
"318","[-34.52586313   0.          -6.        ]","[1.17207458 0.         0.        ]","[0.09336192 0.         0.        ]"
"319","[-33.26310404   0.          -6.        ]","[1.26275909 0.         0.        ]","[0.09068451 0.         0.        ]"
"320","[-31.91258743   0.          -6.        ]","[1.35051661 0.         0.        ]","[0.08775752 0.         0.        ]"
"321","[-30.47749084   0.          -6.        ]","[1.43509658 0.         0.        ]","[0.08457997 0.         0.        ]"
"322","[-28.96124229   0.          -6.        ]","[1.51624856 0.         0.        ]","[0.08115197 0.         0.        ]"
"323","[-27.36751887   0.          -6.        ]","[1.59372342 0.         0.        ]","[0.07747486 0.         0.        ]"
"324","[-25.70024403   0.          -6.        ]","[1.66727484 0.         0.        ]","[0.07355142 0.         0.        ]"
"325","[-23.96358312   0.          -6.        ]","[1.73666091 0.         0.        ]","[0.06938607 0.         0.        ]"
"326","[-22.16193727   0.          -6.        ]","[1.80164585 0.         0.        ]","[0.06498495 0.         0.        ]"
"327","[-20.29993531   0.          -6.        ]","[1.86200196 0.         0.        ]","[0.0603561 0.        0.       ]"
"328","[-18.38242382   0.          -6.        ]","[1.91751149 0.         0.        ]","[0.05550953 0.         0.        ]"
"329","[-16.41445506   0.          -6.        ]","[1.96796876 0.         0.        ]","[0.05045727 0.         0.        ]"
"330","[-14.40127294   0.          -6.        ]","[2.01318212 0.         0.        ]","[0.04521336 0.         0.        ]"
"331","[-12.348297   0.        -6.      ]","[2.05297594 0.         0.        ]","[0.03979382 0.         0.        ]"
"332","[-10.26110444   0.          -6.        ]","[2.08719257 0.         0.        ]","[0.03421662 0.         0.        ]"
"333","[-8.14541039  0.         -6.        ]","[2.11569405 0.         0.        ]","[0.02850148 0.         0.        ]"
"334","[-6.00704661  0.         -6.        ]","[2.13836378 0.         0.        ]","[0.02266973 0.         0.        ]"
"335","[-3.8519387  0.        -6.       ]","[2.15510791 0.         0.        ]","[0.01674412 0.         0.        ]"
"336","[-1.68608225  0.         -6.        ]","[2.16585645 0.         0.        ]","[0.01074854 0.         0.        ]"
"337","[ 0.48448194  0.         -6.        ]","[2.1705642 0.        0.       ]","[0.00470775 0.         0.        ]"
"338","[ 2.65369323  0.         -6.        ]","[2.16921128 0.         0.        ]","[-0.00135291 -0.         -0.        ]"
"339","[ 4.81549665  0.         -6.        ]","[2.16180342 0.         0.        ]","[-0.00740786 -0.         -0.        ]"
"340","[ 6.9638685  0.        -6.       ]","[2.14837185 0.         0.        ]","[-0.01343158 -0.         -0.        ]"
"341","[ 9.0928414  0.        -6.       ]","[2.1289729 0.        0.       ]","[-0.01939894 -0.         -0.        ]"
"342","[11.19652875  0.         -6.        ]","[2.10368735 0.         0.        ]","[-0.02528555 -0.         -0.        ]"
"343","[13.26914811  0.         -6.        ]","[2.07261936 0.         0.        ]","[-0.03106799 -0.         -0.        ]"
"344","[15.30504337  0.         -6.        ]","[2.03589525 0.         0.        ]","[-0.03672411 -0.         -0.        ]"
"345","[17.29870535  0.         -6.        ]","[1.99366198 0.         0.        ]","[-0.04223327 -0.         -0.        ]"
"346","[19.2447908  0.        -6.       ]","[1.94608545 0.         0.        ]","[-0.04757653 -0.         -0.        ]"
"347","[21.13813949  0.         -6.        ]","[1.89334868 0.         0.        ]","[-0.05273677 -0.         -0.        ]"
"348","[22.97378933  0.         -6.        ]","[1.83564984 0.         0.        ]","[-0.05769884 -0.         -0.        ]"
"349","[24.74698958  0.         -6.        ]","[1.77320024 0.         0.        ]","[-0.0624496 -0.        -0.       ]"
"350","[26.4532119  0.        -6.       ]","[1.70622232 0.         0.        ]","[-0.06697792 -0.         -0.        ]"
"351","[28.08815952  0.         -6.        ]","[1.63494762 0.         0.        ]","[-0.0712747 -0.        -0.       ]"
"352","[29.64777441  0.         -6.        ]","[1.55961489 0.         0.        ]","[-0.07533273 -0.         -0.        ]"
"353","[31.12824264  0.         -6.        ]","[1.48046822 0.         0.        ]","[-0.07914667 -0.         -0.        ]"
"354","[32.525998  0.       -6.      ]","[1.39775537 0.         0.        ]","[-0.08271285 -0.         -0.        ]"
"355","[33.83772421  0.         -6.        ]","[1.31172621 0.         0.        ]","[-0.08602916 -0.         -0.        ]"
"356","[35.0603556  0.        -6.       ]","[1.22263139 0.         0.        ]","[-0.08909482 -0.         -0.        ]"
"357","[36.19107674  0.         -6.        ]","[1.13072114 0.         0.        ]","[-0.09191024 -0.         -0.        ]"
"358","[37.22732109  0.         -6.        ]","[1.03624435 0.         0.        ]","[-0.0944768 -0.        -0.       ]"
"359","[38.16676881  0.         -6.        ]","[0.93944773 0.         0.        ]","[-0.09679662 -0.         -0.        ]"
"360","[39.00734414  0.         -6.        ]","[0.84057533 0.         0.        ]","[-0.0988724 -0.        -0.       ]"
"361","[39.74721227  0.         -6.        ]","[0.73986813 0.         0.        ]","[-0.1007072 -0.        -0.       ]"
"362","[40.38477615  0.         -6.        ]","[0.63756387 0.         0.        ]","[-0.10230425 -0.         -0.        ]"
"363","[40.91867321  0.         -6.        ]","[0.53389707 0.         0.        ]","[-0.10366681 -0.         -0.        ]"
"364","[41.34777234  0.         -6.        ]","[0.42909913 0.         0.        ]","[-0.10479794 -0.         -0.        ]"
"365","[41.67117102  0.         -6.        ]","[0.32339868 0.         0.        ]","[-0.10570045 -0.         -0.        ]"
"366","[41.88819296  0.         -6.        ]","[0.21702194 0.         0.        ]","[-0.10637673 -0.         -0.        ]"
"367","[41.99838624  0.         -6.        ]","[0.11019328 0.         0.        ]","[-0.10682867 -0.         -0.        ]"
"368","[42.00152197  0.         -6.        ]","[0.00313573 0.         0.        ]","[-0.10705755 -0.         -0.        ]"
"369","[41.89759364  0.         -6.        ]","[-0.10392833  0.          0.        ]","[-0.10706406 -0.         -0.        ]"
"370","[41.6868171  0.        -6.       ]","[-0.21077653  0.          0.        ]","[-0.10684821 -0.         -0.        ]"
"371","[41.3696312  0.        -6.       ]","[-0.3171859  0.         0.       ]","[-0.10640937 -0.         -0.        ]"
"372","[40.94669903  0.         -6.        ]","[-0.42293217  0.          0.        ]","[-0.10574627 -0.         -0.        ]"
"373","[40.41890979  0.         -6.        ]","[-0.52778924  0.          0.        ]","[-0.10485706 -0.         -0.        ]"
"374","[39.78738117  0.         -6.        ]","[-0.63152863  0.          0.        ]","[-0.10373939 -0.         -0.        ]"
"375","[39.05346206  0.         -6.        ]","[-0.73391911  0.          0.        ]","[-0.10239048 -0.         -0.        ]"
"376","[38.21873571  0.         -6.        ]","[-0.83472635  0.          0.        ]","[-0.10080724 -0.         -0.        ]"
"377","[37.28502291  0.         -6.        ]","[-0.9337128  0.         0.       ]","[-0.09898645 -0.         -0.        ]"
"378","[36.25438524  0.         -6.        ]","[-1.03063767  0.          0.        ]","[-0.09692487 -0.         -0.        ]"
"379","[35.12912815  0.         -6.        ]","[-1.12525709  0.          0.        ]","[-0.09461942 -0.         -0.        ]"
"380","[33.91180368  0.         -6.        ]","[-1.21732447  0.          0.        ]","[-0.09206738 -0.         -0.        ]"
"381","[32.60521263  0.         -6.        ]","[-1.30659104  0.          0.        ]","[-0.08926657 -0.         -0.        ]"
"382","[31.212406  0.       -6.      ]","[-1.39280663  0.          0.        ]","[-0.08621559 -0.         -0.        ]"
"383","[29.73668542  0.         -6.        ]","[-1.47572058  0.          0.        ]","[-0.08291395 -0.         -0.        ]"
"384","[28.18160248  0.         -6.        ]","[-1.55508294  0.          0.        ]","[-0.07936236 -0.         -0.        ]"
"385","[26.55095669  0.         -6.        ]","[-1.63064578  0.          0.        ]","[-0.07556284 -0.         -0.        ]"
"386","[24.84879194  0.         -6.        ]","[-1.70216475  0.          0.        ]","[-0.07151897 -0.         -0.        ]"
"387","[23.07939119  0.         -6.        ]","[-1.76940075  0.          0.        ]","[-0.067236 -0.       -0.      ]"
"388","[21.24726944  0.         -6.        ]","[-1.83212175  0.          0.        ]","[-0.062721 -0.       -0.      ]"
"389","[19.35716472  0.         -6.        ]","[-1.89010473  0.          0.        ]","[-0.05798298 -0.         -0.        ]"
"390","[17.41402705  0.         -6.        ]","[-1.94313767  0.          0.        ]","[-0.05303294 -0.         -0.        ]"
"391","[15.42300548  0.         -6.        ]","[-1.99102157  0.          0.        ]","[-0.0478839 -0.        -0.       ]"
"392","[13.389433  0.       -6.      ]","[-2.03357248  0.          0.        ]","[-0.04255091 -0.         -0.        ]"
"393","[11.31880956  0.         -6.        ]","[-2.07062344  0.          0.        ]","[-0.03705096 -0.         -0.        ]"
"394","[ 9.21678323  0.         -6.        ]","[-2.10202633  0.          0.        ]","[-0.03140289 -0.         -0.        ]"
"395","[ 7.08912965  0.         -6.        ]","[-2.12765358  0.          0.        ]","[-0.02562725 -0.         -0.        ]"
"396","[ 4.94172995  0.         -6.        ]","[-2.1473997  0.         0.       ]","[-0.01974611 -0.         -0.        ]"
"397","[ 2.78054745  0.         -6.        ]","[-2.16118251  0.          0.        ]","[-0.01378281 -0.         -0.        ]"
"398","[ 0.61160323  0.         -6.        ]","[-2.16894421  0.          0.        ]","[-0.00776171 -0.         -0.        ]"
"399","[-1.55904887  0.         -6.        ]","[-2.1706521  0.         0.       ]","[-0.00170789 -0.         -0.        ]"
"400","[-3.72534781  0.         -6.        ]","[-2.16629895  0.          0.        ]","[0.00435315 0.         0.        ]"
"401","[-5.88125096  0.         -6.        ]","[-2.15590314  0.          0.        ]","[0.01039581 0.         0.        ]"
"402","[-8.02075938  0.         -6.        ]","[-2.13950842  0.          0.        ]","[0.01639473 0.         0.        ]"
"403","[-10.1379427   0.         -6.       ]","[-2.11718332  0.          0.        ]","[0.0223251 0.        0.       ]"
"404","[-12.22696303   0.          -6.        ]","[-2.08902033  0.          0.        ]","[0.02816298 0.         0.        ]"
"405","[-14.2820978   0.         -6.       ]","[-2.05513478  0.          0.        ]","[0.03388556 0.         0.        ]"
"406","[-16.29776118   0.          -6.        ]","[-2.01566338  0.          0.        ]","[0.0394714 0.        0.       ]"
"407","[-18.26852389   0.          -6.        ]","[-1.97076271  0.          0.        ]","[0.04490067 0.         0.        ]"
"408","[-20.18913126   0.          -6.        ]","[-1.92060737  0.          0.        ]","[0.05015533 0.         0.        ]"
"409","[-22.05451941   0.          -6.        ]","[-1.86538815  0.          0.        ]","[0.05521923 0.         0.        ]"
"410","[-23.85982937   0.          -6.        ]","[-1.80530996  0.          0.        ]","[0.06007819 0.         0.        ]"
"411","[-25.60041925   0.          -6.        ]","[-1.74058988  0.          0.        ]","[0.06472008 0.         0.        ]"
"412","[-27.27187435   0.          -6.        ]","[-1.6714551  0.         0.       ]","[0.06913478 0.         0.        ]"
"413","[-28.87001533   0.          -6.        ]","[-1.59814098  0.          0.        ]","[0.07331413 0.         0.        ]"
"414","[-30.39090444   0.          -6.        ]","[-1.52088911  0.          0.        ]","[0.07725187 0.         0.        ]"
"415","[-31.83085005   0.          -6.        ]","[-1.43994562  0.          0.        ]","[0.08094349 0.         0.        ]"
"416","[-33.18640954   0.          -6.        ]","[-1.35555948  0.          0.        ]","[0.08438613 0.         0.        ]"
"417","[-34.45439067   0.          -6.        ]","[-1.26798113  0.          0.        ]","[0.08757836 0.         0.        ]"
"418","[-35.63185179   0.          -6.        ]","[-1.17746112  0.          0.        ]","[0.09052 0.      0.     ]"
"419","[-36.71610093   0.          -6.        ]","[-1.08424914  0.          0.        ]","[0.09321198 0.         0.        ]"
"420","[-37.704694   0.        -6.      ]","[-0.98859307  0.          0.        ]","[0.09565607 0.         0.        ]"
"421","[-38.59543237   0.          -6.        ]","[-0.89073837  0.          0.        ]","[0.0978547 0.        0.       ]"
"422","[-39.38635998   0.          -6.        ]","[-0.79092761  0.          0.        ]","[0.09981077 0.         0.        ]"
"423","[-40.07576014   0.          -6.        ]","[-0.68940016  0.          0.        ]","[0.10152745 0.         0.        ]"
"424","[-40.66215231   0.          -6.        ]","[-0.58639217  0.          0.        ]","[0.10300799 0.         0.        ]"
"425","[-41.14428888   0.          -6.        ]","[-0.48213657  0.          0.        ]","[0.10425559 0.         0.        ]"
"426","[-41.52115225   0.          -6.        ]","[-0.37686337  0.          0.        ]","[0.10527321 0.         0.        ]"
"427","[-41.79195217   0.          -6.        ]","[-0.27079993  0.          0.        ]","[0.10606344 0.         0.        ]"
"428","[-41.95612366   0.          -6.        ]","[-0.16417149  0.          0.        ]","[0.10662844 0.         0.        ]"
"429","[-42.01332533   0.          -6.        ]","[-0.05720167  0.          0.        ]","[0.10696981 0.         0.        ]"
"430","[-41.96343846   0.          -6.        ]","[0.04988687 0.         0.        ]","[0.10708855 0.         0.        ]"
"431","[-41.80656659   0.          -6.        ]","[0.15687187 0.         0.        ]","[0.106985 0.       0.      ]"
"432","[-41.54303585   0.          -6.        ]","[0.26353074 0.         0.        ]","[0.10665886 0.         0.        ]"
"433","[-41.17339592   0.          -6.        ]","[0.36963993 0.         0.        ]","[0.10610919 0.         0.        ]"
"434","[-40.69842159   0.          -6.        ]","[0.47497433 0.         0.        ]","[0.1053344 0.        0.       ]"
"435","[-40.11911486   0.          -6.        ]","[0.57930673 0.         0.        ]","[0.1043324 0.        0.       ]"
"436","[-39.43670752   0.          -6.        ]","[0.68240734 0.         0.        ]","[0.10310061 0.         0.        ]"
"437","[-38.65266412   0.          -6.        ]","[0.78404341 0.         0.        ]","[0.10163607 0.         0.        ]"
"438","[-37.76868508   0.          -6.        ]","[0.88397904 0.         0.        ]","[0.09993563 0.         0.        ]"
"439","[-36.78671002   0.          -6.        ]","[0.98197505 0.         0.        ]","[0.09799602 0.         0.        ]"
"440","[-35.70892092   0.          -6.        ]","[1.07778911 0.         0.        ]","[0.09581406 0.         0.        ]"
"441","[-34.53774498   0.          -6.        ]","[1.17117593 0.         0.        ]","[0.09338682 0.         0.        ]"
"442","[-33.27585721   0.          -6.        ]","[1.26188778 0.         0.        ]","[0.09071184 0.         0.        ]"
"443","[-31.92618213   0.          -6.        ]","[1.34967507 0.         0.        ]","[0.08778729 0.         0.        ]"
"444","[-30.49189487   0.          -6.        ]","[1.43428727 0.         0.        ]","[0.0846122 0.        0.       ]"
"445","[-28.97642096   0.          -6.        ]","[1.5154739 0.        0.       ]","[0.08118664 0.         0.        ]"
"446","[-27.38343512   0.          -6.        ]","[1.59298585 0.         0.        ]","[0.07751194 0.         0.        ]"
"447","[-25.71685838   0.          -6.        ]","[1.66657674 0.         0.        ]","[0.07359089 0.         0.        ]"
"448","[-23.98085377   0.          -6.        ]","[1.73600461 0.         0.        ]","[0.06942787 0.         0.        ]"
"449","[-22.17982014   0.          -6.        ]","[1.80103363 0.         0.        ]","[0.06502902 0.         0.        ]"
"450","[-20.31838417   0.          -6.        ]","[1.86143597 0.         0.        ]","[0.06040235 0.         0.        ]"
"451","[-18.40139034   0.          -6.        ]","[1.91699382 0.         0.        ]","[0.05555785 0.         0.        ]"
"452","[-16.43388899   0.          -6.        ]","[1.96750135 0.         0.        ]","[0.05050753 0.         0.        ]"
"453","[-14.42112223   0.          -6.        ]","[2.01276676 0.         0.        ]","[0.04526541 0.         0.        ]"
"454","[-12.36850795   0.          -6.        ]","[2.05261428 0.         0.        ]","[0.03984751 0.         0.        ]"
"455","[-10.28162192   0.          -6.        ]","[2.08688603 0.         0.        ]","[0.03427176 0.         0.        ]"
"456","[-8.16617803  0.         -6.        ]","[2.11544389 0.         0.        ]","[0.02855786 0.         0.        ]"
"457","[-6.028007  0.       -6.      ]","[2.13817103 0.         0.        ]","[0.02272714 0.         0.        ]"
"458","[-3.87303363  0.         -6.        ]","[2.15497337 0.         0.        ]","[0.01680233 0.         0.        ]"
"459","[-1.70725295  0.         -6.        ]","[2.16578068 0.         0.        ]","[0.01080732 0.         0.        ]"
"460","[ 0.46329458  0.         -6.        ]","[2.17054753 0.         0.        ]","[0.00476684 0.         0.        ]"
"461","[ 2.63254836  0.         -6.        ]","[2.16925378 0.         0.        ]","[-0.00129375 -0.         -0.        ]"
"462","[ 4.79445326  0.         -6.        ]","[2.1619049 0.        0.       ]","[-0.00734888 -0.         -0.        ]"
"463","[ 6.94298514  0.         -6.        ]","[2.14853188 0.         0.        ]","[-0.01337302 -0.         -0.        ]"
"464","[ 9.07217597  0.         -6.        ]","[2.12919083 0.         0.        ]","[-0.01934106 -0.         -0.        ]"
"465","[11.17613822  0.         -6.        ]","[2.10396226 0.         0.        ]","[-0.02522857 -0.         -0.        ]"
"466","[13.24908836  0.         -6.        ]","[2.07295013 0.         0.        ]","[-0.03101213 -0.         -0.        ]"
"467","[15.2853689  0.        -6.       ]","[2.03628055 0.         0.        ]","[-0.03666958 -0.         -0.        ]"
"468","[17.27946917  0.         -6.        ]","[1.99410027 0.         0.        ]","[-0.04218028 -0.         -0.        ]"
"469","[19.22604421  0.         -6.        ]","[1.94657503 0.         0.        ]","[-0.04752524 -0.         -0.        ]"
"470","[21.1199319  0.        -6.       ]","[1.89388769 0.         0.        ]","[-0.05268734 -0.         -0.        ]"
"471","[22.95616817  0.         -6.        ]","[1.83623628 0.         0.        ]","[-0.05765141 -0.         -0.        ]"
"472","[24.73000016  0.         -6.        ]","[1.77383199 0.         0.        ]","[-0.06240429 -0.         -0.        ]"
"473","[26.43689731  0.         -6.        ]","[1.70689715 0.         0.        ]","[-0.06693483 -0.         -0.        ]"
"474","[28.07256055  0.         -6.        ]","[1.63566325 0.         0.        ]","[-0.07123391 -0.         -0.        ]"
"475","[29.6329295  0.        -6.       ]","[1.56036895 0.         0.        ]","[-0.0752943 -0.        -0.       ]"
"476","[31.11418781  0.         -6.        ]","[1.48125831 0.         0.        ]","[-0.07911064 -0.         -0.        ]"
"477","[32.51276686  0.         -6.        ]","[1.39857905 0.         0.        ]","[-0.08267926 -0.         -0.        ]"
"478","[33.8253479  0.        -6.       ]","[1.31258105 0.         0.        ]","[-0.085998 -0.       -0.      ]"
"479","[35.04886284  0.         -6.        ]","[1.22351494 0.         0.        ]","[-0.08906611 -0.         -0.        ]"
"480","[36.18049381  0.         -6.        ]","[1.13163097 0.         0.        ]","[-0.09188397 -0.         -0.        ]"
"481","[37.21767183  0.         -6.        ]","[1.03717802 0.         0.        ]","[-0.09445294 -0.         -0.        ]"
"482","[38.15807469  0.         -6.        ]","[0.94040286 0.         0.        ]","[-0.09677516 -0.         -0.        ]"
"483","[38.99962423  0.         -6.        ]","[0.84154955 0.         0.        ]","[-0.09885331 -0.         -0.        ]"
"484","[39.74048334  0.         -6.        ]","[0.7408591 0.        0.       ]","[-0.10069045 -0.         -0.        ]"
"485","[40.37905263  0.         -6.        ]","[0.63856929 0.         0.        ]","[-0.10228981 -0.         -0.        ]"
"486","[40.9139673  0.        -6.       ]","[0.53491466 0.         0.        ]","[-0.10365463 -0.         -0.        ]"
"487","[41.34409395  0.         -6.        ]","[0.43012666 0.         0.        ]","[-0.10478801 -0.         -0.        ]"
"488","[41.66852787  0.         -6.        ]","[0.32443391 0.         0.        ]","[-0.10569274 -0.         -0.        ]"
"489","[41.88659056  0.         -6.        ]","[0.21806269 0.         0.        ]","[-0.10637122 -0.         -0.        ]"
"490","[41.99782792  0.         -6.        ]","[0.11123736 0.         0.        ]","[-0.10682533 -0.         -0.        ]"
"491","[42.00200889  0.         -6.        ]","[0.00418097 0.         0.        ]","[-0.10705639 -0.         -0.        ]"
"492","[41.89912479  0.         -6.        ]","[-0.1028841  0.         0.       ]","[-0.10706507 -0.         -0.        ]"
"493","[41.68938931  0.         -6.        ]","[-0.20973549  0.          0.        ]","[-0.10685139 -0.         -0.        ]"
"494","[41.37323909  0.         -6.        ]","[-0.31615022  0.          0.        ]","[-0.10641473 -0.         -0.        ]"
"495","[40.95133504  0.         -6.        ]","[-0.42190405  0.          0.        ]","[-0.10575383 -0.         -0.        ]"
"496","[40.42456415  0.         -6.        ]","[-0.52677089  0.          0.        ]","[-0.10486684 -0.         -0.        ]"
"497","[39.79404185  0.         -6.        ]","[-0.6305223  0.         0.       ]","[-0.10375141 -0.         -0.        ]"
"498","[39.06111478  0.         -6.        ]","[-0.73292707  0.          0.        ]","[-0.10240477 -0.         -0.        ]"
"499","[38.22736387  0.         -6.        ]","[-0.83375091  0.          0.        ]","[-0.10082384 -0.         -0.        ]"
