"time","theta3d","omega3d","alpha3d"
"0","[58.83028087  0.          4.        ]","[-0.16971913  0.          0.        ]","[-0.16971913 -0.         -0.        ]"
"1","[58.49114544  0.          4.        ]","[-0.33913543  0.          0.        ]","[-0.16941631 -0.         -0.        ]"
"2","[57.98320325  0.          4.        ]","[-0.5079422  0.         0.       ]","[-0.16880676 -0.         -0.        ]"
"3","[57.30737829  0.          4.        ]","[-0.67582495  0.          0.        ]","[-0.16788276 -0.         -0.        ]"
"4","[56.46492043  0.          4.        ]","[-0.84245786  0.          0.        ]","[-0.16663291 -0.         -0.        ]"
"5","[55.45742012  0.          4.        ]","[-1.00750031  0.          0.        ]","[-0.16504245 -0.         -0.        ]"
"6","[54.28682621  0.          4.        ]","[-1.17059391  0.          0.        ]","[-0.1630936 -0.        -0.       ]"
"7","[52.95546633  0.          4.        ]","[-1.33135988  0.          0.        ]","[-0.16076597 -0.         -0.        ]"
"8","[51.46606929  0.          4.        ]","[-1.48939704  0.          0.        ]","[-0.15803717 -0.         -0.        ]"
"9","[49.82178885  0.          4.        ]","[-1.64428044  0.          0.        ]","[-0.15488339 -0.         -0.        ]"
"10","[48.02622821  0.          4.        ]","[-1.79556064  0.          0.        ]","[-0.1512802 -0.        -0.       ]"
"11","[46.08346426  0.          4.        ]","[-1.94276395  0.          0.        ]","[-0.14720331 -0.         -0.        ]"
"12","[43.99807082  0.          4.        ]","[-2.08539344  0.          0.        ]","[-0.14262949 -0.         -0.        ]"
"13","[41.77513982  0.          4.        ]","[-2.222931  0.        0.      ]","[-0.13753756 -0.         -0.        ]"
"14","[39.42029944  0.          4.        ]","[-2.35484037  0.          0.        ]","[-0.13190937 -0.         -0.        ]"
"15","[36.93972823  0.          4.        ]","[-2.48057122  0.          0.        ]","[-0.12573084 -0.         -0.        ]"
"16","[34.34016405  0.          4.        ]","[-2.59956418  0.          0.        ]","[-0.11899297 -0.         -0.        ]"
"17","[31.62890708  0.          4.        ]","[-2.71125697  0.          0.        ]","[-0.11169279 -0.         -0.        ]"
"18","[28.81381583  0.          4.        ]","[-2.81509125  0.          0.        ]","[-0.10383428 -0.         -0.        ]"
"19","[25.90329551  0.          4.        ]","[-2.91052031  0.          0.        ]","[-0.09542906 -0.         -0.        ]"
"20","[22.9062782  0.         4.       ]","[-2.99701731  0.          0.        ]","[-0.086497 -0.       -0.      ]"
"21","[19.83219436  0.          4.        ]","[-3.07408384  0.          0.        ]","[-0.07706653 -0.         -0.        ]"
"22","[16.69093574  0.          4.        ]","[-3.14125862  0.          0.        ]","[-0.06717478 -0.         -0.        ]"
"23","[13.49280975  0.          4.        ]","[-3.198126  0.        0.      ]","[-0.05686738 -0.         -0.        ]"
"24","[10.24848573  0.          4.        ]","[-3.24432402  0.          0.        ]","[-0.04619802 -0.         -0.        ]"
"25","[6.96893404 0.         4.        ]","[-3.27955169  0.          0.        ]","[-0.03522767 -0.         -0.        ]"
"26","[3.66535878 0.         4.        ]","[-3.30357526  0.          0.        ]","[-0.02402357 -0.         -0.        ]"
"27","[0.34912559 0.         4.        ]","[-3.31623319  0.          0.        ]","[-0.01265793 -0.         -0.        ]"
"28","[-2.96831409  0.          4.        ]","[-3.31743968  0.          0.        ]","[-0.00120648 -0.         -0.        ]"
"29","[-6.27550059  0.          4.        ]","[-3.30718651  0.          0.        ]","[0.01025317 0.         0.        ]"
"30","[-9.56104386  0.          4.        ]","[-3.28554327  0.          0.        ]","[0.02164324 0.         0.        ]"
"31","[-12.81369966   0.           4.        ]","[-3.2526558  0.         0.       ]","[0.03288747 0.         0.        ]"
"32","[-16.0224427   0.          4.       ]","[-3.20874303  0.          0.        ]","[0.04391277 0.         0.        ]"
"33","[-19.17653499   0.           4.        ]","[-3.15409229  0.          0.        ]","[0.05465074 0.         0.        ]"
"34","[-22.26558826   0.           4.        ]","[-3.08905328  0.          0.        ]","[0.06503901 0.         0.        ]"
"35","[-25.27961926   0.           4.        ]","[-3.014031  0.        0.      ]","[0.07502228 0.         0.        ]"
"36","[-28.20909708   0.           4.        ]","[-2.92947782  0.          0.        ]","[0.08455318 0.         0.        ]"
"37","[-31.04498214   0.           4.        ]","[-2.83588506  0.          0.        ]","[0.09359276 0.         0.        ]"
"38","[-33.77875646   0.           4.        ]","[-2.73377431  0.          0.        ]","[0.10211075 0.         0.        ]"
"39","[-36.40244525   0.           4.        ]","[-2.62368879  0.          0.        ]","[0.11008552 0.         0.        ]"
"40","[-38.9086303   0.          4.       ]","[-2.50618505  0.          0.        ]","[0.11750374 0.         0.        ]"
"41","[-41.29045546   0.           4.        ]","[-2.38182516  0.          0.        ]","[0.12435989 0.         0.        ]"
"42","[-43.54162506   0.           4.        ]","[-2.25116961  0.          0.        ]","[0.13065555 0.         0.        ]"
"43","[-45.65639616   0.           4.        ]","[-2.1147711  0.         0.       ]","[0.13639851 0.         0.        ]"
"44","[-47.62956538   0.           4.        ]","[-1.97316922  0.          0.        ]","[0.14160188 0.         0.        ]"
"45","[-49.45645156   0.           4.        ]","[-1.82688618  0.          0.        ]","[0.14628303 0.         0.        ]"
"46","[-51.13287514   0.           4.        ]","[-1.67642358  0.          0.        ]","[0.1504626 0.        0.       ]"
"47","[-52.65513527   0.           4.        ]","[-1.52226012  0.          0.        ]","[0.15416346 0.         0.        ]"
"48","[-54.01998564   0.           4.        ]","[-1.36485038  0.          0.        ]","[0.15740975 0.         0.        ]"
"49","[-55.22461007   0.           4.        ]","[-1.20462442  0.          0.        ]","[0.16022595 0.         0.        ]"
"50","[-56.26659843   0.           4.        ]","[-1.04198836  0.          0.        ]","[0.16263607 0.         0.        ]"
"51","[-57.14392394   0.           4.        ]","[-0.87732552  0.          0.        ]","[0.16466284 0.         0.        ]"
"52","[-57.85492233   0.           4.        ]","[-0.71099838  0.          0.        ]","[0.16632713 0.         0.        ]"
"53","[-58.3982734   0.          4.       ]","[-0.54335107  0.          0.        ]","[0.16764731 0.         0.        ]"
"54","[-58.77298567   0.           4.        ]","[-0.37471227  0.          0.        ]","[0.16863881 0.         0.        ]"
"55","[-58.97838419   0.           4.        ]","[-0.20539852  0.          0.        ]","[0.16931374 0.         0.        ]"
"56","[-59.01410207   0.           4.        ]","[-0.03571788  0.          0.        ]","[0.16968064 0.         0.        ]"
"57","[-58.88007573   0.           4.        ]","[0.13402634 0.         0.        ]","[0.16974422 0.         0.        ]"
"58","[-58.57654409   0.           4.        ]","[0.30353164 0.         0.        ]","[0.16950531 0.         0.        ]"
"59","[-58.10405163   0.           4.        ]","[0.47249246 0.         0.        ]","[0.16896081 0.         0.        ]"
"60","[-57.46345538   0.           4.        ]","[0.64059625 0.         0.        ]","[0.16810379 0.         0.        ]"
"61","[-56.65593552   0.           4.        ]","[0.80751987 0.         0.        ]","[0.16692362 0.         0.        ]"
"62","[-55.68300945   0.           4.        ]","[0.97292607 0.         0.        ]","[0.16540621 0.         0.        ]"
"63","[-54.54654901   0.           4.        ]","[1.13646044 0.         0.        ]","[0.16353437 0.         0.        ]"
"64","[-53.24880033   0.           4.        ]","[1.29774867 0.         0.        ]","[0.16128823 0.         0.        ]"
"65","[-51.79240589   0.           4.        ]","[1.45639445 0.         0.        ]","[0.15864577 0.         0.        ]"
"66","[-50.18042801   0.           4.        ]","[1.61197788 0.         0.        ]","[0.15558343 0.         0.        ]"
"67","[-48.41637329   0.           4.        ]","[1.76405472 0.         0.        ]","[0.15207683 0.         0.        ]"
"68","[-46.50421699   0.           4.        ]","[1.9121563 0.        0.       ]","[0.14810158 0.         0.        ]"
"69","[-44.44842654   0.           4.        ]","[2.05579045 0.         0.        ]","[0.14363416 0.         0.        ]"
"70","[-42.25398323   0.           4.        ]","[2.19444331 0.         0.        ]","[0.13865286 0.         0.        ]"
"71","[-39.9264011   0.          4.       ]","[2.32758213 0.         0.        ]","[0.13313882 0.         0.        ]"
"72","[-37.47174196   0.           4.        ]","[2.45465914 0.         0.        ]","[0.12707701 0.         0.        ]"
"73","[-34.89662555   0.           4.        ]","[2.57511641 0.         0.        ]","[0.12045728 0.         0.        ]"
"74","[-32.20823382   0.           4.        ]","[2.68839173 0.         0.        ]","[0.11327532 0.         0.        ]"
"75","[-29.41430851   0.           4.        ]","[2.79392531 0.         0.        ]","[0.10553358 0.         0.        ]"
"76","[-26.52314118   0.           4.        ]","[2.89116733 0.         0.        ]","[0.09724202 0.         0.        ]"
"77","[-23.54355513   0.           4.        ]","[2.97958606 0.         0.        ]","[0.08841873 0.         0.        ]"
"78","[-20.48487875   0.           4.        ]","[3.05867638 0.         0.        ]","[0.07909032 0.         0.        ]"
"79","[-17.35691025   0.           4.        ]","[3.12796849 0.         0.        ]","[0.06929211 0.         0.        ]"
"80","[-14.16987379   0.           4.        ]","[3.18703646 0.         0.        ]","[0.05906797 0.         0.        ]"
"81","[-10.93436741   0.           4.        ]","[3.23550639 0.         0.        ]","[0.04846993 0.         0.        ]"
"82","[-7.66130351  0.          4.        ]","[3.2730639 0.        0.       ]","[0.03755751 0.         0.        ]"
"83","[-4.36184286  0.          4.        ]","[3.29946064 0.         0.        ]","[0.02639674 0.         0.        ]"
"84","[-1.04732333  0.          4.        ]","[3.31451953 0.         0.        ]","[0.01505889 0.         0.        ]"
"85","[2.27081529 0.         4.        ]","[3.31813862 0.         0.        ]","[0.00361909 0.         0.        ]"
"86","[5.58110859 0.         4.        ]","[3.3102933 0.        0.       ]","[-0.00784532 -0.         -0.        ]"
"87","[8.87214545 0.         4.        ]","[3.29103686 0.         0.        ]","[-0.01925644 -0.         -0.        ]"
"88","[12.13264475  0.          4.        ]","[3.26049931 0.         0.        ]","[-0.03053755 -0.         -0.        ]"
"89","[15.35152928  0.          4.        ]","[3.21888453 0.         0.        ]","[-0.04161477 -0.         -0.        ]"
"90","[18.51799521  0.          4.        ]","[3.16646593 0.         0.        ]","[-0.0524186 -0.        -0.       ]"
"91","[21.62157584  0.          4.        ]","[3.10358064 0.         0.        ]","[-0.06288529 -0.         -0.        ]"
"92","[24.6521985  0.         4.       ]","[3.03062265 0.         0.        ]","[-0.07295798 -0.         -0.        ]"
"93","[27.60023358  0.          4.        ]","[2.94803508 0.         0.        ]","[-0.08258758 -0.         -0.        ]"
"94","[30.45653533  0.          4.        ]","[2.85630175 0.         0.        ]","[-0.09173333 -0.         -0.        ]"
"95","[33.21247393  0.          4.        ]","[2.7559386 0.        0.       ]","[-0.10036315 -0.         -0.        ]"
"96","[35.85995894  0.          4.        ]","[2.64748501 0.         0.        ]","[-0.10845359 -0.         -0.        ]"
"97","[38.39145435  0.          4.        ]","[2.5314954 0.        0.       ]","[-0.11598961 -0.         -0.        ]"
"98","[40.79998563  0.          4.        ]","[2.40853129 0.         0.        ]","[-0.12296412 -0.         -0.        ]"
"99","[43.07913968  0.          4.        ]","[2.27915405 0.         0.        ]","[-0.12937724 -0.         -0.        ]"
"100","[45.22305816  0.          4.        ]","[2.14391848 0.         0.        ]","[-0.13523556 -0.         -0.        ]"
"101","[47.22642551  0.          4.        ]","[2.00336734 0.         0.        ]","[-0.14055114 -0.         -0.        ]"
"102","[49.0844523  0.         4.       ]","[1.8580268 0.        0.       ]","[-0.14534054 -0.         -0.        ]"
"103","[50.7928553  0.         4.       ]","[1.708403 0.       0.      ]","[-0.1496238 -0.        -0.       ]"
"104","[52.34783489  0.          4.        ]","[1.55497959 0.         0.        ]","[-0.1534234 -0.        -0.       ]"
"105","[53.74605119  0.          4.        ]","[1.3982163 0.        0.       ]","[-0.15676329 -0.         -0.        ]"
"106","[54.98459953  0.          4.        ]","[1.23854834 0.         0.        ]","[-0.15966796 -0.         -0.        ]"
"107","[56.06098629  0.          4.        ]","[1.07638676 0.         0.        ]","[-0.16216157 -0.         -0.        ]"
"108","[56.97310586  0.          4.        ]","[0.91211957 0.         0.        ]","[-0.1642672 -0.        -0.       ]"
"109","[57.71921929  0.          4.        ]","[0.74611343 0.         0.        ]","[-0.16600614 -0.         -0.        ]"
"110","[58.29793539  0.          4.        ]","[0.57871611 0.         0.        ]","[-0.16739732 -0.         -0.        ]"
"111","[58.70819465  0.          4.        ]","[0.41025926 0.         0.        ]","[-0.16845685 -0.         -0.        ]"
"112","[58.94925634  0.          4.        ]","[0.2410617 0.        0.       ]","[-0.16919756 -0.         -0.        ]"
"113","[59.0206893  0.         4.       ]","[0.07143295 0.         0.        ]","[-0.16962874 -0.         -0.        ]"
"114","[58.92236631  0.          4.        ]","[-0.09832298  0.          0.        ]","[-0.16975594 -0.         -0.        ]"
"115","[58.65446253  0.          4.        ]","[-0.26790378  0.          0.        ]","[-0.16958079 -0.         -0.        ]"
"116","[58.21745772  0.          4.        ]","[-0.43700482  0.          0.        ]","[-0.16910104 -0.         -0.        ]"
"117","[57.61214236  0.          4.        ]","[-0.60531536  0.          0.        ]","[-0.16831054 -0.         -0.        ]"
"118","[56.8396276  0.         4.       ]","[-0.77251476  0.          0.        ]","[-0.16719941 -0.         -0.        ]"
"119","[55.90135855  0.          4.        ]","[-0.93826904  0.          0.        ]","[-0.16575428 -0.         -0.        ]"
"120","[54.79913093  0.          4.        ]","[-1.10222762  0.          0.        ]","[-0.16395858 -0.         -0.        ]"
"121","[53.53511035  0.          4.        ]","[-1.26402058  0.          0.        ]","[-0.16179296 -0.         -0.        ]"
"122","[52.11185397  0.          4.        ]","[-1.42325638  0.          0.        ]","[-0.1592358 -0.        -0.       ]"
"123","[50.53233378  0.          4.        ]","[-1.57952019  0.          0.        ]","[-0.15626381 -0.         -0.        ]"
"124","[48.79996087  0.          4.        ]","[-1.73237291  0.          0.        ]","[-0.15285272 -0.         -0.        ]"
"125","[46.9186099  0.         4.       ]","[-1.88135097  0.          0.        ]","[-0.14897806 -0.         -0.        ]"
"126","[44.89264286  0.          4.        ]","[-2.02596704  0.          0.        ]","[-0.14461607 -0.         -0.        ]"
"127","[42.72693127  0.          4.        ]","[-2.1657116  0.         0.       ]","[-0.13974456 -0.         -0.        ]"
"128","[40.42687568  0.          4.        ]","[-2.30005559  0.          0.        ]","[-0.134344 -0.       -0.      ]"
"129","[37.99842163  0.          4.        ]","[-2.42845405  0.          0.        ]","[-0.12839845 -0.         -0.        ]"
"130","[35.44807091  0.          4.        ]","[-2.55035072  0.          0.        ]","[-0.12189667 -0.         -0.        ]"
"131","[32.78288714  0.          4.        ]","[-2.66518376  0.          0.        ]","[-0.11483304 -0.         -0.        ]"
"132","[30.01049487  0.          4.        ]","[-2.77239227  0.          0.        ]","[-0.10720851 -0.         -0.        ]"
"133","[27.13907119  0.          4.        ]","[-2.87142368  0.          0.        ]","[-0.09903141 -0.         -0.        ]"
"134","[24.17732944  0.          4.        ]","[-2.96174175  0.          0.        ]","[-0.09031807 -0.         -0.        ]"
"135","[21.13449439  0.          4.        ]","[-3.04283504  0.          0.        ]","[-0.0810933 -0.        -0.       ]"
"136","[18.02026878  0.          4.        ]","[-3.11422561  0.          0.        ]","[-0.07139057 -0.         -0.        ]"
"137","[14.8447912  0.         4.       ]","[-3.17547759  0.          0.        ]","[-0.06125198 -0.         -0.        ]"
"138","[11.61858571  0.          4.        ]","[-3.22620548  0.          0.        ]","[-0.0507279 -0.        -0.       ]"
"139","[8.35250388 0.         4.        ]","[-3.26608183  0.          0.        ]","[-0.03987634 -0.         -0.        ]"
"140","[5.05766 0.      4.     ]","[-3.29484388  0.          0.        ]","[-0.02876206 -0.         -0.        ]"
"141","[1.74536079 0.         4.        ]","[-3.31229921  0.          0.        ]","[-0.01745533 -0.         -0.        ]"
"142","[-1.57296902  0.          4.        ]","[-3.31832981  0.          0.        ]","[-0.0060306 -0.        -0.       ]"
"143","[-4.88586373  0.          4.        ]","[-3.3128947  0.         0.       ]","[0.00543511 0.         0.        ]"
"144","[-8.18189455  0.          4.        ]","[-3.29603083  0.          0.        ]","[0.01686388 0.         0.        ]"
"145","[-11.44974678   0.           4.        ]","[-3.26785223  0.          0.        ]","[0.0281786 0.        0.       ]"
"146","[-14.67829435   0.           4.        ]","[-3.22854757  0.          0.        ]","[0.03930466 0.         0.        ]"
"147","[-17.8566704   0.          4.       ]","[-3.17837605  0.          0.        ]","[0.05017152 0.         0.        ]"
"148","[-20.97433235   0.           4.        ]","[-3.11766195  0.          0.        ]","[0.0607141 0.        0.       ]"
"149","[-24.02112026   0.           4.        ]","[-3.04678791  0.          0.        ]","[0.07087404 0.         0.        ]"
"150","[-26.98730765   0.           4.        ]","[-2.96618738  0.          0.        ]","[0.08060053 0.         0.        ]"
"151","[-29.863644   0.         4.      ]","[-2.87633635  0.          0.        ]","[0.08985104 0.         0.        ]"
"152","[-32.64138871   0.           4.        ]","[-2.77774471  0.          0.        ]","[0.09859164 0.         0.        ]"
"153","[-35.31233633   0.           4.        ]","[-2.67094763  0.          0.        ]","[0.10679708 0.         0.        ]"
"154","[-37.86883336   0.           4.        ]","[-2.55649703  0.          0.        ]","[0.1144506 0.        0.       ]"
"155","[-40.30378693   0.           4.        ]","[-2.43495356  0.          0.        ]","[0.12154346 0.         0.        ]"
"156","[-42.61066613   0.           4.        ]","[-2.30687921  0.          0.        ]","[0.12807436 0.         0.        ]"
"157","[-44.78349677   0.           4.        ]","[-2.17283064  0.          0.        ]","[0.13404857 0.         0.        ]"
"158","[-46.81685031   0.           4.        ]","[-2.03335354  0.          0.        ]","[0.1394771 0.        0.       ]"
"159","[-48.7058282   0.          4.       ]","[-1.88897789  0.          0.        ]","[0.14437564 0.         0.        ]"
"160","[-50.4460425   0.          4.       ]","[-1.7402143  0.         0.       ]","[0.14876359 0.         0.        ]"
"161","[-52.0335938   0.          4.       ]","[-1.58755131  0.          0.        ]","[0.15266299 0.         0.        ]"
"162","[-53.46504754   0.           4.        ]","[-1.43145373  0.          0.        ]","[0.15609758 0.         0.        ]"
"163","[-54.73740949   0.           4.        ]","[-1.27236195  0.          0.        ]","[0.15909178 0.         0.        ]"
"164","[-55.84810152   0.           4.        ]","[-1.11069204  0.          0.        ]","[0.16166991 0.         0.        ]"
"165","[-56.79493823   0.           4.        ]","[-0.94683671  0.          0.        ]","[0.16385533 0.         0.        ]"
"166","[-57.57610518   0.           4.        ]","[-0.78116695  0.          0.        ]","[0.16566976 0.         0.        ]"
"167","[-58.19013946   0.           4.        ]","[-0.61403428  0.          0.        ]","[0.16713267 0.         0.        ]"
"168","[-58.63591295   0.           4.        ]","[-0.44577349  0.          0.        ]","[0.16826079 0.         0.        ]"
"169","[-58.91261876   0.           4.        ]","[-0.2767058  0.         0.       ]","[0.16906769 0.         0.        ]"
"170","[-59.01976116   0.           4.        ]","[-0.1071424  0.         0.       ]","[0.1695634 0.        0.       ]"
"171","[-58.95714927   0.           4.        ]","[0.06261189 0.         0.        ]","[0.16975429 0.         0.        ]"
"172","[-58.72489457   0.           4.        ]","[0.2322547 0.        0.       ]","[0.16964281 0.         0.        ]"
"173","[-58.32341235   0.           4.        ]","[0.40148222 0.         0.        ]","[0.16922753 0.         0.        ]"
"174","[-57.75342702   0.           4.        ]","[0.56998532 0.         0.        ]","[0.1685031 0.        0.       ]"
"175","[-57.01598127   0.           4.        ]","[0.73744575 0.         0.        ]","[0.16746043 0.         0.        ]"
"176","[-56.11244867   0.           4.        ]","[0.9035326 0.        0.       ]","[0.16608684 0.         0.        ]"
"177","[-55.04454966   0.           4.        ]","[1.06789902 0.         0.        ]","[0.16436642 0.         0.        ]"
"178","[-53.81437028   0.           4.        ]","[1.23017938 0.         0.        ]","[0.16228036 0.         0.        ]"
"179","[-52.42438343   0.           4.        ]","[1.38998685 0.         0.        ]","[0.15980747 0.         0.        ]"
"180","[-50.87747184   0.           4.        ]","[1.54691159 0.         0.        ]","[0.15692475 0.         0.        ]"
"181","[-49.17695217   0.           4.        ]","[1.70051967 0.         0.        ]","[0.15360808 0.         0.        ]"
"182","[-47.32659953   0.           4.        ]","[1.85035264 0.         0.        ]","[0.14983297 0.         0.        ]"
"183","[-45.33067148   0.           4.        ]","[1.99592805 0.         0.        ]","[0.14557541 0.         0.        ]"
"184","[-43.19393061   0.           4.        ]","[2.13674088 0.         0.        ]","[0.14081283 0.         0.        ]"
"185","[-40.92166469   0.           4.        ]","[2.27226591 0.         0.        ]","[0.13552504 0.         0.        ]"
"186","[-38.51970352   0.           4.        ]","[2.40196118 0.         0.        ]","[0.12969526 0.         0.        ]"
"187","[-35.99443116   0.           4.        ]","[2.52527235 0.         0.        ]","[0.12331118 0.         0.        ]"
"188","[-33.3527929   0.          4.       ]","[2.64163826 0.         0.        ]","[0.11636591 0.         0.        ]"
"189","[-30.60229568   0.           4.        ]","[2.75049722 0.         0.        ]","[0.10885896 0.         0.        ]"
"190","[-27.75100143   0.           4.        ]","[2.85129425 0.         0.        ]","[0.10079703 0.         0.        ]"
"191","[-24.80751244   0.           4.        ]","[2.94348899 0.         0.        ]","[0.09219474 0.         0.        ]"
"192","[-21.78094837   0.           4.        ]","[3.02656407 0.         0.        ]","[0.08307508 0.         0.        ]"
"193","[-18.68091461   0.           4.        ]","[3.10003376 0.         0.        ]","[0.0734697 0.        0.       ]"
"194","[-15.51746195   0.           4.        ]","[3.16345266 0.         0.        ]","[0.0634189 0.        0.       ]"
"195","[-12.30103795   0.           4.        ]","[3.21642401 0.         0.        ]","[0.05297135 0.         0.        ]"
"196","[-9.04243042  0.          4.        ]","[3.25860753 0.         0.        ]","[0.04218352 0.         0.        ]"
"197","[-5.75270405  0.          4.        ]","[3.28972637 0.         0.        ]","[0.03111884 0.         0.        ]"
"198","[-2.44313116  0.          4.        ]","[3.3095729 0.        0.       ]","[0.01984653 0.         0.        ]"
"199","[0.87488204 0.         4.        ]","[3.3180132 0.        0.       ]","[0.0084403 0.        0.       ]"
"200","[4.18987198 0.         4.        ]","[3.31498994 0.         0.        ]","[-0.00302326 -0.         -0.        ]"
"201","[7.49039566 0.         4.        ]","[3.30052368 0.         0.        ]","[-0.01446626 -0.         -0.        ]"
"202","[10.76510806  0.          4.        ]","[3.2747124 0.        0.       ]","[-0.02581128 -0.         -0.        ]"
"203","[14.00283741  0.          4.        ]","[3.23772935 0.         0.        ]","[-0.03698305 -0.         -0.        ]"
"204","[17.19265671  0.          4.        ]","[3.1898193 0.        0.       ]","[-0.04791005 -0.         -0.        ]"
"205","[20.32395006  0.          4.        ]","[3.13129335 0.         0.        ]","[-0.05852595 -0.         -0.        ]"
"206","[23.38647253  0.          4.        ]","[3.06252247 0.         0.        ]","[-0.06877088 -0.         -0.        ]"
"207","[26.37040263  0.          4.        ]","[2.98393009 0.         0.        ]","[-0.07859238 -0.         -0.        ]"
"208","[29.26638658  0.          4.        ]","[2.89598395 0.         0.        ]","[-0.08794614 -0.         -0.        ]"
"209","[32.06557413  0.          4.        ]","[2.79918755 0.         0.        ]","[-0.09679641 -0.         -0.        ]"
"210","[34.75964555  0.          4.        ]","[2.69407143 0.         0.        ]","[-0.10511612 -0.         -0.        ]"
"211","[37.34083024  0.          4.        ]","[2.58118468 0.         0.        ]","[-0.11288675 -0.         -0.        ]"
"212","[39.801917  0.        4.      ]","[2.46108677 0.         0.        ]","[-0.12009791 -0.         -0.        ]"
"213","[42.13625696  0.          4.        ]","[2.33433996 0.         0.        ]","[-0.12674681 -0.         -0.        ]"
"214","[44.33775951  0.          4.        ]","[2.20150255 0.         0.        ]","[-0.13283741 -0.         -0.        ]"
"215","[46.40088247  0.          4.        ]","[2.06312296 0.         0.        ]","[-0.13837959 -0.         -0.        ]"
"216","[48.3206173  0.         4.       ]","[1.91973483 0.         0.        ]","[-0.14338813 -0.         -0.        ]"
"217","[50.09247038  0.          4.        ]","[1.77185308 0.         0.        ]","[-0.14788175 -0.         -0.        ]"
"218","[51.71244146  0.          4.        ]","[1.61997108 0.         0.        ]","[-0.15188201 -0.         -0.        ]"
"219","[53.17700017  0.          4.        ]","[1.46455871 0.         0.        ]","[-0.15541236 -0.         -0.        ]"
"220","[54.48306169  0.          4.        ]","[1.30606152 0.         0.        ]","[-0.15849719 -0.         -0.        ]"
"221","[55.62796234  0.          4.        ]","[1.14490065 0.         0.        ]","[-0.16116087 -0.         -0.        ]"
"222","[56.60943594  0.          4.        ]","[0.9814736 0.        0.       ]","[-0.16342705 -0.         -0.        ]"
"223","[57.42559172  0.          4.        ]","[0.81615578 0.         0.        ]","[-0.16531782 -0.         -0.        ]"
"224","[58.07489429  0.          4.        ]","[0.64930257 0.         0.        ]","[-0.16685321 -0.         -0.        ]"
"225","[58.55614633  0.          4.        ]","[0.48125204 0.         0.        ]","[-0.16805053 -0.         -0.        ]"
"226","[58.86847432  0.          4.        ]","[0.31232799 0.         0.        ]","[-0.16892405 -0.         -0.        ]"
"227","[59.01131772  0.          4.        ]","[0.14284341 0.         0.        ]","[-0.16948458 -0.         -0.        ]"
"228","[58.98442186  0.          4.        ]","[-0.02689586  0.          0.        ]","[-0.16973927 -0.         -0.        ]"
"229","[58.78783461  0.          4.        ]","[-0.19658725  0.          0.        ]","[-0.16969139 -0.         -0.        ]"
"230","[58.42190702  0.          4.        ]","[-0.36592759  0.          0.        ]","[-0.16934034 -0.         -0.        ]"
"231","[57.88729783  0.          4.        ]","[-0.53460918  0.          0.        ]","[-0.16868159 -0.         -0.        ]"
"232","[57.18498184  0.          4.        ]","[-0.70231599  0.          0.        ]","[-0.16770681 -0.         -0.        ]"
"233","[56.31626178  0.          4.        ]","[-0.86872006  0.          0.        ]","[-0.16640407 -0.         -0.        ]"
"234","[55.28278363  0.          4.        ]","[-1.03347815  0.          0.        ]","[-0.16475809 -0.         -0.        ]"
"235","[54.08655483  0.          4.        ]","[-1.19622879  0.          0.        ]","[-0.16275064 -0.         -0.        ]"
"236","[52.72996504  0.          4.        ]","[-1.35658979  0.          0.        ]","[-0.160361 -0.       -0.      ]"
"237","[51.21580877  0.          4.        ]","[-1.51415627  0.          0.        ]","[-0.15756648 -0.         -0.        ]"
"238","[49.54730936  0.          4.        ]","[-1.66849941  0.          0.        ]","[-0.15434314 -0.         -0.        ]"
"239","[47.72814344  0.          4.        ]","[-1.81916592  0.          0.        ]","[-0.15066651 -0.         -0.        ]"
"240","[45.76246513  0.          4.        ]","[-1.96567831  0.          0.        ]","[-0.14651239 -0.         -0.        ]"
"241","[43.65492897  0.          4.        ]","[-2.10753615  0.          0.        ]","[-0.14185784 -0.         -0.        ]"
"242","[41.41071075  0.          4.        ]","[-2.24421822  0.          0.        ]","[-0.13668207 -0.         -0.        ]"
"243","[39.03552501  0.          4.        ]","[-2.37518574  0.          0.        ]","[-0.13096751 -0.         -0.        ]"
"244","[36.53563846  0.          4.        ]","[-2.49988656  0.          0.        ]","[-0.12470082 -0.         -0.        ]"
"245","[33.91787801  0.          4.        ]","[-2.61776045  0.          0.        ]","[-0.11787389 -0.         -0.        ]"
"246","[31.18963276  0.          4.        ]","[-2.72824525  0.          0.        ]","[-0.11048481 -0.         -0.        ]"
"247","[28.35884881  0.          4.        ]","[-2.83078395  0.          0.        ]","[-0.1025387 -0.        -0.       ]"
"248","[25.43401638  0.          4.        ]","[-2.92483243  0.          0.        ]","[-0.09404848 -0.         -0.        ]"
"249","[22.42414862  0.          4.        ]","[-3.00986776  0.          0.        ]","[-0.08503533 -0.         -0.        ]"
"250","[19.33875178  0.          4.        ]","[-3.08539684  0.          0.        ]","[-0.07552908 -0.         -0.        ]"
"251","[16.18778671  0.          4.        ]","[-3.15096507  0.          0.        ]","[-0.06556823 -0.         -0.        ]"
"252","[12.98162194  0.          4.        ]","[-3.20616477  0.          0.        ]","[-0.05519971 -0.         -0.        ]"
"253","[9.73097874 0.         4.        ]","[-3.2506432  0.         0.       ]","[-0.04447842 -0.         -0.        ]"
"254","[6.44686912 0.         4.        ]","[-3.28410962  0.          0.        ]","[-0.03346642 -0.         -0.        ]"
"255","[3.14052771 0.         4.        ]","[-3.30634142  0.          0.        ]","[-0.0222318 -0.        -0.       ]"
"256","[-0.17666116  0.          4.        ]","[-3.31718887  0.          0.        ]","[-0.01084745 -0.         -0.        ]"
"257","[-3.49323953  0.          4.        ]","[-3.31657837  0.          0.        ]","[0.0006105 0.        0.       ]"
"258","[-6.79775361  0.          4.        ]","[-3.30451408  0.          0.        ]","[0.01206429 0.         0.        ]"
"259","[-10.07883141   0.           4.        ]","[-3.2810778  0.         0.       ]","[0.02343628 0.         0.        ]"
"260","[-13.32525862   0.           4.        ]","[-3.24642721  0.          0.        ]","[0.03465059 0.         0.        ]"
"261","[-16.52605104   0.           4.        ]","[-3.20079242  0.          0.        ]","[0.04563479 0.         0.        ]"
"262","[-19.67052211   0.           4.        ]","[-3.14447107  0.          0.        ]","[0.05632135 0.         0.        ]"
"263","[-22.74834424   0.           4.        ]","[-3.07782212  0.          0.        ]","[0.06664895 0.         0.        ]"
"264","[-25.74960287   0.           4.        ]","[-3.00125863  0.          0.        ]","[0.07656349 0.         0.        ]"
"265","[-28.66484257   0.           4.        ]","[-2.91523971  0.          0.        ]","[0.08601892 0.         0.        ]"
"266","[-31.48510461   0.           4.        ]","[-2.82026204  0.          0.        ]","[0.09497767 0.         0.        ]"
"267","[-34.20195583   0.           4.        ]","[-2.71685122  0.          0.        ]","[0.10341082 0.         0.        ]"
"268","[-36.80750895   0.           4.        ]","[-2.60555312  0.          0.        ]","[0.1112981 0.        0.       ]"
"269","[-39.29443462   0.           4.        ]","[-2.48692567  0.          0.        ]","[0.11862745 0.         0.        ]"
"270","[-41.65596576   0.           4.        ]","[-2.36153114  0.          0.        ]","[0.12539453 0.         0.        ]"
"271","[-43.88589494   0.           4.        ]","[-2.22992919  0.          0.        ]","[0.13160195 0.         0.        ]"
"272","[-45.97856569   0.           4.        ]","[-2.09267075  0.          0.        ]","[0.13725844 0.         0.        ]"
"273","[-47.92885862   0.           4.        ]","[-1.95029293  0.          0.        ]","[0.14237782 0.         0.        ]"
"274","[-49.7321735   0.          4.       ]","[-1.80331488  0.          0.        ]","[0.14697806 0.         0.        ]"
"275","[-51.38440816   0.           4.        ]","[-1.65223466  0.          0.        ]","[0.15108022 0.         0.        ]"
"276","[-52.88193538   0.           4.        ]","[-1.49752722  0.          0.        ]","[0.15470743 0.         0.        ]"
"277","[-54.22157865   0.           4.        ]","[-1.33964327  0.          0.        ]","[0.15788395 0.         0.        ]"
"278","[-55.40058768   0.           4.        ]","[-1.17900903  0.          0.        ]","[0.16063425 0.         0.        ]"
"279","[-56.41661455   0.           4.        ]","[-1.01602687  0.          0.        ]","[0.16298215 0.         0.        ]"
"280","[-57.26769125   0.           4.        ]","[-0.8510767  0.         0.       ]","[0.16495017 0.         0.        ]"
"281","[-57.95220916   0.           4.        ]","[-0.68451791  0.          0.        ]","[0.16655879 0.         0.        ]"
"282","[-58.46890112   0.           4.        ]","[-0.51669196  0.          0.        ]","[0.16782595 0.         0.        ]"
"283","[-58.81682651   0.           4.        ]","[-0.34792539  0.          0.        ]","[0.16876657 0.         0.        ]"
"284","[-58.99535966   0.           4.        ]","[-0.17853315  0.          0.        ]","[0.16939224 0.         0.        ]"
"285","[-59.00418195   0.           4.        ]","[-0.00882228  0.          0.        ]","[0.16971087 0.         0.        ]"
"286","[-58.84327766   0.           4.        ]","[0.16090428 0.         0.        ]","[0.16972657 0.         0.        ]"
"287","[-58.51293383   0.           4.        ]","[0.33034383 0.         0.        ]","[0.16943955 0.         0.        ]"
"288","[-58.01374389   0.           4.        ]","[0.49918994 0.         0.        ]","[0.1688461 0.        0.       ]"
"289","[-57.34661527   0.           4.        ]","[0.66712862 0.         0.        ]","[0.16793869 0.         0.        ]"
"290","[-56.51278054   0.           4.        ]","[0.83383473 0.         0.        ]","[0.16670611 0.         0.        ]"
"291","[-55.51381204   0.           4.        ]","[0.9989685 0.        0.       ]","[0.16513377 0.         0.        ]"
"292","[-54.35163953   0.           4.        ]","[1.16217251 0.         0.        ]","[0.16320402 0.         0.        ]"
"293","[-53.02857041   0.           4.        ]","[1.32306912 0.         0.        ]","[0.16089661 0.         0.        ]"
"294","[-51.54731206   0.           4.        ]","[1.48125835 0.         0.        ]","[0.15818923 0.         0.        ]"
"295","[-49.91099557   0.           4.        ]","[1.63631649 0.         0.        ]","[0.15505814 0.         0.        ]"
"296","[-48.12320016   0.           4.        ]","[1.7877954 0.        0.       ]","[0.15147891 0.         0.        ]"
"297","[-46.18797754   0.           4.        ]","[1.93522262 0.         0.        ]","[0.14742722 0.         0.        ]"
"298","[-44.10987516   0.           4.        ]","[2.07810238 0.         0.        ]","[0.14287977 0.         0.        ]"
"299","[-41.89395754   0.           4.        ]","[2.21591762 0.         0.        ]","[0.13781524 0.         0.        ]"
"300","[-39.54582461   0.           4.        ]","[2.34813293 0.         0.        ]","[0.1322153 0.        0.       ]"
"301","[-37.07162604   0.           4.        ]","[2.47419857 0.         0.        ]","[0.12606564 0.         0.        ]"
"302","[-34.47807051   0.           4.        ]","[2.59355553 0.         0.        ]","[0.11935696 0.         0.        ]"
"303","[-31.77242901   0.           4.        ]","[2.7056415 0.        0.       ]","[0.11208597 0.         0.        ]"
"304","[-28.96253125   0.           4.        ]","[2.80989776 0.         0.        ]","[0.10425626 0.         0.        ]"
"305","[-26.05675446   0.           4.        ]","[2.9057768 0.        0.       ]","[0.09587904 0.         0.        ]"
"306","[-23.06400394   0.           4.        ]","[2.99275052 0.         0.        ]","[0.08697372 0.         0.        ]"
"307","[-19.99368511   0.           4.        ]","[3.07031883 0.         0.        ]","[0.07756831 0.         0.        ]"
"308","[-16.85566679   0.           4.        ]","[3.13801832 0.         0.        ]","[0.06769948 0.         0.        ]"
"309","[-13.66023605   0.           4.        ]","[3.19543074 0.         0.        ]","[0.05741243 0.         0.        ]"
"310","[-10.41804486   0.           4.        ]","[3.24219118 0.         0.        ]","[0.04676044 0.         0.        ]"
"311","[-7.14004956  0.          4.        ]","[3.2779953 0.        0.       ]","[0.03580412 0.         0.        ]"
"312","[-3.83744383  0.          4.        ]","[3.30260573 0.         0.        ]","[0.02461043 0.         0.        ]"
"313","[-0.52158676  0.          4.        ]","[3.31585707 0.         0.        ]","[0.01325134 0.         0.        ]"
"314","[2.79607276 0.         4.        ]","[3.31765952 0.         0.        ]","[0.00180245 0.         0.        ]"
"315","[6.10407359 0.         4.        ]","[3.30800082 0.         0.        ]","[-0.0096587 -0.        -0.       ]"
"316","[9.39102012 0.         4.        ]","[3.28694654 0.         0.        ]","[-0.02105428 -0.         -0.        ]"
"317","[12.64565874  0.          4.        ]","[3.25463861 0.         0.        ]","[-0.03230792 -0.         -0.        ]"
"318","[15.85695102  0.          4.        ]","[3.21129228 0.         0.        ]","[-0.04334633 -0.         -0.        ]"
"319","[19.01414247  0.          4.        ]","[3.15719145 0.         0.        ]","[-0.05410084 -0.         -0.        ]"
"320","[22.10682521  0.          4.        ]","[3.09268274 0.         0.        ]","[-0.0645087 -0.        -0.       ]"
"321","[25.1249937  0.         4.       ]","[3.01816849 0.         0.        ]","[-0.07451426 -0.         -0.        ]"
"322","[28.05909249  0.          4.        ]","[2.93409879 0.         0.        ]","[-0.08406969 -0.         -0.        ]"
"323","[30.90005566  0.          4.        ]","[2.84096317 0.         0.        ]","[-0.09313563 -0.         -0.        ]"
"324","[33.63933749  0.          4.        ]","[2.73928183 0.         0.        ]","[-0.10168133 -0.         -0.        ]"
"325","[36.26893459  0.          4.        ]","[2.62959711 0.         0.        ]","[-0.10968473 -0.         -0.        ]"
"326","[38.78139963  0.          4.        ]","[2.51246503 0.         0.        ]","[-0.11713207 -0.         -0.        ]"
"327","[41.16984721  0.          4.        ]","[2.38844758 0.         0.        ]","[-0.12401745 -0.         -0.        ]"
"328","[43.42795269  0.          4.        ]","[2.25810549 0.         0.        ]","[-0.13034209 -0.         -0.        ]"
"329","[45.54994468  0.          4.        ]","[2.12199199 0.         0.        ]","[-0.1361135 -0.        -0.       ]"
"330","[47.53059216  0.          4.        ]","[1.98064748 0.         0.        ]","[-0.14134451 -0.         -0.        ]"
"331","[49.36518733  0.          4.        ]","[1.83459517 0.         0.        ]","[-0.14605231 -0.         -0.        ]"
"332","[51.04952509  0.          4.        ]","[1.68433777 0.         0.        ]","[-0.1502574 -0.        -0.       ]"
"333","[52.57988031  0.          4.        ]","[1.53035522 0.         0.        ]","[-0.15398255 -0.         -0.        ]"
"334","[53.95298367  0.          4.        ]","[1.37310336 0.         0.        ]","[-0.15725186 -0.         -0.        ]"
"335","[55.16599722  0.          4.        ]","[1.21301355 0.         0.        ]","[-0.16008981 -0.         -0.        ]"
"336","[56.21649032  0.          4.        ]","[1.0504931 0.        0.       ]","[-0.16252045 -0.         -0.        ]"
"337","[57.1024168  0.         4.       ]","[0.88592648 0.         0.        ]","[-0.16456662 -0.         -0.        ]"
"338","[57.82209401  0.          4.        ]","[0.71967721 0.         0.        ]","[-0.16624927 -0.         -0.        ]"
"339","[58.3741843  0.         4.       ]","[0.55209029 0.         0.        ]","[-0.16758692 -0.         -0.        ]"
"340","[58.75767942  0.          4.        ]","[0.38349512 0.         0.        ]","[-0.16859517 -0.         -0.        ]"
"341","[58.97188823  0.          4.        ]","[0.2142088 0.        0.       ]","[-0.16928632 -0.         -0.        ]"
"342","[59.01642796  0.          4.        ]","[0.04453973 0.         0.        ]","[-0.16966907 -0.         -0.        ]"
"343","[58.89121934  0.          4.        ]","[-0.12520862  0.          0.        ]","[-0.16974836 -0.         -0.        ]"
"344","[58.5964855  0.         4.       ]","[-0.29473383  0.          0.        ]","[-0.16952521 -0.         -0.        ]"
"345","[58.13275494  0.          4.        ]","[-0.46373056  0.          0.        ]","[-0.16899673 -0.         -0.        ]"
"346","[57.5008682  0.         4.       ]","[-0.63188674  0.          0.        ]","[-0.16815618 -0.         -0.        ]"
"347","[56.70198834  0.          4.        ]","[-0.79887986  0.          0.        ]","[-0.16699312 -0.         -0.        ]"
"348","[55.73761485  0.          4.        ]","[-0.96437349  0.          0.        ]","[-0.16549363 -0.         -0.        ]"
"349","[54.60960068  0.          4.        ]","[-1.12801417  0.          0.        ]","[-0.16364068 -0.         -0.        ]"
"350","[53.32017198  0.          4.        ]","[-1.28942869  0.          0.        ]","[-0.16141452 -0.         -0.        ]"
"351","[51.87195007  0.          4.        ]","[-1.44822192  0.          0.        ]","[-0.15879323 -0.         -0.        ]"
"352","[50.26797484  0.          4.        ]","[-1.60397522  0.          0.        ]","[-0.1557533 -0.        -0.       ]"
"353","[48.51172923  0.          4.        ]","[-1.75624562  0.          0.        ]","[-0.1522704 -0.        -0.       ]"
"354","[46.60716352  0.          4.        ]","[-1.90456571  0.          0.        ]","[-0.14832009 -0.         -0.        ]"
"355","[44.55871902  0.          4.        ]","[-2.0484445  0.         0.       ]","[-0.14387879 -0.         -0.        ]"
"356","[42.37134983  0.          4.        ]","[-2.18736919  0.          0.        ]","[-0.13892469 -0.         -0.        ]"
"357","[40.0505419  0.         4.       ]","[-2.32080793  0.          0.        ]","[-0.13343874 -0.         -0.        ]"
"358","[37.60232827  0.          4.        ]","[-2.44821363  0.          0.        ]","[-0.12740569 -0.         -0.        ]"
"359","[35.03329952  0.          4.        ]","[-2.56902875  0.          0.        ]","[-0.12081512 -0.         -0.        ]"
"360","[32.3506084  0.         4.       ]","[-2.68269113  0.          0.        ]","[-0.11366238 -0.         -0.        ]"
"361","[29.56196772  0.          4.        ]","[-2.78864068  0.          0.        ]","[-0.10594955 -0.         -0.        ]"
"362","[26.67564085  0.          4.        ]","[-2.88632687  0.          0.        ]","[-0.09768619 -0.         -0.        ]"
"363","[23.70042403  0.          4.        ]","[-2.97521682  0.          0.        ]","[-0.08888995 -0.         -0.        ]"
"364","[20.64562021  0.          4.        ]","[-3.05480382  0.          0.        ]","[-0.079587 -0.       -0.      ]"
"365","[17.5210042  0.         4.       ]","[-3.12461602  0.          0.        ]","[-0.0698122 -0.        -0.       ]"
"366","[14.33677921  0.          4.        ]","[-3.18422499  0.          0.        ]","[-0.05960897 -0.         -0.        ]"
"367","[11.10352527  0.          4.        ]","[-3.23325394  0.          0.        ]","[-0.04902896 -0.         -0.        ]"
"368","[7.83214003 0.         4.        ]","[-3.27138525  0.          0.        ]","[-0.0381313 -0.        -0.       ]"
"369","[4.53377306 0.         4.        ]","[-3.29836696  0.          0.        ]","[-0.02698172 -0.         -0.        ]"
"370","[1.21975485 0.         4.        ]","[-3.31401821  0.          0.        ]","[-0.01565125 -0.         -0.        ]"
"371","[-2.09847822  0.          4.        ]","[-3.31823307  0.          0.        ]","[-0.00421485 -0.         -0.        ]"
"372","[-5.40946109  0.          4.        ]","[-3.31098287  0.          0.        ]","[0.0072502 0.        0.       ]"
"373","[-8.70177796  0.          4.        ]","[-3.29231687  0.          0.        ]","[0.018666 0.       0.      ]"
"374","[-11.96413911   0.           4.        ]","[-3.26236116  0.          0.        ]","[0.02995572 0.         0.        ]"
"375","[-15.18545498   0.           4.        ]","[-3.22131587  0.          0.        ]","[0.04104529 0.         0.        ]"
"376","[-18.3549059   0.          4.       ]","[-3.16945092  0.          0.        ]","[0.05186495 0.         0.        ]"
"377","[-21.46200619   0.           4.        ]","[-3.10710029  0.          0.        ]","[0.06235062 0.         0.        ]"
"378","[-24.49666142   0.           4.        ]","[-3.03465523  0.          0.        ]","[0.07244507 0.         0.        ]"
"379","[-27.44921789   0.           4.        ]","[-2.95255647  0.          0.        ]","[0.08209876 0.         0.        ]"
"380","[-30.31050382   0.           4.        ]","[-2.86128594  0.          0.        ]","[0.09127053 0.         0.        ]"
"381","[-33.07186195   0.           4.        ]","[-2.76135813  0.          0.        ]","[0.09992781 0.         0.        ]"
"382","[-35.72517337   0.           4.        ]","[-2.65331141  0.          0.        ]","[0.10804672 0.         0.        ]"
"383","[-38.26287298   0.           4.        ]","[-2.53769962  0.          0.        ]","[0.11561179 0.         0.        ]"
"384","[-40.67795707   0.           4.        ]","[-2.41508408  0.          0.        ]","[0.12261553 0.         0.        ]"
"385","[-42.96398343   0.           4.        ]","[-2.28602636  0.          0.        ]","[0.12905772 0.         0.        ]"
"386","[-45.11506517   0.           4.        ]","[-2.15108174  0.          0.        ]","[0.13494462 0.         0.        ]"
"387","[-47.12585888   0.           4.        ]","[-2.01079371  0.          0.        ]","[0.14028803 0.         0.        ]"
"388","[-48.99154827   0.           4.        ]","[-1.8656894  0.         0.       ]","[0.14510431 0.         0.        ]"
"389","[-50.70782434   0.           4.        ]","[-1.71627606  0.          0.        ]","[0.14941333 0.         0.        ]"
"390","[-52.27086292   0.           4.        ]","[-1.56303858  0.          0.        ]","[0.15323749 0.         0.        ]"
"391","[-53.67730083   0.           4.        ]","[-1.40643791  0.          0.        ]","[0.15660066 0.         0.        ]"
"392","[-54.9242114   0.          4.       ]","[-1.24691057  0.          0.        ]","[0.15952735 0.         0.        ]"
"393","[-56.00908022   0.           4.        ]","[-1.08486883  0.          0.        ]","[0.16204174 0.         0.        ]"
"394","[-56.92978206   0.           4.        ]","[-0.92070184  0.          0.        ]","[0.16416698 0.         0.        ]"
"395","[-57.68455942   0.           4.        ]","[-0.75477735  0.          0.        ]","[0.16592449 0.         0.        ]"
"396","[-58.27200345   0.           4.        ]","[-0.58744403  0.          0.        ]","[0.16733332 0.         0.        ]"
"397","[-58.69103774   0.           4.        ]","[-0.41903429  0.          0.        ]","[0.16840974 0.         0.        ]"
"398","[-58.94090527   0.           4.        ]","[-0.24986753  0.          0.        ]","[0.16916676 0.         0.        ]"
"399","[-59.02115894   0.           4.        ]","[-0.08025368  0.          0.        ]","[0.16961386 0.         0.        ]"
"400","[-58.93165585   0.           4.        ]","[0.0895031 0.        0.       ]","[0.16975677 0.         0.        ]"
"401","[-58.67255539   0.           4.        ]","[0.25910046 0.         0.        ]","[0.16959736 0.         0.        ]"
"402","[-58.24432137   0.           4.        ]","[0.42823402 0.         0.        ]","[0.16913356 0.         0.        ]"
"403","[-57.64772794   0.           4.        ]","[0.59659343 0.         0.        ]","[0.16835941 0.         0.        ]"
"404","[-56.88386926   0.           4.        ]","[0.76385868 0.         0.        ]","[0.16726525 0.         0.        ]"
"405","[-55.95417273   0.           4.        ]","[0.92969654 0.         0.        ]","[0.16583786 0.         0.        ]"
"406","[-54.86041536   0.           4.        ]","[1.09375736 0.         0.        ]","[0.16406083 0.         0.        ]"
"407","[-53.60474305   0.           4.        ]","[1.25567231 0.         0.        ]","[0.16191495 0.         0.        ]"
"408","[-52.18969204   0.           4.        ]","[1.41505101 0.         0.        ]","[0.1593787 0.        0.       ]"
"409","[-50.61821217   0.           4.        ]","[1.57147987 0.         0.        ]","[0.15642886 0.         0.        ]"
"410","[-48.89369112   0.           4.        ]","[1.72452105 0.         0.        ]","[0.15304119 0.         0.        ]"
"411","[-47.01997885   0.           4.        ]","[1.87371227 0.         0.        ]","[0.14919122 0.         0.        ]"
"412","[-45.00141146   0.           4.        ]","[2.01856738 0.         0.        ]","[0.14485511 0.         0.        ]"
"413","[-42.84283349   0.           4.        ]","[2.15857798 0.         0.        ]","[0.14001059 0.         0.        ]"
"414","[-40.54961756   0.           4.        ]","[2.29321592 0.         0.        ]","[0.13463795 0.         0.        ]"
"415","[-38.12768059   0.           4.        ]","[2.42193697 0.         0.        ]","[0.12872105 0.         0.        ]"
"416","[-35.58349525   0.           4.        ]","[2.54418534 0.         0.        ]","[0.12224837 0.         0.        ]"
"417","[-32.92409594   0.           4.        ]","[2.65939931 0.         0.        ]","[0.11521397 0.         0.        ]"
"418","[-30.15707819   0.           4.        ]","[2.76701775 0.         0.        ]","[0.10761845 0.         0.        ]"
"419","[-27.29059071   0.           4.        ]","[2.86648748 0.         0.        ]","[0.09946973 0.         0.        ]"
"420","[-24.33331952   0.           4.        ]","[2.95727119 0.         0.        ]","[0.09078372 0.         0.        ]"
"421","[-21.29446355   0.           4.        ]","[3.03885597 0.         0.        ]","[0.08158477 0.         0.        ]"
"422","[-18.18370167   0.           4.        ]","[3.11076188 0.         0.        ]","[0.07190592 0.         0.        ]"
"423","[-15.01115098   0.           4.        ]","[3.17255069 0.         0.        ]","[0.06178881 0.         0.        ]"
"424","[-11.78731689   0.           4.        ]","[3.22383408 0.         0.        ]","[0.05128339 0.         0.        ]"
"425","[-8.5230355  0.         4.       ]","[3.2642814 0.        0.       ]","[0.04044731 0.         0.        ]"
"426","[-5.22940911  0.          4.        ]","[3.29362639 0.         0.        ]","[0.02934499 0.         0.        ]"
"427","[-1.91773626  0.          4.        ]","[3.31167285 0.         0.        ]","[0.01804646 0.         0.        ]"
"428","[1.40056257 0.         4.        ]","[3.31829883 0.         0.        ]","[0.00662598 0.         0.        ]"
"429","[4.71402189 0.         4.        ]","[3.31345932 0.         0.        ]","[-0.00483951 -0.         -0.        ]"
"430","[8.01120908 0.         4.        ]","[3.2971872 0.        0.       ]","[-0.01627212 -0.         -0.        ]"
"431","[11.28080165  0.          4.        ]","[3.26959257 0.         0.        ]","[-0.02759463 -0.         -0.        ]"
"432","[14.51166194  0.          4.        ]","[3.23086029 0.         0.        ]","[-0.03873228 -0.         -0.        ]"
"433","[17.69290798  0.          4.        ]","[3.18124603 0.         0.        ]","[-0.04961426 -0.         -0.        ]"
"434","[20.81397881  0.          4.        ]","[3.12107084 0.         0.        ]","[-0.0601752 -0.        -0.       ]"
"435","[23.86469332  0.          4.        ]","[3.0507145 0.        0.       ]","[-0.07035634 -0.         -0.        ]"
"436","[26.83530135  0.          4.        ]","[2.97060803 0.         0.        ]","[-0.08010647 -0.         -0.        ]"
"437","[29.71652675  0.          4.        ]","[2.88122541 0.         0.        ]","[-0.08938263 -0.         -0.        ]"
"438","[32.49960174  0.          4.        ]","[2.78307498 0.         0.        ]","[-0.09815042 -0.         -0.        ]"
"439","[35.17629256  0.          4.        ]","[2.67669082 0.         0.        ]","[-0.10638416 -0.         -0.        ]"
"440","[37.73891674  0.          4.        ]","[2.56262418 0.         0.        ]","[-0.11406664 -0.         -0.        ]"
"441","[40.18035219  0.          4.        ]","[2.44143545 0.         0.        ]","[-0.12118873 -0.         -0.        ]"
"442","[42.49403888  0.          4.        ]","[2.31368669 0.         0.        ]","[-0.12774875 -0.         -0.        ]"
"443","[44.6739739  0.         4.       ]","[2.17993502 0.         0.        ]","[-0.13375167 -0.         -0.        ]"
"444","[46.71470071  0.          4.        ]","[2.04072681 0.         0.        ]","[-0.13920821 -0.         -0.        ]"
"445","[48.61129368  0.          4.        ]","[1.89659297 0.         0.        ]","[-0.14413384 -0.         -0.        ]"
"446","[50.35933885  0.          4.        ]","[1.74804517 0.         0.        ]","[-0.1485478 -0.        -0.       ]"
"447","[51.954912  0.        4.      ]","[1.59557315 0.         0.        ]","[-0.15247202 -0.         -0.        ]"
"448","[53.394555  0.        4.      ]","[1.439643 0.       0.      ]","[-0.15593015 -0.         -0.        ]"
"449","[54.67525136  0.          4.        ]","[1.28069636 0.         0.        ]","[-0.15894664 -0.         -0.        ]"
"450","[55.79440192  0.          4.        ]","[1.11915055 0.         0.        ]","[-0.16154581 -0.         -0.        ]"
"451","[56.74980139  0.          4.        ]","[0.95539948 0.         0.        ]","[-0.16375108 -0.         -0.        ]"
"452","[57.53961659  0.          4.        ]","[0.78981519 0.         0.        ]","[-0.16558428 -0.         -0.        ]"
"453","[58.16236675  0.          4.        ]","[0.62275017 0.         0.        ]","[-0.16706503 -0.         -0.        ]"
"454","[58.61690674  0.          4.        ]","[0.45453998 0.         0.        ]","[-0.16821019 -0.         -0.        ]"
"455","[58.90241323  0.          4.        ]","[0.28550649 0.         0.        ]","[-0.16903349 -0.         -0.        ]"
"456","[59.01837453  0.          4.        ]","[0.1159613 0.        0.       ]","[-0.16954519 -0.         -0.        ]"
"457","[58.96458401  0.          4.        ]","[-0.05379052  0.          0.        ]","[-0.16975182 -0.         -0.        ]"
"458","[58.74113743  0.          4.        ]","[-0.22344658  0.          0.        ]","[-0.16965606 -0.         -0.        ]"
"459","[58.34843419  0.          4.        ]","[-0.39270324  0.          0.        ]","[-0.16925666 -0.         -0.        ]"
"460","[57.78718246  0.          4.        ]","[-0.56125173  0.          0.        ]","[-0.16854849 -0.         -0.        ]"
"461","[57.05840809  0.          4.        ]","[-0.72877437  0.          0.        ]","[-0.16752264 -0.         -0.        ]"
"462","[56.16346711  0.          4.        ]","[-0.89494099  0.          0.        ]","[-0.16616662 -0.         -0.        ]"
"463","[55.10406146  0.          4.        ]","[-1.05940565  0.          0.        ]","[-0.16446466 -0.         -0.        ]"
"464","[53.88225771  0.          4.        ]","[-1.22180375  0.          0.        ]","[-0.1623981 -0.        -0.       ]"
"465","[52.5005081  0.         4.       ]","[-1.38174961  0.          0.        ]","[-0.15994586 -0.         -0.        ]"
"466","[50.96167346  0.          4.        ]","[-1.53883464  0.          0.        ]","[-0.15708503 -0.         -0.        ]"
"467","[49.2690473  0.         4.       ]","[-1.69262616  0.          0.        ]","[-0.15379151 -0.         -0.        ]"
"468","[47.42638032  0.          4.        ]","[-1.84266698  0.          0.        ]","[-0.15004083 -0.         -0.        ]"
"469","[45.43790442  0.          4.        ]","[-1.9884759  0.         0.       ]","[-0.14580891 -0.         -0.        ]"
"470","[43.30835543  0.          4.        ]","[-2.129549  0.        0.      ]","[-0.1410731 -0.        -0.       ]"
"471","[41.04299338  0.          4.        ]","[-2.26536204  0.          0.        ]","[-0.13581305 -0.         -0.        ]"
"472","[38.64761956  0.          4.        ]","[-2.39537382  0.          0.        ]","[-0.13001178 -0.         -0.        ]"
"473","[36.12858901  0.          4.        ]","[-2.51903055  0.          0.        ]","[-0.12365673 -0.         -0.        ]"
"474","[33.49281777  0.          4.        ]","[-2.63577124  0.          0.        ]","[-0.11674069 -0.         -0.        ]"
"475","[30.7477837  0.         4.       ]","[-2.74503407  0.          0.        ]","[-0.10926283 -0.         -0.        ]"
"476","[27.90152019  0.          4.        ]","[-2.84626351  0.          0.        ]","[-0.10122945 -0.         -0.        ]"
"477","[24.96260193  0.          4.        ]","[-2.93891826  0.          0.        ]","[-0.09265475 -0.         -0.        ]"
"478","[21.9401224  0.         4.       ]","[-3.02247953  0.          0.        ]","[-0.08356127 -0.         -0.        ]"
"479","[18.84366266  0.          4.        ]","[-3.09645974  0.          0.        ]","[-0.07398021 -0.         -0.        ]"
"480","[15.68325149  0.          4.        ]","[-3.16041117  0.          0.        ]","[-0.06395143 -0.         -0.        ]"
"481","[12.46931716  0.          4.        ]","[-3.21393433  0.          0.        ]","[-0.05352317 -0.         -0.        ]"
"482","[9.21263131 0.         4.        ]","[-3.25668585  0.          0.        ]","[-0.04275152 -0.         -0.        ]"
"483","[5.9242459 0.        4.       ]","[-3.28838541  0.          0.        ]","[-0.03169956 -0.         -0.        ]"
"484","[2.61542422 0.         4.        ]","[-3.30882168  0.          0.        ]","[-0.02043626 -0.         -0.        ]"
"485","[-0.70243258  0.          4.        ]","[-3.3178568  0.         0.       ]","[-0.00903512 -0.         -0.        ]"
"486","[-4.017862  0.        4.      ]","[-3.31542943  0.          0.        ]","[0.00242737 0.         0.        ]"
"487","[-7.31941807  0.          4.        ]","[-3.30155607  0.          0.        ]","[0.01387336 0.         0.        ]"
"488","[-10.59574879   0.           4.        ]","[-3.27633072  0.          0.        ]","[0.02522535 0.         0.        ]"
"489","[-13.83567158   0.           4.        ]","[-3.23992279  0.          0.        ]","[0.03640793 0.         0.        ]"
"490","[-17.02824504   0.           4.        ]","[-3.19257346  0.          0.        ]","[0.04734933 0.         0.        ]"
"491","[-20.16283557   0.           4.        ]","[-3.13459053  0.          0.        ]","[0.05798293 0.         0.        ]"
"492","[-23.2291776   0.          4.       ]","[-3.06634203  0.          0.        ]","[0.0682485 0.        0.       ]"
"493","[-26.21742646   0.           4.        ]","[-2.98824887  0.          0.        ]","[0.07809316 0.         0.        ]"
"494","[-29.11820314   0.           4.        ]","[-2.90077668  0.          0.        ]","[0.08747219 0.         0.        ]"
"495","[-31.92263045   0.           4.        ]","[-2.80442731  0.          0.        ]","[0.09634937 0.         0.        ]"
"496","[-34.62236058   0.           4.        ]","[-2.69973013  0.          0.        ]","[0.10469718 0.         0.        ]"
"497","[-37.20959406   0.           4.        ]","[-2.58723348  0.          0.        ]","[0.11249666 0.         0.        ]"
"498","[-39.6770905   0.          4.       ]","[-2.46749644  0.          0.        ]","[0.11973703 0.         0.        ]"
"499","[-42.01817184   0.           4.        ]","[-2.34108134  0.          0.        ]","[0.1264151 0.        0.       ]"
