"time","theta3d","omega3d","alpha3d"
"0","[ 25.91714785   0.         -23.        ]","[-0.08285215  0.          0.        ]","[-0.08285215 -0.         -0.        ]"
"1","[ 25.75168929   0.         -23.        ]","[-0.16545856  0.          0.        ]","[-0.08260642 -0.         -0.        ]"
"2","[ 25.50411555   0.         -23.        ]","[-0.24757374  0.          0.        ]","[-0.08211517 -0.         -0.        ]"
"3","[ 25.17516296   0.         -23.        ]","[-0.32895259  0.          0.        ]","[-0.08137885 -0.         -0.        ]"
"4","[ 24.76581223   0.         -23.        ]","[-0.40935073  0.          0.        ]","[-0.08039815 -0.         -0.        ]"
"5","[ 24.27728744   0.         -23.        ]","[-0.48852479  0.          0.        ]","[-0.07917406 -0.         -0.        ]"
"6","[ 23.71105472   0.         -23.        ]","[-0.56623271  0.          0.        ]","[-0.07770792 -0.         -0.        ]"
"7","[ 23.06882049   0.         -23.        ]","[-0.64223423  0.          0.        ]","[-0.07600152 -0.         -0.        ]"
"8","[ 22.35252916   0.         -23.        ]","[-0.71629133  0.          0.        ]","[-0.0740571 -0.        -0.       ]"
"9","[ 21.56436033   0.         -23.        ]","[-0.78816883  0.          0.        ]","[-0.0718775 -0.        -0.       ]"
"10","[ 20.70672527   0.         -23.        ]","[-0.85763505  0.          0.        ]","[-0.06946622 -0.         -0.        ]"
"11","[ 19.78226272   0.         -23.        ]","[-0.92446255  0.          0.        ]","[-0.0668275 -0.        -0.       ]"
"12","[ 18.79383376   0.         -23.        ]","[-0.98842896  0.          0.        ]","[-0.06396641 -0.         -0.        ]"
"13","[ 17.74451583   0.         -23.        ]","[-1.04931792  0.          0.        ]","[-0.06088896 -0.         -0.        ]"
"14","[ 16.63759579   0.         -23.        ]","[-1.10692005  0.          0.        ]","[-0.05760212 -0.         -0.        ]"
"15","[ 15.4765618   0.        -23.       ]","[-1.16103398  0.          0.        ]","[-0.05411394 -0.         -0.        ]"
"16","[ 14.26509427   0.         -23.        ]","[-1.21146753  0.          0.        ]","[-0.05043355 -0.         -0.        ]"
"17","[ 13.00705551   0.         -23.        ]","[-1.25803876  0.          0.        ]","[-0.04657123 -0.         -0.        ]"
"18","[ 11.70647832   0.         -23.        ]","[-1.30057719  0.          0.        ]","[-0.04253843 -0.         -0.        ]"
"19","[ 10.36755341   0.         -23.        ]","[-1.33892491  0.          0.        ]","[-0.03834772 -0.         -0.        ]"
"20","[  8.99461566   0.         -23.        ]","[-1.37293775  0.          0.        ]","[-0.03401284 -0.         -0.        ]"
"21","[  7.59212934   0.         -23.        ]","[-1.40248632  0.          0.        ]","[-0.02954857 -0.         -0.        ]"
"22","[  6.16467229   0.         -23.        ]","[-1.42745705  0.          0.        ]","[-0.02497072 -0.         -0.        ]"
"23","[  4.71691923   0.         -23.        ]","[-1.44775307  0.          0.        ]","[-0.02029602 -0.         -0.        ]"
"24","[  3.25362416   0.         -23.        ]","[-1.46329507  0.          0.        ]","[-0.015542 -0.       -0.      ]"
"25","[  1.77960222   0.         -23.        ]","[-1.47402194  0.          0.        ]","[-0.01072687 -0.         -0.        ]"
"26","[  0.2997109   0.        -23.       ]","[-1.47989132  0.          0.        ]","[-0.00586938 -0.         -0.        ]"
"27","[ -1.18116907   0.         -23.        ]","[-1.48087996  0.          0.        ]","[-0.00098864 -0.         -0.        ]"
"28","[ -2.65815302   0.         -23.        ]","[-1.47698395  0.          0.        ]","[0.00389601 0.         0.        ]"
"29","[ -4.12637174   0.         -23.        ]","[-1.46821872  0.          0.        ]","[0.00876523 0.         0.        ]"
"30","[ -5.58099068   0.         -23.        ]","[-1.45461894  0.          0.        ]","[0.01359978 0.         0.        ]"
"31","[ -7.01722885   0.         -23.        ]","[-1.43623818  0.          0.        ]","[0.01838076 0.         0.        ]"
"32","[ -8.43037731   0.         -23.        ]","[-1.41314846  0.          0.        ]","[0.02308971 0.         0.        ]"
"33","[ -9.81581696   0.         -23.        ]","[-1.38543964  0.          0.        ]","[0.02770882 0.         0.        ]"
"34","[-11.16903559   0.         -23.        ]","[-1.35321864  0.          0.        ]","[0.03222101 0.         0.        ]"
"35","[-12.48564414   0.         -23.        ]","[-1.31660854  0.          0.        ]","[0.03661009 0.         0.        ]"
"36","[-13.76139183   0.         -23.        ]","[-1.27574769  0.          0.        ]","[0.04086085 0.         0.        ]"
"37","[-14.99218038   0.         -23.        ]","[-1.23078856  0.          0.        ]","[0.04495913 0.         0.        ]"
"38","[-16.17407706   0.         -23.        ]","[-1.18189667  0.          0.        ]","[0.04889188 0.         0.        ]"
"39","[-17.30332654   0.         -23.        ]","[-1.12924948  0.          0.        ]","[0.0526472 0.        0.       ]"
"40","[-18.37636168   0.         -23.        ]","[-1.07303515  0.          0.        ]","[0.05621433 0.         0.        ]"
"41","[-19.38981316   0.         -23.        ]","[-1.01345147  0.          0.        ]","[0.05958367 0.         0.        ]"
"42","[-20.34051788   0.         -23.        ]","[-0.95070472  0.          0.        ]","[0.06274676 0.         0.        ]"
"43","[-21.22552642   0.         -23.        ]","[-0.88500854  0.          0.        ]","[0.06569618 0.         0.        ]"
"44","[-22.04210942   0.         -23.        ]","[-0.816583  0.        0.      ]","[0.06842554 0.         0.        ]"
"45","[-22.787763   0.       -23.      ]","[-0.74565358  0.          0.        ]","[0.07092942 0.         0.        ]"
"46","[-23.46021335   0.         -23.        ]","[-0.67245035  0.          0.        ]","[0.07320323 0.         0.        ]"
"47","[-24.0574205   0.        -23.       ]","[-0.59720715  0.          0.        ]","[0.0752432 0.        0.       ]"
"48","[-24.57758143   0.         -23.        ]","[-0.52016093  0.          0.        ]","[0.07704622 0.         0.        ]"
"49","[-25.01913253   0.         -23.        ]","[-0.4415511  0.         0.       ]","[0.07860982 0.         0.        ]"
"50","[-25.38075159   0.         -23.        ]","[-0.36161906  0.          0.        ]","[0.07993205 0.         0.        ]"
"51","[-25.66135927   0.         -23.        ]","[-0.28060768  0.          0.        ]","[0.08101138 0.         0.        ]"
"52","[-25.86012025   0.         -23.        ]","[-0.19876099  0.          0.        ]","[0.08184669 0.         0.        ]"
"53","[-25.97644406   0.         -23.        ]","[-0.1163238  0.         0.       ]","[0.08243718 0.         0.        ]"
"54","[-26.00998556   0.         -23.        ]","[-0.0335415  0.         0.       ]","[0.0827823 0.        0.       ]"
"55","[-25.96064531   0.         -23.        ]","[0.04934025 0.         0.        ]","[0.08288175 0.         0.        ]"
"56","[-25.82856962   0.         -23.        ]","[0.13207569 0.         0.        ]","[0.08273545 0.         0.        ]"
"57","[-25.61415041   0.         -23.        ]","[0.21441921 0.         0.        ]","[0.08234352 0.         0.        ]"
"58","[-25.3180249   0.        -23.       ]","[0.29612551 0.         0.        ]","[0.0817063 0.        0.       ]"
"59","[-24.941075   0.       -23.      ]","[0.3769499 0.        0.       ]","[0.08082439 0.         0.        ]"
"60","[-24.48442646   0.         -23.        ]","[0.45664854 0.         0.        ]","[0.07969865 0.         0.        ]"
"61","[-23.94944764   0.         -23.        ]","[0.53497882 0.         0.        ]","[0.07833027 0.         0.        ]"
"62","[-23.33774797   0.         -23.        ]","[0.61169967 0.         0.        ]","[0.07672086 0.         0.        ]"
"63","[-22.65117585   0.         -23.        ]","[0.68657212 0.         0.        ]","[0.07487245 0.         0.        ]"
"64","[-21.89181609   0.         -23.        ]","[0.75935976 0.         0.        ]","[0.07278764 0.         0.        ]"
"65","[-21.0619867   0.        -23.       ]","[0.8298294 0.        0.       ]","[0.07046964 0.         0.        ]"
"66","[-20.1642349   0.        -23.       ]","[0.89775179 0.         0.        ]","[0.0679224 0.        0.       ]"
"67","[-19.20133248   0.         -23.        ]","[0.96290242 0.         0.        ]","[0.06515063 0.         0.        ]"
"68","[-18.17627011   0.         -23.        ]","[1.02506237 0.         0.        ]","[0.06215995 0.         0.        ]"
"69","[-17.09225081   0.         -23.        ]","[1.0840193 0.        0.       ]","[0.05895693 0.         0.        ]"
"70","[-15.95268232   0.         -23.        ]","[1.13956849 0.         0.        ]","[0.05554919 0.         0.        ]"
"71","[-14.76116843   0.         -23.        ]","[1.19151389 0.         0.        ]","[0.0519454 0.        0.       ]"
"72","[-13.52149914   0.         -23.        ]","[1.23966929 0.         0.        ]","[0.04815539 0.         0.        ]"
"73","[-12.23763972   0.         -23.        ]","[1.28385942 0.         0.        ]","[0.04419013 0.         0.        ]"
"74","[-10.91371857   0.         -23.        ]","[1.32392115 0.         0.        ]","[0.04006173 0.         0.        ]"
"75","[ -9.55401394   0.         -23.        ]","[1.35970463 0.         0.        ]","[0.03578347 0.         0.        ]"
"76","[ -8.1629396   0.        -23.       ]","[1.39107434 0.         0.        ]","[0.03136971 0.         0.        ]"
"77","[ -6.7450294   0.        -23.       ]","[1.4179102 0.        0.       ]","[0.02683586 0.         0.        ]"
"78","[ -5.30492091   0.         -23.        ]","[1.44010849 0.         0.        ]","[0.02219829 0.         0.        ]"
"79","[ -3.84733822   0.         -23.        ]","[1.45758269 0.         0.        ]","[0.0174742 0.        0.       ]"
"80","[ -2.37707395   0.         -23.        ]","[1.47026427 0.         0.        ]","[0.01268157 0.         0.        ]"
"81","[ -0.89897075   0.         -23.        ]","[1.4781032 0.        0.       ]","[0.00783894 0.         0.        ]"
"82","[  0.58209775   0.         -23.        ]","[1.48106849 0.         0.        ]","[0.00296529 0.         0.        ]"
"83","[  2.06124612   0.         -23.        ]","[1.47914838 0.         0.        ]","[-0.00192012 -0.         -0.        ]"
"84","[  3.53359659   0.         -23.        ]","[1.47235047 0.         0.        ]","[-0.00679791 -0.         -0.        ]"
"85","[  4.99429827   0.         -23.        ]","[1.46070168 0.         0.        ]","[-0.01164879 -0.         -0.        ]"
"86","[  6.43854625   0.         -23.        ]","[1.44424798 0.         0.        ]","[-0.0164537 -0.        -0.       ]"
"87","[  7.86160024   0.         -23.        ]","[1.423054 0.       0.      ]","[-0.02119398 -0.         -0.        ]"
"88","[  9.25880269   0.         -23.        ]","[1.39720245 0.         0.        ]","[-0.02585155 -0.         -0.        ]"
"89","[ 10.62559614   0.         -23.        ]","[1.36679345 0.         0.        ]","[-0.030409 -0.       -0.      ]"
"90","[ 11.95753979   0.         -23.        ]","[1.33194365 0.         0.        ]","[-0.03484979 -0.         -0.        ]"
"91","[ 13.25032514   0.         -23.        ]","[1.29278535 0.         0.        ]","[-0.0391583 -0.        -0.       ]"
"92","[ 14.49979058   0.         -23.        ]","[1.24946544 0.         0.        ]","[-0.04331992 -0.         -0.        ]"
"93","[ 15.70193486   0.         -23.        ]","[1.20214428 0.         0.        ]","[-0.04732115 -0.         -0.        ]"
"94","[ 16.85292952   0.         -23.        ]","[1.15099466 0.         0.        ]","[-0.05114963 -0.         -0.        ]"
"95","[ 17.94913004   0.         -23.        ]","[1.09620052 0.         0.        ]","[-0.05479413 -0.         -0.        ]"
"96","[ 18.98708597   0.         -23.        ]","[1.03795593 0.         0.        ]","[-0.0582446 -0.        -0.       ]"
"97","[ 19.96354979   0.         -23.        ]","[0.97646382 0.         0.        ]","[-0.0614921 -0.        -0.       ]"
"98","[ 20.87548481   0.         -23.        ]","[0.91193502 0.         0.        ]","[-0.06452881 -0.         -0.        ]"
"99","[ 21.72007189   0.         -23.        ]","[0.84458709 0.         0.        ]","[-0.06734793 -0.         -0.        ]"
"100","[ 22.49471533   0.         -23.        ]","[0.77464344 0.         0.        ]","[-0.06994365 -0.         -0.        ]"
"101","[ 23.1970477   0.        -23.       ]","[0.70233237 0.         0.        ]","[-0.07231106 -0.         -0.        ]"
"102","[ 23.82493401   0.         -23.        ]","[0.6278863 0.        0.       ]","[-0.07444607 -0.         -0.        ]"
"103","[ 24.376475   0.       -23.      ]","[0.55154099 0.         0.        ]","[-0.07634531 -0.         -0.        ]"
"104","[ 24.85000994   0.         -23.        ]","[0.47353493 0.         0.        ]","[-0.07800606 -0.         -0.        ]"
"105","[ 25.2441187   0.        -23.       ]","[0.39410877 0.         0.        ]","[-0.07942617 -0.         -0.        ]"
"106","[ 25.55762353   0.         -23.        ]","[0.31350482 0.         0.        ]","[-0.08060394 -0.         -0.        ]"
"107","[ 25.78959023   0.         -23.        ]","[0.2319667 0.        0.       ]","[-0.08153812 -0.         -0.        ]"
"108","[ 25.93932917   0.         -23.        ]","[0.14973894 0.         0.        ]","[-0.08222776 -0.         -0.        ]"
"109","[ 26.00639589   0.         -23.        ]","[0.06706672 0.         0.        ]","[-0.08267222 -0.         -0.        ]"
"110","[ 25.99059151   0.         -23.        ]","[-0.01580439  0.          0.        ]","[-0.08287111 -0.         -0.        ]"
"111","[ 25.89196287   0.         -23.        ]","[-0.09862864  0.          0.        ]","[-0.08282425 -0.         -0.        ]"
"112","[ 25.71080254   0.         -23.        ]","[-0.18116033  0.          0.        ]","[-0.08253169 -0.         -0.        ]"
"113","[ 25.44764854   0.         -23.        ]","[-0.263154  0.        0.      ]","[-0.08199367 -0.         -0.        ]"
"114","[ 25.10328384   0.         -23.        ]","[-0.3443647  0.         0.       ]","[-0.0812107 -0.        -0.       ]"
"115","[ 24.67873564   0.         -23.        ]","[-0.4245482  0.         0.       ]","[-0.0801835 -0.        -0.       ]"
"116","[ 24.1752743   0.        -23.       ]","[-0.50346134  0.          0.        ]","[-0.07891314 -0.         -0.        ]"
"117","[ 23.5944119   0.        -23.       ]","[-0.58086239  0.          0.        ]","[-0.07740105 -0.         -0.        ]"
"118","[ 22.93790043   0.         -23.        ]","[-0.65651147  0.          0.        ]","[-0.07564908 -0.         -0.        ]"
"119","[ 22.20772938   0.         -23.        ]","[-0.73017105  0.          0.        ]","[-0.07365958 -0.         -0.        ]"
"120","[ 21.40612282   0.         -23.        ]","[-0.80160656  0.          0.        ]","[-0.07143551 -0.         -0.        ]"
"121","[ 20.53553574   0.         -23.        ]","[-0.87058708  0.          0.        ]","[-0.06898052 -0.         -0.        ]"
"122","[ 19.59864968   0.         -23.        ]","[-0.93688606  0.          0.        ]","[-0.06629898 -0.         -0.        ]"
"123","[ 18.59836747   0.         -23.        ]","[-1.00028221  0.          0.        ]","[-0.06339615 -0.         -0.        ]"
"124","[ 17.53780706   0.         -23.        ]","[-1.06056042  0.          0.        ]","[-0.06027821 -0.         -0.        ]"
"125","[ 16.42029432   0.         -23.        ]","[-1.11751274  0.          0.        ]","[-0.05695232 -0.         -0.        ]"
"126","[ 15.24935483   0.         -23.        ]","[-1.17093949  0.          0.        ]","[-0.05342675 -0.         -0.        ]"
"127","[ 14.02870449   0.         -23.        ]","[-1.22065034  0.          0.        ]","[-0.04971085 -0.         -0.        ]"
"128","[ 12.76223904   0.         -23.        ]","[-1.26646545  0.          0.        ]","[-0.04581511 -0.         -0.        ]"
"129","[ 11.4540224   0.        -23.       ]","[-1.30821664  0.          0.        ]","[-0.04175119 -0.         -0.        ]"
"130","[ 10.10827386   0.         -23.        ]","[-1.34574854  0.          0.        ]","[-0.03753191 -0.         -0.        ]"
"131","[  8.72935414   0.         -23.        ]","[-1.37891972  0.          0.        ]","[-0.03317118 -0.         -0.        ]"
"132","[  7.3217504   0.        -23.       ]","[-1.40760373  0.          0.        ]","[-0.02868401 -0.         -0.        ]"
"133","[  5.8900603   0.        -23.       ]","[-1.43169011  0.          0.        ]","[-0.02408638 -0.         -0.        ]"
"134","[  4.43897502   0.         -23.        ]","[-1.45108528  0.          0.        ]","[-0.01939518 -0.         -0.        ]"
"135","[  2.97326165   0.         -23.        ]","[-1.46571336  0.          0.        ]","[-0.01462808 -0.         -0.        ]"
"136","[  1.49774488   0.         -23.        ]","[-1.47551678  0.          0.        ]","[-0.00980341 -0.         -0.        ]"
"137","[ 1.72880959e-02  0.00000000e+00 -2.30000000e+01]","[-1.48045678  0.          0.        ]","[-0.00494001 -0.         -0.        ]"
"138","[ -1.46322571   0.         -23.        ]","[-1.48051381  0.          0.        ]","[-5.70277621e-05 -0.00000000e+00 -0.00000000e+00]"
"139","[ -2.93891335   0.         -23.        ]","[-1.47568763  0.          0.        ]","[0.00482618 0.         0.        ]"
"140","[ -4.40491072   0.         -23.        ]","[-1.46599737  0.          0.        ]","[0.00969026 0.         0.        ]"
"141","[ -5.85639204   0.         -23.        ]","[-1.45148132  0.          0.        ]","[0.01451605 0.         0.        ]"
"142","[ -7.28858867   0.         -23.        ]","[-1.43219663  0.          0.        ]","[0.0192847 0.        0.       ]"
"143","[ -8.69680742   0.         -23.        ]","[-1.40821875  0.          0.        ]","[0.02397787 0.         0.        ]"
"144","[-10.07644829   0.         -23.        ]","[-1.37964087  0.          0.        ]","[0.02857788 0.         0.        ]"
"145","[-11.42302134   0.         -23.        ]","[-1.34657305  0.          0.        ]","[0.03306782 0.         0.        ]"
"146","[-12.73216271   0.         -23.        ]","[-1.30914137  0.          0.        ]","[0.03743168 0.         0.        ]"
"147","[-13.99964965   0.         -23.        ]","[-1.26748694  0.          0.        ]","[0.04165442 0.         0.        ]"
"148","[-15.22141448   0.         -23.        ]","[-1.22176483  0.          0.        ]","[0.04572212 0.         0.        ]"
"149","[-16.39355739   0.         -23.        ]","[-1.17214291  0.          0.        ]","[0.04962192 0.         0.        ]"
"150","[-17.51235815   0.         -23.        ]","[-1.11880076  0.          0.        ]","[0.05334215 0.         0.        ]"
"151","[-18.57428664   0.         -23.        ]","[-1.06192849  0.          0.        ]","[0.05687227 0.         0.        ]"
"152","[-19.57601221   0.         -23.        ]","[-1.00172557  0.          0.        ]","[0.06020291 0.         0.        ]"
"153","[-20.51441199   0.         -23.        ]","[-0.93839978  0.          0.        ]","[0.0633258 0.        0.       ]"
"154","[-21.38657804   0.         -23.        ]","[-0.87216605  0.          0.        ]","[0.06623372 0.         0.        ]"
"155","[-22.1898236   0.        -23.       ]","[-0.80324556  0.          0.        ]","[0.06892049 0.         0.        ]"
"156","[-22.92168834   0.         -23.        ]","[-0.73186474  0.          0.        ]","[0.07138083 0.         0.        ]"
"157","[-23.57994275   0.         -23.        ]","[-0.65825441  0.          0.        ]","[0.07361033 0.         0.        ]"
"158","[-24.16259183   0.         -23.        ]","[-0.58264908  0.          0.        ]","[0.07560533 0.         0.        ]"
"159","[-24.66787803   0.         -23.        ]","[-0.50528619  0.          0.        ]","[0.07736288 0.         0.        ]"
"160","[-25.09428362   0.         -23.        ]","[-0.4264056  0.         0.       ]","[0.0788806 0.        0.       ]"
"161","[-25.4405326   0.        -23.       ]","[-0.34624898  0.          0.        ]","[0.08015661 0.         0.        ]"
"162","[-25.70559208   0.         -23.        ]","[-0.26505948  0.          0.        ]","[0.0811895 0.        0.       ]"
"163","[-25.88867338   0.         -23.        ]","[-0.18308129  0.          0.        ]","[0.08197819 0.         0.        ]"
"164","[-25.98923274   0.         -23.        ]","[-0.10055937  0.          0.        ]","[0.08252193 0.         0.        ]"
"165","[-26.00697189   0.         -23.        ]","[-0.01773914  0.          0.        ]","[0.08282022 0.         0.        ]"
"166","[-25.94183821   0.         -23.        ]","[0.06513367 0.         0.        ]","[0.08287282 0.         0.        ]"
"167","[-25.79402488   0.         -23.        ]","[0.14781334 0.         0.        ]","[0.08267966 0.         0.        ]"
"168","[-25.56397061   0.         -23.        ]","[0.23005427 0.         0.        ]","[0.08224093 0.         0.        ]"
"169","[-25.25235933   0.         -23.        ]","[0.31161128 0.         0.        ]","[0.08155701 0.         0.        ]"
"170","[-24.86011952   0.         -23.        ]","[0.39223981 0.         0.        ]","[0.08062853 0.         0.        ]"
"171","[-24.38842329   0.         -23.        ]","[0.47169623 0.         0.        ]","[0.07945643 0.         0.        ]"
"172","[-23.8386851   0.        -23.       ]","[0.54973819 0.         0.        ]","[0.07804196 0.         0.        ]"
"173","[-23.2125601   0.        -23.       ]","[0.62612499 0.         0.        ]","[0.0763868 0.        0.       ]"
"174","[-22.51194201   0.         -23.        ]","[0.70061809 0.         0.        ]","[0.0744931 0.        0.       ]"
"175","[-21.73896036   0.         -23.        ]","[0.77298166 0.         0.        ]","[0.07236356 0.         0.        ]"
"176","[-20.89597717   0.         -23.        ]","[0.84298319 0.         0.        ]","[0.07000153 0.         0.        ]"
"177","[-19.9855829   0.        -23.       ]","[0.91039427 0.         0.        ]","[0.06741108 0.         0.        ]"
"178","[-19.01059151   0.         -23.        ]","[0.97499139 0.         0.        ]","[0.06459712 0.         0.        ]"
"179","[-17.97403471   0.         -23.        ]","[1.0365568 0.        0.       ]","[0.06156541 0.         0.        ]"
"180","[-16.87915516   0.         -23.        ]","[1.09487955 0.         0.        ]","[0.05832275 0.         0.        ]"
"181","[-15.7293987   0.        -23.       ]","[1.14975647 0.         0.        ]","[0.05487692 0.         0.        ]"
"182","[-14.52840539   0.         -23.        ]","[1.2009933 0.        0.       ]","[0.05123684 0.         0.        ]"
"183","[-13.27999956   0.         -23.        ]","[1.24840583 0.         0.        ]","[0.04741253 0.         0.        ]"
"184","[-11.98817853   0.         -23.        ]","[1.29182103 0.         0.        ]","[0.04341519 0.         0.        ]"
"185","[-10.65710034   0.         -23.        ]","[1.33107819 0.         0.        ]","[0.03925717 0.         0.        ]"
"186","[ -9.29107022   0.         -23.        ]","[1.36603012 0.         0.        ]","[0.03495193 0.         0.        ]"
"187","[ -7.89452604   0.         -23.        ]","[1.39654417 0.         0.        ]","[0.03051405 0.         0.        ]"
"188","[ -6.47202273   0.         -23.        ]","[1.42250331 0.         0.        ]","[0.02595913 0.         0.        ]"
"189","[ -5.02821571   0.         -23.        ]","[1.44380702 0.         0.        ]","[0.02130371 0.         0.        ]"
"190","[ -3.56784354   0.         -23.        ]","[1.46037217 0.         0.        ]","[0.01656515 0.         0.        ]"
"191","[ -2.09570983   0.         -23.        ]","[1.47213371 0.         0.        ]","[0.01176154 0.         0.        ]"
"192","[ -0.6166646   0.        -23.       ]","[1.47904523 0.         0.        ]","[0.00691152 0.         0.        ]"
"193","[  0.86441477   0.         -23.        ]","[1.48107937 0.         0.        ]","[0.00203414 0.         0.        ]"
"194","[  2.34264283   0.         -23.        ]","[1.47822805 0.         0.        ]","[-0.00285131 -0.         -0.        ]"
"195","[  3.81314542   0.         -23.        ]","[1.4705026 0.        0.       ]","[-0.00772546 -0.         -0.        ]"
"196","[  5.27107899   0.         -23.        ]","[1.45793356 0.         0.        ]","[-0.01256903 -0.         -0.        ]"
"197","[  6.7116495   0.        -23.       ]","[1.44057052 0.         0.        ]","[-0.01736305 -0.         -0.        ]"
"198","[  8.13013109   0.         -23.        ]","[1.41848158 0.         0.        ]","[-0.02208893 -0.         -0.        ]"
"199","[  9.52188394   0.         -23.        ]","[1.39175285 0.         0.        ]","[-0.02672873 -0.         -0.        ]"
"200","[ 10.8823716   0.        -23.       ]","[1.36048766 0.         0.        ]","[-0.03126519 -0.         -0.        ]"
"201","[ 12.20717732   0.         -23.        ]","[1.32480572 0.         0.        ]","[-0.03568194 -0.         -0.        ]"
"202","[ 13.49201952   0.         -23.        ]","[1.2848422 0.        0.       ]","[-0.03996353 -0.         -0.        ]"
"203","[ 14.73276614   0.         -23.        ]","[1.24074662 0.         0.        ]","[-0.04409558 -0.         -0.        ]"
"204","[ 15.92544797   0.         -23.        ]","[1.19268183 0.         0.        ]","[-0.04806479 -0.         -0.        ]"
"205","[ 17.06627078   0.         -23.        ]","[1.14082281 0.         0.        ]","[-0.05185902 -0.         -0.        ]"
"206","[ 18.15162632   0.         -23.        ]","[1.08535554 0.         0.        ]","[-0.05546727 -0.         -0.        ]"
"207","[ 19.17810217   0.         -23.        ]","[1.02647585 0.         0.        ]","[-0.05887969 -0.         -0.        ]"
"208","[ 20.14249044   0.         -23.        ]","[0.96438827 0.         0.        ]","[-0.06208758 -0.         -0.        ]"
"209","[ 21.04179542   0.         -23.        ]","[0.89930498 0.         0.        ]","[-0.06508329 -0.         -0.        ]"
"210","[ 21.87324017   0.         -23.        ]","[0.83144475 0.         0.        ]","[-0.06786024 -0.         -0.        ]"
"211","[ 22.63427214   0.         -23.        ]","[0.76103197 0.         0.        ]","[-0.07041278 -0.         -0.        ]"
"212","[ 23.32256793   0.         -23.        ]","[0.68829579 0.         0.        ]","[-0.07273617 -0.         -0.        ]"
"213","[ 23.93603725   0.         -23.        ]","[0.61346932 0.         0.        ]","[-0.07482647 -0.         -0.        ]"
"214","[ 24.47282615   0.         -23.        ]","[0.5367889 0.        0.       ]","[-0.07668043 -0.         -0.        ]"
"215","[ 24.9313196   0.        -23.       ]","[0.45849345 0.         0.        ]","[-0.07829545 -0.         -0.        ]"
"216","[ 25.31014358   0.         -23.        ]","[0.37882398 0.         0.        ]","[-0.07966947 -0.         -0.        ]"
"217","[ 25.60816668   0.         -23.        ]","[0.2980231 0.        0.       ]","[-0.08080089 -0.         -0.        ]"
"218","[ 25.82450128   0.         -23.        ]","[0.2163346 0.        0.       ]","[-0.0816885 -0.        -0.       ]"
"219","[ 25.95850444   0.         -23.        ]","[0.13400316 0.         0.        ]","[-0.08233144 -0.         -0.        ]"
"220","[ 26.0097785   0.        -23.       ]","[0.05127406 0.         0.        ]","[-0.0827291 -0.        -0.       ]"
"221","[ 25.97817143   0.         -23.        ]","[-0.03160707  0.          0.        ]","[-0.08288114 -0.         -0.        ]"
"222","[ 25.86377693   0.         -23.        ]","[-0.1143945  0.         0.       ]","[-0.08278742 -0.         -0.        ]"
"223","[ 25.6669344   0.        -23.       ]","[-0.19684253  0.          0.        ]","[-0.08244804 -0.         -0.        ]"
"224","[ 25.3882286   0.        -23.       ]","[-0.2787058  0.         0.       ]","[-0.08186327 -0.         -0.        ]"
"225","[ 25.02848913   0.         -23.        ]","[-0.35973946  0.          0.        ]","[-0.08103366 -0.         -0.        ]"
"226","[ 24.58878966   0.         -23.        ]","[-0.43969948  0.          0.        ]","[-0.07996001 -0.         -0.        ]"
"227","[ 24.07044674   0.         -23.        ]","[-0.51834292  0.          0.        ]","[-0.07864345 -0.         -0.        ]"
"228","[ 23.47501836   0.         -23.        ]","[-0.59542838  0.          0.        ]","[-0.07708546 -0.         -0.        ]"
"229","[ 22.80430198   0.         -23.        ]","[-0.67071638  0.          0.        ]","[-0.075288 -0.       -0.      ]"
"230","[ 22.06033208   0.         -23.        ]","[-0.7439699  0.         0.       ]","[-0.07325353 -0.         -0.        ]"
"231","[ 21.24537704   0.         -23.        ]","[-0.81495503  0.          0.        ]","[-0.07098513 -0.         -0.        ]"
"232","[ 20.36193543   0.         -23.        ]","[-0.88344161  0.          0.        ]","[-0.06848658 -0.         -0.        ]"
"233","[ 19.41273141   0.         -23.        ]","[-0.94920403  0.          0.        ]","[-0.06576241 -0.         -0.        ]"
"234","[ 18.40070932   0.         -23.        ]","[-1.01202209  0.          0.        ]","[-0.06281806 -0.         -0.        ]"
"235","[ 17.32902734   0.         -23.        ]","[-1.07168198  0.          0.        ]","[-0.05965989 -0.         -0.        ]"
"236","[ 16.2010501   0.        -23.       ]","[-1.12797724  0.          0.        ]","[-0.05629526 -0.         -0.        ]"
"237","[ 15.02034021   0.         -23.        ]","[-1.18070989  0.          0.        ]","[-0.05273265 -0.         -0.        ]"
"238","[ 13.79064872   0.         -23.        ]","[-1.22969149  0.          0.        ]","[-0.04898161 -0.         -0.        ]"
"239","[ 12.51590436   0.         -23.        ]","[-1.27474436  0.          0.        ]","[-0.04505287 -0.         -0.        ]"
"240","[ 11.20020169   0.         -23.        ]","[-1.31570266  0.          0.        ]","[-0.04095831 -0.         -0.        ]"
"241","[  9.84778808   0.         -23.        ]","[-1.35241361  0.          0.        ]","[-0.03671095 -0.         -0.        ]"
"242","[  8.46304955   0.         -23.        ]","[-1.38473853  0.          0.        ]","[-0.03232492 -0.         -0.        ]"
"243","[  7.0504956   0.        -23.       ]","[-1.41255396  0.          0.        ]","[-0.02781542 -0.         -0.        ]"
"244","[  5.61474302   0.         -23.        ]","[-1.43575258  0.          0.        ]","[-0.02319862 -0.         -0.        ]"
"245","[  4.16049887   0.         -23.        ]","[-1.45424415  0.          0.        ]","[-0.01849157 -0.         -0.        ]"
"246","[  2.69254266   0.         -23.        ]","[-1.46795621  0.          0.        ]","[-0.01371206 -0.         -0.        ]"
"247","[  1.2157079   0.        -23.       ]","[-1.47683476  0.          0.        ]","[-0.00887855 -0.         -0.        ]"
"248","[ -0.26513678   0.         -23.        ]","[-1.48084468  0.          0.        ]","[-0.00400992 -0.         -0.        ]"
"249","[ -1.74510686   0.         -23.        ]","[-1.47997008  0.          0.        ]","[0.0008746 0.        0.       ]"
"250","[ -3.2193213   0.        -23.       ]","[-1.47421444  0.          0.        ]","[0.00575565 0.         0.        ]"
"251","[ -4.68292184   0.         -23.        ]","[-1.46360054  0.          0.        ]","[0.0106139 0.        0.       ]"
"252","[ -6.13109214   0.         -23.        ]","[-1.44817031  0.          0.        ]","[0.01543023 0.         0.        ]"
"253","[ -7.55907656   0.         -23.        ]","[-1.42798442  0.          0.        ]","[0.02018589 0.         0.        ]"
"254","[ -8.96219834   0.         -23.        ]","[-1.40312177  0.          0.        ]","[0.02486264 0.         0.        ]"
"255","[-10.33587716   0.         -23.        ]","[-1.37367883  0.          0.        ]","[0.02944295 0.         0.        ]"
"256","[-11.67564594   0.         -23.        ]","[-1.33976877  0.          0.        ]","[0.03391005 0.         0.        ]"
"257","[-12.97716659   0.         -23.        ]","[-1.30152065  0.          0.        ]","[0.03824813 0.         0.        ]"
"258","[-14.23624488   0.         -23.        ]","[-1.25907829  0.          0.        ]","[0.04244236 0.         0.        ]"
"259","[-15.44884417   0.         -23.        ]","[-1.2125993  0.         0.       ]","[0.04647899 0.         0.        ]"
"260","[-16.61109805   0.         -23.        ]","[-1.16225387  0.          0.        ]","[0.05034542 0.         0.        ]"
"261","[-17.71932173   0.         -23.        ]","[-1.10822369  0.          0.        ]","[0.05403018 0.         0.        ]"
"262","[-18.77002246   0.         -23.        ]","[-1.05070073  0.          0.        ]","[0.05752296 0.         0.        ]"
"263","[-19.75990859   0.         -23.        ]","[-0.98988613  0.          0.        ]","[0.0608146 0.        0.       ]"
"264","[-20.68589769   0.         -23.        ]","[-0.92598911  0.          0.        ]","[0.06389702 0.         0.        ]"
"265","[-21.54512357   0.         -23.        ]","[-0.85922588  0.          0.        ]","[0.06676323 0.         0.        ]"
"266","[-22.33494225   0.         -23.        ]","[-0.78981868  0.          0.        ]","[0.0694072 0.        0.       ]"
"267","[-23.05293708   0.         -23.        ]","[-0.71799483  0.          0.        ]","[0.07182384 0.         0.        ]"
"268","[-23.69692303   0.         -23.        ]","[-0.64398594  0.          0.        ]","[0.07400889 0.         0.        ]"
"269","[-24.26495013   0.         -23.        ]","[-0.56802711  0.          0.        ]","[0.07595884 0.         0.        ]"
"270","[-24.75530641   0.         -23.        ]","[-0.49035628  0.          0.        ]","[0.07767082 0.         0.        ]"
"271","[-25.16652011   0.         -23.        ]","[-0.4112137  0.         0.       ]","[0.07914259 0.         0.        ]"
"272","[-25.49736146   0.         -23.        ]","[-0.33084135  0.          0.        ]","[0.08037234 0.         0.        ]"
"273","[-25.74684407   0.         -23.        ]","[-0.24948261  0.          0.        ]","[0.08135874 0.         0.        ]"
"274","[-25.9142259   0.        -23.       ]","[-0.16738183  0.          0.        ]","[0.08210078 0.         0.        ]"
"275","[-25.99900999   0.         -23.        ]","[-0.08478408  0.          0.        ]","[0.08259775 0.         0.        ]"
"276","[-26.00094486   0.         -23.        ]","[-0.00193487  0.          0.        ]","[0.08284921 0.         0.        ]"
"277","[-25.92002479   0.         -23.        ]","[0.08092008 0.         0.        ]","[0.08285495 0.         0.        ]"
"278","[-25.75648976   0.         -23.        ]","[0.16353503 0.         0.        ]","[0.08261495 0.         0.        ]"
"279","[-25.51082529   0.         -23.        ]","[0.24566446 0.         0.        ]","[0.08212943 0.         0.        ]"
"280","[-25.183762   0.       -23.      ]","[0.32706329 0.         0.        ]","[0.08139883 0.         0.        ]"
"281","[-24.7762749   0.        -23.       ]","[0.40748711 0.         0.        ]","[0.08042382 0.         0.        ]"
"282","[-24.2895824   0.        -23.       ]","[0.4866925 0.        0.       ]","[0.07920539 0.         0.        ]"
"283","[-23.725145   0.       -23.      ]","[0.56443739 0.         0.        ]","[0.07774489 0.         0.        ]"
"284","[-23.08466354   0.         -23.        ]","[0.64048146 0.         0.        ]","[0.07604407 0.         0.        ]"
"285","[-22.3700769   0.        -23.       ]","[0.71458664 0.         0.        ]","[0.07410518 0.         0.        ]"
"286","[-21.58355922   0.         -23.        ]","[0.78651768 0.         0.        ]","[0.07193103 0.         0.        ]"
"287","[-20.72751643   0.         -23.        ]","[0.85604279 0.         0.        ]","[0.06952511 0.         0.        ]"
"288","[-19.804582   0.       -23.      ]","[0.92293444 0.         0.        ]","[0.06689165 0.         0.        ]"
"289","[-18.81761187   0.         -23.        ]","[0.98697012 0.         0.        ]","[0.06403569 0.         0.        ]"
"290","[-17.76967854   0.         -23.        ]","[1.04793333 0.         0.        ]","[0.06096321 0.         0.        ]"
"291","[-16.66406404   0.         -23.        ]","[1.1056145 0.        0.       ]","[0.05768117 0.         0.        ]"
"292","[-15.50425195   0.         -23.        ]","[1.15981209 0.         0.        ]","[0.05419759 0.         0.        ]"
"293","[-14.29391829   0.         -23.        ]","[1.21033366 0.         0.        ]","[0.05052157 0.         0.        ]"
"294","[-13.03692125   0.         -23.        ]","[1.25699703 0.         0.        ]","[0.04666337 0.         0.        ]"
"295","[-11.73728981   0.         -23.        ]","[1.29963144 0.         0.        ]","[0.04263441 0.         0.        ]"
"296","[-10.39921113   0.         -23.        ]","[1.33807868 0.         0.        ]","[0.03844724 0.         0.        ]"
"297","[ -9.02701688   0.         -23.        ]","[1.37219424 0.         0.        ]","[0.03411556 0.         0.        ]"
"298","[ -7.62516851   0.         -23.        ]","[1.40184838 0.         0.        ]","[0.02965413 0.         0.        ]"
"299","[ -6.19824138   0.         -23.        ]","[1.42692713 0.         0.        ]","[0.02507875 0.         0.        ]"
"300","[ -4.75090814   0.         -23.        ]","[1.44733324 0.         0.        ]","[0.02040611 0.         0.        ]"
"301","[ -3.28792117   0.         -23.        ]","[1.46298697 0.         0.        ]","[0.01565374 0.         0.        ]"
"302","[ -1.81409437   0.         -23.        ]","[1.4738268 0.        0.       ]","[0.01083982 0.         0.        ]"
"303","[ -0.33428448   0.         -23.        ]","[1.4798099 0.        0.       ]","[0.0059831 0.        0.       ]"
"304","[  1.14662811   0.         -23.        ]","[1.48091259 0.         0.        ]","[0.00110269 0.         0.        ]"
"305","[  2.6237586   0.        -23.       ]","[1.47713049 0.         0.        ]","[-0.0037821 -0.        -0.       ]"
"306","[  4.0922372   0.        -23.       ]","[1.46847859 0.         0.        ]","[-0.0086519 -0.        -0.       ]"
"307","[  5.54722832   0.         -23.        ]","[1.45499112 0.         0.        ]","[-0.01348748 -0.         -0.        ]"
"308","[  6.98394952   0.         -23.        ]","[1.4367212 0.        0.       ]","[-0.01826991 -0.         -0.        ]"
"309","[  8.39768997   0.         -23.        ]","[1.41374045 0.         0.        ]","[-0.02298075 -0.         -0.        ]"
"310","[  9.78382827   0.         -23.        ]","[1.3861383 0.        0.       ]","[-0.02760215 -0.         -0.        ]"
"311","[ 11.13784954   0.         -23.        ]","[1.35402127 0.         0.        ]","[-0.03211703 -0.         -0.        ]"
"312","[ 12.45536164   0.         -23.        ]","[1.31751211 0.         0.        ]","[-0.03650916 -0.         -0.        ]"
"313","[ 13.73211043   0.         -23.        ]","[1.27674879 0.         0.        ]","[-0.04076332 -0.         -0.        ]"
"314","[ 14.96399391   0.         -23.        ]","[1.23188348 0.         0.        ]","[-0.04486531 -0.         -0.        ]"
"315","[ 16.14707533   0.         -23.        ]","[1.18308141 0.         0.        ]","[-0.04880206 -0.         -0.        ]"
"316","[ 17.27759509   0.         -23.        ]","[1.13051977 0.         0.        ]","[-0.05256165 -0.         -0.        ]"
"317","[ 18.35198158   0.         -23.        ]","[1.07438648 0.         0.        ]","[-0.05613328 -0.         -0.        ]"
"318","[ 19.36686071   0.         -23.        ]","[1.01487914 0.         0.        ]","[-0.05950735 -0.         -0.        ]"
"319","[ 20.31906451   0.         -23.        ]","[0.9522038 0.        0.       ]","[-0.06267533 -0.         -0.        ]"
"320","[ 21.2056385   0.        -23.       ]","[0.88657398 0.         0.        ]","[-0.06562982 -0.         -0.        ]"
"321","[ 22.0238481   0.        -23.       ]","[0.8182096 0.        0.       ]","[-0.06836438 -0.         -0.        ]"
"322","[ 22.77118412   0.         -23.        ]","[0.74733602 0.         0.        ]","[-0.07087358 -0.         -0.        ]"
"323","[ 23.44536733   0.         -23.        ]","[0.67418321 0.         0.        ]","[-0.07315281 -0.         -0.        ]"
"324","[ 24.04435227   0.         -23.        ]","[0.59898494 0.         0.        ]","[-0.07519827 -0.         -0.        ]"
"325","[ 24.56633036   0.         -23.        ]","[0.52197808 0.         0.        ]","[-0.07700686 -0.         -0.        ]"
"326","[ 25.00973237   0.         -23.        ]","[0.44340201 0.         0.        ]","[-0.07857607 -0.         -0.        ]"
"327","[ 25.37323043   0.         -23.        ]","[0.36349806 0.         0.        ]","[-0.07990395 -0.         -0.        ]"
"328","[ 25.65573953   0.         -23.        ]","[0.2825091 0.        0.       ]","[-0.08098896 -0.         -0.        ]"
"329","[ 25.85641865   0.         -23.        ]","[0.20067912 0.         0.        ]","[-0.08182998 -0.         -0.        ]"
"330","[ 25.97467157   0.         -23.        ]","[0.11825292 0.         0.        ]","[-0.08242619 -0.         -0.        ]"
"331","[ 26.01014745   0.         -23.        ]","[0.03547588 0.         0.        ]","[-0.08277704 -0.         -0.        ]"
"332","[ 25.9627411   0.        -23.       ]","[-0.04740635  0.          0.        ]","[-0.08288223 -0.         -0.        ]"
"333","[ 25.83259309   0.         -23.        ]","[-0.13014801  0.          0.        ]","[-0.08274166 -0.         -0.        ]"
"334","[ 25.62008961   0.         -23.        ]","[-0.21250348  0.          0.        ]","[-0.08235546 -0.         -0.        ]"
"335","[ 25.32586217   0.         -23.        ]","[-0.29422744  0.          0.        ]","[-0.08172397 -0.         -0.        ]"
"336","[ 24.95078698   0.         -23.        ]","[-0.3750752  0.         0.       ]","[-0.08084776 -0.         -0.        ]"
"337","[ 24.49598408   0.         -23.        ]","[-0.45480289  0.          0.        ]","[-0.07972769 -0.         -0.        ]"
"338","[ 23.96281623   0.         -23.        ]","[-0.53316786  0.          0.        ]","[-0.07836497 -0.         -0.        ]"
"339","[ 23.35288721   0.         -23.        ]","[-0.60992902  0.          0.        ]","[-0.07676116 -0.         -0.        ]"
"340","[ 22.6680399   0.        -23.       ]","[-0.68484731  0.          0.        ]","[-0.0749183 -0.        -0.       ]"
"341","[ 21.91035361   0.         -23.        ]","[-0.75768628  0.          0.        ]","[-0.07283897 -0.         -0.        ]"
"342","[ 21.08214095   0.         -23.        ]","[-0.82821266  0.          0.        ]","[-0.07052638 -0.         -0.        ]"
"343","[ 20.18594385   0.         -23.        ]","[-0.8961971  0.         0.       ]","[-0.06798443 -0.         -0.        ]"
"344","[ 19.22452892   0.         -23.        ]","[-0.96141494  0.          0.        ]","[-0.06521784 -0.         -0.        ]"
"345","[ 18.20088177   0.         -23.        ]","[-1.02364714  0.          0.        ]","[-0.0622322 -0.        -0.       ]"
"346","[ 17.11820057   0.         -23.        ]","[-1.0826812  0.         0.       ]","[-0.05903406 -0.         -0.        ]"
"347","[ 15.97988837   0.         -23.        ]","[-1.13831221  0.          0.        ]","[-0.055631 -0.       -0.      ]"
"348","[ 14.78954447   0.         -23.        ]","[-1.19034389  0.          0.        ]","[-0.05203169 -0.         -0.        ]"
"349","[ 13.55095468   0.         -23.        ]","[-1.23858979  0.          0.        ]","[-0.0482459 -0.        -0.       ]"
"350","[ 12.26808029   0.         -23.        ]","[-1.28287439  0.          0.        ]","[-0.04428459 -0.         -0.        ]"
"351","[ 10.94504604   0.         -23.        ]","[-1.32303425  0.          0.        ]","[-0.04015986 -0.         -0.        ]"
"352","[  9.58612685   0.         -23.        ]","[-1.35891919  0.          0.        ]","[-0.03588494 -0.         -0.        ]"
"353","[  8.1957335   0.        -23.       ]","[-1.39039336  0.          0.        ]","[-0.03147417 -0.         -0.        ]"
"354","[  6.7783972   0.        -23.       ]","[-1.4173363  0.         0.       ]","[-0.02694294 -0.         -0.        ]"
"355","[  5.33875331   0.         -23.        ]","[-1.43964389  0.          0.        ]","[-0.02230759 -0.         -0.        ]"
"356","[  3.8815241   0.        -23.       ]","[-1.45722921  0.          0.        ]","[-0.01758532 -0.         -0.        ]"
"357","[  2.41150081   0.         -23.        ]","[-1.4700233  0.         0.       ]","[-0.01279408 -0.         -0.        ]"
"358","[  0.93352511   0.         -23.        ]","[-1.4779757  0.         0.       ]","[-0.0079524 -0.        -0.       ]"
"359","[ -0.54752985   0.         -23.        ]","[-1.48105496  0.          0.        ]","[-0.00307926 -0.         -0.        ]"
"360","[ -2.02677871   0.         -23.        ]","[-1.47924886  0.          0.        ]","[0.00180609 0.         0.        ]"
"361","[ -3.49934329   0.         -23.        ]","[-1.47256458  0.          0.        ]","[0.00668428 0.         0.        ]"
"362","[ -4.96037185   0.         -23.        ]","[-1.46102857  0.          0.        ]","[0.01153601 0.         0.        ]"
"363","[ -6.40505821   0.         -23.        ]","[-1.44468636  0.          0.        ]","[0.01634221 0.         0.        ]"
"364","[ -7.82866035   0.         -23.        ]","[-1.42360215  0.          0.        ]","[0.02108421 0.         0.        ]"
"365","[ -9.2265186   0.        -23.       ]","[-1.39785824  0.          0.        ]","[0.02574391 0.         0.        ]"
"366","[-10.59407294   0.         -23.        ]","[-1.36755435  0.          0.        ]","[0.03030389 0.         0.        ]"
"367","[-11.9268797   0.        -23.       ]","[-1.33280676  0.          0.        ]","[0.03474759 0.         0.        ]"
"368","[-13.22062712   0.         -23.        ]","[-1.29374741  0.          0.        ]","[0.03905935 0.         0.        ]"
"369","[-14.47114997   0.         -23.        ]","[-1.25052286  0.          0.        ]","[0.04322456 0.         0.        ]"
"370","[-15.67444315   0.         -23.        ]","[-1.20329318  0.          0.        ]","[0.04722968 0.         0.        ]"
"371","[-16.82667401   0.         -23.        ]","[-1.15223086  0.          0.        ]","[0.05106232 0.         0.        ]"
"372","[-17.92419363   0.         -23.        ]","[-1.09751962  0.          0.        ]","[0.05471124 0.         0.        ]"
"373","[-18.96354691   0.         -23.        ]","[-1.03935328  0.          0.        ]","[0.05816634 0.         0.        ]"
"374","[-19.94148151   0.         -23.        ]","[-0.97793461  0.          0.        ]","[0.06141867 0.         0.        ]"
"375","[-20.85495574   0.         -23.        ]","[-0.91347423  0.          0.        ]","[0.06446038 0.         0.        ]"
"376","[-21.70114531   0.         -23.        ]","[-0.84618957  0.          0.        ]","[0.06728465 0.         0.        ]"
"377","[-22.47744924   0.         -23.        ]","[-0.77630393  0.          0.        ]","[0.06988565 0.         0.        ]"
"378","[-23.18149473   0.         -23.        ]","[-0.70404549  0.          0.        ]","[0.07225844 0.         0.        ]"
"379","[-23.81114131   0.         -23.        ]","[-0.62964658  0.          0.        ]","[0.07439891 0.         0.        ]"
"380","[-24.3644842   0.        -23.       ]","[-0.55334289  0.          0.        ]","[0.07630369 0.         0.        ]"
"381","[-24.83985706   0.         -23.        ]","[-0.47537286  0.          0.        ]","[0.07797003 0.         0.        ]"
"382","[-25.23583415   0.         -23.        ]","[-0.39597709  0.          0.        ]","[0.07939577 0.         0.        ]"
"383","[-25.55123201   0.         -23.        ]","[-0.31539786  0.          0.        ]","[0.08057923 0.         0.        ]"
"384","[-25.78511077   0.         -23.        ]","[-0.23387876  0.          0.        ]","[0.0815191 0.        0.       ]"
"385","[-25.93677508   0.         -23.        ]","[-0.15166431  0.          0.        ]","[0.08221446 0.         0.        ]"
"386","[-26.00577474   0.         -23.        ]","[-0.06899966  0.          0.        ]","[0.08266465 0.         0.        ]"
"387","[-25.99190513   0.         -23.        ]","[0.01386961 0.         0.        ]","[0.08286927 0.         0.        ]"
"388","[-25.89520738   0.         -23.        ]","[0.09669775 0.         0.        ]","[0.08282815 0.         0.        ]"
"389","[-25.71596831   0.         -23.        ]","[0.17923907 0.         0.        ]","[0.08254132 0.         0.        ]"
"390","[-25.45472021   0.         -23.        ]","[0.2612481 0.        0.       ]","[0.08200903 0.         0.        ]"
"391","[-25.11224036   0.         -23.        ]","[0.34247986 0.         0.        ]","[0.08123176 0.         0.        ]"
"392","[-24.68955025   0.         -23.        ]","[0.42269011 0.         0.        ]","[0.08021025 0.         0.        ]"
"393","[-24.18791458   0.         -23.        ]","[0.50163567 0.         0.        ]","[0.07894556 0.         0.        ]"
"394","[-23.60883982   0.         -23.        ]","[0.57907476 0.         0.        ]","[0.07743909 0.         0.        ]"
"395","[-22.95407238   0.         -23.        ]","[0.65476744 0.         0.        ]","[0.07569269 0.         0.        ]"
"396","[-22.22559623   0.         -23.        ]","[0.72847615 0.         0.        ]","[0.0737087 0.        0.       ]"
"397","[-21.42563001   0.         -23.        ]","[0.79996622 0.         0.        ]","[0.07149008 0.         0.        ]"
"398","[-20.55662337   0.         -23.        ]","[0.86900664 0.         0.        ]","[0.06904042 0.         0.        ]"
"399","[-19.6212526   0.        -23.       ]","[0.93537076 0.         0.        ]","[0.06636412 0.         0.        ]"
"400","[-18.62241546   0.         -23.        ]","[0.99883715 0.         0.        ]","[0.06346639 0.         0.        ]"
"401","[-17.56322493   0.         -23.        ]","[1.05919053 0.         0.        ]","[0.06035338 0.         0.        ]"
"402","[-16.44700213   0.         -23.        ]","[1.1162228 0.        0.       ]","[0.05703227 0.         0.        ]"
"403","[-15.27726808   0.         -23.        ]","[1.16973405 0.         0.        ]","[0.05351125 0.         0.        ]"
"404","[-14.05773435   0.         -23.        ]","[1.21953373 0.         0.        ]","[0.04979968 0.         0.        ]"
"405","[-12.79229262   0.         -23.        ]","[1.26544173 0.         0.        ]","[0.045908 0.       0.      ]"
"406","[-11.48500302   0.         -23.        ]","[1.3072896 0.        0.       ]","[0.04184787 0.         0.        ]"
"407","[-10.14008135   0.         -23.        ]","[1.34492167 0.         0.        ]","[0.03763206 0.         0.        ]"
"408","[ -8.76188521   0.         -23.        ]","[1.37819614 0.         0.        ]","[0.03327447 0.         0.        ]"
"409","[ -7.35489901   0.         -23.        ]","[1.4069862 0.        0.       ]","[0.02879007 0.         0.        ]"
"410","[ -5.92371798   0.         -23.        ]","[1.43118103 0.         0.        ]","[0.02419483 0.         0.        ]"
"411","[ -4.47303134   0.         -23.        ]","[1.45068664 0.         0.        ]","[0.01950561 0.         0.        ]"
"412","[ -3.00760462   0.         -23.        ]","[1.46542672 0.         0.        ]","[0.01474008 0.         0.        ]"
"413","[ -1.53226135   0.         -23.        ]","[1.47534327 0.         0.        ]","[0.00991655 0.         0.        ]"
"414","[ -0.05186426   0.         -23.        ]","[1.48039709 0.         0.        ]","[0.00505383 0.         0.        ]"
"415","[  1.42870392   0.         -23.        ]","[1.48056818 0.         0.        ]","[0.00017108 0.         0.        ]"
"416","[  2.90455976   0.         -23.        ]","[1.47585584 0.         0.        ]","[-0.00471234 -0.         -0.        ]"
"417","[  4.37083851   0.         -23.        ]","[1.46627875 0.         0.        ]","[-0.00957709 -0.         -0.        ]"
"418","[  5.82271328   0.         -23.        ]","[1.45187477 0.         0.        ]","[-0.01440398 -0.         -0.        ]"
"419","[  7.25541387   0.         -23.        ]","[1.43270059 0.         0.        ]","[-0.01917418 -0.         -0.        ]"
"420","[  8.66424514   0.         -23.        ]","[1.40883127 0.         0.        ]","[-0.02386932 -0.         -0.        ]"
"421","[ 10.0446047   0.        -23.       ]","[1.38035957 0.         0.        ]","[-0.0284717 -0.        -0.       ]"
"422","[ 11.39199987   0.         -23.        ]","[1.34739517 0.         0.        ]","[-0.0329644 -0.        -0.       ]"
"423","[ 12.70206367   0.         -23.        ]","[1.3100638 0.        0.       ]","[-0.03733137 -0.         -0.        ]"
"424","[ 13.9705699   0.        -23.       ]","[1.26850623 0.         0.        ]","[-0.04155757 -0.         -0.        ]"
"425","[ 15.19344709   0.         -23.        ]","[1.22287719 0.         0.        ]","[-0.04562904 -0.         -0.        ]"
"426","[ 16.36679139   0.         -23.        ]","[1.1733443 0.        0.       ]","[-0.04953289 -0.         -0.        ]"
"427","[ 17.48687825   0.         -23.        ]","[1.12008686 0.         0.        ]","[-0.05325744 -0.         -0.        ]"
"428","[ 18.55017299   0.         -23.        ]","[1.06329474 0.         0.        ]","[-0.05679211 -0.         -0.        ]"
"429","[ 19.55334023   0.         -23.        ]","[1.00316724 0.         0.        ]","[-0.06012751 -0.         -0.        ]"
"430","[ 20.49325214   0.         -23.        ]","[0.93991191 0.         0.        ]","[-0.06325533 -0.         -0.        ]"
"431","[ 21.3669957   0.        -23.       ]","[0.87374356 0.         0.        ]","[-0.06616835 -0.         -0.        ]"
"432","[ 22.17187892   0.         -23.        ]","[0.80488323 0.         0.        ]","[-0.06886034 -0.         -0.        ]"
"433","[ 22.90543613   0.         -23.        ]","[0.73355721 0.         0.        ]","[-0.07132601 -0.         -0.        ]"
"434","[ 23.5654324   0.        -23.       ]","[0.65999627 0.         0.        ]","[-0.07356094 -0.         -0.        ]"
"435","[ 24.1498672   0.        -23.       ]","[0.5844348 0.        0.       ]","[-0.07556146 -0.         -0.        ]"
"436","[ 24.65697742   0.         -23.        ]","[0.50711022 0.         0.        ]","[-0.07732458 -0.         -0.        ]"
"437","[ 25.08523972   0.         -23.        ]","[0.4282623 0.        0.       ]","[-0.07884792 -0.         -0.        ]"
"438","[ 25.43337242   0.         -23.        ]","[0.3481327 0.        0.       ]","[-0.0801296 -0.        -0.       ]"
"439","[ 25.70033695   0.         -23.        ]","[0.26696453 0.         0.        ]","[-0.08116817 -0.         -0.        ]"
"440","[ 25.88533891   0.         -23.        ]","[0.18500196 0.         0.        ]","[-0.08196257 -0.         -0.        ]"
"441","[ 25.98782884   0.         -23.        ]","[0.10248993 0.         0.        ]","[-0.08251203 -0.         -0.        ]"
"442","[ 26.00750271   0.         -23.        ]","[0.01967387 0.         0.        ]","[-0.08281606 -0.         -0.        ]"
"443","[ 25.9443022   0.        -23.       ]","[-0.06320052  0.          0.        ]","[-0.08287439 -0.         -0.        ]"
"444","[ 25.7984147   0.        -23.       ]","[-0.14588749  0.          0.        ]","[-0.08268697 -0.         -0.        ]"
"445","[ 25.57027324   0.         -23.        ]","[-0.22814146  0.          0.        ]","[-0.08225397 -0.         -0.        ]"
"446","[ 25.26055602   0.         -23.        ]","[-0.30971722  0.          0.        ]","[-0.08157576 -0.         -0.        ]"
"447","[ 24.87018581   0.         -23.        ]","[-0.39037021  0.          0.        ]","[-0.08065298 -0.         -0.        ]"
"448","[ 24.40032905   0.         -23.        ]","[-0.46985676  0.          0.        ]","[-0.07948655 -0.         -0.        ]"
"449","[ 23.85239456   0.         -23.        ]","[-0.54793449  0.          0.        ]","[-0.07807773 -0.         -0.        ]"
"450","[ 23.22803191   0.         -23.        ]","[-0.62436265  0.          0.        ]","[-0.07642816 -0.         -0.        ]"
"451","[ 22.52912925   0.         -23.        ]","[-0.69890265  0.          0.        ]","[-0.07454 -0.      -0.     ]"
"452","[ 21.75781067   0.         -23.        ]","[-0.77131859  0.          0.        ]","[-0.07241593 -0.         -0.        ]"
"453","[ 20.91643279   0.         -23.        ]","[-0.84137787  0.          0.        ]","[-0.07005929 -0.         -0.        ]"
"454","[ 20.0075808   0.        -23.       ]","[-0.90885199  0.          0.        ]","[-0.06747412 -0.         -0.        ]"
"455","[ 19.03406351   0.         -23.        ]","[-0.9735173  0.         0.       ]","[-0.06466531 -0.         -0.        ]"
"456","[ 17.9989076   0.        -23.       ]","[-1.03515591  0.          0.        ]","[-0.06163861 -0.         -0.        ]"
"457","[ 16.9053509   0.        -23.       ]","[-1.09355669  0.          0.        ]","[-0.05840078 -0.         -0.        ]"
"458","[ 15.75683461   0.         -23.        ]","[-1.1485163  0.         0.       ]","[-0.0549596 -0.        -0.       ]"
"459","[ 14.55699437   0.         -23.        ]","[-1.19984024  0.          0.        ]","[-0.05132394 -0.         -0.        ]"
"460","[ 13.30965031   0.         -23.        ]","[-1.24734406  0.          0.        ]","[-0.04750381 -0.         -0.        ]"
"461","[ 12.01879588   0.         -23.        ]","[-1.29085443  0.          0.        ]","[-0.04351038 -0.         -0.        ]"
"462","[ 10.68858549   0.         -23.        ]","[-1.33021039  0.          0.        ]","[-0.03935595 -0.         -0.        ]"
"463","[  9.32332111   0.         -23.        ]","[-1.36526438  0.          0.        ]","[-0.03505399 -0.         -0.        ]"
"464","[  7.92743769   0.         -23.        ]","[-1.39588342  0.          0.        ]","[-0.03061904 -0.         -0.        ]"
"465","[  6.50548761   0.         -23.        ]","[-1.42195008  0.          0.        ]","[-0.02606667 -0.         -0.        ]"
"466","[  5.06212413   0.         -23.        ]","[-1.44336347  0.          0.        ]","[-0.02141339 -0.         -0.        ]"
"467","[  3.60208409   0.         -23.        ]","[-1.46004005  0.          0.        ]","[-0.01667657 -0.         -0.        ]"
"468","[  2.13016977   0.         -23.        ]","[-1.47191432  0.          0.        ]","[-0.01187427 -0.         -0.        ]"
"469","[  0.65123034   0.         -23.        ]","[-1.47893943  0.          0.        ]","[-0.00702511 -0.         -0.        ]"
"470","[ -0.82985724   0.         -23.        ]","[-1.48108758  0.          0.        ]","[-0.00214815 -0.         -0.        ]"
"471","[ -2.30820749   0.         -23.        ]","[-1.47835025  0.          0.        ]","[0.00273733 0.         0.        ]"
"472","[ -3.77894578   0.         -23.        ]","[-1.47073829  0.          0.        ]","[0.00761196 0.         0.        ]"
"473","[ -5.2372276   0.        -23.       ]","[-1.45828182  0.          0.        ]","[0.01245647 0.         0.        ]"
"474","[ -6.67825757   0.         -23.        ]","[-1.44102997  0.          0.        ]","[0.01725185 0.         0.        ]"
"475","[ -8.097308   0.       -23.      ]","[-1.41905043  0.          0.        ]","[0.02197954 0.         0.        ]"
"476","[ -9.48973689   0.         -23.        ]","[-1.39242889  0.          0.        ]","[0.02662154 0.         0.        ]"
"477","[-10.85100518   0.         -23.        ]","[-1.36126828  0.          0.        ]","[0.03116061 0.         0.        ]"
"478","[-12.17669314   0.         -23.        ]","[-1.32568796  0.          0.        ]","[0.03558032 0.         0.        ]"
"479","[-13.46251586   0.         -23.        ]","[-1.28582272  0.          0.        ]","[0.03986524 0.         0.        ]"
"480","[-14.70433765   0.         -23.        ]","[-1.24182179  0.          0.        ]","[0.04400093 0.         0.        ]"
"481","[-15.89818535   0.         -23.        ]","[-1.1938477  0.         0.       ]","[0.04797409 0.         0.        ]"
"482","[-17.04026052   0.         -23.        ]","[-1.14207516  0.          0.        ]","[0.05177254 0.         0.        ]"
"483","[-18.12695044   0.         -23.        ]","[-1.08668992  0.          0.        ]","[0.05538524 0.         0.        ]"
"484","[-19.15483802   0.         -23.        ]","[-1.02788758  0.          0.        ]","[0.05880234 0.         0.        ]"
"485","[-20.12071051   0.         -23.        ]","[-0.96587249  0.          0.        ]","[0.06201509 0.         0.        ]"
"486","[-21.02156717   0.         -23.        ]","[-0.90085666  0.          0.        ]","[0.06501583 0.         0.        ]"
"487","[-21.85462587   0.         -23.        ]","[-0.8330587  0.         0.       ]","[0.06779796 0.         0.        ]"
"488","[-22.61732878   0.         -23.        ]","[-0.76270291  0.          0.        ]","[0.0703558 0.        0.       ]"
"489","[-23.3073471   0.        -23.       ]","[-0.69001832  0.          0.        ]","[0.07268459 0.         0.        ]"
"490","[-23.92258507   0.         -23.        ]","[-0.61523796  0.          0.        ]","[0.07478036 0.         0.        ]"
"491","[-24.46118317   0.         -23.        ]","[-0.5385981  0.         0.       ]","[0.07663987 0.         0.        ]"
"492","[-24.92152077   0.         -23.        ]","[-0.46033761  0.          0.        ]","[0.07826049 0.         0.        ]"
"493","[-25.30221823   0.         -23.        ]","[-0.38069745  0.          0.        ]","[0.07964015 0.         0.        ]"
"494","[-25.60213843   0.         -23.        ]","[-0.2999202  0.         0.       ]","[0.08077725 0.         0.        ]"
"495","[-25.82038806   0.         -23.        ]","[-0.21824963  0.          0.        ]","[0.08167057 0.         0.        ]"
"496","[-25.95631847   0.         -23.        ]","[-0.13593041  0.          0.        ]","[0.08231922 0.         0.        ]"
"497","[-26.00952627   0.         -23.        ]","[-0.0532078  0.         0.       ]","[0.08272261 0.         0.        ]"
"498","[-25.97985368   0.         -23.        ]","[0.02967259 0.         0.        ]","[0.08288039 0.         0.        ]"
"499","[-25.86738868   0.         -23.        ]","[0.112465 0.       0.      ]","[0.08279241 0.         0.        ]"
