"time","theta3d","omega3d","alpha3d"
"0","[34.93231798  0.         -4.        ]","[-0.06768202  0.          0.        ]","[-0.06768202 -0.         -0.        ]"
"1","[34.79706817  0.         -4.        ]","[-0.13524981  0.          0.        ]","[-0.06756779 -0.         -0.        ]"
"2","[34.59447912  0.         -4.        ]","[-0.20258905  0.          0.        ]","[-0.06733924 -0.         -0.        ]"
"3","[34.32489386  0.         -4.        ]","[-0.26958526  0.          0.        ]","[-0.0669962 -0.        -0.       ]"
"4","[33.98877019  0.         -4.        ]","[-0.33612368  0.          0.        ]","[-0.06653842 -0.         -0.        ]"
"5","[33.58668092  0.         -4.        ]","[-0.40208926  0.          0.        ]","[-0.06596559 -0.         -0.        ]"
"6","[33.11931431  0.         -4.        ]","[-0.46736662  0.          0.        ]","[-0.06527735 -0.         -0.        ]"
"7","[32.58747434  0.         -4.        ]","[-0.53183997  0.          0.        ]","[-0.06447335 -0.         -0.        ]"
"8","[31.99208116  0.         -4.        ]","[-0.59539319  0.          0.        ]","[-0.06355322 -0.         -0.        ]"
"9","[31.33417133  0.         -4.        ]","[-0.65790983  0.          0.        ]","[-0.06251664 -0.         -0.        ]"
"10","[30.61489812  0.         -4.        ]","[-0.7192732  0.         0.       ]","[-0.06136338 -0.         -0.        ]"
"11","[29.83553162  0.         -4.        ]","[-0.7793665  0.         0.       ]","[-0.06009329 -0.         -0.        ]"
"12","[28.99745871  0.         -4.        ]","[-0.83807292  0.          0.        ]","[-0.05870642 -0.         -0.        ]"
"13","[28.10218283  0.         -4.        ]","[-0.89527587  0.          0.        ]","[-0.05720296 -0.         -0.        ]"
"14","[27.15132359  0.         -4.        ]","[-0.95085924  0.          0.        ]","[-0.05558337 -0.         -0.        ]"
"15","[26.14661598  0.         -4.        ]","[-1.00470761  0.          0.        ]","[-0.05384837 -0.         -0.        ]"
"16","[25.08990934  0.         -4.        ]","[-1.05670663  0.          0.        ]","[-0.05199902 -0.         -0.        ]"
"17","[23.983166  0.       -4.      ]","[-1.10674335  0.          0.        ]","[-0.05003671 -0.         -0.        ]"
"18","[22.8284594  0.        -4.       ]","[-1.1547066  0.         0.       ]","[-0.04796325 -0.         -0.        ]"
"19","[21.62797194  0.         -4.        ]","[-1.20048746  0.          0.        ]","[-0.04578087 -0.         -0.        ]"
"20","[20.38399222  0.         -4.        ]","[-1.24397972  0.          0.        ]","[-0.04349225 -0.         -0.        ]"
"21","[19.0989119  0.        -4.       ]","[-1.28508032  0.          0.        ]","[-0.0411006 -0.        -0.       ]"
"22","[17.77522199  0.         -4.        ]","[-1.32368991  0.          0.        ]","[-0.03860959 -0.         -0.        ]"
"23","[16.41550863  0.         -4.        ]","[-1.35971337  0.          0.        ]","[-0.03602346 -0.         -0.        ]"
"24","[15.02244833  0.         -4.        ]","[-1.3930603  0.         0.       ]","[-0.03334693 -0.         -0.        ]"
"25","[13.59880273  0.         -4.        ]","[-1.4236456  0.         0.       ]","[-0.0305853 -0.        -0.       ]"
"26","[12.14741276  0.         -4.        ]","[-1.45138997  0.          0.        ]","[-0.02774437 -0.         -0.        ]"
"27","[10.67119233  0.         -4.        ]","[-1.47622043  0.          0.        ]","[-0.02483046 -0.         -0.        ]"
"28","[ 9.17312154  0.         -4.        ]","[-1.49807079  0.          0.        ]","[-0.02185036 -0.         -0.        ]"
"29","[ 7.65623941  0.         -4.        ]","[-1.51688212  0.          0.        ]","[-0.01881133 -0.         -0.        ]"
"30","[ 6.12363624  0.         -4.        ]","[-1.53260318  0.          0.        ]","[-0.01572105 -0.         -0.        ]"
"31","[ 4.57844549  0.         -4.        ]","[-1.54519074  0.          0.        ]","[-0.01258756 -0.         -0.        ]"
"32","[ 3.02383553  0.         -4.        ]","[-1.55460996  0.          0.        ]","[-0.00941922 -0.         -0.        ]"
"33","[ 1.4630009  0.        -4.       ]","[-1.56083463  0.          0.        ]","[-0.00622466 -0.         -0.        ]"
"34","[-0.10084643  0.         -4.        ]","[-1.56384733  0.          0.        ]","[-0.00301271 -0.         -0.        ]"
"35","[-1.66448608  0.         -4.        ]","[-1.56363964  0.          0.        ]","[0.00020769 0.         0.        ]"
"36","[-3.22469821  0.         -4.        ]","[-1.56021214  0.          0.        ]","[0.00342751 0.         0.        ]"
"37","[-4.77827262  0.         -4.        ]","[-1.55357441  0.          0.        ]","[0.00663772 0.         0.        ]"
"38","[-6.32201764  0.         -4.        ]","[-1.54374502  0.          0.        ]","[0.00982939 0.         0.        ]"
"39","[-7.85276894  0.         -4.        ]","[-1.5307513  0.         0.       ]","[0.01299372 0.         0.        ]"
"40","[-9.36739814  0.         -4.        ]","[-1.5146292  0.         0.       ]","[0.0161221 0.        0.       ]"
"41","[-10.86282111   0.          -4.        ]","[-1.49542298  0.          0.        ]","[0.01920622 0.         0.        ]"
"42","[-12.33600602   0.          -4.        ]","[-1.47318491  0.          0.        ]","[0.02223807 0.         0.        ]"
"43","[-13.7839809   0.         -4.       ]","[-1.44797488  0.          0.        ]","[0.02521003 0.         0.        ]"
"44","[-15.20384086   0.          -4.        ]","[-1.41985997  0.          0.        ]","[0.02811491 0.         0.        ]"
"45","[-16.59275487   0.          -4.        ]","[-1.38891401  0.          0.        ]","[0.03094596 0.         0.        ]"
"46","[-17.94797196   0.          -4.        ]","[-1.35521708  0.          0.        ]","[0.03369693 0.         0.        ]"
"47","[-19.26682696   0.          -4.        ]","[-1.318855  0.        0.      ]","[0.03636208 0.         0.        ]"
"48","[-20.54674575   0.          -4.        ]","[-1.27991879  0.          0.        ]","[0.03893621 0.         0.        ]"
"49","[-21.7852499   0.         -4.       ]","[-1.23850415  0.          0.        ]","[0.04141463 0.         0.        ]"
"50","[-22.97996086   0.          -4.        ]","[-1.19471096  0.          0.        ]","[0.0437932 0.        0.       ]"
"51","[-24.12860353   0.          -4.        ]","[-1.14864268  0.          0.        ]","[0.04606828 0.         0.        ]"
"52","[-25.22900945   0.          -4.        ]","[-1.10040591  0.          0.        ]","[0.04823676 0.         0.        ]"
"53","[-26.27911935   0.          -4.        ]","[-1.05010991  0.          0.        ]","[0.05029601 0.         0.        ]"
"54","[-27.27698541   0.          -4.        ]","[-0.99786606  0.          0.        ]","[0.05224385 0.         0.        ]"
"55","[-28.22077295   0.          -4.        ]","[-0.94378754  0.          0.        ]","[0.05407852 0.         0.        ]"
"56","[-29.1087618   0.         -4.       ]","[-0.88798885  0.          0.        ]","[0.05579869 0.         0.        ]"
"57","[-29.9393473   0.         -4.       ]","[-0.8305855  0.         0.       ]","[0.05740334 0.         0.        ]"
"58","[-30.71104102   0.          -4.        ]","[-0.77169372  0.          0.        ]","[0.05889179 0.         0.        ]"
"59","[-31.42247112   0.          -4.        ]","[-0.7114301  0.         0.       ]","[0.06026362 0.         0.        ]"
"60","[-32.07238259   0.          -4.        ]","[-0.64991147  0.          0.        ]","[0.06151863 0.         0.        ]"
"61","[-32.65963721   0.          -4.        ]","[-0.58725463  0.          0.        ]","[0.06265684 0.         0.        ]"
"62","[-33.18321345   0.          -4.        ]","[-0.52357624  0.          0.        ]","[0.06367839 0.         0.        ]"
"63","[-33.64220615   0.          -4.        ]","[-0.45899271  0.          0.        ]","[0.06458353 0.         0.        ]"
"64","[-34.03582627   0.          -4.        ]","[-0.39362012  0.          0.        ]","[0.06537259 0.         0.        ]"
"65","[-34.36340047   0.          -4.        ]","[-0.3275742  0.         0.       ]","[0.06604592 0.         0.        ]"
"66","[-34.62437078   0.          -4.        ]","[-0.2609703  0.         0.       ]","[0.0666039 0.        0.       ]"
"67","[-34.81829421   0.          -4.        ]","[-0.19392343  0.          0.        ]","[0.06704687 0.         0.        ]"
"68","[-34.94484251   0.          -4.        ]","[-0.1265483  0.         0.       ]","[0.06737514 0.         0.        ]"
"69","[-35.00380187   0.          -4.        ]","[-0.05895936  0.          0.        ]","[0.06758894 0.         0.        ]"
"70","[-34.9950728   0.         -4.       ]","[0.00872907 0.         0.        ]","[0.06768843 0.         0.        ]"
"71","[-34.91867002   0.          -4.        ]","[0.07640278 0.         0.        ]","[0.06767371 0.         0.        ]"
"72","[-34.77472249   0.          -4.        ]","[0.14394752 0.         0.        ]","[0.06754474 0.         0.        ]"
"73","[-34.56347352   0.          -4.        ]","[0.21124897 0.         0.        ]","[0.06730145 0.         0.        ]"
"74","[-34.28528092   0.          -4.        ]","[0.2781926 0.        0.       ]","[0.06694363 0.         0.        ]"
"75","[-33.9406173   0.         -4.       ]","[0.34466363 0.         0.        ]","[0.06647103 0.         0.        ]"
"76","[-33.53007033   0.          -4.        ]","[0.41054696 0.         0.        ]","[0.06588334 0.         0.        ]"
"77","[-33.05434317   0.          -4.        ]","[0.47572716 0.         0.        ]","[0.0651802 0.        0.       ]"
"78","[-32.51425477   0.          -4.        ]","[0.5400884 0.        0.       ]","[0.06436124 0.         0.        ]"
"79","[-31.91074025   0.          -4.        ]","[0.60351451 0.         0.        ]","[0.06342611 0.         0.        ]"
"80","[-31.24485124   0.          -4.        ]","[0.66588902 0.         0.        ]","[0.0623745 0.        0.       ]"
"81","[-30.51775605   0.          -4.        ]","[0.72709519 0.         0.        ]","[0.06120618 0.         0.        ]"
"82","[-29.73073982   0.          -4.        ]","[0.78701623 0.         0.        ]","[0.05992103 0.         0.        ]"
"83","[-28.88520449   0.          -4.        ]","[0.84553533 0.         0.        ]","[0.05851911 0.         0.        ]"
"84","[-27.98266851   0.          -4.        ]","[0.90253598 0.         0.        ]","[0.05700064 0.         0.        ]"
"85","[-27.02476641   0.          -4.        ]","[0.9579021 0.        0.       ]","[0.05536613 0.         0.        ]"
"86","[-26.01324799   0.          -4.        ]","[1.01151842 0.         0.        ]","[0.05361632 0.         0.        ]"
"87","[-24.94997725   0.          -4.        ]","[1.06327074 0.         0.        ]","[0.05175232 0.         0.        ]"
"88","[-23.83693094   0.          -4.        ]","[1.11304631 0.         0.        ]","[0.04977557 0.         0.        ]"
"89","[-22.67619671   0.          -4.        ]","[1.16073423 0.         0.        ]","[0.04768793 0.         0.        ]"
"90","[-21.4699708   0.         -4.       ]","[1.20622592 0.         0.        ]","[0.04549168 0.         0.        ]"
"91","[-20.22055528   0.          -4.        ]","[1.24941551 0.         0.        ]","[0.0431896 0.        0.       ]"
"92","[-18.93035486   0.          -4.        ]","[1.29020043 0.         0.        ]","[0.04078491 0.         0.        ]"
"93","[-17.60187303   0.          -4.        ]","[1.32848182 0.         0.        ]","[0.03828139 0.         0.        ]"
"94","[-16.23770789   0.          -4.        ]","[1.36416515 0.         0.        ]","[0.03568332 0.         0.        ]"
"95","[-14.84054722   0.          -4.        ]","[1.39716066 0.         0.        ]","[0.03299552 0.         0.        ]"
"96","[-13.41316323   0.          -4.        ]","[1.42738399 0.         0.        ]","[0.03022333 0.         0.        ]"
"97","[-11.95840661   0.          -4.        ]","[1.45475662 0.         0.        ]","[0.02737262 0.         0.        ]"
"98","[-10.47920021   0.          -4.        ]","[1.4792064 0.        0.       ]","[0.02444978 0.         0.        ]"
"99","[-8.97853214  0.         -4.        ]","[1.50066807 0.         0.        ]","[0.02146167 0.         0.        ]"
"100","[-7.45944847  0.         -4.        ]","[1.51908367 0.         0.        ]","[0.0184156 0.        0.       ]"
"101","[-5.92504552  0.         -4.        ]","[1.53440295 0.         0.        ]","[0.01531929 0.         0.        ]"
"102","[-4.37846174  0.         -4.        ]","[1.54658378 0.         0.        ]","[0.01218083 0.         0.        ]"
"103","[-2.82286934  0.         -4.        ]","[1.5555924 0.        0.       ]","[0.00900862 0.         0.        ]"
"104","[-1.26146563  0.         -4.        ]","[1.56140371 0.         0.        ]","[0.00581132 0.         0.        ]"
"105","[ 0.30253585  0.         -4.        ]","[1.56400148 0.         0.        ]","[0.00259776 0.         0.        ]"
"106","[ 1.86591426  0.         -4.        ]","[1.56337841 0.         0.        ]","[-0.00062307 -0.         -0.        ]"
"107","[ 3.42545052  0.         -4.        ]","[1.55953626 0.         0.        ]","[-0.00384215 -0.         -0.        ]"
"108","[ 4.97793631  0.         -4.        ]","[1.55248579 0.         0.        ]","[-0.00705047 -0.         -0.        ]"
"109","[ 6.52018298  0.         -4.        ]","[1.54224668 0.         0.        ]","[-0.01023911 -0.         -0.        ]"
"110","[ 8.04903038  0.         -4.        ]","[1.5288474 0.        0.       ]","[-0.01339928 -0.         -0.        ]"
"111","[ 9.56135537  0.         -4.        ]","[1.51232498 0.         0.        ]","[-0.01652241 -0.         -0.        ]"
"112","[11.05408012  0.         -4.        ]","[1.49272475 0.         0.        ]","[-0.01960023 -0.         -0.        ]"
"113","[12.52418009  0.         -4.        ]","[1.47009997 0.         0.        ]","[-0.02262478 -0.         -0.        ]"
"114","[13.96869156  0.         -4.        ]","[1.44451148 0.         0.        ]","[-0.02558849 -0.         -0.        ]"
"115","[15.38471883  0.         -4.        ]","[1.41602726 0.         0.        ]","[-0.02848422 -0.         -0.        ]"
"116","[16.76944081  0.         -4.        ]","[1.38472198 0.         0.        ]","[-0.03130528 -0.         -0.        ]"
"117","[18.12011729  0.         -4.        ]","[1.35067649 0.         0.        ]","[-0.0340455 -0.        -0.       ]"
"118","[19.43409458  0.         -4.        ]","[1.31397729 0.         0.        ]","[-0.0366992 -0.        -0.       ]"
"119","[20.70881063  0.         -4.        ]","[1.27471605 0.         0.        ]","[-0.03926124 -0.         -0.        ]"
"120","[21.94179968  0.         -4.        ]","[1.23298905 0.         0.        ]","[-0.04172701 -0.         -0.        ]"
"121","[23.13069631  0.         -4.        ]","[1.18889663 0.         0.        ]","[-0.04409242 -0.         -0.        ]"
"122","[24.27323901  0.         -4.        ]","[1.1425427 0.        0.       ]","[-0.04635392 -0.         -0.        ]"
"123","[25.36727325  0.         -4.        ]","[1.09403424 0.         0.        ]","[-0.04850846 -0.         -0.        ]"
"124","[26.41075405  0.         -4.        ]","[1.04348079 0.         0.        ]","[-0.05055345 -0.         -0.        ]"
"125","[27.40174805  0.         -4.        ]","[0.990994 0.       0.      ]","[-0.05248679 -0.         -0.        ]"
"126","[28.33843528  0.         -4.        ]","[0.93668723 0.         0.        ]","[-0.05430677 -0.         -0.        ]"
"127","[29.21911042  0.         -4.        ]","[0.88067514 0.         0.        ]","[-0.05601209 -0.         -0.        ]"
"128","[30.04218377  0.         -4.        ]","[0.82307335 0.         0.        ]","[-0.05760179 -0.         -0.        ]"
"129","[30.8061819  0.        -4.       ]","[0.76399813 0.         0.        ]","[-0.05907522 -0.         -0.        ]"
"130","[31.50974803  0.         -4.        ]","[0.70356613 0.         0.        ]","[-0.06043199 -0.         -0.        ]"
"131","[32.15164222  0.         -4.        ]","[0.64189419 0.         0.        ]","[-0.06167195 -0.         -0.        ]"
"132","[32.7307413  0.        -4.       ]","[0.57909908 0.         0.        ]","[-0.0627951 -0.        -0.       ]"
"133","[33.24603876  0.         -4.        ]","[0.51529746 0.         0.        ]","[-0.06380163 -0.         -0.        ]"
"134","[33.69664443  0.         -4.        ]","[0.45060568 0.         0.        ]","[-0.06469178 -0.         -0.        ]"
"135","[34.08178422  0.         -4.        ]","[0.38513978 0.         0.        ]","[-0.06546589 -0.         -0.        ]"
"136","[34.40079967  0.         -4.        ]","[0.31901545 0.         0.        ]","[-0.06612433 -0.         -0.        ]"
"137","[34.65314766  0.         -4.        ]","[0.25234799 0.         0.        ]","[-0.06666747 -0.         -0.        ]"
"138","[34.83840001  0.         -4.        ]","[0.18525236 0.         0.        ]","[-0.06709563 -0.         -0.        ]"
"139","[34.95624324  0.         -4.        ]","[0.11784323 0.         0.        ]","[-0.06740913 -0.         -0.        ]"
"140","[35.00647829  0.         -4.        ]","[0.05023505 0.         0.        ]","[-0.06760818 -0.         -0.        ]"
"141","[34.98902039  0.         -4.        ]","[-0.0174579  0.         0.       ]","[-0.06769295 -0.         -0.        ]"
"142","[34.903899  0.       -4.      ]","[-0.08512139  0.          0.        ]","[-0.0676635 -0.        -0.       ]"
"143","[34.7512578  0.        -4.       ]","[-0.15264119  0.          0.        ]","[-0.0675198 -0.        -0.       ]"
"144","[34.53135486  0.         -4.        ]","[-0.21990294  0.          0.        ]","[-0.06726175 -0.         -0.        ]"
"145","[34.24456278  0.         -4.        ]","[-0.28679208  0.          0.        ]","[-0.06688914 -0.         -0.        ]"
"146","[33.89136897  0.         -4.        ]","[-0.35319381  0.          0.        ]","[-0.06640173 -0.         -0.        ]"
"147","[33.47237599  0.         -4.        ]","[-0.41899298  0.          0.        ]","[-0.06579917 -0.         -0.        ]"
"148","[32.9883019  0.        -4.       ]","[-0.48407409  0.          0.        ]","[-0.06508112 -0.         -0.        ]"
"149","[32.43998061  0.         -4.        ]","[-0.54832129  0.          0.        ]","[-0.0642472 -0.        -0.       ]"
"150","[31.82836225  0.         -4.        ]","[-0.61161836  0.          0.        ]","[-0.06329707 -0.         -0.        ]"
"151","[31.15451347  0.         -4.        ]","[-0.67384878  0.          0.        ]","[-0.06223042 -0.         -0.        ]"
"152","[30.41961765  0.         -4.        ]","[-0.73489582  0.          0.        ]","[-0.06104704 -0.         -0.        ]"
"153","[29.624975  0.       -4.      ]","[-0.79464265  0.          0.        ]","[-0.05974683 -0.         -0.        ]"
"154","[28.7720025  0.        -4.       ]","[-0.8529725  0.         0.       ]","[-0.05832986 -0.         -0.        ]"
"155","[27.8622336  0.        -4.       ]","[-0.9097689  0.         0.       ]","[-0.0567964 -0.        -0.       ]"
"156","[26.89731773  0.         -4.        ]","[-0.96491587  0.          0.        ]","[-0.05514697 -0.         -0.        ]"
"157","[25.87901949  0.         -4.        ]","[-1.01829824  0.          0.        ]","[-0.05338237 -0.         -0.        ]"
"158","[24.80921751  0.         -4.        ]","[-1.06980198  0.          0.        ]","[-0.05150374 -0.         -0.        ]"
"159","[23.68990295  0.         -4.        ]","[-1.11931456  0.          0.        ]","[-0.04951258 -0.         -0.        ]"
"160","[22.5231776  0.        -4.       ]","[-1.16672535  0.          0.        ]","[-0.0474108 -0.        -0.       ]"
"161","[21.31125151  0.         -4.        ]","[-1.21192609  0.          0.        ]","[-0.04520074 -0.         -0.        ]"
"162","[20.05644018  0.         -4.        ]","[-1.25481133  0.          0.        ]","[-0.04288523 -0.         -0.        ]"
"163","[18.76116127  0.         -4.        ]","[-1.29527891  0.          0.        ]","[-0.04046759 -0.         -0.        ]"
"164","[17.42793073  0.         -4.        ]","[-1.33323054  0.          0.        ]","[-0.03795162 -0.         -0.        ]"
"165","[16.0593585  0.        -4.       ]","[-1.36857224  0.          0.        ]","[-0.0353417 -0.        -0.       ]"
"166","[14.65814356  0.         -4.        ]","[-1.40121494  0.          0.        ]","[-0.0326427 -0.        -0.       ]"
"167","[13.22706857  0.         -4.        ]","[-1.43107499  0.          0.        ]","[-0.02986005 -0.         -0.        ]"
"168","[11.76899391  0.         -4.        ]","[-1.45807466  0.          0.        ]","[-0.02699967 -0.         -0.        ]"
"169","[10.28685123  0.         -4.        ]","[-1.48214268  0.          0.        ]","[-0.02406802 -0.         -0.        ]"
"170","[ 8.78363653  0.         -4.        ]","[-1.5032147  0.         0.       ]","[-0.02107202 -0.         -0.        ]"
"171","[ 7.2624028  0.        -4.       ]","[-1.52123373  0.          0.        ]","[-0.01801902 -0.         -0.        ]"
"172","[ 5.72625226  0.         -4.        ]","[-1.53615054  0.          0.        ]","[-0.01491682 -0.         -0.        ]"
"173","[ 4.17832819  0.         -4.        ]","[-1.54792407  0.          0.        ]","[-0.01177353 -0.         -0.        ]"
"174","[ 2.62180652  0.         -4.        ]","[-1.55652166  0.          0.        ]","[-0.00859759 -0.         -0.        ]"
"175","[ 1.05988716  0.         -4.        ]","[-1.56191936  0.          0.        ]","[-0.0053977 -0.        -0.       ]"
"176","[-0.5042149  0.        -4.       ]","[-1.56410206  0.          0.        ]","[-0.0021827 -0.        -0.       ]"
"177","[-2.06727855  0.         -4.        ]","[-1.56306365  0.          0.        ]","[0.00103841 0.         0.        ]"
"178","[-3.62608559  0.         -4.        ]","[-1.55880704  0.          0.        ]","[0.00425661 0.         0.        ]"
"179","[-5.17742973  0.         -4.        ]","[-1.55134414  0.          0.        ]","[0.0074629 0.        0.       ]"
"180","[-6.71812552  0.         -4.        ]","[-1.54069579  0.          0.        ]","[0.01064835 0.         0.        ]"
"181","[-8.24501709  0.         -4.        ]","[-1.52689157  0.          0.        ]","[0.01380422 0.         0.        ]"
"182","[-9.75498668  0.         -4.        ]","[-1.50996959  0.          0.        ]","[0.01692197 0.         0.        ]"
"183","[-11.24496291   0.          -4.        ]","[-1.48997623  0.          0.        ]","[0.01999336 0.         0.        ]"
"184","[-12.71192866   0.          -4.        ]","[-1.46696575  0.          0.        ]","[0.02301048 0.         0.        ]"
"185","[-14.15292859   0.          -4.        ]","[-1.44099993  0.          0.        ]","[0.02596582 0.         0.        ]"
"186","[-15.56507624   0.          -4.        ]","[-1.41214765  0.          0.        ]","[0.02885228 0.         0.        ]"
"187","[-16.94556064   0.          -4.        ]","[-1.38048439  0.          0.        ]","[0.03166326 0.         0.        ]"
"188","[-18.2916524   0.         -4.       ]","[-1.34609177  0.          0.        ]","[0.03439263 0.         0.        ]"
"189","[-19.60070938   0.          -4.        ]","[-1.30905698  0.          0.        ]","[0.03703479 0.         0.        ]"
"190","[-20.8701817   0.         -4.       ]","[-1.26947232  0.          0.        ]","[0.03958466 0.         0.        ]"
"191","[-22.0976163   0.         -4.       ]","[-1.22743461  0.          0.        ]","[0.04203771 0.         0.        ]"
"192","[-23.280661   0.        -4.      ]","[-1.18304469  0.          0.        ]","[0.04438991 0.         0.        ]"
"193","[-24.4170679   0.         -4.       ]","[-1.13640691  0.          0.        ]","[0.04663779 0.         0.        ]"
"194","[-25.50469648   0.          -4.        ]","[-1.08762858  0.          0.        ]","[0.04877833 0.         0.        ]"
"195","[-26.54151602   0.          -4.        ]","[-1.03681954  0.          0.        ]","[0.05080904 0.         0.        ]"
"196","[-27.52560771   0.          -4.        ]","[-0.98409169  0.          0.        ]","[0.05272785 0.         0.        ]"
"197","[-28.45516628   0.          -4.        ]","[-0.92955858  0.          0.        ]","[0.05453311 0.         0.        ]"
"198","[-29.32850129   0.          -4.        ]","[-0.87333501  0.          0.        ]","[0.05622357 0.         0.        ]"
"199","[-30.14403799   0.          -4.        ]","[-0.8155367  0.         0.       ]","[0.05779831 0.         0.        ]"
"200","[-30.90031797   0.          -4.        ]","[-0.75627998  0.          0.        ]","[0.05925672 0.         0.        ]"
"201","[-31.59599952   0.          -4.        ]","[-0.69568155  0.          0.        ]","[0.06059843 0.         0.        ]"
"202","[-32.22985775   0.          -4.        ]","[-0.63385823  0.          0.        ]","[0.06182332 0.         0.        ]"
"203","[-32.80078456   0.          -4.        ]","[-0.57092681  0.          0.        ]","[0.06293143 0.         0.        ]"
"204","[-33.30778844   0.          -4.        ]","[-0.50700388  0.          0.        ]","[0.06392293 0.         0.        ]"
"205","[-33.74999422   0.          -4.        ]","[-0.44220578  0.          0.        ]","[0.0647981 0.        0.       ]"
"206","[-34.12664272   0.          -4.        ]","[-0.3766485  0.         0.       ]","[0.06555728 0.         0.        ]"
"207","[-34.4370904   0.         -4.       ]","[-0.31044767  0.          0.        ]","[0.06620083 0.         0.        ]"
"208","[-34.68080895   0.          -4.        ]","[-0.24371855  0.          0.        ]","[0.06672912 0.         0.        ]"
"209","[-34.85738502   0.          -4.        ]","[-0.17657607  0.          0.        ]","[0.06714249 0.         0.        ]"
"210","[-34.96651987   0.          -4.        ]","[-0.10913485  0.          0.        ]","[0.06744121 0.         0.        ]"
"211","[-35.0080292   0.         -4.       ]","[-0.04150933  0.          0.        ]","[0.06762553 0.         0.        ]"
"212","[-34.98184296   0.          -4.        ]","[0.02618624 0.         0.        ]","[0.06769556 0.         0.        ]"
"213","[-34.88800534   0.          -4.        ]","[0.09383762 0.         0.        ]","[0.06765138 0.         0.        ]"
"214","[-34.72667476   0.          -4.        ]","[0.16133057 0.         0.        ]","[0.06749295 0.         0.        ]"
"215","[-34.49812405   0.          -4.        ]","[0.22855072 0.         0.        ]","[0.06722014 0.         0.        ]"
"216","[-34.20274058   0.          -4.        ]","[0.29538347 0.         0.        ]","[0.06683275 0.         0.        ]"
"217","[-33.84102661   0.          -4.        ]","[0.36171397 0.         0.        ]","[0.06633051 0.         0.        ]"
"218","[-33.41359955   0.          -4.        ]","[0.42742705 0.         0.        ]","[0.06571308 0.         0.        ]"
"219","[-32.92119239   0.          -4.        ]","[0.49240716 0.         0.        ]","[0.06498011 0.         0.        ]"
"220","[-32.36465401   0.          -4.        ]","[0.55653839 0.         0.        ]","[0.06413123 0.         0.        ]"
"221","[-31.74494953   0.          -4.        ]","[0.61970447 0.         0.        ]","[0.06316609 0.         0.        ]"
"222","[-31.06316066   0.          -4.        ]","[0.68178887 0.         0.        ]","[0.0620844 0.        0.       ]"
"223","[-30.32048583   0.          -4.        ]","[0.74267483 0.         0.        ]","[0.06088596 0.         0.        ]"
"224","[-29.51824032   0.          -4.        ]","[0.80224551 0.         0.        ]","[0.05957068 0.         0.        ]"
"225","[-28.65785614   0.          -4.        ]","[0.86038418 0.         0.        ]","[0.05813867 0.         0.        ]"
"226","[-27.74088173   0.          -4.        ]","[0.91697441 0.         0.        ]","[0.05659023 0.         0.        ]"
"227","[-26.76898143   0.          -4.        ]","[0.9719003 0.        0.       ]","[0.05492589 0.         0.        ]"
"228","[-25.74393461   0.          -4.        ]","[1.02504682 0.         0.        ]","[0.05314652 0.         0.        ]"
"229","[-24.66763449   0.          -4.        ]","[1.07630011 0.         0.        ]","[0.05125329 0.         0.        ]"
"230","[-23.54208663   0.          -4.        ]","[1.12554786 0.         0.        ]","[0.04924775 0.         0.        ]"
"231","[-22.36940691   0.          -4.        ]","[1.17267973 0.         0.        ]","[0.04713187 0.         0.        ]"
"232","[-21.15181913   0.          -4.        ]","[1.21758777 0.         0.        ]","[0.04490805 0.         0.        ]"
"233","[-19.89165219   0.          -4.        ]","[1.26016694 0.         0.        ]","[0.04257917 0.         0.        ]"
"234","[-18.59133662   0.          -4.        ]","[1.30031557 0.         0.        ]","[0.04014862 0.         0.        ]"
"235","[-17.25340077   0.          -4.        ]","[1.33793585 0.         0.        ]","[0.03762029 0.         0.        ]"
"236","[-15.88046632   0.          -4.        ]","[1.37293445 0.         0.        ]","[0.03499859 0.         0.        ]"
"237","[-14.47524338   0.          -4.        ]","[1.40522294 0.         0.        ]","[0.0322885 0.        0.       ]"
"238","[-13.04052496   0.          -4.        ]","[1.43471842 0.         0.        ]","[0.02949548 0.         0.        ]"
"239","[-11.579181   0.        -4.      ]","[1.46134396 0.         0.        ]","[0.02662554 0.         0.        ]"
"240","[-10.09415185   0.          -4.        ]","[1.48502915 0.         0.        ]","[0.02368519 0.         0.        ]"
"241","[-8.58844129  0.         -4.        ]","[1.50571057 0.         0.        ]","[0.02068142 0.         0.        ]"
"242","[-7.06510909  0.         -4.        ]","[1.5233322 0.        0.       ]","[0.01762163 0.         0.        ]"
"243","[-5.52726322  0.         -4.        ]","[1.53784586 0.         0.        ]","[0.01451367 0.         0.        ]"
"244","[-3.97805167  0.         -4.        ]","[1.54921155 0.         0.        ]","[0.01136569 0.         0.        ]"
"245","[-2.42065395  0.         -4.        ]","[1.55739772 0.         0.        ]","[0.00818617 0.         0.        ]"
"246","[-0.8582724  0.        -4.       ]","[1.56238155 0.         0.        ]","[0.00498383 0.         0.        ]"
"247","[ 0.70587669  0.         -4.        ]","[1.56414909 0.         0.        ]","[0.00176754 0.         0.        ]"
"248","[ 2.26857206  0.         -4.        ]","[1.56269538 0.         0.        ]","[-0.00145371 -0.         -0.        ]"
"249","[ 3.82659656  0.         -4.        ]","[1.5580245 0.        0.       ]","[-0.00467088 -0.         -0.        ]"
"250","[ 5.37674609  0.         -4.        ]","[1.55014953 0.         0.        ]","[-0.00787497 -0.         -0.        ]"
"251","[ 6.91583851  0.         -4.        ]","[1.53909242 0.         0.        ]","[-0.0110571 -0.        -0.       ]"
"252","[ 8.44072241  0.         -4.        ]","[1.52488389 0.         0.        ]","[-0.01420853 -0.         -0.        ]"
"253","[ 9.94828554  0.         -4.        ]","[1.50756313 0.         0.        ]","[-0.01732076 -0.         -0.        ]"
"254","[11.43546309  0.         -4.        ]","[1.48717754 0.         0.        ]","[-0.02038559 -0.         -0.        ]"
"255","[12.89924547  0.         -4.        ]","[1.46378239 0.         0.        ]","[-0.02339516 -0.         -0.        ]"
"256","[14.33668586  0.         -4.        ]","[1.43744039 0.         0.        ]","[-0.026342 -0.       -0.      ]"
"257","[15.74490716  0.         -4.        ]","[1.4082213 0.        0.       ]","[-0.02921909 -0.         -0.        ]"
"258","[17.12110858  0.         -4.        ]","[1.37620142 0.         0.        ]","[-0.03201988 -0.         -0.        ]"
"259","[18.46257169  0.         -4.        ]","[1.34146311 0.         0.        ]","[-0.03473831 -0.         -0.        ]"
"260","[19.76666597  0.         -4.        ]","[1.30409427 0.         0.        ]","[-0.03736884 -0.         -0.        ]"
"261","[21.03085376  0.         -4.        ]","[1.2641878 0.        0.       ]","[-0.03990648 -0.         -0.        ]"
"262","[22.25269482  0.         -4.        ]","[1.22184106 0.         0.        ]","[-0.04234673 -0.         -0.        ]"
"263","[23.42985021  0.         -4.        ]","[1.17715539 0.         0.        ]","[-0.04468567 -0.         -0.        ]"
"264","[24.56008573  0.         -4.        ]","[1.13023552 0.         0.        ]","[-0.04691986 -0.         -0.        ]"
"265","[25.64127488  0.         -4.        ]","[1.08118914 0.         0.        ]","[-0.04904638 -0.         -0.        ]"
"266","[26.67140126  0.         -4.        ]","[1.03012638 0.         0.        ]","[-0.05106277 -0.         -0.        ]"
"267","[27.64856062  0.         -4.        ]","[0.97715936 0.         0.        ]","[-0.05296702 -0.         -0.        ]"
"268","[28.57096244  0.         -4.        ]","[0.92240182 0.         0.        ]","[-0.05475754 -0.         -0.        ]"
"269","[29.43693113  0.         -4.        ]","[0.86596869 0.         0.        ]","[-0.05643313 -0.         -0.        ]"
"270","[30.24490693  0.         -4.        ]","[0.8079758 0.        0.       ]","[-0.05799289 -0.         -0.        ]"
"271","[30.99344646  0.         -4.        ]","[0.74853953 0.         0.        ]","[-0.05943627 -0.         -0.        ]"
"272","[31.68122307  0.         -4.        ]","[0.68777661 0.         0.        ]","[-0.06076292 -0.         -0.        ]"
"273","[32.30702692  0.         -4.        ]","[0.62580386 0.         0.        ]","[-0.06197275 -0.         -0.        ]"
"274","[32.86976497  0.         -4.        ]","[0.56273805 0.         0.        ]","[-0.06306581 -0.         -0.        ]"
"275","[33.36846072  0.         -4.        ]","[0.49869575 0.         0.        ]","[-0.06404229 -0.         -0.        ]"
"276","[33.80225399  0.         -4.        ]","[0.43379326 0.         0.        ]","[-0.06490249 -0.         -0.        ]"
"277","[34.17040051  0.         -4.        ]","[0.36814652 0.         0.        ]","[-0.06564674 -0.         -0.        ]"
"278","[34.47227162  0.         -4.        ]","[0.30187111 0.         0.        ]","[-0.06627541 -0.         -0.        ]"
"279","[34.70735387  0.         -4.        ]","[0.23508225 0.         0.        ]","[-0.06678887 -0.         -0.        ]"
"280","[34.87524868  0.         -4.        ]","[0.16789481 0.         0.        ]","[-0.06718743 -0.         -0.        ]"
"281","[34.9756721  0.        -4.       ]","[0.10042341 0.         0.        ]","[-0.0674714 -0.        -0.       ]"
"282","[35.00845454  0.         -4.        ]","[0.03278244 0.         0.        ]","[-0.06764097 -0.         -0.        ]"
"283","[34.9735407  0.        -4.       ]","[-0.03491384  0.          0.        ]","[-0.06769628 -0.         -0.        ]"
"284","[34.87098948  0.         -4.        ]","[-0.10255121  0.          0.        ]","[-0.06763737 -0.         -0.        ]"
"285","[34.70097406  0.         -4.        ]","[-0.17001542  0.          0.        ]","[-0.0674642 -0.        -0.       ]"
"286","[34.46378201  0.         -4.        ]","[-0.23719205  0.          0.        ]","[-0.06717663 -0.         -0.        ]"
"287","[34.15981551  0.         -4.        ]","[-0.3039665  0.         0.       ]","[-0.06677445 -0.         -0.        ]"
"288","[33.78959164  0.         -4.        ]","[-0.37022388  0.          0.        ]","[-0.06625737 -0.         -0.        ]"
"289","[33.35374269  0.         -4.        ]","[-0.43584894  0.          0.        ]","[-0.06562507 -0.         -0.        ]"
"290","[32.85301658  0.         -4.        ]","[-0.50072612  0.          0.        ]","[-0.06487717 -0.         -0.        ]"
"291","[32.28827714  0.         -4.        ]","[-0.56473944  0.          0.        ]","[-0.06401332 -0.         -0.        ]"
"292","[31.66050453  0.         -4.        ]","[-0.62777261  0.          0.        ]","[-0.06303317 -0.         -0.        ]"
"293","[30.97079549  0.         -4.        ]","[-0.68970904  0.          0.        ]","[-0.06193643 -0.         -0.        ]"
"294","[30.22036352  0.         -4.        ]","[-0.75043197  0.          0.        ]","[-0.06072293 -0.         -0.        ]"
"295","[29.41053896  0.         -4.        ]","[-0.80982457  0.          0.        ]","[-0.0593926 -0.        -0.       ]"
"296","[28.54276884  0.         -4.        ]","[-0.86777012  0.          0.        ]","[-0.05794555 -0.         -0.        ]"
"297","[27.61861659  0.         -4.        ]","[-0.92415224  0.          0.        ]","[-0.05638213 -0.         -0.        ]"
"298","[26.63976144  0.         -4.        ]","[-0.97885515  0.          0.        ]","[-0.05470291 -0.         -0.        ]"
"299","[25.60799751  0.         -4.        ]","[-1.03176393  0.          0.        ]","[-0.05290878 -0.         -0.        ]"
"300","[24.52523261  0.         -4.        ]","[-1.0827649  0.         0.       ]","[-0.05100097 -0.         -0.        ]"
"301","[23.39348662  0.         -4.        ]","[-1.13174599  0.          0.        ]","[-0.04898109 -0.         -0.        ]"
"302","[22.21488949  0.         -4.        ]","[-1.17859713  0.          0.        ]","[-0.04685114 -0.         -0.        ]"
"303","[20.99167876  0.         -4.        ]","[-1.22321073  0.          0.        ]","[-0.0446136 -0.        -0.       ]"
"304","[19.72619661  0.         -4.        ]","[-1.26548215  0.          0.        ]","[-0.04227142 -0.         -0.        ]"
"305","[18.42088643  0.         -4.        ]","[-1.30531018  0.          0.        ]","[-0.03982803 -0.         -0.        ]"
"306","[17.07828885  0.         -4.        ]","[-1.34259758  0.          0.        ]","[-0.0372874 -0.        -0.       ]"
"307","[15.70103726  0.         -4.        ]","[-1.3772516  0.         0.       ]","[-0.03465402 -0.         -0.        ]"
"308","[14.29185275  0.         -4.        ]","[-1.40918451  0.          0.        ]","[-0.03193291 -0.         -0.        ]"
"309","[12.85353862  0.         -4.        ]","[-1.43831413  0.          0.        ]","[-0.02912962 -0.         -0.        ]"
"310","[11.38897425  0.         -4.        ]","[-1.46456436  0.          0.        ]","[-0.02625023 -0.         -0.        ]"
"311","[ 9.90110858  0.         -4.        ]","[-1.48786567  0.          0.        ]","[-0.02330131 -0.         -0.        ]"
"312","[ 8.39295303  0.         -4.        ]","[-1.50815555  0.          0.        ]","[-0.02028988 -0.         -0.        ]"
"313","[ 6.86757403  0.         -4.        ]","[-1.52537899  0.          0.        ]","[-0.01722344 -0.         -0.        ]"
"314","[ 5.32808519  0.         -4.        ]","[-1.53948884  0.          0.        ]","[-0.01410985 -0.         -0.        ]"
"315","[ 3.77763903  0.         -4.        ]","[-1.55044616  0.          0.        ]","[-0.01095732 -0.         -0.        ]"
"316","[ 2.2194185  0.        -4.       ]","[-1.55822053  0.          0.        ]","[-0.00777437 -0.         -0.        ]"
"317","[ 0.65662824  0.         -4.        ]","[-1.56279026  0.          0.        ]","[-0.00456972 -0.         -0.        ]"
"318","[-0.9075143  0.        -4.       ]","[-1.56414254  0.          0.        ]","[-0.00135229 -0.         -0.        ]"
"319","[-2.46978791  0.         -4.        ]","[-1.56227361  0.          0.        ]","[0.00186894 0.         0.        ]"
"320","[-4.02697659  0.         -4.        ]","[-1.55718868  0.          0.        ]","[0.00508492 0.         0.        ]"
"321","[-5.57587859  0.         -4.        ]","[-1.548902  0.        0.      ]","[0.00828669 0.         0.        ]"
"322","[-7.11331524  0.         -4.        ]","[-1.53743666  0.          0.        ]","[0.01146534 0.         0.        ]"
"323","[-8.63613971  0.         -4.        ]","[-1.52282447  0.          0.        ]","[0.01461219 0.         0.        ]"
"324","[-10.14124543   0.          -4.        ]","[-1.50510571  0.          0.        ]","[0.01771876 0.         0.        ]"
"325","[-11.62557424   0.          -4.        ]","[-1.48432881  0.          0.        ]","[0.0207769 0.        0.       ]"
"326","[-13.08612427   0.          -4.        ]","[-1.46055003  0.          0.        ]","[0.02377879 0.         0.        ]"
"327","[-14.51995728   0.          -4.        ]","[-1.43383301  0.          0.        ]","[0.02671702 0.         0.        ]"
"328","[-15.92420565   0.          -4.        ]","[-1.40424838  0.          0.        ]","[0.02958463 0.         0.        ]"
"329","[-17.2960789   0.         -4.       ]","[-1.37187325  0.          0.        ]","[0.03237513 0.         0.        ]"
"330","[-18.63286962   0.          -4.        ]","[-1.33679072  0.          0.        ]","[0.03508252 0.         0.        ]"
"331","[-19.93195899   0.          -4.        ]","[-1.29908937  0.          0.        ]","[0.03770135 0.         0.        ]"
"332","[-21.19082169   0.          -4.        ]","[-1.2588627  0.         0.       ]","[0.04022667 0.         0.        ]"
"333","[-22.40703032   0.          -4.        ]","[-1.21620863  0.          0.        ]","[0.04265408 0.         0.        ]"
"334","[-23.57825926   0.          -4.        ]","[-1.17122894  0.          0.        ]","[0.04497969 0.         0.        ]"
"335","[-24.70228804   0.          -4.        ]","[-1.12402878  0.          0.        ]","[0.04720015 0.         0.        ]"
"336","[-25.77700423   0.          -4.        ]","[-1.07471619  0.          0.        ]","[0.0493126 0.        0.       ]"
"337","[-26.80040579   0.          -4.        ]","[-1.02340156  0.          0.        ]","[0.05131463 0.         0.        ]"
"338","[-27.77060305   0.          -4.        ]","[-0.97019727  0.          0.        ]","[0.0532043 0.        0.       ]"
"339","[-28.68582026   0.          -4.        ]","[-0.9152172  0.         0.       ]","[0.05498006 0.         0.        ]"
"340","[-29.54439671   0.          -4.        ]","[-0.85857645  0.          0.        ]","[0.05664076 0.         0.        ]"
"341","[-30.34478761   0.          -4.        ]","[-0.8003909  0.         0.       ]","[0.05818554 0.         0.        ]"
"342","[-31.08556463   0.          -4.        ]","[-0.74077702  0.          0.        ]","[0.05961388 0.         0.        ]"
"343","[-31.76541618   0.          -4.        ]","[-0.67985155  0.          0.        ]","[0.06092547 0.         0.        ]"
"344","[-32.38314749   0.          -4.        ]","[-0.61773131  0.          0.        ]","[0.06212024 0.         0.        ]"
"345","[-32.93768055   0.          -4.        ]","[-0.55453306  0.          0.        ]","[0.06319825 0.         0.        ]"
"346","[-33.42805388   0.          -4.        ]","[-0.49037333  0.          0.        ]","[0.06415973 0.         0.        ]"
"347","[-33.85342225   0.          -4.        ]","[-0.42536837  0.          0.        ]","[0.06500495 0.         0.        ]"
"348","[-34.21305635   0.          -4.        ]","[-0.35963409  0.          0.        ]","[0.06573428 0.         0.        ]"
"349","[-34.50634236   0.          -4.        ]","[-0.29328602  0.          0.        ]","[0.06634808 0.         0.        ]"
"350","[-34.73278168   0.          -4.        ]","[-0.22643932  0.          0.        ]","[0.0668467 0.        0.       ]"
"351","[-34.89199052   0.          -4.        ]","[-0.15920884  0.          0.        ]","[0.06723048 0.         0.        ]"
"352","[-34.98369967   0.          -4.        ]","[-0.09170915  0.          0.        ]","[0.06749968 0.         0.        ]"
"353","[-35.00775431   0.          -4.        ]","[-0.02405464  0.          0.        ]","[0.06765452 0.         0.        ]"
"354","[-34.96411384   0.          -4.        ]","[0.04364046 0.         0.        ]","[0.0676951 0.        0.       ]"
"355","[-34.85285191   0.          -4.        ]","[0.11126193 0.         0.        ]","[0.06762147 0.         0.        ]"
"356","[-34.67415643   0.          -4.        ]","[0.17869548 0.         0.        ]","[0.06743355 0.         0.        ]"
"357","[-34.42832973   0.          -4.        ]","[0.2458267 0.        0.       ]","[0.06713122 0.         0.        ]"
"358","[-34.11578879   0.          -4.        ]","[0.31254094 0.         0.        ]","[0.06671424 0.         0.        ]"
"359","[-33.73706552   0.          -4.        ]","[0.37872326 0.         0.        ]","[0.06618232 0.         0.        ]"
"360","[-33.29280712   0.          -4.        ]","[0.4442584 0.        0.       ]","[0.06553514 0.         0.        ]"
"361","[-32.78377641   0.          -4.        ]","[0.50903071 0.         0.        ]","[0.06477231 0.         0.        ]"
"362","[-32.21085222   0.          -4.        ]","[0.57292419 0.         0.        ]","[0.06389348 0.         0.        ]"
"363","[-31.57502971   0.          -4.        ]","[0.63582251 0.         0.        ]","[0.06289831 0.         0.        ]"
"364","[-30.87742068   0.          -4.        ]","[0.69760904 0.         0.        ]","[0.06178653 0.         0.        ]"
"365","[-30.11925368   0.          -4.        ]","[0.758167 0.       0.      ]","[0.06055796 0.         0.        ]"
"366","[-29.30187411   0.          -4.        ]","[0.81737957 0.         0.        ]","[0.05921257 0.         0.        ]"
"367","[-28.42674405   0.          -4.        ]","[0.87513006 0.         0.        ]","[0.0577505 0.        0.       ]"
"368","[-27.49544189   0.          -4.        ]","[0.93130216 0.         0.        ]","[0.0561721 0.        0.       ]"
"369","[-26.50966172   0.          -4.        ]","[0.98578017 0.         0.        ]","[0.05447801 0.         0.        ]"
"370","[-25.4712124   0.         -4.       ]","[1.03844932 0.         0.        ]","[0.05266915 0.         0.        ]"
"371","[-24.38201629   0.          -4.        ]","[1.08919611 0.         0.        ]","[0.05074679 0.         0.        ]"
"372","[-23.24410758   0.          -4.        ]","[1.1379087 0.        0.       ]","[0.04871259 0.         0.        ]"
"373","[-22.05963026   0.          -4.        ]","[1.18447733 0.         0.        ]","[0.04656862 0.         0.        ]"
"374","[-20.83083551   0.          -4.        ]","[1.22879475 0.         0.        ]","[0.04431742 0.         0.        ]"
"375","[-19.56007878   0.          -4.        ]","[1.27075673 0.         0.        ]","[0.04196198 0.         0.        ]"
"376","[-18.24981623   0.          -4.        ]","[1.31026255 0.         0.        ]","[0.03950582 0.         0.        ]"
"377","[-16.90260071   0.          -4.        ]","[1.34721552 0.         0.        ]","[0.03695297 0.         0.        ]"
"378","[-15.52107721   0.          -4.        ]","[1.3815235 0.        0.       ]","[0.03430798 0.         0.        ]"
"379","[-14.10797775   0.          -4.        ]","[1.41309946 0.         0.        ]","[0.03157596 0.         0.        ]"
"380","[-12.66611578   0.          -4.        ]","[1.44186197 0.         0.        ]","[0.02876251 0.         0.        ]"
"381","[-11.19838004   0.          -4.        ]","[1.46773574 0.         0.        ]","[0.02587377 0.         0.        ]"
"382","[-9.70772793  0.         -4.        ]","[1.49065212 0.         0.        ]","[0.02291638 0.         0.        ]"
"383","[-8.19717837  0.         -4.        ]","[1.51054955 0.         0.        ]","[0.01989743 0.         0.        ]"
"384","[-6.66980436  0.         -4.        ]","[1.52737401 0.         0.        ]","[0.01682446 0.         0.        ]"
"385","[-5.12872496  0.         -4.        ]","[1.5410794 0.        0.       ]","[0.01370538 0.         0.        ]"
"386","[-3.57709712  0.         -4.        ]","[1.55162785 0.         0.        ]","[0.01054845 0.         0.        ]"
"387","[-2.01810706  0.         -4.        ]","[1.55899005 0.         0.        ]","[0.00736221 0.         0.        ]"
"388","[-0.4549616  0.        -4.       ]","[1.56314546 0.         0.        ]","[0.00415541 0.         0.        ]"
"389","[ 1.10912084  0.         -4.        ]","[1.56408244 0.         0.        ]","[0.00093698 0.         0.        ]"
"390","[ 2.6709192  0.        -4.       ]","[1.56179836 0.         0.        ]","[-0.00228408 -0.         -0.        ]"
"391","[ 4.22721882  0.         -4.        ]","[1.55629963 0.         0.        ]","[-0.00549874 -0.         -0.        ]"
"392","[ 5.77482044  0.         -4.        ]","[1.54760161 0.         0.        ]","[-0.00869801 -0.         -0.        ]"
"393","[ 7.310549  0.       -4.      ]","[1.53572856 0.         0.        ]","[-0.01187305 -0.         -0.        ]"
"394","[ 8.83126239  0.         -4.        ]","[1.52071339 0.         0.        ]","[-0.01501517 -0.         -0.        ]"
"395","[10.33385983  0.         -4.        ]","[1.50259744 0.         0.        ]","[-0.01811595 -0.         -0.        ]"
"396","[11.81529  0.      -4.     ]","[1.48143017 0.         0.        ]","[-0.02116727 -0.         -0.        ]"
"397","[13.27255881  0.         -4.        ]","[1.45726881 0.         0.        ]","[-0.02416136 -0.         -0.        ]"
"398","[14.70273675  0.         -4.        ]","[1.43017794 0.         0.        ]","[-0.02709087 -0.         -0.        ]"
"399","[16.10296581  0.         -4.        ]","[1.40022906 0.         0.        ]","[-0.02994889 -0.         -0.        ]"
"400","[17.47046587  0.         -4.        ]","[1.36750006 0.         0.        ]","[-0.032729 -0.       -0.      ]"
"401","[18.80254065  0.         -4.        ]","[1.33207479 0.         0.        ]","[-0.03542527 -0.         -0.        ]"
"402","[20.09658314  0.         -4.        ]","[1.29404248 0.         0.        ]","[-0.03803231 -0.         -0.        ]"
"403","[21.35008039  0.         -4.        ]","[1.25349725 0.         0.        ]","[-0.04054524 -0.         -0.        ]"
"404","[22.56061791  0.         -4.        ]","[1.21053752 0.         0.        ]","[-0.04295972 -0.         -0.        ]"
"405","[23.72588348  0.         -4.        ]","[1.16526557 0.         0.        ]","[-0.04527196 -0.         -0.        ]"
"406","[24.8436704  0.        -4.       ]","[1.11778692 0.         0.        ]","[-0.04747864 -0.         -0.        ]"
"407","[25.91188034  0.         -4.        ]","[1.06820995 0.         0.        ]","[-0.04957698 -0.         -0.        ]"
"408","[26.92852567  0.         -4.        ]","[1.01664533 0.         0.        ]","[-0.05156462 -0.         -0.        ]"
"409","[27.89173132  0.         -4.        ]","[0.96320565 0.         0.        ]","[-0.05343968 -0.         -0.        ]"
"410","[28.79973629  0.         -4.        ]","[0.90800498 0.         0.        ]","[-0.05520067 -0.         -0.        ]"
"411","[29.65089481  0.         -4.        ]","[0.85115852 0.         0.        ]","[-0.05684646 -0.         -0.        ]"
"412","[30.44367708  0.         -4.        ]","[0.79278227 0.         0.        ]","[-0.05837626 -0.         -0.        ]"
"413","[31.17666979  0.         -4.        ]","[0.73299271 0.         0.        ]","[-0.05978955 -0.         -0.        ]"
"414","[31.84857642  0.         -4.        ]","[0.67190663 0.         0.        ]","[-0.06108608 -0.         -0.        ]"
"415","[32.45821727  0.         -4.        ]","[0.60964084 0.         0.        ]","[-0.06226579 -0.         -0.        ]"
"416","[33.00452935  0.         -4.        ]","[0.54631208 0.         0.        ]","[-0.06332876 -0.         -0.        ]"
"417","[33.4865662  0.        -4.       ]","[0.48203685 0.         0.        ]","[-0.06427523 -0.         -0.        ]"
"418","[33.90349756  0.         -4.        ]","[0.41693136 0.         0.        ]","[-0.06510549 -0.         -0.        ]"
"419","[34.25460902  0.         -4.        ]","[0.35111146 0.         0.        ]","[-0.0658199 -0.        -0.       ]"
"420","[34.53930165  0.         -4.        ]","[0.28469263 0.         0.        ]","[-0.06641883 -0.         -0.        ]"
"421","[34.75709165  0.         -4.        ]","[0.21779001 0.         0.        ]","[-0.06690263 -0.         -0.        ]"
"422","[34.90761004  0.         -4.        ]","[0.15051839 0.         0.        ]","[-0.06727162 -0.         -0.        ]"
"423","[34.99060236  0.         -4.        ]","[0.08299232 0.         0.        ]","[-0.06752607 -0.         -0.        ]"
"424","[35.00592852  0.         -4.        ]","[0.01532616 0.         0.        ]","[-0.06766616 -0.         -0.        ]"
"425","[34.95356265  0.         -4.        ]","[-0.05236586  0.          0.        ]","[-0.06769202 -0.         -0.        ]"
"426","[34.83359313  0.         -4.        ]","[-0.11996952  0.          0.        ]","[-0.06760366 -0.         -0.        ]"
"427","[34.64622261  0.         -4.        ]","[-0.18737052  0.          0.        ]","[-0.067401 -0.       -0.      ]"
"428","[34.39176819  0.         -4.        ]","[-0.25445442  0.          0.        ]","[-0.0670839 -0.        -0.       ]"
"429","[34.07066166  0.         -4.        ]","[-0.32110654  0.          0.        ]","[-0.06665212 -0.         -0.        ]"
"430","[33.68344976  0.         -4.        ]","[-0.3872119  0.         0.       ]","[-0.06610536 -0.         -0.        ]"
"431","[33.23079458  0.         -4.        ]","[-0.45265518  0.          0.        ]","[-0.06544328 -0.         -0.        ]"
"432","[32.71347388  0.         -4.        ]","[-0.5173207  0.         0.       ]","[-0.06466552 -0.         -0.        ]"
"433","[32.13238148  0.         -4.        ]","[-0.58109241  0.          0.        ]","[-0.06377171 -0.         -0.        ]"
"434","[31.48852756  0.         -4.        ]","[-0.64385392  0.          0.        ]","[-0.06276152 -0.         -0.        ]"
"435","[30.78303895  0.         -4.        ]","[-0.70548861  0.          0.        ]","[-0.06163468 -0.         -0.        ]"
"436","[30.01715929  0.         -4.        ]","[-0.76587966  0.          0.        ]","[-0.06039105 -0.         -0.        ]"
"437","[29.19224904  0.         -4.        ]","[-0.82491026  0.          0.        ]","[-0.0590306 -0.        -0.       ]"
"438","[28.30978527  0.         -4.        ]","[-0.88246376  0.          0.        ]","[-0.0575535 -0.        -0.       ]"
"439","[27.37136136  0.         -4.        ]","[-0.93842392  0.          0.        ]","[-0.05596015 -0.         -0.        ]"
"440","[26.37868624  0.         -4.        ]","[-0.99267512  0.          0.        ]","[-0.0542512 -0.        -0.       ]"
"441","[25.33358349  0.         -4.        ]","[-1.04510275  0.          0.        ]","[-0.05242763 -0.         -0.        ]"
"442","[24.23798999  0.         -4.        ]","[-1.0955935  0.         0.       ]","[-0.05049075 -0.         -0.        ]"
"443","[23.09395422  0.         -4.        ]","[-1.14403577  0.          0.        ]","[-0.04844227 -0.         -0.        ]"
"444","[21.90363412  0.         -4.        ]","[-1.1903201  0.         0.       ]","[-0.04628433 -0.         -0.        ]"
"445","[20.66929452  0.         -4.        ]","[-1.2343396  0.         0.       ]","[-0.0440195 -0.        -0.       ]"
"446","[19.39330405  0.         -4.        ]","[-1.27599047  0.          0.        ]","[-0.04165087 -0.         -0.        ]"
"447","[18.07813158  0.         -4.        ]","[-1.31517248  0.          0.        ]","[-0.03918201 -0.         -0.        ]"
"448","[16.72634209  0.         -4.        ]","[-1.35178948  0.          0.        ]","[-0.03661701 -0.         -0.        ]"
"449","[15.34059211  0.         -4.        ]","[-1.38574998  0.          0.        ]","[-0.0339605 -0.        -0.       ]"
"450","[13.92362448  0.         -4.        ]","[-1.41696763  0.          0.        ]","[-0.03121765 -0.         -0.        ]"
"451","[12.47826271  0.         -4.        ]","[-1.44536177  0.          0.        ]","[-0.02839414 -0.         -0.        ]"
"452","[11.00740478  0.         -4.        ]","[-1.47085793  0.          0.        ]","[-0.02549617 -0.         -0.        ]"
"453","[ 9.51401641  0.         -4.        ]","[-1.49338837  0.          0.        ]","[-0.02253043 -0.         -0.        ]"
"454","[ 8.00112396  0.         -4.        ]","[-1.51289245  0.          0.        ]","[-0.01950409 -0.         -0.        ]"
"455","[ 6.47180679  0.         -4.        ]","[-1.52931717  0.          0.        ]","[-0.01642472 -0.         -0.        ]"
"456","[ 4.92918933  0.         -4.        ]","[-1.54261746  0.          0.        ]","[-0.01330029 -0.         -0.        ]"
"457","[ 3.37643278  0.         -4.        ]","[-1.55275655  0.          0.        ]","[-0.01013909 -0.         -0.        ]"
"458","[ 1.81672653  0.         -4.        ]","[-1.55970625  0.          0.        ]","[-0.0069497 -0.        -0.       ]"
"459","[ 0.25327938  0.         -4.        ]","[-1.56344715  0.          0.        ]","[-0.0037409 -0.        -0.       ]"
"460","[-1.31068939  0.         -4.        ]","[-1.56396877  0.          0.        ]","[-0.00052162 -0.         -0.        ]"
"461","[-2.87195905  0.         -4.        ]","[-1.56126966  0.          0.        ]","[0.00269911 0.         0.        ]"
"462","[-4.42731642  0.         -4.        ]","[-1.55535737  0.          0.        ]","[0.00591229 0.         0.        ]"
"463","[-5.97356486  0.         -4.        ]","[-1.54624843  0.          0.        ]","[0.00910894 0.         0.        ]"
"464","[-7.50753308  0.         -4.        ]","[-1.53396822  0.          0.        ]","[0.01228021 0.         0.        ]"
"465","[-9.02608383  0.         -4.        ]","[-1.51855075  0.          0.        ]","[0.01541747 0.         0.        ]"
"466","[-10.52612225   0.          -4.        ]","[-1.50003843  0.          0.        ]","[0.01851232 0.         0.        ]"
"467","[-12.00460399   0.          -4.        ]","[-1.47848174  0.          0.        ]","[0.02155669 0.         0.        ]"
"468","[-13.45854288   0.          -4.        ]","[-1.45393888  0.          0.        ]","[0.02454285 0.         0.        ]"
"469","[-14.88501824   0.          -4.        ]","[-1.42647536  0.          0.        ]","[0.02746352 0.         0.        ]"
"470","[-16.28118175   0.          -4.        ]","[-1.39616351  0.          0.        ]","[0.03031185 0.         0.        ]"
"471","[-17.64426378   0.          -4.        ]","[-1.36308204  0.          0.        ]","[0.03308147 0.         0.        ]"
"472","[-18.97157929   0.          -4.        ]","[-1.32731551  0.          0.        ]","[0.03576653 0.         0.        ]"
"473","[-20.2605331   0.         -4.       ]","[-1.28895381  0.          0.        ]","[0.03836169 0.         0.        ]"
"474","[-21.50862475   0.          -4.        ]","[-1.24809165  0.          0.        ]","[0.04086216 0.         0.        ]"
"475","[-22.71345273   0.          -4.        ]","[-1.20482798  0.          0.        ]","[0.04326367 0.         0.        ]"
"476","[-23.87271824   0.          -4.        ]","[-1.15926551  0.          0.        ]","[0.04556247 0.         0.        ]"
"477","[-24.98422841   0.          -4.        ]","[-1.11151017  0.          0.        ]","[0.04775533 0.         0.        ]"
"478","[-26.04589907   0.          -4.        ]","[-1.06167066  0.          0.        ]","[0.04983951 0.         0.        ]"
"479","[-27.05575699   0.          -4.        ]","[-1.00985792  0.          0.        ]","[0.05181274 0.         0.        ]"
"480","[-28.01194174   0.          -4.        ]","[-0.95618475  0.          0.        ]","[0.05367317 0.         0.        ]"
"481","[-28.91270713   0.          -4.        ]","[-0.90076539  0.          0.        ]","[0.05541936 0.         0.        ]"
"482","[-29.75642229   0.          -4.        ]","[-0.84371516  0.          0.        ]","[0.05705023 0.         0.        ]"
"483","[-30.54157242   0.          -4.        ]","[-0.78515013  0.          0.        ]","[0.05856503 0.         0.        ]"
"484","[-31.26675927   0.          -4.        ]","[-0.72518685  0.          0.        ]","[0.05996328 0.         0.        ]"
"485","[-31.93070136   0.          -4.        ]","[-0.6639421  0.         0.       ]","[0.06124475 0.         0.        ]"
"486","[-32.53223407   0.          -4.        ]","[-0.6015327  0.         0.       ]","[0.06240939 0.         0.        ]"
"487","[-33.07030944   0.          -4.        ]","[-0.53807537  0.          0.        ]","[0.06345733 0.         0.        ]"
"488","[-33.54399601   0.          -4.        ]","[-0.47368657  0.          0.        ]","[0.0643888 0.        0.       ]"
"489","[-33.95247848   0.          -4.        ]","[-0.40848247  0.          0.        ]","[0.0652041 0.        0.       ]"
"490","[-34.29505735   0.          -4.        ]","[-0.34257887  0.          0.        ]","[0.0659036 0.        0.       ]"
"491","[-34.57114855   0.          -4.        ]","[-0.2760912  0.         0.       ]","[0.06648766 0.         0.        ]"
"492","[-34.78028311   0.          -4.        ]","[-0.20913456  0.          0.        ]","[0.06695664 0.         0.        ]"
"493","[-34.92210682   0.          -4.        ]","[-0.14182371  0.          0.        ]","[0.06731085 0.         0.        ]"
"494","[-34.99637998   0.          -4.        ]","[-0.07427316  0.          0.        ]","[0.06755055 0.         0.        ]"
"495","[-35.00297723   0.          -4.        ]","[-0.00659725  0.          0.        ]","[0.06767591 0.         0.        ]"
"496","[-34.94188743   0.          -4.        ]","[0.0610898 0.        0.       ]","[0.06768704 0.         0.        ]"
"497","[-34.81321369   0.          -4.        ]","[0.12867374 0.         0.        ]","[0.06758395 0.         0.        ]"
"498","[-34.6171734   0.         -4.       ]","[0.19604029 0.         0.        ]","[0.06736655 0.         0.        ]"
"499","[-34.35409844   0.          -4.        ]","[0.26307496 0.         0.        ]","[0.06703467 0.         0.        ]"
