"time","theta3d","omega3d","alpha3d"
"0","[ 44.72422836   0.         -20.        ]","[-0.27577164  0.          0.        ]","[-0.27577164 -0.         -0.        ]"
"1","[ 44.17401558   0.         -20.        ]","[-0.55021278  0.          0.        ]","[-0.27444113 -0.         -0.        ]"
"2","[ 43.35203524   0.         -20.        ]","[-0.82198034  0.          0.        ]","[-0.27176756 -0.         -0.        ]"
"3","[ 42.26232808   0.         -20.        ]","[-1.08970716  0.          0.        ]","[-0.26772682 -0.         -0.        ]"
"4","[ 40.91033576   0.         -20.        ]","[-1.35199232  0.          0.        ]","[-0.26228516 -0.         -0.        ]"
"5","[ 39.30294135   0.         -20.        ]","[-1.60739441  0.          0.        ]","[-0.25540209 -0.         -0.        ]"
"6","[ 37.4485129   0.        -20.       ]","[-1.85442845  0.          0.        ]","[-0.24703403 -0.         -0.        ]"
"7","[ 35.35694563   0.         -20.        ]","[-2.09156727  0.          0.        ]","[-0.23713882 -0.         -0.        ]"
"8","[ 33.03969766   0.         -20.        ]","[-2.31724798  0.          0.        ]","[-0.22568071 -0.         -0.        ]"
"9","[ 30.50981389   0.         -20.        ]","[-2.52988377  0.          0.        ]","[-0.21263579 -0.         -0.        ]"
"10","[ 27.7819326   0.        -20.       ]","[-2.72788129  0.          0.        ]","[-0.19799752 -0.         -0.        ]"
"11","[ 24.87226932   0.         -20.        ]","[-2.90966328  0.          0.        ]","[-0.18178199 -0.         -0.        ]"
"12","[ 21.7985733   0.        -20.       ]","[-3.07369602  0.          0.        ]","[-0.16403274 -0.         -0.        ]"
"13","[ 18.58005284   0.         -20.        ]","[-3.21852046  0.          0.        ]","[-0.14482444 -0.         -0.        ]"
"14","[ 15.23726695   0.         -20.        ]","[-3.3427859  0.         0.       ]","[-0.12426544 -0.         -0.        ]"
"15","[ 11.7919825   0.        -20.       ]","[-3.44528445  0.          0.        ]","[-0.10249855 -0.         -0.        ]"
"16","[  8.26699801   0.         -20.        ]","[-3.52498449  0.          0.        ]","[-0.07970004 -0.         -0.        ]"
"17","[  4.6859369   0.        -20.       ]","[-3.58106111  0.          0.        ]","[-0.05607662 -0.         -0.        ]"
"18","[  1.07301517   0.         -20.        ]","[-3.61292173  0.          0.        ]","[-0.03186061 -0.         -0.        ]"
"19","[ -2.54720991   0.         -20.        ]","[-3.62022508  0.          0.        ]","[-0.00730336 -0.         -0.        ]"
"20","[ -6.15010239   0.         -20.        ]","[-3.60289249  0.          0.        ]","[0.0173326 0.        0.       ]"
"21","[ -9.7112128   0.        -20.       ]","[-3.56111041  0.          0.        ]","[0.04178208 0.         0.        ]"
"22","[-13.20653712   0.         -20.        ]","[-3.49532432  0.          0.        ]","[0.06578609 0.         0.        ]"
"23","[-16.61276128   0.         -20.        ]","[-3.40622416  0.          0.        ]","[0.08910016 0.         0.        ]"
"24","[-19.90748374   0.         -20.        ]","[-3.29472246  0.          0.        ]","[0.1115017 0.        0.       ]"
"25","[-23.06941027   0.         -20.        ]","[-3.16192653  0.          0.        ]","[0.13279592 0.         0.        ]"
"26","[-26.07851687   0.         -20.        ]","[-3.0091066  0.         0.       ]","[0.15281993 0.         0.        ]"
"27","[-28.91617853   0.         -20.        ]","[-2.83766166  0.          0.        ]","[0.17144494 0.         0.        ]"
"28","[-31.56526366   0.         -20.        ]","[-2.64908513  0.          0.        ]","[0.18857653 0.         0.        ]"
"29","[-34.01019571   0.         -20.        ]","[-2.44493205  0.          0.        ]","[0.20415308 0.         0.        ]"
"30","[-36.23698499   0.         -20.        ]","[-2.22678928  0.          0.        ]","[0.21814276 0.         0.        ]"
"31","[-38.23323496   0.         -20.        ]","[-1.99624997  0.          0.        ]","[0.23053931 0.         0.        ]"
"32","[-39.98812791   0.         -20.        ]","[-1.75489296  0.          0.        ]","[0.24135701 0.         0.        ]"
"33","[-41.49239561   0.         -20.        ]","[-1.5042677  0.         0.       ]","[0.25062526 0.         0.        ]"
"34","[-42.73828026   0.         -20.        ]","[-1.24588465  0.          0.        ]","[0.25838305 0.         0.        ]"
"35","[-43.7194912   0.        -20.       ]","[-0.98121094  0.          0.        ]","[0.26467371 0.         0.        ]"
"36","[-44.4311621   0.        -20.       ]","[-0.7116709  0.         0.       ]","[0.26954004 0.         0.        ]"
"37","[-44.86981279   0.         -20.        ]","[-0.43865069  0.          0.        ]","[0.27302021 0.         0.        ]"
"38","[-45.03331915   0.         -20.        ]","[-0.16350636  0.          0.        ]","[0.27514433 0.         0.        ]"
"39","[-44.92089355   0.         -20.        ]","[0.1124256 0.        0.       ]","[0.27593197 0.         0.        ]"
"40","[-44.53307731   0.         -20.        ]","[0.38781624 0.         0.        ]","[0.27539063 0.         0.        ]"
"41","[-43.87174592   0.         -20.        ]","[0.66133139 0.         0.        ]","[0.27351516 0.         0.        ]"
"42","[-42.94012642   0.         -20.        ]","[0.9316195 0.        0.       ]","[0.2702881 0.        0.       ]"
"43","[-41.74282577   0.         -20.        ]","[1.19730065 0.         0.        ]","[0.26568115 0.         0.        ]"
"44","[-40.2858677   0.        -20.       ]","[1.45695807 0.         0.        ]","[0.25965742 0.         0.        ]"
"45","[-38.57673499   0.         -20.        ]","[1.70913271 0.         0.        ]","[0.25217464 0.         0.        ]"
"46","[-36.62441302   0.         -20.        ]","[1.95232197 0.         0.        ]","[0.24318926 0.         0.        ]"
"47","[-34.43942996   0.         -20.        ]","[2.18498306 0.         0.        ]","[0.23266109 0.         0.        ]"
"48","[-32.03388837   0.         -20.        ]","[2.40554159 0.         0.        ]","[0.22055853 0.         0.        ]"
"49","[-29.42148269   0.         -20.        ]","[2.61240569 0.         0.        ]","[0.2068641 0.        0.       ]"
"50","[-26.61749715   0.         -20.        ]","[2.80398553 0.         0.        ]","[0.19157985 0.         0.        ]"
"51","[-23.63877909   0.         -20.        ]","[2.97871806 0.         0.        ]","[0.17473253 0.         0.        ]"
"52","[-20.50368306   0.         -20.        ]","[3.13509603 0.         0.        ]","[0.15637797 0.         0.        ]"
"53","[-17.23198266   0.         -20.        ]","[3.27170039 0.         0.        ]","[0.13660436 0.         0.        ]"
"54","[-13.84474819   0.         -20.        ]","[3.38723448 0.         0.        ]","[0.11553408 0.         0.        ]"
"55","[-10.36418989   0.         -20.        ]","[3.4805583 0.        0.       ]","[0.09332382 0.         0.        ]"
"56","[ -6.81346889   0.         -20.        ]","[3.550721 0.       0.      ]","[0.07016271 0.         0.        ]"
"57","[ -3.2164793   0.        -20.       ]","[3.59698958 0.         0.        ]","[0.04626858 0.         0.        ]"
"58","[  0.40239267   0.         -20.        ]","[3.61887197 0.         0.        ]","[0.02188238 0.         0.        ]"
"59","[  4.01852565   0.         -20.        ]","[3.61613299 0.         0.        ]","[-0.00273898 -0.         -0.        ]"
"60","[  7.60732783   0.         -20.        ]","[3.58880217 0.         0.        ]","[-0.02733082 -0.         -0.        ]"
"61","[ 11.14450057   0.         -20.        ]","[3.53717274 0.         0.        ]","[-0.05162943 -0.         -0.        ]"
"62","[ 14.60629252   0.         -20.        ]","[3.46179196 0.         0.        ]","[-0.07538078 -0.         -0.        ]"
"63","[ 17.96973598   0.         -20.        ]","[3.36344346 0.         0.        ]","[-0.0983485 -0.        -0.       ]"
"64","[ 21.21285875   0.         -20.        ]","[3.24312277 0.         0.        ]","[-0.12032069 -0.         -0.        ]"
"65","[ 24.31486633   0.         -20.        ]","[3.10200758 0.         0.        ]","[-0.14111518 -0.         -0.        ]"
"66","[ 27.2562911   0.        -20.       ]","[2.94142476 0.         0.        ]","[-0.16058282 -0.         -0.        ]"
"67","[ 30.01910696   0.         -20.        ]","[2.76281587 0.         0.        ]","[-0.1786089 -0.        -0.       ]"
"68","[ 32.58681021   0.         -20.        ]","[2.56770325 0.         0.        ]","[-0.19511262 -0.         -0.        ]"
"69","[ 34.94446849   0.         -20.        ]","[2.35765828 0.         0.        ]","[-0.21004497 -0.         -0.        ]"
"70","[ 37.0787417   0.        -20.       ]","[2.13427321 0.         0.        ]","[-0.22338507 -0.         -0.        ]"
"71","[ 38.97787922   0.         -20.        ]","[1.89913752 0.         0.        ]","[-0.23513569 -0.         -0.        ]"
"72","[ 40.63169882   0.         -20.        ]","[1.6538196 0.        0.       ]","[-0.24531792 -0.         -0.        ]"
"73","[ 42.03155269   0.         -20.        ]","[1.39985387 0.         0.        ]","[-0.25396573 -0.         -0.        ]"
"74","[ 43.17028605   0.         -20.        ]","[1.13873337 0.         0.        ]","[-0.2611205 -0.        -0.       ]"
"75","[ 44.04219352   0.         -20.        ]","[0.87190747 0.         0.        ]","[-0.2668259 -0.        -0.       ]"
"76","[ 44.64297771   0.         -20.        ]","[0.60078418 0.         0.        ]","[-0.27112329 -0.         -0.        ]"
"77","[ 44.96971398   0.         -20.        ]","[0.32673627 0.         0.        ]","[-0.27404791 -0.         -0.        ]"
"78","[ 45.02082441   0.         -20.        ]","[0.05111044 0.         0.        ]","[-0.27562584 -0.         -0.        ]"
"79","[ 44.79606299   0.         -20.        ]","[-0.22476142  0.          0.        ]","[-0.27587186 -0.         -0.        ]"
"80","[ 44.29651325   0.         -20.        ]","[-0.49954975  0.          0.        ]","[-0.27478833 -0.         -0.        ]"
"81","[ 43.52459853   0.         -20.        ]","[-0.77191472  0.          0.        ]","[-0.27236497 -0.         -0.        ]"
"82","[ 42.48410409   0.         -20.        ]","[-1.04049444  0.          0.        ]","[-0.26857971 -0.         -0.        ]"
"83","[ 41.18020926   0.         -20.        ]","[-1.30389483  0.          0.        ]","[-0.2634004 -0.        -0.       ]"
"84","[ 39.61952691   0.         -20.        ]","[-1.56068235  0.          0.        ]","[-0.25678752 -0.         -0.        ]"
"85","[ 37.81014681   0.         -20.        ]","[-1.8093801  0.         0.       ]","[-0.24869775 -0.         -0.        ]"
"86","[ 35.76167838   0.         -20.        ]","[-2.04846842  0.          0.        ]","[-0.23908832 -0.         -0.        ]"
"87","[ 33.48528808   0.         -20.        ]","[-2.2763903  0.         0.       ]","[-0.22792188 -0.         -0.        ]"
"88","[ 30.99372587   0.         -20.        ]","[-2.49156221  0.          0.        ]","[-0.21517191 -0.         -0.        ]"
"89","[ 28.30133541   0.         -20.        ]","[-2.69239045  0.          0.        ]","[-0.20082824 -0.         -0.        ]"
"90","[ 25.42404255   0.         -20.        ]","[-2.87729286  0.          0.        ]","[-0.1849024 -0.        -0.       ]"
"91","[ 22.37931717   0.         -20.        ]","[-3.04472538  0.          0.        ]","[-0.16743252 -0.         -0.        ]"
"92","[ 19.18610452   0.         -20.        ]","[-3.19321266  0.          0.        ]","[-0.14848728 -0.         -0.        ]"
"93","[ 15.86472319   0.         -20.        ]","[-3.32138132  0.          0.        ]","[-0.12816867 -0.         -0.        ]"
"94","[ 12.43672873   0.         -20.        ]","[-3.42799446  0.          0.        ]","[-0.10661314 -0.         -0.        ]"
"95","[  8.92474334   0.         -20.        ]","[-3.5119854  0.         0.       ]","[-0.08399093 -0.         -0.        ]"
"96","[  5.3522545   0.        -20.       ]","[-3.57248884  0.          0.        ]","[-0.06050344 -0.         -0.        ]"
"97","[  1.74338699   0.         -20.        ]","[-3.60886751  0.          0.        ]","[-0.03637868 -0.         -0.        ]"
"98","[ -1.87734555   0.         -20.        ]","[-3.62073254  0.          0.        ]","[-0.01186503 -0.         -0.        ]"
"99","[ -5.4853017   0.        -20.       ]","[-3.60795614  0.          0.        ]","[0.0127764 0.        0.       ]"
"100","[ -9.05597758   0.         -20.        ]","[-3.57067589  0.          0.        ]","[0.03728025 0.         0.        ]"
"101","[-12.56526772   0.         -20.        ]","[-3.50929014  0.          0.        ]","[0.06138575 0.         0.        ]"
"102","[-15.98971273   0.         -20.        ]","[-3.42444501  0.          0.        ]","[0.08484513 0.         0.        ]"
"103","[-19.30672649   0.         -20.        ]","[-3.31701376  0.          0.        ]","[0.10743126 0.         0.        ]"
"104","[-22.49479642   0.         -20.        ]","[-3.18806993  0.          0.        ]","[0.12894382 0.         0.        ]"
"105","[-25.53365254   0.         -20.        ]","[-3.03885612  0.          0.        ]","[0.14921381 0.         0.        ]"
"106","[-28.4044026   0.        -20.       ]","[-2.87075007  0.          0.        ]","[0.16810605 0.         0.        ]"
"107","[-31.08963286   0.         -20.        ]","[-2.68523026  0.          0.        ]","[0.1855198 0.        0.       ]"
"108","[-33.57347556   0.         -20.        ]","[-2.48384269  0.          0.        ]","[0.20138757 0.         0.        ]"
"109","[-35.84164595   0.         -20.        ]","[-2.26817039  0.          0.        ]","[0.2156723 0.        0.       ]"
"110","[-37.88145299   0.         -20.        ]","[-2.03980704  0.          0.        ]","[0.22836335 0.         0.        ]"
"111","[-39.68178844   0.         -20.        ]","[-1.80033545  0.          0.        ]","[0.2394716 0.        0.       ]"
"112","[-41.23309983   0.         -20.        ]","[-1.55131139  0.          0.        ]","[0.24902406 0.         0.        ]"
"113","[-42.52735285   0.         -20.        ]","[-1.29425302  0.          0.        ]","[0.25705837 0.         0.        ]"
"114","[-43.55798844   0.         -20.        ]","[-1.0306356  0.         0.       ]","[0.26361742 0.         0.        ]"
"115","[-44.31987958   0.         -20.        ]","[-0.76189113  0.          0.        ]","[0.26874446 0.         0.        ]"
"116","[-44.80929192   0.         -20.        ]","[-0.48941234  0.          0.        ]","[0.27247879 0.         0.        ]"
"117","[-45.02385205   0.         -20.        ]","[-0.21456013  0.          0.        ]","[0.27485222 0.         0.        ]"
"118","[-44.96252575   0.         -20.        ]","[0.0613263 0.        0.       ]","[0.27588642 0.         0.        ]"
"119","[-44.62560824   0.         -20.        ]","[0.33691751 0.         0.        ]","[0.27559122 0.         0.        ]"
"120","[-44.01472695   0.         -20.        ]","[0.61088129 0.         0.        ]","[0.27396378 0.         0.        ]"
"121","[-43.1328568   0.        -20.       ]","[0.88187015 0.         0.        ]","[0.27098886 0.         0.        ]"
"122","[-41.98434661   0.         -20.        ]","[1.14851018 0.         0.        ]","[0.26664003 0.         0.        ]"
"123","[-40.57495469   0.         -20.        ]","[1.40939193 0.         0.        ]","[0.26088175 0.         0.        ]"
"124","[-38.91189028   0.         -20.        ]","[1.66306441 0.         0.        ]","[0.25367248 0.         0.        ]"
"125","[-37.00385729   0.         -20.        ]","[1.90803298 0.         0.        ]","[0.24496857 0.         0.        ]"
"126","[-34.86109548   0.         -20.        ]","[2.14276181 0.         0.        ]","[0.23472883 0.         0.        ]"
"127","[-32.49541402   0.         -20.        ]","[2.36568146 0.         0.        ]","[0.22291965 0.         0.        ]"
"128","[-29.92021204   0.         -20.        ]","[2.57520198 0.         0.        ]","[0.20952052 0.         0.        ]"
"129","[-27.15048059   0.         -20.        ]","[2.76973145 0.         0.        ]","[0.19452947 0.         0.        ]"
"130","[-24.2027808   0.        -20.       ]","[2.94769979 0.         0.        ]","[0.17796833 0.         0.        ]"
"131","[-21.09519377   0.         -20.        ]","[3.10758703 0.         0.        ]","[0.15988725 0.         0.        ]"
"132","[-17.8472385   0.        -20.       ]","[3.24795527 0.         0.        ]","[0.14036823 0.         0.        ]"
"133","[-14.47975596   0.         -20.        ]","[3.36748254 0.         0.        ]","[0.11952728 0.         0.        ]"
"134","[-11.01475862   0.         -20.        ]","[3.46499733 0.         0.        ]","[0.09751479 0.         0.        ]"
"135","[ -7.47524717   0.         -20.        ]","[3.53951145 0.         0.        ]","[0.07451412 0.         0.        ]"
"136","[ -3.88499756   0.         -20.        ]","[3.59024962 0.         0.        ]","[0.05073816 0.         0.        ]"
"137","[ -0.26832386   0.         -20.        ]","[3.6166737 0.        0.       ]","[0.02642408 0.         0.        ]"
"138","[  3.35017625   0.         -20.        ]","[3.61850011 0.         0.        ]","[0.00182642 0.         0.        ]"
"139","[  6.94588543   0.         -20.        ]","[3.59570918 0.         0.        ]","[-0.02279093 -0.         -0.        ]"
"140","[ 10.49443118   0.         -20.        ]","[3.54854576 0.         0.        ]","[-0.04716342 -0.         -0.        ]"
"141","[ 13.97194236   0.         -20.        ]","[3.47751117 0.         0.        ]","[-0.07103458 -0.         -0.        ]"
"142","[ 17.35528931   0.         -20.        ]","[3.38334695 0.         0.        ]","[-0.09416422 -0.         -0.        ]"
"143","[ 20.6223008   0.        -20.       ]","[3.26701149 0.         0.        ]","[-0.11633546 -0.         -0.        ]"
"144","[ 23.75195196   0.         -20.        ]","[3.12965117 0.         0.        ]","[-0.13736032 -0.         -0.        ]"
"145","[ 26.72451976   0.         -20.        ]","[2.9725678 0.        0.       ]","[-0.15708337 -0.         -0.        ]"
"146","[ 29.52170406   0.         -20.        ]","[2.7971843 0.        0.       ]","[-0.1753835 -0.        -0.       ]"
"147","[ 32.1267146   0.        -20.       ]","[2.60501054 0.         0.        ]","[-0.19217376 -0.         -0.        ]"
"148","[ 34.52432568   0.         -20.        ]","[2.39761108 0.         0.        ]","[-0.20739946 -0.         -0.        ]"
"149","[ 36.70090188   0.         -20.        ]","[2.17657621 0.         0.        ]","[-0.22103487 -0.         -0.        ]"
"150","[ 38.64439936   0.         -20.        ]","[1.94349748 0.         0.        ]","[-0.23307873 -0.         -0.        ]"
"151","[ 40.34434768   0.         -20.        ]","[1.69994832 0.         0.        ]","[-0.24354916 -0.         -0.        ]"
"152","[ 41.79181784   0.         -20.        ]","[1.44747016 0.         0.        ]","[-0.25247816 -0.         -0.        ]"
"153","[ 42.97938185   0.         -20.        ]","[1.18756402 0.         0.        ]","[-0.25990614 -0.         -0.        ]"
"154","[ 43.90106916   0.         -20.        ]","[0.92168731 0.         0.        ]","[-0.2658767 -0.        -0.       ]"
"155","[ 44.55232452   0.         -20.        ]","[0.65125536 0.         0.        ]","[-0.27043196 -0.         -0.        ]"
"156","[ 44.92997134   0.         -20.        ]","[0.37764682 0.         0.        ]","[-0.27360853 -0.         -0.        ]"
"157","[ 45.03218378   0.         -20.        ]","[0.10221244 0.         0.        ]","[-0.27543438 -0.         -0.        ]"
"158","[ 44.85846972   0.         -20.        ]","[-0.17371406  0.          0.        ]","[-0.27592651 -0.         -0.        ]"
"159","[ 44.40966606   0.         -20.        ]","[-0.44880367  0.          0.        ]","[-0.2750896 -0.        -0.       ]"
"160","[ 43.68794668   0.         -20.        ]","[-0.72171937  0.          0.        ]","[-0.27291571 -0.         -0.        ]"
"161","[ 42.69684249   0.         -20.        ]","[-0.99110419  0.          0.        ]","[-0.26938482 -0.         -0.        ]"
"162","[ 41.44127182   0.         -20.        ]","[-1.25557067  0.          0.        ]","[-0.26446648 -0.         -0.        ]"
"163","[ 39.92757887   0.         -20.        ]","[-1.51369296  0.          0.        ]","[-0.25812229 -0.         -0.        ]"
"164","[ 38.16357657   0.         -20.        ]","[-1.7640023  0.         0.       ]","[-0.25030934 -0.         -0.        ]"
"165","[ 36.15858988   0.         -20.        ]","[-2.00498669  0.          0.        ]","[-0.24098439 -0.         -0.        ]"
"166","[ 33.9234945   0.        -20.       ]","[-2.23509538  0.          0.        ]","[-0.23010869 -0.         -0.        ]"
"167","[ 31.47074581   0.         -20.        ]","[-2.45274869  0.          0.        ]","[-0.21765331 -0.         -0.        ]"
"168","[ 28.81439249   0.         -20.        ]","[-2.65635332  0.          0.        ]","[-0.20360463 -0.         -0.        ]"
"169","[ 25.97006939   0.         -20.        ]","[-2.8443231  0.         0.       ]","[-0.18796978 -0.         -0.        ]"
"170","[ 22.95496468   0.         -20.        ]","[-3.01510471  0.          0.        ]","[-0.17078161 -0.         -0.        ]"
"171","[ 19.78775705   0.         -20.        ]","[-3.16720763  0.          0.        ]","[-0.15210292 -0.         -0.        ]"
"172","[ 16.48852005   0.         -20.        ]","[-3.299237  0.        0.      ]","[-0.13202938 -0.         -0.        ]"
"173","[ 13.07859199   0.         -20.        ]","[-3.40992806  0.          0.        ]","[-0.11069106 -0.         -0.        ]"
"174","[  9.58041185   0.         -20.        ]","[-3.49818014  0.          0.        ]","[-0.08825208 -0.         -0.        ]"
"175","[  6.01732337   0.         -20.        ]","[-3.56308848  0.          0.        ]","[-0.06490834 -0.         -0.        ]"
"176","[  2.41335152   0.         -20.        ]","[-3.60397185  0.          0.        ]","[-0.04088337 -0.         -0.        ]"
"177","[ -1.20704264   0.         -20.        ]","[-3.62039416  0.          0.        ]","[-0.01642231 -0.         -0.        ]"
"178","[ -4.81922132   0.         -20.        ]","[-3.61217868  0.          0.        ]","[0.00821547 0.         0.        ]"
"179","[ -8.39863527   0.         -20.        ]","[-3.57941395  0.          0.        ]","[0.03276473 0.         0.        ]"
"180","[-11.92108603   0.         -20.        ]","[-3.52245076  0.          0.        ]","[0.05696319 0.         0.        ]"
"181","[-15.36297672   0.         -20.        ]","[-3.44189069  0.          0.        ]","[0.08056007 0.         0.        ]"
"182","[-18.70154351   0.         -20.        ]","[-3.33856679  0.          0.        ]","[0.1033239 0.        0.       ]"
"183","[-21.91506127   0.         -20.        ]","[-3.21351777  0.          0.        ]","[0.12504902 0.         0.        ]"
"184","[-24.98301869   0.         -20.        ]","[-3.06795742  0.          0.        ]","[0.14556035 0.         0.        ]"
"185","[-27.88625975   0.         -20.        ]","[-2.90324106  0.          0.        ]","[0.16471636 0.         0.        ]"
"186","[-30.60709085   0.         -20.        ]","[-2.72083109  0.          0.        ]","[0.18240997 0.         0.        ]"
"187","[-33.12935425   0.         -20.        ]","[-2.5222634  0.         0.       ]","[0.1985677 0.        0.       ]"
"188","[-35.43847053   0.         -20.        ]","[-2.30911628  0.          0.        ]","[0.21314712 0.         0.        ]"
"189","[-37.52145375   0.         -20.        ]","[-2.08298322  0.          0.        ]","[0.22613306 0.         0.        ]"
"190","[-39.36690418   0.         -20.        ]","[-1.84545043  0.          0.        ]","[0.23753279 0.         0.        ]"
"191","[-40.96498383   0.         -20.        ]","[-1.59807965  0.          0.        ]","[0.24737078 0.         0.        ]"
"192","[-42.30738038   0.         -20.        ]","[-1.34239656  0.          0.        ]","[0.25568309 0.         0.        ]"
"193","[-43.38726491   0.         -20.        ]","[-1.07988452  0.          0.        ]","[0.26251203 0.         0.        ]"
"194","[-44.19924829   0.         -20.        ]","[-0.81198338  0.          0.        ]","[0.26790114 0.         0.        ]"
"195","[-44.73934095   0.         -20.        ]","[-0.54009266  0.          0.        ]","[0.27189072 0.         0.        ]"
"196","[-45.0049194   0.        -20.       ]","[-0.26557845  0.          0.        ]","[0.27451421 0.         0.        ]"
"197","[-44.99470253   0.         -20.        ]","[0.01021687 0.         0.        ]","[0.27579532 0.         0.        ]"
"198","[-44.70873952   0.         -20.        ]","[0.28596302 0.         0.        ]","[0.27574615 0.         0.        ]"
"199","[-44.14841028   0.         -20.        ]","[0.56032923 0.         0.        ]","[0.27436621 0.         0.        ]"
"200","[-43.31643852   0.         -20.        ]","[0.83197176 0.         0.        ]","[0.27164253 0.         0.        ]"
"201","[-42.21691618   0.         -20.        ]","[1.09952234 0.         0.        ]","[0.26755058 0.         0.        ]"
"202","[-40.85533752   0.         -20.        ]","[1.36157866 0.         0.        ]","[0.26205632 0.         0.        ]"
"203","[-39.23863981   0.         -20.        ]","[1.61669771 0.         0.        ]","[0.25511905 0.         0.        ]"
"204","[-37.3752469   0.        -20.       ]","[1.86339291 0.         0.        ]","[0.24669519 0.         0.        ]"
"205","[-35.27511129   0.         -20.        ]","[2.10013561 0.         0.        ]","[0.23674271 0.         0.        ]"
"206","[-32.94974949   0.         -20.        ]","[2.3253618 0.        0.       ]","[0.22522619 0.         0.        ]"
"207","[-30.41226541   0.         -20.        ]","[2.53748408 0.         0.        ]","[0.21212228 0.         0.        ]"
"208","[-27.67735616   0.         -20.        ]","[2.73490925 0.         0.        ]","[0.19742517 0.         0.        ]"
"209","[-24.76129499   0.         -20.        ]","[2.91606117 0.         0.        ]","[0.18115192 0.         0.        ]"
"210","[-21.68188671   0.         -20.        ]","[3.07940828 0.         0.        ]","[0.16334711 0.         0.        ]"
"211","[-18.45839175   0.         -20.        ]","[3.22349496 0.         0.        ]","[0.14408667 0.         0.        ]"
"212","[-15.1114166   0.        -20.       ]","[3.34697516 0.         0.        ]","[0.1234802 0.        0.       ]"
"213","[-11.66276966   0.         -20.        ]","[3.44864694 0.         0.        ]","[0.10167178 0.         0.        ]"
"214","[ -8.13528384   0.         -20.        ]","[3.52748582 0.         0.        ]","[0.07883887 0.         0.        ]"
"215","[ -4.55260878   0.         -20.        ]","[3.58267506 0.         0.        ]","[0.05518924 0.         0.        ]"
"216","[ -0.9389777   0.        -20.       ]","[3.61363109 0.         0.        ]","[0.03095603 0.         0.        ]"
"217","[  2.68104452   0.         -20.        ]","[3.62002222 0.         0.        ]","[0.00639113 0.         0.        ]"
"218","[  6.28282411   0.         -20.        ]","[3.60177959 0.         0.        ]","[-0.01824263 -0.         -0.        ]"
"219","[  9.84192352   0.         -20.        ]","[3.55909941 0.         0.        ]","[-0.04268017 -0.         -0.        ]"
"220","[ 13.33436005   0.         -20.        ]","[3.49243653 0.         0.        ]","[-0.06666289 -0.         -0.        ]"
"221","[ 16.73684958   0.         -20.        ]","[3.40248954 0.         0.        ]","[-0.08994699 -0.         -0.        ]"
"222","[ 20.02702829   0.         -20.        ]","[3.29017871 0.         0.        ]","[-0.11231083 -0.         -0.        ]"
"223","[ 23.18364628   0.         -20.        ]","[3.15661799 0.         0.        ]","[-0.13356072 -0.         -0.        ]"
"224","[ 26.18672924   0.         -20.        ]","[3.00308296 0.         0.        ]","[-0.15353502 -0.         -0.        ]"
"225","[ 29.01770598   0.         -20.        ]","[2.83097674 0.         0.        ]","[-0.17210623 -0.         -0.        ]"
"226","[ 31.65950156   0.         -20.        ]","[2.64179558 0.         0.        ]","[-0.18918115 -0.         -0.        ]"
"227","[ 34.09659779   0.         -20.        ]","[2.43709623 0.         0.        ]","[-0.20469935 -0.         -0.        ]"
"228","[ 36.31506399   0.         -20.        ]","[2.2184662 0.        0.       ]","[-0.21863003 -0.         -0.        ]"
"229","[ 38.30256241   0.         -20.        ]","[1.98749843 0.         0.        ]","[-0.23096777 -0.         -0.        ]"
"230","[ 40.04833333   0.         -20.        ]","[1.74577092 0.         0.        ]","[-0.24172751 -0.         -0.        ]"
"231","[ 41.54316515   0.         -20.        ]","[1.49483181 0.         0.        ]","[-0.2509391 -0.        -0.       ]"
"232","[ 42.77935516   0.         -20.        ]","[1.23619001 0.         0.        ]","[-0.2586418 -0.        -0.       ]"
"233","[ 43.75066619   0.         -20.        ]","[0.97131103 0.         0.        ]","[-0.26487898 -0.         -0.        ]"
"234","[ 44.45228385   0.         -20.        ]","[0.70161766 0.         0.        ]","[-0.26969337 -0.         -0.        ]"
"235","[ 44.88077866   0.         -20.        ]","[0.4284948 0.        0.       ]","[-0.27312286 -0.         -0.        ]"
"236","[ 45.03407624   0.         -20.        ]","[0.15329758 0.         0.        ]","[-0.27519722 -0.         -0.        ]"
"237","[ 44.91143821   0.         -20.        ]","[-0.12263803  0.          0.        ]","[-0.27593561 -0.         -0.        ]"
"238","[ 44.51345513   0.         -20.        ]","[-0.39798308  0.          0.        ]","[-0.27534506 -0.         -0.        ]"
"239","[ 43.84205212   0.         -20.        ]","[-0.67140301  0.          0.        ]","[-0.27341993 -0.         -0.        ]"
"240","[ 42.90050674   0.         -20.        ]","[-0.94154537  0.          0.        ]","[-0.27014236 -0.         -0.        ]"
"241","[ 41.6934777   0.        -20.       ]","[-1.20702904  0.          0.        ]","[-0.26548367 -0.         -0.        ]"
"242","[ 40.22704197   0.         -20.        ]","[-1.46643573  0.          0.        ]","[-0.25940669 -0.         -0.        ]"
"243","[ 38.50873718   0.         -20.        ]","[-1.71830479  0.          0.        ]","[-0.25186906 -0.         -0.        ]"
"244","[ 36.54760514   0.         -20.        ]","[-1.96113204  0.          0.        ]","[-0.24282725 -0.         -0.        ]"
"245","[ 34.35423182   0.         -20.        ]","[-2.19337333  0.          0.        ]","[-0.23224129 -0.         -0.        ]"
"246","[ 31.94077848   0.         -20.        ]","[-2.41345334  0.          0.        ]","[-0.22008001 -0.         -0.        ]"
"247","[ 29.3209986   0.        -20.       ]","[-2.61977988  0.          0.        ]","[-0.20632655 -0.         -0.        ]"
"248","[ 26.51023493   0.         -20.        ]","[-2.81076367  0.          0.        ]","[-0.19098379 -0.         -0.        ]"
"249","[ 23.52539176   0.         -20.        ]","[-2.98484317  0.          0.        ]","[-0.17407949 -0.         -0.        ]"
"250","[ 20.38487797   0.         -20.        ]","[-3.14051379  0.          0.        ]","[-0.15567062 -0.         -0.        ]"
"251","[ 17.10851756   0.         -20.        ]","[-3.27636041  0.          0.        ]","[-0.13584662 -0.         -0.        ]"
"252","[ 13.71742602   0.         -20.        ]","[-3.39109155  0.          0.        ]","[-0.11473114 -0.         -0.        ]"
"253","[ 10.23385236   0.         -20.        ]","[-3.48357366  0.          0.        ]","[-0.09248211 -0.         -0.        ]"
"254","[  6.68098888   0.         -20.        ]","[-3.55286348  0.          0.        ]","[-0.06928982 -0.         -0.        ]"
"255","[  3.08275234   0.         -20.        ]","[-3.59823654  0.          0.        ]","[-0.04537306 -0.         -0.        ]"
"256","[ -0.53645771   0.         -20.        ]","[-3.61921005  0.          0.        ]","[-0.02097351 -0.         -0.        ]"
"257","[ -4.15201626   0.         -20.        ]","[-3.61555855  0.          0.        ]","[0.0036515 0.        0.       ]"
"258","[ -7.73933767   0.         -20.        ]","[-3.5873214  0.         0.       ]","[0.02823715 0.         0.        ]"
"259","[-11.27413912   0.         -20.        ]","[-3.53480145  0.          0.        ]","[0.05251995 0.         0.        ]"
"260","[-14.7326942   0.        -20.       ]","[-3.45855508  0.          0.        ]","[0.07624637 0.         0.        ]"
"261","[-18.09206845   0.         -20.        ]","[-3.35937424  0.          0.        ]","[0.09918084 0.         0.        ]"
"262","[-21.3303302   0.        -20.       ]","[-3.23826175  0.          0.        ]","[0.12111249 0.         0.        ]"
"263","[-24.42673164   0.         -20.        ]","[-3.09640144  0.          0.        ]","[0.14186031 0.         0.        ]"
"264","[-27.36185667   0.         -20.        ]","[-2.93512503  0.          0.        ]","[0.16127641 0.         0.        ]"
"265","[-30.11773433   0.         -20.        ]","[-2.75587766  0.          0.        ]","[0.17924737 0.         0.        ]"
"266","[-32.67791838   0.         -20.        ]","[-2.56018405  0.          0.        ]","[0.19569361 0.         0.        ]"
"267","[-35.0275352   0.        -20.       ]","[-2.34961682  0.          0.        ]","[0.21056723 0.         0.        ]"
"268","[-37.1533037   0.        -20.       ]","[-2.1257685  0.         0.       ]","[0.22384831 0.         0.        ]"
"269","[-39.04353181   0.         -20.        ]","[-1.89022811  0.          0.        ]","[0.2355404 0.        0.       ]"
"270","[-40.68809475   0.         -20.        ]","[-1.64456295  0.          0.        ]","[0.24566516 0.         0.        ]"
"271","[-42.07840076   0.         -20.        ]","[-1.39030601  0.          0.        ]","[0.25425694 0.         0.        ]"
"272","[-43.2073495   0.        -20.       ]","[-1.12894874  0.          0.        ]","[0.26135728 0.         0.        ]"
"273","[-44.0692884   0.        -20.       ]","[-0.8619389  0.         0.       ]","[0.26700984 0.         0.        ]"
"274","[-44.65997147   0.         -20.        ]","[-0.59068307  0.          0.        ]","[0.27125583 0.         0.        ]"
"275","[-44.97652434   0.         -20.        ]","[-0.31655287  0.          0.        ]","[0.2741302 0.        0.       ]"
"276","[-45.01741858   0.         -20.        ]","[-0.04089424  0.          0.        ]","[0.27565863 0.         0.        ]"
"277","[-44.78245735   0.         -20.        ]","[0.23496123 0.         0.        ]","[0.27585547 0.         0.        ]"
"278","[-44.27277352   0.         -20.        ]","[0.50968383 0.         0.        ]","[0.2747226 0.        0.       ]"
"279","[-43.49084039   0.         -20.        ]","[0.78193312 0.         0.        ]","[0.27224929 0.         0.        ]"
"280","[-42.44049421   0.         -20.        ]","[1.05034618 0.         0.        ]","[0.26841306 0.         0.        ]"
"281","[-41.12696662   0.         -20.        ]","[1.31352759 0.         0.        ]","[0.26318141 0.         0.        ]"
"282","[-39.55692439   0.         -20.        ]","[1.57004223 0.         0.        ]","[0.25651464 0.         0.        ]"
"283","[-37.7385128   0.        -20.       ]","[1.8184116 0.        0.       ]","[0.24836937 0.         0.        ]"
"284","[-35.68139829   0.         -20.        ]","[2.0571145 0.        0.       ]","[0.23870291 0.         0.        ]"
"285","[-33.39680555   0.         -20.        ]","[2.28459274 0.         0.        ]","[0.22747824 0.         0.        ]"
"286","[-30.89754348   0.         -20.        ]","[2.49926208 0.         0.        ]","[0.21466934 0.         0.        ]"
"287","[-28.19801466   0.         -20.        ]","[2.69952882 0.         0.        ]","[0.20026674 0.         0.        ]"
"288","[-25.31420295   0.         -20.        ]","[2.88381171 0.         0.        ]","[0.18428289 0.         0.        ]"
"289","[-22.26363428   0.         -20.        ]","[3.05056867 0.         0.        ]","[0.16675697 0.         0.        ]"
"290","[-19.06530676   0.         -20.        ]","[3.19832752 0.         0.        ]","[0.14775885 0.         0.        ]"
"291","[-15.73958743   0.         -20.        ]","[3.32571933 0.         0.        ]","[0.12739181 0.         0.        ]"
"292","[-12.30807454   0.         -20.        ]","[3.43151289 0.         0.        ]","[0.10579356 0.         0.        ]"
"293","[ -8.7934261   0.        -20.       ]","[3.51464844 0.         0.        ]","[0.08313555 0.         0.        ]"
"294","[ -5.21915741   0.         -20.        ]","[3.57426869 0.         0.        ]","[0.05962026 0.         0.        ]"
"295","[ -1.60941215   0.         -20.        ]","[3.60974526 0.         0.        ]","[0.03547657 0.         0.        ]"
"296","[  2.0112866   0.        -20.       ]","[3.62069874 0.         0.        ]","[0.01095348 0.         0.        ]"
"297","[  5.61829776   0.         -20.        ]","[3.60701116 0.         0.        ]","[-0.01368758 -0.         -0.        ]"
"298","[  9.18712763   0.         -20.        ]","[3.56882988 0.         0.        ]","[-0.03818128 -0.         -0.        ]"
"299","[ 12.69369034   0.         -20.        ]","[3.50656271 0.         0.        ]","[-0.06226717 -0.         -0.        ]"
"300","[ 16.11455493   0.         -20.        ]","[3.42086459 0.         0.        ]","[-0.08569812 -0.         -0.        ]"
"301","[ 19.42717162   0.         -20.        ]","[3.31261669 0.         0.        ]","[-0.1082479 -0.        -0.       ]"
"302","[ 22.61007103   0.         -20.        ]","[3.18289941 0.         0.        ]","[-0.12971728 -0.         -0.        ]"
"303","[ 25.64303198   0.         -20.        ]","[3.03296095 0.         0.        ]","[-0.14993846 -0.         -0.        ]"
"304","[ 28.50721538   0.         -20.        ]","[2.8641834 0.        0.       ]","[-0.16877755 -0.         -0.        ]"
"305","[ 31.1852637   0.        -20.       ]","[2.67804832 0.         0.        ]","[-0.18613508 -0.         -0.        ]"
"306","[ 33.6613673   0.        -20.       ]","[2.4761036 0.        0.       ]","[-0.20194473 -0.         -0.        ]"
"307","[ 35.92130039   0.         -20.        ]","[2.25993309 0.         0.        ]","[-0.2161705 -0.        -0.       ]"
"308","[ 37.95243084   0.         -20.        ]","[2.03113044 0.         0.        ]","[-0.22880265 -0.         -0.        ]"
"309","[ 39.74370854   0.         -20.        ]","[1.7912777 0.        0.       ]","[-0.23985274 -0.         -0.        ]"
"310","[ 41.28563796   0.         -20.        ]","[1.54192942 0.         0.        ]","[-0.24934828 -0.         -0.        ]"
"311","[ 42.57024018   0.         -20.        ]","[1.28460222 0.         0.        ]","[-0.2573272 -0.        -0.       ]"
"312","[ 43.59100992   0.         -20.        ]","[1.02076974 0.         0.        ]","[-0.26383248 -0.         -0.        ]"
"313","[ 44.34287235   0.         -20.        ]","[0.75186243 0.         0.        ]","[-0.2689073 -0.        -0.       ]"
"314","[ 44.82214405   0.         -20.        ]","[0.47927169 0.         0.        ]","[-0.27259074 -0.         -0.        ]"
"315","[ 45.02650146   0.         -20.        ]","[0.20435742 0.         0.        ]","[-0.27491427 -0.         -0.        ]"
"316","[ 44.95495971   0.         -20.        ]","[-0.07154175  0.          0.        ]","[-0.27589917 -0.         -0.        ]"
"317","[ 44.60786319   0.         -20.        ]","[-0.34709653  0.          0.        ]","[-0.27555478 -0.         -0.        ]"
"318","[ 43.98688886   0.         -20.        ]","[-0.62097432  0.          0.        ]","[-0.2738778 -0.        -0.       ]"
"319","[ 43.09506198   0.         -20.        ]","[-0.89182688  0.          0.        ]","[-0.27085256 -0.         -0.        ]"
"320","[ 41.93678286   0.         -20.        ]","[-1.15827911  0.          0.        ]","[-0.26645223 -0.         -0.        ]"
"321","[ 40.51786275   0.         -20.        ]","[-1.41892011  0.          0.        ]","[-0.260641 -0.       -0.      ]"
"322","[ 38.84556546   0.         -20.        ]","[-1.67229729  0.          0.        ]","[-0.25337718 -0.         -0.        ]"
"323","[ 36.92865104   0.         -20.        ]","[-1.91691442  0.          0.        ]","[-0.24461712 -0.         -0.        ]"
"324","[ 34.77741681   0.         -20.        ]","[-2.15123423  0.          0.        ]","[-0.23431981 -0.         -0.        ]"
"325","[ 32.40373053   0.         -20.        ]","[-2.37368628  0.          0.        ]","[-0.22245205 -0.         -0.        ]"
"326","[ 29.82105036   0.         -20.        ]","[-2.58268017  0.          0.        ]","[-0.20899389 -0.         -0.        ]"
"327","[ 27.04442602   0.         -20.        ]","[-2.77662434  0.          0.        ]","[-0.19394417 -0.         -0.        ]"
"328","[ 24.090476   0.       -20.      ]","[-2.95395002  0.          0.        ]","[-0.17732568 -0.         -0.        ]"
"329","[ 20.97733628   0.         -20.        ]","[-3.11313972  0.          0.        ]","[-0.1591897 -0.        -0.       ]"
"330","[ 17.72457709   0.         -20.        ]","[-3.25275919  0.          0.        ]","[-0.13961947 -0.         -0.        ]"
"331","[ 14.35308564   0.         -20.        ]","[-3.37149144  0.          0.        ]","[-0.11873225 -0.         -0.        ]"
"332","[ 10.88491448   0.         -20.        ]","[-3.46817116  0.          0.        ]","[-0.09667972 -0.         -0.        ]"
"333","[  7.34309693   0.         -20.        ]","[-3.54181755  0.          0.        ]","[-0.07364639 -0.         -0.        ]"
"334","[  3.75143322   0.         -20.        ]","[-3.59166371  0.          0.        ]","[-0.04984616 -0.         -0.        ]"
"335","[  0.13425255   0.         -20.        ]","[-3.61718066  0.          0.        ]","[-0.02551696 -0.         -0.        ]"
"336","[ -3.48384194   0.         -20.        ]","[-3.61809449  0.          0.        ]","[-0.00091383 -0.         -0.        ]"
"337","[ -7.07823728   0.         -20.        ]","[-3.59439534  0.          0.        ]","[0.02369915 0.         0.        ]"
"338","[-10.62457505   0.         -20.        ]","[-3.54633777  0.          0.        ]","[0.04805757 0.         0.        ]"
"339","[-14.09900737   0.         -20.        ]","[-3.47443233  0.          0.        ]","[0.07190544 0.         0.        ]"
"340","[-17.4784364   0.        -20.       ]","[-3.37942902  0.          0.        ]","[0.0950033 0.        0.       ]"
"341","[-20.74073015   0.         -20.        ]","[-3.26229376  0.          0.        ]","[0.11713527 0.         0.        ]"
"342","[-23.86490941   0.         -20.        ]","[-3.12417926  0.          0.        ]","[0.1381145 0.        0.       ]"
"343","[-26.83130185   0.         -20.        ]","[-2.96639244  0.          0.        ]","[0.15778682 0.         0.        ]"
"344","[-29.6216619   0.        -20.       ]","[-2.79036005  0.          0.        ]","[0.17603239 0.         0.        ]"
"345","[-32.21925643   0.         -20.        ]","[-2.59759453  0.          0.        ]","[0.19276552 0.         0.        ]"
"346","[-34.60891831   0.         -20.        ]","[-2.38966188  0.          0.        ]","[0.20793265 0.         0.        ]"
"347","[-36.77707116   0.         -20.        ]","[-2.16815285  0.          0.        ]","[0.22150903 0.         0.        ]"
"348","[-38.7117298   0.        -20.       ]","[-1.93465864  0.          0.        ]","[0.23349421 0.         0.        ]"
"349","[-40.4024815   0.        -20.       ]","[-1.6907517  0.         0.       ]","[0.24390694 0.         0.        ]"
"350","[-41.84045357   0.         -20.        ]","[-1.43797207  0.          0.        ]","[0.25277962 0.         0.        ]"
"351","[-43.01827277   0.         -20.        ]","[-1.1778192  0.         0.       ]","[0.26015287 0.         0.        ]"
"352","[-43.93002166   0.         -20.        ]","[-0.91174889  0.          0.        ]","[0.26607031 0.         0.        ]"
"353","[-44.57119663   0.         -20.        ]","[-0.64117497  0.          0.        ]","[0.27057392 0.         0.        ]"
"354","[-44.93867154   0.         -20.        ]","[-0.36747491  0.          0.        ]","[0.27370006 0.         0.        ]"
"355","[-45.03067014   0.         -20.        ]","[-0.0919986  0.         0.       ]","[0.27547631 0.         0.        ]"
"356","[-44.84674952   0.         -20.        ]","[0.18392062 0.         0.        ]","[0.27591922 0.         0.        ]"
"357","[-44.38779586   0.         -20.        ]","[0.45895366 0.         0.        ]","[0.27503305 0.         0.        ]"
"358","[-43.65603285   0.         -20.        ]","[0.73176301 0.         0.        ]","[0.27280934 0.         0.        ]"
"359","[-42.65504214   0.         -20.        ]","[1.0009907 0.        0.       ]","[0.2692277 0.        0.       ]"
"360","[-41.38979414   0.         -20.        ]","[1.265248 0.       0.      ]","[0.26425729 0.         0.        ]"
"361","[-39.86668663   0.         -20.        ]","[1.52310751 0.         0.        ]","[0.25785951 0.         0.        ]"
"362","[-38.09358777   0.         -20.        ]","[1.77309887 0.         0.        ]","[0.24999135 0.         0.        ]"
"363","[-36.07987926   0.         -20.        ]","[2.01370851 0.         0.        ]","[0.24060964 0.         0.        ]"
"364","[-33.83649485   0.         -20.        ]","[2.24338441 0.         0.        ]","[0.2296759 0.        0.       ]"
"365","[-31.37594876   0.         -20.        ]","[2.46054609 0.         0.        ]","[0.21716167 0.         0.        ]"
"366","[-28.71234867   0.         -20.        ]","[2.66360009 0.         0.        ]","[0.203054 0.       0.      ]"
"367","[-25.8613877   0.        -20.       ]","[2.85096098 0.         0.        ]","[0.18736089 0.         0.        ]"
"368","[-22.84031049   0.         -20.        ]","[3.02107721 0.         0.        ]","[0.17011623 0.         0.        ]"
"369","[-19.6678493   0.        -20.       ]","[3.17246119 0.         0.        ]","[0.15138399 0.         0.        ]"
"370","[-16.36412701   0.         -20.        ]","[3.30372229 0.         0.        ]","[0.1312611 0.        0.       ]"
"371","[-12.95052581   0.         -20.        ]","[3.41360119 0.         0.        ]","[0.1098789 0.        0.       ]"
"372","[ -9.44952187   0.         -20.        ]","[3.50100394 0.         0.        ]","[0.08740275 0.         0.        ]"
"373","[ -5.88448827   0.         -20.        ]","[3.5650336 0.        0.       ]","[0.06402966 0.         0.        ]"
"374","[ -2.27947061   0.         -20.        ]","[3.60501766 0.         0.        ]","[0.03998406 0.         0.        ]"
"375","[  1.34105883   0.         -20.        ]","[3.62052944 0.         0.        ]","[0.01551177 0.         0.        ]"
"376","[  4.9524608   0.        -20.       ]","[3.61140197 0.         0.        ]","[-0.00912746 -0.         -0.        ]"
"377","[  8.5301944   0.        -20.       ]","[3.5777336 0.        0.       ]","[-0.03366837 -0.         -0.        ]"
"378","[ 12.05007907   0.         -20.        ]","[3.51988467 0.         0.        ]","[-0.05784893 -0.         -0.        ]"
"379","[ 15.48854478   0.         -20.        ]","[3.43846571 0.         0.        ]","[-0.08141896 -0.         -0.        ]"
"380","[ 18.82286267   0.         -20.        ]","[3.33431788 0.         0.        ]","[-0.10414783 -0.         -0.        ]"
"381","[ 22.03134962   0.         -20.        ]","[3.20848695 0.         0.        ]","[-0.12583093 -0.         -0.        ]"
"382","[ 25.09354217   0.         -20.        ]","[3.06219255 0.         0.        ]","[-0.1462944 -0.        -0.       ]"
"383","[ 27.99033676   0.         -20.        ]","[2.89679459 0.         0.        ]","[-0.16539797 -0.         -0.        ]"
"384","[ 30.70409551   0.         -20.        ]","[2.71375876 0.         0.        ]","[-0.18303583 -0.         -0.        ]"
"385","[ 33.21871856   0.         -20.        ]","[2.51462305 0.         0.        ]","[-0.19913571 -0.         -0.        ]"
"386","[ 35.51968535   0.         -20.        ]","[2.30096679 0.         0.        ]","[-0.21365626 -0.         -0.        ]"
"387","[ 37.59406891   0.         -20.        ]","[2.07438356 0.         0.        ]","[-0.22658323 -0.         -0.        ]"
"388","[ 39.43052784   0.         -20.        ]","[1.83645893 0.         0.        ]","[-0.23792463 -0.         -0.        ]"
"389","[ 41.01928134   0.         -20.        ]","[1.5887535 0.        0.       ]","[-0.24770544 -0.         -0.        ]"
"390","[ 42.35207278   0.         -20.        ]","[1.33279144 0.         0.        ]","[-0.25596206 -0.         -0.        ]"
"391","[ 43.42212729   0.         -20.        ]","[1.07005451 0.         0.        ]","[-0.26273693 -0.         -0.        ]"
"392","[ 44.22410826   0.         -20.        ]","[0.80198096 0.         0.        ]","[-0.26807354 -0.         -0.        ]"
"393","[ 44.75407721   0.         -20.        ]","[0.52996895 0.         0.        ]","[-0.27201201 -0.         -0.        ]"
"394","[ 45.00946071   0.         -20.        ]","[0.2553835 0.        0.       ]","[-0.27458545 -0.         -0.        ]"
"395","[ 44.98902704   0.         -20.        ]","[-0.02043367  0.          0.        ]","[-0.27581718 -0.         -0.        ]"
"396","[ 44.69287454   0.         -20.        ]","[-0.2961525  0.         0.       ]","[-0.27571883 -0.         -0.        ]"
"397","[ 44.12243258   0.         -20.        ]","[-0.57044196  0.          0.        ]","[-0.27428946 -0.         -0.        ]"
"398","[ 43.280475   0.       -20.      ]","[-0.84195758  0.          0.        ]","[-0.27151562 -0.         -0.        ]"
"399","[ 42.171145   0.       -20.      ]","[-1.10933  0.       0.     ]","[-0.26737242 -0.         -0.        ]"
"400","[ 40.79998951   0.         -20.        ]","[-1.37115549  0.          0.        ]","[-0.2618255 -0.        -0.       ]"
"401","[ 39.17400003   0.         -20.        ]","[-1.62598948  0.          0.        ]","[-0.25483398 -0.         -0.        ]"
"402","[ 37.3016563   0.        -20.       ]","[-1.87234373  0.          0.        ]","[-0.24635426 -0.         -0.        ]"
"403","[ 35.19296812   0.         -20.        ]","[-2.10868818  0.          0.        ]","[-0.23634444 -0.         -0.        ]"
"404","[ 32.85951046   0.         -20.        ]","[-2.33345767  0.          0.        ]","[-0.22476949 -0.         -0.        ]"
"405","[ 30.31444621   0.         -20.        ]","[-2.54506425  0.          0.        ]","[-0.21160658 -0.         -0.        ]"
"406","[ 27.5725313   0.        -20.       ]","[-2.74191491  0.          0.        ]","[-0.19685067 -0.         -0.        ]"
"407","[ 24.65009665   0.         -20.        ]","[-2.92243465  0.          0.        ]","[-0.18051974 -0.         -0.        ]"
"408","[ 21.56500251   0.         -20.        ]","[-3.08509414  0.          0.        ]","[-0.16265949 -0.         -0.        ]"
"409","[ 18.33656131   0.         -20.        ]","[-3.2284412  0.         0.       ]","[-0.14334706 -0.         -0.        ]"
"410","[ 14.9854268   0.        -20.       ]","[-3.35113451  0.          0.        ]","[-0.12269331 -0.         -0.        ]"
"411","[ 11.53344868   0.         -20.        ]","[-3.45197812  0.          0.        ]","[-0.10084361 -0.         -0.        ]"
"412","[  8.00349397   0.         -20.        ]","[-3.52995471  0.          0.        ]","[-0.07797659 -0.         -0.        ]"
"413","[  4.4192382   0.        -20.       ]","[-3.58425577  0.          0.        ]","[-0.05430106 -0.         -0.        ]"
"414","[  0.80493145   0.         -20.        ]","[-3.61430675  0.          0.        ]","[-0.03005098 -0.         -0.        ]"
"415","[ -2.81485412   0.         -20.        ]","[-3.61978557  0.          0.        ]","[-0.00547881 -0.         -0.        ]"
"416","[ -6.41548728   0.         -20.        ]","[-3.60063317  0.          0.        ]","[0.0191524 0.        0.       ]"
"417","[ -9.97254281   0.         -20.        ]","[-3.55705552  0.          0.        ]","[0.04357764 0.         0.        ]"
"418","[-13.46205961   0.         -20.        ]","[-3.4895168  0.         0.       ]","[0.06753873 0.         0.        ]"
"419","[-16.86078385   0.         -20.        ]","[-3.39872424  0.          0.        ]","[0.09079256 0.         0.        ]"
"420","[-20.14638967   0.         -20.        ]","[-3.28560582  0.          0.        ]","[0.11311842 0.         0.        ]"
"421","[-23.29767173   0.         -20.        ]","[-3.15128205  0.          0.        ]","[0.13432377 0.         0.        ]"
"422","[-26.29470559   0.         -20.        ]","[-2.99703386  0.          0.        ]","[0.15424819 0.         0.        ]"
"423","[-29.118974   0.       -20.      ]","[-2.82426841  0.          0.        ]","[0.17276546 0.         0.        ]"
"424","[-31.75345877   0.         -20.        ]","[-2.63448477  0.          0.        ]","[0.18978364 0.         0.        ]"
"425","[-34.18270008   0.         -20.        ]","[-2.42924132  0.          0.        ]","[0.20524345 0.         0.        ]"
"426","[-36.39282629   0.         -20.        ]","[-2.21012621  0.          0.        ]","[0.21911511 0.         0.        ]"
"427","[-38.37155844   0.         -20.        ]","[-1.97873215  0.          0.        ]","[0.23139406 0.         0.        ]"
"428","[-40.1081947   0.        -20.       ]","[-1.73663626  0.          0.        ]","[0.24209588 0.         0.        ]"
"429","[-41.59358008   0.         -20.        ]","[-1.48538538  0.          0.        ]","[0.25125088 0.         0.        ]"
"430","[-42.82006692   0.         -20.        ]","[-1.22648684  0.          0.        ]","[0.25889854 0.         0.        ]"
"431","[-43.78147144   0.         -20.        ]","[-0.96140452  0.          0.        ]","[0.26508231 0.         0.        ]"
"432","[-44.47303117   0.         -20.        ]","[-0.69155973  0.          0.        ]","[0.2698448 0.        0.       ]"
"433","[-44.89136725   0.         -20.        ]","[-0.41833608  0.          0.        ]","[0.27322365 0.         0.        ]"
"434","[-45.03445504   0.         -20.        ]","[-0.14308779  0.          0.        ]","[0.27524829 0.         0.        ]"
"435","[-44.9016054   0.        -20.       ]","[0.13284964 0.         0.        ]","[0.27593743 0.         0.        ]"
"436","[-44.4934581   0.        -20.       ]","[0.40814729 0.         0.        ]","[0.27529765 0.         0.        ]"
"437","[-43.81198796   0.         -20.        ]","[0.68147014 0.         0.        ]","[0.27332285 0.         0.        ]"
"438","[-42.86052309   0.         -20.        ]","[0.95146487 0.         0.        ]","[0.26999473 0.         0.        ]"
"439","[-41.64377399   0.         -20.        ]","[1.2167491 0.        0.       ]","[0.26528423 0.         0.        ]"
"440","[-40.16787092   0.         -20.        ]","[1.47590307 0.         0.        ]","[0.25915396 0.         0.        ]"
"441","[-38.44040643   0.         -20.        ]","[1.72746449 0.         0.        ]","[0.25156142 0.         0.        ]"
"442","[-36.47047883   0.         -20.        ]","[1.9699276 0.        0.       ]","[0.24246312 0.         0.        ]"
"443","[-34.2687319   0.        -20.       ]","[2.20174693 0.         0.        ]","[0.23181933 0.         0.        ]"
"444","[-31.84738567   0.         -20.        ]","[2.42134623 0.         0.        ]","[0.2195993 0.        0.       ]"
"445","[-29.22025261   0.         -20.        ]","[2.62713305 0.         0.        ]","[0.20578682 0.         0.        ]"
"446","[-26.40273397   0.         -20.        ]","[2.81751864 0.         0.        ]","[0.19038559 0.         0.        ]"
"447","[-23.41179094   0.         -20.        ]","[2.99094303 0.         0.        ]","[0.17342439 0.         0.        ]"
"448","[-20.26588657   0.         -20.        ]","[3.14590436 0.         0.        ]","[0.15496133 0.         0.        ]"
"449","[-16.98489511   0.         -20.        ]","[3.28099146 0.         0.        ]","[0.1350871 0.        0.       ]"
"450","[-13.58997701   0.         -20.        ]","[3.3949181 0.        0.       ]","[0.11392664 0.         0.        ]"
"451","[-10.1034198   0.        -20.       ]","[3.48655721 0.         0.        ]","[0.09163911 0.         0.        ]"
"452","[ -6.54844664   0.         -20.        ]","[3.55497315 0.         0.        ]","[0.06841594 0.         0.        ]"
"453","[ -2.94899661   0.         -20.        ]","[3.59945004 0.         0.        ]","[0.04447688 0.         0.        ]"
"454","[  0.67051775   0.         -20.        ]","[3.61951436 0.         0.        ]","[0.02006432 0.         0.        ]"
"455","[  4.28546814   0.         -20.        ]","[3.61495039 0.         0.        ]","[-0.00456397 -0.         -0.        ]"
"456","[  7.87127547   0.         -20.        ]","[3.58580733 0.         0.        ]","[-0.02914307 -0.         -0.        ]"
"457","[ 11.4036731   0.        -20.       ]","[3.53239763 0.         0.        ]","[-0.0534097 -0.        -0.       ]"
"458","[ 14.85895985   0.         -20.        ]","[3.45528676 0.         0.        ]","[-0.07711087 -0.         -0.        ]"
"459","[ 18.2142348   0.        -20.       ]","[3.35527495 0.         0.        ]","[-0.10001181 -0.         -0.        ]"
"460","[ 21.44760709   0.         -20.        ]","[3.23337229 0.         0.        ]","[-0.12190266 -0.         -0.        ]"
"461","[ 24.53837578   0.         -20.        ]","[3.09076868 0.         0.        ]","[-0.14260361 -0.         -0.        ]"
"462","[ 27.46717643   0.         -20.        ]","[2.92880066 0.         0.        ]","[-0.16196802 -0.         -0.        ]"
"463","[ 30.21609334   0.         -20.        ]","[2.74891691 0.         0.        ]","[-0.17988375 -0.         -0.        ]"
"464","[ 32.7687378   0.        -20.       ]","[2.55264446 0.         0.        ]","[-0.19627245 -0.         -0.        ]"
"465","[ 35.11029496   0.         -20.        ]","[2.34155716 0.         0.        ]","[-0.2110873 -0.        -0.       ]"
"466","[ 37.22754274   0.         -20.        ]","[2.11724778 0.         0.        ]","[-0.22430938 -0.         -0.        ]"
"467","[ 39.10884756   0.         -20.        ]","[1.88130482 0.         0.        ]","[-0.23594296 -0.         -0.        ]"
"468","[ 40.74414209   0.         -20.        ]","[1.63529452 0.         0.        ]","[-0.2460103 -0.        -0.       ]"
"469","[ 42.12489052   0.         -20.        ]","[1.38074843 0.         0.        ]","[-0.2545461 -0.        -0.       ]"
"470","[ 43.24404688   0.         -20.        ]","[1.11915636 0.         0.        ]","[-0.26159207 -0.         -0.        ]"
"471","[ 44.09601139   0.         -20.        ]","[0.85196451 0.         0.        ]","[-0.26719185 -0.         -0.        ]"
"472","[ 44.67658941   0.         -20.        ]","[0.58057802 0.         0.        ]","[-0.27138649 -0.         -0.        ]"
"473","[ 44.98295679   0.         -20.        ]","[0.30636738 0.         0.        ]","[-0.27421064 -0.         -0.        ]"
"474","[ 45.01363456   0.         -20.        ]","[0.03067777 0.         0.        ]","[-0.2756896 -0.        -0.       ]"
"475","[ 44.76847508   0.         -20.        ]","[-0.24515949  0.          0.        ]","[-0.27583726 -0.         -0.        ]"
"476","[ 44.24866055   0.         -20.        ]","[-0.51981453  0.          0.        ]","[-0.27465504 -0.         -0.        ]"
"477","[ 43.45671428   0.         -20.        ]","[-0.79194627  0.          0.        ]","[-0.27213175 -0.         -0.        ]"
"478","[ 42.39652351   0.         -20.        ]","[-1.06019076  0.          0.        ]","[-0.26824449 -0.         -0.        ]"
"479","[ 41.0733723   0.        -20.       ]","[-1.32315122  0.          0.        ]","[-0.26296046 -0.         -0.        ]"
"480","[ 39.49398135   0.         -20.        ]","[-1.57939095  0.          0.        ]","[-0.25623974 -0.         -0.        ]"
"481","[ 37.6665515   0.        -20.       ]","[-1.82742985  0.          0.        ]","[-0.24803889 -0.         -0.        ]"
"482","[ 35.60080629   0.         -20.        ]","[-2.06574521  0.          0.        ]","[-0.23831536 -0.         -0.        ]"
"483","[ 33.30802867   0.         -20.        ]","[-2.29277763  0.          0.        ]","[-0.22703242 -0.         -0.        ]"
"484","[ 30.80108646   0.         -20.        ]","[-2.5069422  0.         0.       ]","[-0.21416457 -0.         -0.        ]"
"485","[ 28.09444119   0.         -20.        ]","[-2.70664527  0.          0.        ]","[-0.19970307 -0.         -0.        ]"
"486","[ 25.20413467   0.         -20.        ]","[-2.89030653  0.          0.        ]","[-0.18366126 -0.         -0.        ]"
"487","[ 22.14774875   0.         -20.        ]","[-3.05638591  0.          0.        ]","[-0.16607939 -0.         -0.        ]"
"488","[ 18.94433429   0.         -20.        ]","[-3.20341446  0.          0.        ]","[-0.14702855 -0.         -0.        ]"
"489","[ 15.61430657   0.         -20.        ]","[-3.33002772  0.          0.        ]","[-0.12661326 -0.         -0.        ]"
"490","[ 12.17930633   0.         -20.        ]","[-3.43500024  0.          0.        ]","[-0.10497252 -0.         -0.        ]"
"491","[  8.6620271   0.        -20.       ]","[-3.51727923  0.          0.        ]","[-0.08227899 -0.         -0.        ]"
"492","[  5.08601166   0.         -20.        ]","[-3.57601544  0.          0.        ]","[-0.05873621 -0.         -0.        ]"
"493","[  1.47542228   0.         -20.        ]","[-3.61058938  0.          0.        ]","[-0.03457394 -0.         -0.        ]"
"494","[ -2.14520886   0.         -20.        ]","[-3.62063115  0.          0.        ]","[-0.01004177 -0.         -0.        ]"
"495","[ -5.75124145   0.         -20.        ]","[-3.60603258  0.          0.        ]","[0.01459856 0.         0.        ]"
"496","[ -9.31819228   0.         -20.        ]","[-3.56695083  0.          0.        ]","[0.03908175 0.         0.        ]"
"497","[-12.82199542   0.         -20.        ]","[-3.50380314  0.          0.        ]","[0.06314769 0.         0.        ]"
"498","[-16.23924866   0.         -20.        ]","[-3.41725324  0.          0.        ]","[0.08654991 0.         0.        ]"
"499","[-19.54743884   0.         -20.        ]","[-3.30819018  0.          0.        ]","[0.10906306 0.         0.        ]"
