"time","theta3d","omega3d","alpha3d"
"0","[ 49.82572489   0.         -23.        ]","[-0.17427511  0.          0.        ]","[-0.17427511 -0.         -0.        ]"
"1","[ 49.47762027   0.         -23.        ]","[-0.34810462  0.          0.        ]","[-0.17382951 -0.         -0.        ]"
"2","[ 48.95658102   0.         -23.        ]","[-0.52103925  0.          0.        ]","[-0.17293463 -0.         -0.        ]"
"3","[ 48.26395849   0.         -23.        ]","[-0.69262253  0.          0.        ]","[-0.17158328 -0.         -0.        ]"
"4","[ 47.40157101   0.         -23.        ]","[-0.86238748  0.          0.        ]","[-0.16976495 -0.         -0.        ]"
"5","[ 46.37171722   0.         -23.        ]","[-1.02985379  0.          0.        ]","[-0.16746631 -0.         -0.        ]"
"6","[ 45.17719179   0.         -23.        ]","[-1.19452542  0.          0.        ]","[-0.16467163 -0.         -0.        ]"
"7","[ 43.82130285   0.         -23.        ]","[-1.35588894  0.          0.        ]","[-0.16136352 -0.         -0.        ]"
"8","[ 42.3078903   0.        -23.       ]","[-1.51341255  0.          0.        ]","[-0.15752361 -0.         -0.        ]"
"9","[ 40.64134423   0.         -23.        ]","[-1.66654607  0.          0.        ]","[-0.15313352 -0.         -0.        ]"
"10","[ 38.82662242   0.         -23.        ]","[-1.81472181  0.          0.        ]","[-0.14817574 -0.         -0.        ]"
"11","[ 36.86926588   0.         -23.        ]","[-1.95735654  0.          0.        ]","[-0.14263473 -0.         -0.        ]"
"12","[ 34.77541134   0.         -23.        ]","[-2.09385454  0.          0.        ]","[-0.13649799 -0.         -0.        ]"
"13","[ 32.55179965   0.         -23.        ]","[-2.22361169  0.          0.        ]","[-0.12975715 -0.         -0.        ]"
"14","[ 30.20577888   0.         -23.        ]","[-2.34602077  0.          0.        ]","[-0.12240908 -0.         -0.        ]"
"15","[ 27.74530124   0.         -23.        ]","[-2.46047764  0.          0.        ]","[-0.11445687 -0.         -0.        ]"
"16","[ 25.17891282   0.         -23.        ]","[-2.56638843  0.          0.        ]","[-0.10591079 -0.         -0.        ]"
"17","[ 22.51573537   0.         -23.        ]","[-2.66317745  0.          0.        ]","[-0.09678902 -0.         -0.        ]"
"18","[ 19.76543972   0.         -23.        ]","[-2.75029565  0.          0.        ]","[-0.0871182 -0.        -0.       ]"
"19","[ 16.93821031   0.         -23.        ]","[-2.8272294  0.         0.       ]","[-0.07693375 -0.         -0.        ]"
"20","[ 14.04470101   0.         -23.        ]","[-2.8935093  0.         0.       ]","[-0.0662799 -0.        -0.       ]"
"21","[ 11.09598228   0.         -23.        ]","[-2.94871873  0.          0.        ]","[-0.05520943 -0.         -0.        ]"
"22","[  8.10348045   0.         -23.        ]","[-2.99250183  0.          0.        ]","[-0.04378309 -0.         -0.        ]"
"23","[  5.07890991   0.         -23.        ]","[-3.02457054  0.          0.        ]","[-0.03206871 -0.         -0.        ]"
"24","[  2.03419933   0.         -23.        ]","[-3.04471058  0.          0.        ]","[-0.02014004 -0.         -0.        ]"
"25","[ -1.01858659   0.         -23.        ]","[-3.05278593  0.          0.        ]","[-0.00807534 -0.         -0.        ]"
"26","[ -4.06732831   0.         -23.        ]","[-3.04874171  0.          0.        ]","[0.00404421 0.         0.        ]"
"27","[ -7.09993375   0.         -23.        ]","[-3.03260544  0.          0.        ]","[0.01613627 0.         0.        ]"
"28","[-10.10442012   0.         -23.        ]","[-3.00448637  0.          0.        ]","[0.02811907 0.         0.        ]"
"29","[-13.06899328   0.         -23.        ]","[-2.96457316  0.          0.        ]","[0.03991321 0.         0.        ]"
"30","[-15.98212319   0.         -23.        ]","[-2.91312991  0.          0.        ]","[0.05144325 0.         0.        ]"
"31","[-18.83261383   0.         -23.        ]","[-2.85049064  0.          0.        ]","[0.06263926 0.         0.        ]"
"32","[-21.60966645   0.         -23.        ]","[-2.77705262  0.          0.        ]","[0.07343802 0.         0.        ]"
"33","[-24.30293505   0.         -23.        ]","[-2.6932686  0.         0.       ]","[0.08378402 0.         0.        ]"
"34","[-26.90257351   0.         -23.        ]","[-2.59963846  0.          0.        ]","[0.09363014 0.         0.        ]"
"35","[-29.39927397   0.         -23.        ]","[-2.49670045  0.          0.        ]","[0.10293801 0.         0.        ]"
"36","[-31.78429633   0.         -23.        ]","[-2.38502236  0.          0.        ]","[0.11167809 0.         0.        ]"
"37","[-34.04948924   0.         -23.        ]","[-2.26519292  0.          0.        ]","[0.11982945 0.         0.        ]"
"38","[-36.18730291   0.         -23.        ]","[-2.13781367  0.          0.        ]","[0.12737925 0.         0.        ]"
"39","[-38.19079448   0.         -23.        ]","[-2.00349157  0.          0.        ]","[0.1343221 0.        0.       ]"
"40","[-40.05362686   0.         -23.        ]","[-1.86283238  0.          0.        ]","[0.14065918 0.         0.        ]"
"41","[-41.77006201   0.         -23.        ]","[-1.71643515  0.          0.        ]","[0.14639723 0.         0.        ]"
"42","[-43.33494966   0.         -23.        ]","[-1.56488765  0.          0.        ]","[0.1515475 0.        0.       ]"
"43","[-44.74371267   0.         -23.        ]","[-1.40876301  0.          0.        ]","[0.15612464 0.         0.        ]"
"44","[-45.99233006   0.         -23.        ]","[-1.24861739  0.          0.        ]","[0.16014562 0.         0.        ]"
"45","[-47.0773188   0.        -23.       ]","[-1.08498874  0.          0.        ]","[0.16362865 0.         0.        ]"
"46","[-47.99571535   0.         -23.        ]","[-0.91839655  0.          0.        ]","[0.16659219 0.         0.        ]"
"47","[-48.74505784   0.         -23.        ]","[-0.74934249  0.          0.        ]","[0.16905406 0.         0.        ]"
"48","[-49.32336971   0.         -23.        ]","[-0.57831187  0.          0.        ]","[0.17103062 0.         0.        ]"
"49","[-49.72914552   0.         -23.        ]","[-0.40577581  0.          0.        ]","[0.17253606 0.         0.        ]"
"50","[-49.96133946   0.         -23.        ]","[-0.23219394  0.          0.        ]","[0.17358187 0.         0.        ]"
"51","[-50.019357   0.       -23.      ]","[-0.05801754  0.          0.        ]","[0.1741764 0.        0.       ]"
"52","[-49.90305004   0.         -23.        ]","[0.11630696 0.         0.        ]","[0.17432451 0.         0.        ]"
"53","[-49.61271566   0.         -23.        ]","[0.29033438 0.         0.        ]","[0.17402742 0.         0.        ]"
"54","[-49.14909859   0.         -23.        ]","[0.46361707 0.         0.        ]","[0.17328268 0.         0.        ]"
"55","[-48.51339728   0.         -23.        ]","[0.63570131 0.         0.        ]","[0.17208424 0.         0.        ]"
"56","[-47.7072733   0.        -23.       ]","[0.80612398 0.         0.        ]","[0.17042267 0.         0.        ]"
"57","[-46.73286381   0.         -23.        ]","[0.97440949 0.         0.        ]","[0.16828551 0.         0.        ]"
"58","[-45.59279655   0.         -23.        ]","[1.14006726 0.         0.        ]","[0.16565777 0.         0.        ]"
"59","[-44.29020677   0.         -23.        ]","[1.30258978 0.         0.        ]","[0.16252252 0.         0.        ]"
"60","[-42.82875535   0.         -23.        ]","[1.46145142 0.         0.        ]","[0.15886165 0.         0.        ]"
"61","[-41.21264727   0.         -23.        ]","[1.61610808 0.         0.        ]","[0.15465665 0.         0.        ]"
"62","[-39.44664956   0.         -23.        ]","[1.76599771 0.         0.        ]","[0.14988963 0.         0.        ]"
"63","[-37.53610757   0.         -23.        ]","[1.91054198 0.         0.        ]","[0.14454428 0.         0.        ]"
"64","[-35.48695865   0.         -23.        ]","[2.04914893 0.         0.        ]","[0.13860694 0.         0.        ]"
"65","[-33.30574196   0.         -23.        ]","[2.18121669 0.         0.        ]","[0.13206776 0.         0.        ]"
"66","[-30.99960353   0.         -23.        ]","[2.30613843 0.         0.        ]","[0.12492175 0.         0.        ]"
"67","[-28.57629528   0.         -23.        ]","[2.42330825 0.         0.        ]","[0.11716981 0.         0.        ]"
"68","[-26.04416729   0.         -23.        ]","[2.532128 0.       0.      ]","[0.10881975 0.         0.        ]"
"69","[-23.41215226   0.         -23.        ]","[2.63201503 0.         0.        ]","[0.09988703 0.         0.        ]"
"70","[-20.68974181   0.         -23.        ]","[2.72241045 0.         0.        ]","[0.09039543 0.         0.        ]"
"71","[-17.88695393   0.         -23.        ]","[2.80278788 0.         0.        ]","[0.08037742 0.         0.        ]"
"72","[-15.01429172   0.         -23.        ]","[2.87266221 0.         0.        ]","[0.06987434 0.         0.        ]"
"73","[-12.08269336   0.         -23.        ]","[2.93159836 0.         0.        ]","[0.05893614 0.         0.        ]"
"74","[ -9.10347398   0.         -23.        ]","[2.97921939 0.         0.        ]","[0.04762103 0.         0.        ]"
"75","[ -6.08826001   0.         -23.        ]","[3.01521397 0.         0.        ]","[0.03599458 0.         0.        ]"
"76","[ -3.04891732   0.         -23.        ]","[3.03934269 0.         0.        ]","[0.02412872 0.         0.        ]"
"77","[ 2.52576061e-03  0.00000000e+00 -2.30000000e+01]","[3.05144308 0.         0.        ]","[0.01210039 0.         0.        ]"
"78","[  3.05395881   0.         -23.        ]","[3.05143305 0.         0.        ]","[-1.00288458e-05 -0.00000000e+00 -0.00000000e+00]"
"79","[  6.09327149   0.         -23.        ]","[3.03931267 0.         0.        ]","[-0.01212038 -0.         -0.        ]"
"80","[  9.10843565   0.         -23.        ]","[3.01516416 0.         0.        ]","[-0.02414851 -0.         -0.        ]"
"81","[ 12.08758577   0.         -23.        ]","[2.97915013 0.         0.        ]","[-0.03601403 -0.         -0.        ]"
"82","[ 15.01909588   0.         -23.        ]","[2.9315101 0.        0.       ]","[-0.04764002 -0.         -0.        ]"
"83","[ 17.89165141   0.         -23.        ]","[2.87255553 0.         0.        ]","[-0.05895457 -0.         -0.        ]"
"84","[ 20.69431486   0.         -23.        ]","[2.80266345 0.         0.        ]","[-0.06989209 -0.         -0.        ]"
"85","[ 23.4165839   0.        -23.       ]","[2.72226904 0.         0.        ]","[-0.08039441 -0.         -0.        ]"
"86","[ 26.04844137   0.         -23.        ]","[2.63185747 0.         0.        ]","[-0.09041157 -0.         -0.        ]"
"87","[ 28.58039655   0.         -23.        ]","[2.53195519 0.         0.        ]","[-0.09990228 -0.         -0.        ]"
"88","[ 31.00351769   0.         -23.        ]","[2.42312114 0.         0.        ]","[-0.10883405 -0.         -0.        ]"
"89","[ 33.3094557   0.        -23.       ]","[2.305938 0.       0.      ]","[-0.11718313 -0.         -0.        ]"
"90","[ 35.49045963   0.         -23.        ]","[2.18100393 0.         0.        ]","[-0.12493407 -0.         -0.        ]"
"91","[ 37.53938448   0.         -23.        ]","[2.04892485 0.         0.        ]","[-0.13207908 -0.         -0.        ]"
"92","[ 39.44969208   0.         -23.        ]","[1.91030759 0.         0.        ]","[-0.13861726 -0.         -0.        ]"
"93","[ 41.21544607   0.         -23.        ]","[1.76575399 0.         0.        ]","[-0.1445536 -0.        -0.       ]"
"94","[ 42.83130207   0.         -23.        ]","[1.615856 0.       0.      ]","[-0.14989799 -0.         -0.        ]"
"95","[ 44.292494   0.       -23.      ]","[1.46119193 0.         0.        ]","[-0.15466407 -0.         -0.        ]"
"96","[ 45.59481778   0.         -23.        ]","[1.30232378 0.         0.        ]","[-0.15886815 -0.         -0.        ]"
"97","[ 46.73461343   0.         -23.        ]","[1.13979565 0.         0.        ]","[-0.16252814 -0.         -0.        ]"
"98","[ 47.70874654   0.         -23.        ]","[0.97413312 0.         0.        ]","[-0.16566253 -0.         -0.        ]"
"99","[ 48.51459022   0.         -23.        ]","[0.80584367 0.         0.        ]","[-0.16828945 -0.         -0.        ]"
"100","[ 49.15000808   0.         -23.        ]","[0.63541786 0.         0.        ]","[-0.17042581 -0.         -0.        ]"
"101","[ 49.61333934   0.         -23.        ]","[0.46333126 0.         0.        ]","[-0.17208661 -0.         -0.        ]"
"102","[ 49.90338631   0.         -23.        ]","[0.29004697 0.         0.        ]","[-0.17328429 -0.         -0.        ]"
"103","[ 50.019405   0.       -23.      ]","[0.11601869 0.         0.        ]","[-0.17402828 -0.         -0.        ]"
"104","[ 49.96109906   0.         -23.        ]","[-0.05830594  0.          0.        ]","[-0.17432463 -0.         -0.        ]"
"105","[ 49.72861734   0.         -23.        ]","[-0.23248172  0.          0.        ]","[-0.17417579 -0.         -0.        ]"
"106","[ 49.3225551   0.        -23.       ]","[-0.40606224  0.          0.        ]","[-0.17358052 -0.         -0.        ]"
"107","[ 48.74395891   0.         -23.        ]","[-0.57859619  0.          0.        ]","[-0.17253395 -0.         -0.        ]"
"108","[ 47.99433499   0.         -23.        ]","[-0.74962393  0.          0.        ]","[-0.17102774 -0.         -0.        ]"
"109","[ 47.07566066   0.         -23.        ]","[-0.91867432  0.          0.        ]","[-0.1690504 -0.        -0.       ]"
"110","[ 45.99039863   0.         -23.        ]","[-1.08526203  0.          0.        ]","[-0.16658771 -0.         -0.        ]"
"111","[ 44.74151328   0.         -23.        ]","[-1.24888535  0.          0.        ]","[-0.16362332 -0.         -0.        ]"
"112","[ 43.33248852   0.         -23.        ]","[-1.40902477  0.          0.        ]","[-0.16013942 -0.         -0.        ]"
"113","[ 41.76734622   0.         -23.        ]","[-1.5651423  0.         0.       ]","[-0.15611753 -0.         -0.        ]"
"114","[ 40.05066446   0.         -23.        ]","[-1.71668176  0.          0.        ]","[-0.15153946 -0.         -0.        ]"
"115","[ 38.18759447   0.         -23.        ]","[-1.86306999  0.          0.        ]","[-0.14638823 -0.         -0.        ]"
"116","[ 36.18387529   0.         -23.        ]","[-2.00371918  0.          0.        ]","[-0.1406492 -0.        -0.       ]"
"117","[ 34.04584499   0.         -23.        ]","[-2.1380303  0.         0.       ]","[-0.13431112 -0.         -0.        ]"
"118","[ 31.78044743   0.         -23.        ]","[-2.26539756  0.          0.        ]","[-0.12736726 -0.         -0.        ]"
"119","[ 29.39523342   0.         -23.        ]","[-2.38521401  0.          0.        ]","[-0.11981645 -0.         -0.        ]"
"120","[ 26.89835529   0.         -23.        ]","[-2.49687813  0.          0.        ]","[-0.11166411 -0.         -0.        ]"
"121","[ 24.29855409   0.         -23.        ]","[-2.5998012  0.         0.       ]","[-0.10292307 -0.         -0.        ]"
"122","[ 21.60513861   0.         -23.        ]","[-2.69341548  0.          0.        ]","[-0.09361428 -0.         -0.        ]"
"123","[ 18.82795582   0.         -23.        ]","[-2.77718279  0.          0.        ]","[-0.08376731 -0.         -0.        ]"
"124","[ 15.97735251   0.         -23.        ]","[-2.85060331  0.          0.        ]","[-0.07342052 -0.         -0.        ]"
"125","[ 13.06412815   0.         -23.        ]","[-2.91322436  0.          0.        ]","[-0.06262105 -0.         -0.        ]"
"126","[ 10.09947936   0.         -23.        ]","[-2.96464879  0.          0.        ]","[-0.05142444 -0.         -0.        ]"
"127","[  7.09493667   0.         -23.        ]","[-3.00454269  0.          0.        ]","[-0.03989389 -0.         -0.        ]"
"128","[  4.06229459   0.         -23.        ]","[-3.03264207  0.          0.        ]","[-0.02809939 -0.         -0.        ]"
"129","[  1.01353618   0.         -23.        ]","[-3.04875841  0.          0.        ]","[-0.01611633 -0.         -0.        ]"
"130","[ -2.03924639   0.         -23.        ]","[-3.05278257  0.          0.        ]","[-0.00402416 -0.         -0.        ]"
"131","[ -5.08393359   0.         -23.        ]","[-3.0446872  0.         0.       ]","[0.00809537 0.         0.        ]"
"132","[ -8.10846087   0.         -23.        ]","[-3.02452729  0.          0.        ]","[0.02015991 0.         0.        ]"
"133","[-11.10089987   0.         -23.        ]","[-2.992439  0.        0.      ]","[0.03208829 0.         0.        ]"
"134","[-14.04953662   0.         -23.        ]","[-2.94863675  0.          0.        ]","[0.04380225 0.         0.        ]"
"135","[-16.9429453   0.        -23.       ]","[-2.89340869  0.          0.        ]","[0.05522806 0.         0.        ]"
"136","[-19.7700561   0.        -23.       ]","[-2.8271108  0.         0.       ]","[0.06629789 0.         0.        ]"
"137","[-22.5202159   0.        -23.       ]","[-2.7501598  0.         0.       ]","[0.076951 0.       0.      ]"
"138","[-25.18324107   0.         -23.        ]","[-2.66302517  0.          0.        ]","[0.08713464 0.         0.        ]"
"139","[-27.74946166   0.         -23.        ]","[-2.56622059  0.          0.        ]","[0.09680457 0.         0.        ]"
"140","[-30.20975684   0.         -23.        ]","[-2.46029518  0.          0.        ]","[0.10592541 0.         0.        ]"
"141","[-32.5555815   0.        -23.       ]","[-2.34582466  0.          0.        ]","[0.11447052 0.         0.        ]"
"142","[-34.77898443   0.         -23.        ]","[-2.22340293  0.          0.        ]","[0.12242173 0.         0.        ]"
"143","[-36.87261855   0.         -23.        ]","[-2.09363412  0.          0.        ]","[0.12976881 0.         0.        ]"
"144","[-38.82974402   0.         -23.        ]","[-1.95712548  0.          0.        ]","[0.13650864 0.         0.        ]"
"145","[-40.64422511   0.         -23.        ]","[-1.81448109  0.          0.        ]","[0.14264439 0.         0.        ]"
"146","[-42.31052178   0.         -23.        ]","[-1.66629667  0.          0.        ]","[0.14818442 0.         0.        ]"
"147","[-43.8236772   0.        -23.       ]","[-1.51315542  0.          0.        ]","[0.15314124 0.         0.        ]"
"148","[-45.17930221   0.         -23.        ]","[-1.35562501  0.          0.        ]","[0.15753041 0.         0.        ]"
"149","[-46.37355779   0.         -23.        ]","[-1.19425559  0.          0.        ]","[0.16136942 0.         0.        ]"
"150","[-47.4031367   0.        -23.       ]","[-1.02957891  0.          0.        ]","[0.16467668 0.         0.        ]"
"151","[-48.2652451   0.        -23.       ]","[-0.86210839  0.          0.        ]","[0.16747052 0.         0.        ]"
"152","[-48.95758514   0.         -23.        ]","[-0.69234004  0.          0.        ]","[0.16976835 0.         0.        ]"
"153","[-49.47833928   0.         -23.        ]","[-0.52075415  0.          0.        ]","[0.17158589 0.         0.        ]"
"154","[-49.82615694   0.         -23.        ]","[-0.34781766  0.          0.        ]","[0.17293649 0.         0.        ]"
"155","[-50.00014398   0.         -23.        ]","[-0.17398704  0.          0.        ]","[0.17383062 0.         0.        ]"
"156","[-49.99985554   0.         -23.        ]","[0.00028844 0.         0.        ]","[0.17427548 0.         0.        ]"
"157","[-49.82529236   0.         -23.        ]","[0.17456318 0.         0.        ]","[0.17427474 0.         0.        ]"
"158","[-49.47690079   0.         -23.        ]","[0.34839158 0.         0.        ]","[0.1738284 0.        0.       ]"
"159","[-48.95557643   0.         -23.        ]","[0.52132436 0.         0.        ]","[0.17293278 0.         0.        ]"
"160","[-48.26267142   0.         -23.        ]","[0.69290501 0.         0.        ]","[0.17158066 0.         0.        ]"
"161","[-47.40000485   0.         -23.        ]","[0.86266656 0.         0.        ]","[0.16976155 0.         0.        ]"
"162","[-46.36987619   0.         -23.        ]","[1.03012866 0.         0.        ]","[0.1674621 0.        0.       ]"
"163","[-45.17508094   0.         -23.        ]","[1.19479525 0.         0.        ]","[0.16466659 0.         0.        ]"
"164","[-43.81892807   0.         -23.        ]","[1.35615286 0.         0.        ]","[0.16135761 0.         0.        ]"
"165","[-42.3052584   0.        -23.       ]","[1.51366967 0.         0.        ]","[0.15751681 0.         0.        ]"
"166","[-40.63846294   0.         -23.        ]","[1.66679546 0.         0.        ]","[0.15312579 0.         0.        ]"
"167","[-38.82350043   0.         -23.        ]","[1.81496252 0.         0.        ]","[0.14816706 0.         0.        ]"
"168","[-36.86591283   0.         -23.        ]","[1.95758759 0.         0.        ]","[0.14262508 0.         0.        ]"
"169","[-34.7718379   0.        -23.       ]","[2.09407494 0.         0.        ]","[0.13648734 0.         0.        ]"
"170","[-32.54801746   0.         -23.        ]","[2.22382043 0.         0.        ]","[0.1297455 0.        0.       ]"
"171","[-30.20180061   0.         -23.        ]","[2.34621685 0.         0.        ]","[0.12239642 0.         0.        ]"
"172","[-27.74114054   0.         -23.        ]","[2.46066007 0.         0.        ]","[0.11444322 0.         0.        ]"
"173","[-25.1745843   0.        -23.       ]","[2.56655624 0.         0.        ]","[0.10589617 0.         0.        ]"
"174","[-22.51125459   0.         -23.        ]","[2.66332971 0.         0.        ]","[0.09677347 0.         0.        ]"
"175","[-19.76082312   0.         -23.        ]","[2.75043147 0.         0.        ]","[0.08710177 0.         0.        ]"
"176","[-16.93347514   0.         -23.        ]","[2.82734797 0.         0.        ]","[0.0769165 0.        0.       ]"
"177","[-14.03986526   0.         -23.        ]","[2.89360989 0.         0.        ]","[0.06626191 0.         0.        ]"
"178","[-11.09106457   0.         -23.        ]","[2.94880069 0.         0.        ]","[0.05519081 0.         0.        ]"
"179","[ -8.09849994   0.         -23.        ]","[2.99256462 0.         0.        ]","[0.04376393 0.         0.        ]"
"180","[ -5.07388618   0.         -23.        ]","[3.02461376 0.         0.        ]","[0.03204913 0.         0.        ]"
"181","[ -2.02915225   0.         -23.        ]","[3.04473393 0.         0.        ]","[0.02012017 0.         0.        ]"
"182","[  1.02363699   0.         -23.        ]","[3.05278925 0.         0.        ]","[0.00805532 0.         0.        ]"
"183","[  4.07236198   0.         -23.        ]","[3.04872499 0.         0.        ]","[-0.00406426 -0.         -0.        ]"
"184","[  7.10493076   0.         -23.        ]","[3.03256878 0.         0.        ]","[-0.01615621 -0.         -0.        ]"
"185","[ 10.10936077   0.         -23.        ]","[3.00443001 0.         0.        ]","[-0.02813876 -0.         -0.        ]"
"186","[ 13.07385826   0.         -23.        ]","[2.96449749 0.         0.        ]","[-0.03993252 -0.         -0.        ]"
"187","[ 15.98689369   0.         -23.        ]","[2.91303542 0.         0.        ]","[-0.05146207 -0.         -0.        ]"
"188","[ 18.83727164   0.         -23.        ]","[2.85037795 0.         0.        ]","[-0.06265747 -0.         -0.        ]"
"189","[ 21.61419406   0.         -23.        ]","[2.77692242 0.         0.        ]","[-0.07345553 -0.         -0.        ]"
"190","[ 24.30731575   0.         -23.        ]","[2.69312169 0.         0.        ]","[-0.08380073 -0.         -0.        ]"
"191","[ 26.90679145   0.         -23.        ]","[2.5994757 0.        0.       ]","[-0.09364599 -0.         -0.        ]"
"192","[ 29.40331421   0.         -23.        ]","[2.49652276 0.         0.        ]","[-0.10295294 -0.         -0.        ]"
"193","[ 31.78814489   0.         -23.        ]","[2.38483069 0.         0.        ]","[-0.11169207 -0.         -0.        ]"
"194","[ 34.05313314   0.         -23.        ]","[2.26498825 0.         0.        ]","[-0.11984243 -0.         -0.        ]"
"195","[ 36.19073016   0.         -23.        ]","[2.13759702 0.         0.        ]","[-0.12739123 -0.         -0.        ]"
"196","[ 38.19399409   0.         -23.        ]","[2.00326393 0.         0.        ]","[-0.13433309 -0.         -0.        ]"
"197","[ 40.05658886   0.         -23.        ]","[1.86259476 0.         0.        ]","[-0.14066917 -0.         -0.        ]"
"198","[ 41.77277739   0.         -23.        ]","[1.71618853 0.         0.        ]","[-0.14640623 -0.         -0.        ]"
"199","[ 43.33741037   0.         -23.        ]","[1.56463299 0.         0.        ]","[-0.15155554 -0.         -0.        ]"
"200","[ 44.74591161   0.         -23.        ]","[1.40850124 0.         0.        ]","[-0.15613175 -0.         -0.        ]"
"201","[ 45.99426103   0.         -23.        ]","[1.24834942 0.         0.        ]","[-0.16015182 -0.         -0.        ]"
"202","[ 47.07897648   0.         -23.        ]","[1.08471545 0.         0.        ]","[-0.16363397 -0.         -0.        ]"
"203","[ 47.99709525   0.         -23.        ]","[0.91811877 0.         0.        ]","[-0.16659667 -0.         -0.        ]"
"204","[ 48.74615629   0.         -23.        ]","[0.74906104 0.         0.        ]","[-0.16905773 -0.         -0.        ]"
"205","[ 49.32418384   0.         -23.        ]","[0.57802755 0.         0.        ]","[-0.17103349 -0.         -0.        ]"
"206","[ 49.72967322   0.         -23.        ]","[0.40548938 0.         0.        ]","[-0.17253816 -0.         -0.        ]"
"207","[ 49.96157938   0.         -23.        ]","[0.23190616 0.         0.        ]","[-0.17358323 -0.         -0.        ]"
"208","[ 50.01930853   0.         -23.        ]","[0.05772915 0.         0.        ]","[-0.17417701 -0.         -0.        ]"
"209","[ 49.90271329   0.         -23.        ]","[-0.11659524  0.          0.        ]","[-0.17432438 -0.         -0.        ]"
"210","[ 49.6120915   0.        -23.       ]","[-0.29062179  0.          0.        ]","[-0.17402656 -0.         -0.        ]"
"211","[ 49.14818862   0.         -23.        ]","[-0.46390287  0.          0.        ]","[-0.17328108 -0.         -0.        ]"
"212","[ 48.51220387   0.         -23.        ]","[-0.63598475  0.          0.        ]","[-0.17208188 -0.         -0.        ]"
"213","[ 47.70579959   0.         -23.        ]","[-0.80640428  0.          0.        ]","[-0.17041953 -0.         -0.        ]"
"214","[ 46.73111373   0.         -23.        ]","[-0.97468586  0.          0.        ]","[-0.16828157 -0.         -0.        ]"
"215","[ 45.59077487   0.         -23.        ]","[-1.14033886  0.          0.        ]","[-0.165653 -0.       -0.      ]"
"216","[ 44.28791911   0.         -23.        ]","[-1.30285576  0.          0.        ]","[-0.1625169 -0.        -0.       ]"
"217","[ 42.8262082   0.        -23.       ]","[-1.46171091  0.          0.        ]","[-0.15885514 -0.         -0.        ]"
"218","[ 41.20984806   0.         -23.        ]","[-1.61636014  0.          0.        ]","[-0.15464923 -0.         -0.        ]"
"219","[ 39.44360665   0.         -23.        ]","[-1.76624141  0.          0.        ]","[-0.14988127 -0.         -0.        ]"
"220","[ 37.53283029   0.         -23.        ]","[-1.91077636  0.          0.        ]","[-0.14453495 -0.         -0.        ]"
"221","[ 35.48345731   0.         -23.        ]","[-2.04937298  0.          0.        ]","[-0.13859662 -0.         -0.        ]"
"222","[ 33.30202789   0.         -23.        ]","[-2.18142942  0.          0.        ]","[-0.13205644 -0.         -0.        ]"
"223","[ 30.99568904   0.         -23.        ]","[-2.30633884  0.          0.        ]","[-0.12490942 -0.         -0.        ]"
"224","[ 28.57219371   0.         -23.        ]","[-2.42349533  0.          0.        ]","[-0.11715649 -0.         -0.        ]"
"225","[ 26.03989293   0.         -23.        ]","[-2.53230078  0.          0.        ]","[-0.10880545 -0.         -0.        ]"
"226","[ 23.40772037   0.         -23.        ]","[-2.63217256  0.          0.        ]","[-0.09987178 -0.         -0.        ]"
"227","[ 20.68516853   0.         -23.        ]","[-2.72255184  0.          0.        ]","[-0.09037928 -0.         -0.        ]"
"228","[ 17.88225626   0.         -23.        ]","[-2.80291227  0.          0.        ]","[-0.08036044 -0.         -0.        ]"
"229","[ 15.0094874   0.        -23.       ]","[-2.87276886  0.          0.        ]","[-0.06985658 -0.         -0.        ]"
"230","[ 12.07780082   0.         -23.        ]","[-2.93168658  0.          0.        ]","[-0.05891772 -0.         -0.        ]"
"231","[  9.09851221   0.         -23.        ]","[-2.97928861  0.          0.        ]","[-0.04760203 -0.         -0.        ]"
"232","[  6.08324847   0.         -23.        ]","[-3.01526374  0.          0.        ]","[-0.03597513 -0.         -0.        ]"
"233","[  3.0438758   0.        -23.       ]","[-3.03937268  0.          0.        ]","[-0.02410894 -0.         -0.        ]"
"234","[-7.5772818e-03  0.0000000e+00 -2.3000000e+01]","[-3.05145308  0.          0.        ]","[-0.0120804 -0.        -0.       ]"
"235","[ -3.05900027   0.         -23.        ]","[-3.05142299  0.          0.        ]","[3.00865372e-05 0.00000000e+00 0.00000000e+00]"
"236","[ -6.09828289   0.         -23.        ]","[-3.03928262  0.          0.        ]","[0.01214037 0.         0.        ]"
"237","[ -9.11339722   0.         -23.        ]","[-3.01511432  0.          0.        ]","[0.0241683 0.        0.       ]"
"238","[-12.09247806   0.         -23.        ]","[-2.97908084  0.          0.        ]","[0.03603349 0.         0.        ]"
"239","[-15.02389988   0.         -23.        ]","[-2.93142182  0.          0.        ]","[0.04765902 0.         0.        ]"
"240","[-17.8963487   0.        -23.       ]","[-2.87244883  0.          0.        ]","[0.05897299 0.         0.        ]"
"241","[-20.6988877   0.        -23.       ]","[-2.80253899  0.          0.        ]","[0.06990983 0.         0.        ]"
"242","[-23.4210153   0.        -23.       ]","[-2.7221276  0.         0.       ]","[0.0804114 0.        0.       ]"
"243","[-26.05271517   0.         -23.        ]","[-2.63169988  0.          0.        ]","[0.09042772 0.         0.        ]"
"244","[-28.58449753   0.         -23.        ]","[-2.53178236  0.          0.        ]","[0.09991752 0.         0.        ]"
"245","[-31.00743154   0.         -23.        ]","[-2.42293401  0.          0.        ]","[0.10884835 0.         0.        ]"
"246","[-33.31316909   0.         -23.        ]","[-2.30573755  0.          0.        ]","[0.11719645 0.         0.        ]"
"247","[-35.49396025   0.         -23.        ]","[-2.18079116  0.          0.        ]","[0.12494639 0.         0.        ]"
"248","[-37.54266101   0.         -23.        ]","[-2.04870076  0.          0.        ]","[0.1320904 0.        0.       ]"
"249","[-39.4527342   0.        -23.       ]","[-1.91007319  0.          0.        ]","[0.13862757 0.         0.        ]"
"250","[-41.21824446   0.         -23.        ]","[-1.76551026  0.          0.        ]","[0.14456293 0.         0.        ]"
"251","[-42.83384836   0.         -23.        ]","[-1.61560391  0.          0.        ]","[0.14990635 0.         0.        ]"
"252","[-44.29478079   0.         -23.        ]","[-1.46093242  0.          0.        ]","[0.15467148 0.         0.        ]"
"253","[-45.59683857   0.         -23.        ]","[-1.30205778  0.          0.        ]","[0.15887465 0.         0.        ]"
"254","[-46.73636259   0.         -23.        ]","[-1.13952403  0.          0.        ]","[0.16253375 0.         0.        ]"
"255","[-47.71021933   0.         -23.        ]","[-0.97385674  0.          0.        ]","[0.16566729 0.         0.        ]"
"256","[-48.51578269   0.         -23.        ]","[-0.80556336  0.          0.        ]","[0.16829338 0.         0.        ]"
"257","[-49.1509171   0.        -23.       ]","[-0.63513441  0.          0.        ]","[0.17042894 0.         0.        ]"
"258","[-49.61396255   0.         -23.        ]","[-0.46304545  0.          0.        ]","[0.17208897 0.         0.        ]"
"259","[-49.9037221   0.        -23.       ]","[-0.28975955  0.          0.        ]","[0.17328589 0.         0.        ]"
"260","[-50.01945252   0.         -23.        ]","[-0.11573042  0.          0.        ]","[0.17402914 0.         0.        ]"
"261","[-49.96085819   0.         -23.        ]","[0.05859433 0.         0.        ]","[0.17432475 0.         0.        ]"
"262","[-49.72808869   0.         -23.        ]","[0.2327695 0.        0.       ]","[0.17417517 0.         0.        ]"
"263","[-49.32174002   0.         -23.        ]","[0.40634866 0.         0.        ]","[0.17357916 0.         0.        ]"
"264","[-48.74285952   0.         -23.        ]","[0.5788805 0.        0.       ]","[0.17253184 0.         0.        ]"
"265","[-47.99295416   0.         -23.        ]","[0.74990536 0.         0.        ]","[0.17102486 0.         0.        ]"
"266","[-47.07400207   0.         -23.        ]","[0.91895209 0.         0.        ]","[0.16904673 0.         0.        ]"
"267","[-45.98846676   0.         -23.        ]","[1.08553531 0.         0.        ]","[0.16658322 0.         0.        ]"
"268","[-44.73931346   0.         -23.        ]","[1.2491533 0.        0.       ]","[0.16361799 0.         0.        ]"
"269","[-43.33002695   0.         -23.        ]","[1.40928651 0.         0.        ]","[0.16013321 0.         0.        ]"
"270","[-41.76463001   0.         -23.        ]","[1.56539694 0.         0.        ]","[0.15611042 0.         0.        ]"
"271","[-40.04770166   0.         -23.        ]","[1.71692835 0.         0.        ]","[0.15153141 0.         0.        ]"
"272","[-38.18439409   0.         -23.        ]","[1.86330757 0.         0.        ]","[0.14637922 0.         0.        ]"
"273","[-36.1804473   0.        -23.       ]","[2.00394678 0.         0.        ]","[0.14063921 0.         0.        ]"
"274","[-34.04220039   0.         -23.        ]","[2.13824691 0.         0.        ]","[0.13430013 0.         0.        ]"
"275","[-31.77659821   0.         -23.        ]","[2.26560218 0.         0.        ]","[0.12735527 0.         0.        ]"
"276","[-29.39119257   0.         -23.        ]","[2.38540564 0.         0.        ]","[0.11980346 0.         0.        ]"
"277","[-26.89413679   0.         -23.        ]","[2.49705578 0.         0.        ]","[0.11165014 0.         0.        ]"
"278","[-24.29417288   0.         -23.        ]","[2.59996391 0.         0.        ]","[0.10290813 0.         0.        ]"
"279","[-21.60061054   0.         -23.        ]","[2.69356234 0.         0.        ]","[0.09359843 0.         0.        ]"
"280","[-18.82329761   0.         -23.        ]","[2.77731293 0.         0.        ]","[0.08375059 0.         0.        ]"
"281","[-15.97258167   0.         -23.        ]","[2.85071594 0.         0.        ]","[0.07340301 0.         0.        ]"
"282","[-13.05926289   0.         -23.        ]","[2.91331878 0.         0.        ]","[0.06260284 0.         0.        ]"
"283","[-10.09453849   0.         -23.        ]","[2.9647244 0.        0.       ]","[0.05140562 0.         0.        ]"
"284","[ -7.08993951   0.         -23.        ]","[3.00459898 0.         0.        ]","[0.03987458 0.         0.        ]"
"285","[ -4.05726083   0.         -23.        ]","[3.03267867 0.         0.        ]","[0.0280797 0.        0.       ]"
"286","[ -1.00848576   0.         -23.        ]","[3.04877507 0.         0.        ]","[0.0160964 0.        0.       ]"
"287","[  2.04429342   0.         -23.        ]","[3.05277918 0.         0.        ]","[0.00400411 0.         0.        ]"
"288","[  5.0889572   0.        -23.       ]","[3.04466378 0.         0.        ]","[-0.0081154 -0.        -0.       ]"
"289","[  8.11344121   0.         -23.        ]","[3.024484 0.       0.      ]","[-0.02017978 -0.         -0.        ]"
"290","[ 11.10581735   0.         -23.        ]","[2.99237614 0.         0.        ]","[-0.03210787 -0.         -0.        ]"
"291","[ 14.05437207   0.         -23.        ]","[2.94855472 0.         0.        ]","[-0.04382141 -0.         -0.        ]"
"292","[ 16.94768011   0.         -23.        ]","[2.89330804 0.         0.        ]","[-0.05524668 -0.         -0.        ]"
"293","[ 19.77467228   0.         -23.        ]","[2.82699217 0.         0.        ]","[-0.06631587 -0.         -0.        ]"
"294","[ 22.5246962   0.        -23.       ]","[2.75002392 0.         0.        ]","[-0.07696825 -0.         -0.        ]"
"295","[ 25.18756906   0.         -23.        ]","[2.66287285 0.         0.        ]","[-0.08715107 -0.         -0.        ]"
"296","[ 27.75362179   0.         -23.        ]","[2.56605273 0.         0.        ]","[-0.09682013 -0.         -0.        ]"
"297","[ 30.21373448   0.         -23.        ]","[2.4601127 0.        0.       ]","[-0.10594003 -0.         -0.        ]"
"298","[ 32.55936302   0.         -23.        ]","[2.34562853 0.         0.        ]","[-0.11448417 -0.         -0.        ]"
"299","[ 34.78255716   0.         -23.        ]","[2.22319414 0.         0.        ]","[-0.12243439 -0.         -0.        ]"
"300","[ 36.87597084   0.         -23.        ]","[2.09341368 0.         0.        ]","[-0.12978046 -0.         -0.        ]"
"301","[ 38.83286523   0.         -23.        ]","[1.95689439 0.         0.        ]","[-0.13651929 -0.         -0.        ]"
"302","[ 40.64710558   0.         -23.        ]","[1.81424035 0.         0.        ]","[-0.14265404 -0.         -0.        ]"
"303","[ 42.31315283   0.         -23.        ]","[1.66604725 0.         0.        ]","[-0.1481931 -0.        -0.       ]"
"304","[ 43.82605111   0.         -23.        ]","[1.51289828 0.         0.        ]","[-0.15314897 -0.         -0.        ]"
"305","[ 45.18141218   0.         -23.        ]","[1.35536107 0.         0.        ]","[-0.15753721 -0.         -0.        ]"
"306","[ 46.37539792   0.         -23.        ]","[1.19398574 0.         0.        ]","[-0.16137533 -0.         -0.        ]"
"307","[ 47.40470194   0.         -23.        ]","[1.02930402 0.         0.        ]","[-0.16468172 -0.         -0.        ]"
"308","[ 48.26653124   0.         -23.        ]","[0.8618293 0.        0.       ]","[-0.16747472 -0.         -0.        ]"
"309","[ 48.95858878   0.         -23.        ]","[0.69205754 0.         0.        ]","[-0.16977175 -0.         -0.        ]"
"310","[ 49.47905782   0.         -23.        ]","[0.52046903 0.         0.        ]","[-0.17158851 -0.         -0.        ]"
"311","[ 49.82658851   0.         -23.        ]","[0.34753069 0.         0.        ]","[-0.17293834 -0.         -0.        ]"
"312","[ 50.00028748   0.         -23.        ]","[0.17369897 0.         0.        ]","[-0.17383172 -0.         -0.        ]"
"313","[ 49.99971061   0.         -23.        ]","[-0.00057687  0.          0.        ]","[-0.17427584 -0.         -0.        ]"
"314","[ 49.82485936   0.         -23.        ]","[-0.17485125  0.          0.        ]","[-0.17427437 -0.         -0.        ]"
"315","[ 49.47618083   0.         -23.        ]","[-0.34867854  0.          0.        ]","[-0.17382729 -0.         -0.        ]"
"316","[ 48.95457137   0.         -23.        ]","[-0.52160946  0.          0.        ]","[-0.17293092 -0.         -0.        ]"
"317","[ 48.26138388   0.         -23.        ]","[-0.69318749  0.          0.        ]","[-0.17157804 -0.         -0.        ]"
"318","[ 47.39843824   0.         -23.        ]","[-0.86294564  0.          0.        ]","[-0.16975815 -0.         -0.        ]"
"319","[ 46.36803471   0.         -23.        ]","[-1.03040353  0.          0.        ]","[-0.16745789 -0.         -0.        ]"
"320","[ 45.17296964   0.         -23.        ]","[-1.19506507  0.          0.        ]","[-0.16466154 -0.         -0.        ]"
"321","[ 43.81655286   0.         -23.        ]","[-1.35641677  0.          0.        ]","[-0.1613517 -0.        -0.       ]"
"322","[ 42.30262609   0.         -23.        ]","[-1.51392678  0.          0.        ]","[-0.15751 -0.      -0.     ]"
"323","[ 40.63558125   0.         -23.        ]","[-1.66704483  0.          0.        ]","[-0.15311806 -0.         -0.        ]"
"324","[ 38.82037804   0.         -23.        ]","[-1.81520321  0.          0.        ]","[-0.14815838 -0.         -0.        ]"
"325","[ 36.86255942   0.         -23.        ]","[-1.95781863  0.          0.        ]","[-0.14261542 -0.         -0.        ]"
"326","[ 34.7682641   0.        -23.       ]","[-2.09429532  0.          0.        ]","[-0.13647669 -0.         -0.        ]"
"327","[ 32.54423494   0.         -23.        ]","[-2.22402916  0.          0.        ]","[-0.12973384 -0.         -0.        ]"
"328","[ 30.19782202   0.         -23.        ]","[-2.34641292  0.          0.        ]","[-0.12238376 -0.         -0.        ]"
"329","[ 27.73697954   0.         -23.        ]","[-2.46084248  0.          0.        ]","[-0.11442956 -0.         -0.        ]"
"330","[ 25.17025552   0.         -23.        ]","[-2.56672403  0.          0.        ]","[-0.10588155 -0.         -0.        ]"
"331","[ 22.50677358   0.         -23.        ]","[-2.66348194  0.          0.        ]","[-0.09675791 -0.         -0.        ]"
"332","[ 19.75620631   0.         -23.        ]","[-2.75056727  0.          0.        ]","[-0.08708533 -0.         -0.        ]"
"333","[ 16.92873979   0.         -23.        ]","[-2.82746651  0.          0.        ]","[-0.07689925 -0.         -0.        ]"
"334","[ 14.03502935   0.         -23.        ]","[-2.89371044  0.          0.        ]","[-0.06624393 -0.         -0.        ]"
"335","[ 11.08614673   0.         -23.        ]","[-2.94888262  0.          0.        ]","[-0.05517218 -0.         -0.        ]"
"336","[  8.09351934   0.         -23.        ]","[-2.99262739  0.          0.        ]","[-0.04374477 -0.         -0.        ]"
"337","[  5.0688624   0.        -23.       ]","[-3.02465694  0.          0.        ]","[-0.03202955 -0.         -0.        ]"
"338","[  2.02410515   0.         -23.        ]","[-3.04475725  0.          0.        ]","[-0.0201003 -0.        -0.       ]"
"339","[ -1.02868738   0.         -23.        ]","[-3.05279254  0.          0.        ]","[-0.00803529 -0.         -0.        ]"
"340","[ -4.07739561   0.         -23.        ]","[-3.04870822  0.          0.        ]","[0.00408431 0.         0.        ]"
"341","[ -7.10992769   0.         -23.        ]","[-3.03253208  0.          0.        ]","[0.01617614 0.         0.        ]"
"342","[-10.11430131   0.         -23.        ]","[-3.00437363  0.          0.        ]","[0.02815845 0.         0.        ]"
"343","[-13.07872311   0.         -23.        ]","[-2.96442179  0.          0.        ]","[0.03995183 0.         0.        ]"
"344","[-15.99166402   0.         -23.        ]","[-2.91294091  0.          0.        ]","[0.05148088 0.         0.        ]"
"345","[-18.84192925   0.         -23.        ]","[-2.85026523  0.          0.        ]","[0.06267568 0.         0.        ]"
"346","[-21.61872144   0.         -23.        ]","[-2.7767922  0.         0.       ]","[0.07347303 0.         0.        ]"
"347","[-24.3116962   0.        -23.       ]","[-2.69297475  0.          0.        ]","[0.08381745 0.         0.        ]"
"348","[-26.91100911   0.         -23.        ]","[-2.59931291  0.          0.        ]","[0.09366184 0.         0.        ]"
"349","[-29.40735414   0.         -23.        ]","[-2.49634503  0.          0.        ]","[0.10296788 0.         0.        ]"
"350","[-31.79199313   0.         -23.        ]","[-2.38463899  0.          0.        ]","[0.11170604 0.         0.        ]"
"351","[-34.0567767   0.        -23.       ]","[-2.26478357  0.          0.        ]","[0.11985542 0.         0.        ]"
"352","[-36.19415705   0.         -23.        ]","[-2.13738035  0.          0.        ]","[0.12740322 0.         0.        ]"
"353","[-38.19719333   0.         -23.        ]","[-2.00303628  0.          0.        ]","[0.13434407 0.         0.        ]"
"354","[-40.05955045   0.         -23.        ]","[-1.86235713  0.          0.        ]","[0.14067915 0.         0.        ]"
"355","[-41.77549235   0.         -23.        ]","[-1.71594189  0.          0.        ]","[0.14641524 0.         0.        ]"
"356","[-43.33987066   0.         -23.        ]","[-1.56437831  0.          0.        ]","[0.15156358 0.         0.        ]"
"357","[-44.74811012   0.         -23.        ]","[-1.40823946  0.          0.        ]","[0.15613885 0.         0.        ]"
"358","[-45.99619156   0.         -23.        ]","[-1.24808144  0.          0.        ]","[0.16015802 0.         0.        ]"
"359","[-47.0806337   0.        -23.       ]","[-1.08444214  0.          0.        ]","[0.1636393 0.        0.       ]"
"360","[-47.99847469   0.         -23.        ]","[-0.91784099  0.          0.        ]","[0.16660116 0.         0.        ]"
"361","[-48.74725428   0.         -23.        ]","[-0.74877959  0.          0.        ]","[0.1690614 0.        0.       ]"
"362","[-49.3249975   0.        -23.       ]","[-0.57774322  0.          0.        ]","[0.17103637 0.         0.        ]"
"363","[-49.73020045   0.         -23.        ]","[-0.40520295  0.          0.        ]","[0.17254027 0.         0.        ]"
"364","[-49.96181883   0.         -23.        ]","[-0.23161837  0.          0.        ]","[0.17358458 0.         0.        ]"
"365","[-50.01925957   0.         -23.        ]","[-0.05744075  0.          0.        ]","[0.17417762 0.         0.        ]"
"366","[-49.90237607   0.         -23.        ]","[0.11688351 0.         0.        ]","[0.17432426 0.         0.        ]"
"367","[-49.61146686   0.         -23.        ]","[0.2909092 0.        0.       ]","[0.1740257 0.        0.       ]"
"368","[-49.14727819   0.         -23.        ]","[0.46418867 0.         0.        ]","[0.17327947 0.         0.        ]"
"369","[-48.51101   0.      -23.     ]","[0.63626819 0.         0.        ]","[0.17207952 0.         0.        ]"
"370","[-47.70432542   0.         -23.        ]","[0.80668458 0.         0.        ]","[0.17041639 0.         0.        ]"
"371","[-46.72936321   0.         -23.        ]","[0.97496221 0.         0.        ]","[0.16827763 0.         0.        ]"
"372","[-45.58875275   0.         -23.        ]","[1.14061045 0.         0.        ]","[0.16564824 0.         0.        ]"
"373","[-44.28563101   0.         -23.        ]","[1.30312174 0.         0.        ]","[0.16251129 0.         0.        ]"
"374","[-42.82366063   0.         -23.        ]","[1.46197038 0.         0.        ]","[0.15884864 0.         0.        ]"
"375","[-41.20704844   0.         -23.        ]","[1.61661219 0.         0.        ]","[0.15464182 0.         0.        ]"
"376","[-39.44056334   0.         -23.        ]","[1.7664851 0.        0.       ]","[0.14987291 0.         0.        ]"
"377","[-37.52955262   0.         -23.        ]","[1.91101072 0.         0.        ]","[0.14452561 0.         0.        ]"
"378","[-35.47995561   0.         -23.        ]","[2.04959702 0.         0.        ]","[0.1385863 0.        0.       ]"
"379","[-33.29831347   0.         -23.        ]","[2.18164214 0.         0.        ]","[0.13204512 0.         0.        ]"
"380","[-30.99177424   0.         -23.        ]","[2.30653923 0.         0.        ]","[0.12489709 0.         0.        ]"
"381","[-28.56809184   0.         -23.        ]","[2.4236824 0.        0.       ]","[0.11714316 0.         0.        ]"
"382","[-26.0356183   0.        -23.       ]","[2.53247354 0.         0.        ]","[0.10879114 0.         0.        ]"
"383","[-23.40328823   0.         -23.        ]","[2.63233007 0.         0.        ]","[0.09985653 0.         0.        ]"
"384","[-20.68059504   0.         -23.        ]","[2.7226932 0.        0.       ]","[0.09036313 0.         0.        ]"
"385","[-17.87755839   0.         -23.        ]","[2.80303664 0.         0.        ]","[0.08034345 0.         0.        ]"
"386","[-15.00468292   0.         -23.        ]","[2.87287548 0.         0.        ]","[0.06983883 0.         0.        ]"
"387","[-12.07290815   0.         -23.        ]","[2.93177477 0.         0.        ]","[0.05889929 0.         0.        ]"
"388","[ -9.09355034   0.         -23.        ]","[2.9793578 0.        0.       ]","[0.04758304 0.         0.        ]"
"389","[ -6.07823687   0.         -23.        ]","[3.01531348 0.         0.        ]","[0.03595567 0.         0.        ]"
"390","[ -3.03883424   0.         -23.        ]","[3.03940263 0.         0.        ]","[0.02408915 0.         0.        ]"
"391","[ 1.26288029e-02  0.00000000e+00 -2.30000000e+01]","[3.05146304 0.         0.        ]","[0.01206041 0.         0.        ]"
"392","[  3.0640417   0.        -23.       ]","[3.0514129 0.        0.       ]","[-5.01442281e-05 -0.00000000e+00 -0.00000000e+00]"
"393","[  6.10329424   0.         -23.        ]","[3.03925254 0.         0.        ]","[-0.01216036 -0.         -0.        ]"
"394","[  9.11835869   0.         -23.        ]","[3.01506445 0.         0.        ]","[-0.02418808 -0.         -0.        ]"
"395","[ 12.09737021   0.         -23.        ]","[2.97901152 0.         0.        ]","[-0.03605294 -0.         -0.        ]"
"396","[ 15.02870371   0.         -23.        ]","[2.9313335 0.        0.       ]","[-0.04767801 -0.         -0.        ]"
"397","[ 17.9010458   0.        -23.       ]","[2.87234209 0.         0.        ]","[-0.05899141 -0.         -0.        ]"
"398","[ 20.70346031   0.         -23.        ]","[2.80241451 0.         0.        ]","[-0.06992758 -0.         -0.        ]"
"399","[ 23.42544644   0.         -23.        ]","[2.72198613 0.         0.        ]","[-0.08042838 -0.         -0.        ]"
"400","[ 26.05698871   0.         -23.        ]","[2.63154227 0.         0.        ]","[-0.09044386 -0.         -0.        ]"
"401","[ 28.58859821   0.         -23.        ]","[2.5316095 0.        0.       ]","[-0.09993277 -0.         -0.        ]"
"402","[ 31.01134506   0.         -23.        ]","[2.42274685 0.         0.        ]","[-0.10886265 -0.         -0.        ]"
"403","[ 33.31688214   0.         -23.        ]","[2.30553708 0.         0.        ]","[-0.11720977 -0.         -0.        ]"
"404","[ 35.4974605   0.        -23.       ]","[2.18057837 0.         0.        ]","[-0.12495871 -0.         -0.        ]"
"405","[ 37.54593716   0.         -23.        ]","[2.04847665 0.         0.        ]","[-0.13210171 -0.         -0.        ]"
"406","[ 39.45577592   0.         -23.        ]","[1.90983877 0.         0.        ]","[-0.13863789 -0.         -0.        ]"
"407","[ 41.22104243   0.         -23.        ]","[1.76526651 0.         0.        ]","[-0.14457226 -0.         -0.        ]"
"408","[ 42.83639424   0.         -23.        ]","[1.6153518 0.        0.       ]","[-0.14991471 -0.         -0.        ]"
"409","[ 44.29706714   0.         -23.        ]","[1.46067291 0.         0.        ]","[-0.1546789 -0.        -0.       ]"
"410","[ 45.59885891   0.         -23.        ]","[1.30179176 0.         0.        ]","[-0.15888114 -0.         -0.        ]"
"411","[ 46.73811131   0.         -23.        ]","[1.1392524 0.        0.       ]","[-0.16253936 -0.         -0.        ]"
"412","[ 47.71169166   0.         -23.        ]","[0.97358035 0.         0.        ]","[-0.16567205 -0.         -0.        ]"
"413","[ 48.51697469   0.         -23.        ]","[0.80528304 0.         0.        ]","[-0.16829731 -0.         -0.        ]"
"414","[ 49.15182565   0.         -23.        ]","[0.63485096 0.         0.        ]","[-0.17043208 -0.         -0.        ]"
"415","[ 49.61458528   0.         -23.        ]","[0.46275963 0.         0.        ]","[-0.17209133 -0.         -0.        ]"
"416","[ 49.90405742   0.         -23.        ]","[0.28947214 0.         0.        ]","[-0.17328749 -0.         -0.        ]"
"417","[ 50.01949956   0.         -23.        ]","[0.11544214 0.         0.        ]","[-0.17403 -0.      -0.     ]"
"418","[ 49.96061684   0.         -23.        ]","[-0.05888273  0.          0.        ]","[-0.17432487 -0.         -0.        ]"
"419","[ 49.72755956   0.         -23.        ]","[-0.23305728  0.          0.        ]","[-0.17417455 -0.         -0.        ]"
"420","[ 49.32092448   0.         -23.        ]","[-0.40663508  0.          0.        ]","[-0.1735778 -0.        -0.       ]"
"421","[ 48.74175966   0.         -23.        ]","[-0.57916481  0.          0.        ]","[-0.17252973 -0.         -0.        ]"
"422","[ 47.99157287   0.         -23.        ]","[-0.75018679  0.          0.        ]","[-0.17102198 -0.         -0.        ]"
"423","[ 47.07234303   0.         -23.        ]","[-0.91922985  0.          0.        ]","[-0.16904306 -0.         -0.        ]"
"424","[ 45.98653444   0.         -23.        ]","[-1.08580858  0.          0.        ]","[-0.16657874 -0.         -0.        ]"
"425","[ 44.7371132   0.        -23.       ]","[-1.24942124  0.          0.        ]","[-0.16361266 -0.         -0.        ]"
"426","[ 43.32756495   0.         -23.        ]","[-1.40954825  0.          0.        ]","[-0.16012701 -0.         -0.        ]"
"427","[ 41.76191339   0.         -23.        ]","[-1.56565156  0.          0.        ]","[-0.15610331 -0.         -0.        ]"
"428","[ 40.04473846   0.         -23.        ]","[-1.71717493  0.          0.        ]","[-0.15152337 -0.         -0.        ]"
"429","[ 38.18119331   0.         -23.        ]","[-1.86354515  0.          0.        ]","[-0.14637022 -0.         -0.        ]"
"430","[ 36.17701895   0.         -23.        ]","[-2.00417436  0.          0.        ]","[-0.14062922 -0.         -0.        ]"
"431","[ 34.03855544   0.         -23.        ]","[-2.13846351  0.          0.        ]","[-0.13428914 -0.         -0.        ]"
"432","[ 31.77274866   0.         -23.        ]","[-2.26580678  0.          0.        ]","[-0.12734327 -0.         -0.        ]"
"433","[ 29.38715141   0.         -23.        ]","[-2.38559725  0.          0.        ]","[-0.11979047 -0.         -0.        ]"
"434","[ 26.88991801   0.         -23.        ]","[-2.4972334  0.         0.       ]","[-0.11163615 -0.         -0.        ]"
"435","[ 24.28979141   0.         -23.        ]","[-2.6001266  0.         0.       ]","[-0.10289319 -0.         -0.        ]"
"436","[ 21.59608224   0.         -23.        ]","[-2.69370917  0.          0.        ]","[-0.09358257 -0.         -0.        ]"
"437","[ 18.8186392   0.        -23.       ]","[-2.77744304  0.          0.        ]","[-0.08373387 -0.         -0.        ]"
"438","[ 15.96781065   0.         -23.        ]","[-2.85082854  0.          0.        ]","[-0.0733855 -0.        -0.       ]"
"439","[ 13.05439748   0.         -23.        ]","[-2.91341317  0.          0.        ]","[-0.06258463 -0.         -0.        ]"
"440","[ 10.08959751   0.         -23.        ]","[-2.96479997  0.          0.        ]","[-0.0513868 -0.        -0.       ]"
"441","[  7.08494227   0.         -23.        ]","[-3.00465524  0.          0.        ]","[-0.03985527 -0.         -0.        ]"
"442","[  4.05222703   0.         -23.        ]","[-3.03271524  0.          0.        ]","[-0.02806 -0.      -0.     ]"
"443","[  1.00343533   0.         -23.        ]","[-3.0487917  0.         0.       ]","[-0.01607646 -0.         -0.        ]"
"444","[ -2.04934043   0.         -23.        ]","[-3.05277576  0.          0.        ]","[-0.00398406 -0.         -0.        ]"
"445","[ -5.09398077   0.         -23.        ]","[-3.04464034  0.          0.        ]","[0.00813543 0.         0.        ]"
"446","[ -8.11842145   0.         -23.        ]","[-3.02444069  0.          0.        ]","[0.02019965 0.         0.        ]"
"447","[-11.1107347   0.        -23.       ]","[-2.99231325  0.          0.        ]","[0.03212744 0.         0.        ]"
"448","[-14.05920737   0.         -23.        ]","[-2.94847267  0.          0.        ]","[0.04384057 0.         0.        ]"
"449","[-16.95241474   0.         -23.        ]","[-2.89320736  0.          0.        ]","[0.05526531 0.         0.        ]"
"450","[-19.77928825   0.         -23.        ]","[-2.82687351  0.          0.        ]","[0.06633385 0.         0.        ]"
"451","[-22.52917626   0.         -23.        ]","[-2.74988802  0.          0.        ]","[0.0769855 0.        0.       ]"
"452","[-25.19189678   0.         -23.        ]","[-2.66272052  0.          0.        ]","[0.0871675 0.        0.       ]"
"453","[-27.75778162   0.         -23.        ]","[-2.56588484  0.          0.        ]","[0.09683568 0.         0.        ]"
"454","[-30.21771182   0.         -23.        ]","[-2.45993019  0.          0.        ]","[0.10595465 0.         0.        ]"
"455","[-32.5631442   0.        -23.       ]","[-2.34543238  0.          0.        ]","[0.11449781 0.         0.        ]"
"456","[-34.78612953   0.         -23.        ]","[-2.22298534  0.          0.        ]","[0.12244704 0.         0.        ]"
"457","[-36.87932276   0.         -23.        ]","[-2.09319323  0.          0.        ]","[0.12979211 0.         0.        ]"
"458","[-38.83598605   0.         -23.        ]","[-1.95666329  0.          0.        ]","[0.13652994 0.         0.        ]"
"459","[-40.64998565   0.         -23.        ]","[-1.8139996  0.         0.       ]","[0.1426637 0.        0.       ]"
"460","[-42.31578347   0.         -23.        ]","[-1.66579782  0.          0.        ]","[0.14820177 0.         0.        ]"
"461","[-43.8284246   0.        -23.       ]","[-1.51264113  0.          0.        ]","[0.15315669 0.         0.        ]"
"462","[-45.18352171   0.         -23.        ]","[-1.35509711  0.          0.        ]","[0.15754401 0.         0.        ]"
"463","[-46.3772376   0.        -23.       ]","[-1.19371588  0.          0.        ]","[0.16138123 0.         0.        ]"
"464","[-47.40626672   0.         -23.        ]","[-1.02902913  0.          0.        ]","[0.16468676 0.         0.        ]"
"465","[-48.26781692   0.         -23.        ]","[-0.8615502  0.         0.       ]","[0.16747893 0.         0.        ]"
"466","[-48.95959196   0.         -23.        ]","[-0.69177504  0.          0.        ]","[0.16977515 0.         0.        ]"
"467","[-49.47977588   0.         -23.        ]","[-0.52018392  0.          0.        ]","[0.17159113 0.         0.        ]"
"468","[-49.82701961   0.         -23.        ]","[-0.34724373  0.          0.        ]","[0.17294019 0.         0.        ]"
"469","[-50.00043051   0.         -23.        ]","[-0.1734109  0.         0.       ]","[0.17383282 0.         0.        ]"
"470","[-49.9995652   0.        -23.       ]","[0.00086531 0.         0.        ]","[0.17427621 0.         0.        ]"
"471","[-49.82442589   0.         -23.        ]","[0.17513931 0.         0.        ]","[0.174274 0.       0.      ]"
"472","[-49.4754604   0.        -23.       ]","[0.34896549 0.         0.        ]","[0.17382618 0.         0.        ]"
"473","[-48.95356584   0.         -23.        ]","[0.52189455 0.         0.        ]","[0.17292906 0.         0.        ]"
"474","[-48.26009588   0.         -23.        ]","[0.69346997 0.         0.        ]","[0.17157541 0.         0.        ]"
"475","[-47.39687117   0.         -23.        ]","[0.86322471 0.         0.        ]","[0.16975474 0.         0.        ]"
"476","[-46.36619278   0.         -23.        ]","[1.03067839 0.         0.        ]","[0.16745368 0.         0.        ]"
"477","[-45.1708579   0.        -23.       ]","[1.19533489 0.         0.        ]","[0.1646565 0.        0.       ]"
"478","[-43.81417722   0.         -23.        ]","[1.35668067 0.         0.        ]","[0.16134579 0.         0.        ]"
"479","[-42.29999335   0.         -23.        ]","[1.51418387 0.         0.        ]","[0.1575032 0.        0.       ]"
"480","[-40.63269916   0.         -23.        ]","[1.6672942 0.        0.       ]","[0.15311033 0.         0.        ]"
"481","[-38.81725527   0.         -23.        ]","[1.81544389 0.         0.        ]","[0.14814969 0.         0.        ]"
"482","[-36.85920563   0.         -23.        ]","[1.95804964 0.         0.        ]","[0.14260576 0.         0.        ]"
"483","[-34.76468995   0.         -23.        ]","[2.09451568 0.         0.        ]","[0.13646603 0.         0.        ]"
"484","[-32.54045208   0.         -23.        ]","[2.22423786 0.         0.        ]","[0.12972218 0.         0.        ]"
"485","[-30.19384313   0.         -23.        ]","[2.34660896 0.         0.        ]","[0.1223711 0.        0.       ]"
"486","[-27.73281826   0.         -23.        ]","[2.46102487 0.         0.        ]","[0.11441591 0.         0.        ]"
"487","[-25.16592647   0.         -23.        ]","[2.56689179 0.         0.        ]","[0.10586692 0.         0.        ]"
"488","[-22.50229232   0.         -23.        ]","[2.66363415 0.         0.        ]","[0.09674235 0.         0.        ]"
"489","[-19.75158929   0.         -23.        ]","[2.75070303 0.         0.        ]","[0.08706889 0.         0.        ]"
"490","[-16.92400426   0.         -23.        ]","[2.82758503 0.         0.        ]","[0.07688199 0.         0.        ]"
"491","[-14.03019329   0.         -23.        ]","[2.89381097 0.         0.        ]","[0.06622594 0.         0.        ]"
"492","[-11.08122878   0.         -23.        ]","[2.94896452 0.         0.        ]","[0.05515355 0.         0.        ]"
"493","[ -8.08853866   0.         -23.        ]","[2.99269012 0.         0.        ]","[0.04372561 0.         0.        ]"
"494","[ -5.06383856   0.         -23.        ]","[3.0247001 0.        0.       ]","[0.03200997 0.         0.        ]"
"495","[ -2.01905803   0.         -23.        ]","[3.04478053 0.         0.        ]","[0.02008043 0.         0.        ]"
"496","[  1.03373776   0.         -23.        ]","[3.05279579 0.         0.        ]","[0.00801526 0.         0.        ]"
"497","[  4.08242919   0.         -23.        ]","[3.04869143 0.         0.        ]","[-0.00410436 -0.         -0.        ]"
"498","[  7.11492454   0.         -23.        ]","[3.03249535 0.         0.        ]","[-0.01619608 -0.         -0.        ]"
"499","[ 10.11924175   0.         -23.        ]","[3.00431721 0.         0.        ]","[-0.02817814 -0.         -0.        ]"
