"time","theta3d","omega3d","alpha3d"
"0","[38.82158767  0.          7.        ]","[-0.17841233  0.          0.        ]","[-0.17841233 -0.         -0.        ]"
"1","[38.46544992  0.          7.        ]","[-0.35613774  0.          0.        ]","[-0.17772541 -0.         -0.        ]"
"2","[37.9329631  0.         7.       ]","[-0.53248682  0.          0.        ]","[-0.17634908 -0.         -0.        ]"
"3","[37.22619775  0.          7.        ]","[-0.70676535  0.          0.        ]","[-0.17427853 -0.         -0.        ]"
"4","[36.34792532  0.          7.        ]","[-0.87827243  0.          0.        ]","[-0.17150708 -0.         -0.        ]"
"5","[35.3016261  0.         7.       ]","[-1.04629922  0.          0.        ]","[-0.16802679 -0.         -0.        ]"
"6","[34.09149768  0.          7.        ]","[-1.21012843  0.          0.        ]","[-0.1638292 -0.        -0.       ]"
"7","[32.72246293  0.          7.        ]","[-1.36903474  0.          0.        ]","[-0.15890632 -0.         -0.        ]"
"8","[31.20017654  0.          7.        ]","[-1.52228639  0.          0.        ]","[-0.15325165 -0.         -0.        ]"
"9","[29.53102874  0.          7.        ]","[-1.6691478  0.         0.       ]","[-0.1468614 -0.        -0.       ]"
"10","[27.72214526  0.          7.        ]","[-1.80888348  0.          0.        ]","[-0.13973568 -0.         -0.        ]"
"11","[25.78138205  0.          7.        ]","[-1.94076321  0.          0.        ]","[-0.13187973 -0.         -0.        ]"
"12","[23.71731377  0.          7.        ]","[-2.06406828  0.          0.        ]","[-0.12330507 -0.         -0.        ]"
"13","[21.53921486  0.          7.        ]","[-2.17809891  0.          0.        ]","[-0.11403063 -0.         -0.        ]"
"14","[19.25703234  0.          7.        ]","[-2.28218252  0.          0.        ]","[-0.10408361 -0.         -0.        ]"
"15","[16.88134967  0.          7.        ]","[-2.37568267  0.          0.        ]","[-0.09350015 -0.         -0.        ]"
"16","[14.42334123  0.          7.        ]","[-2.45800844  0.          0.        ]","[-0.08232577 -0.         -0.        ]"
"17","[11.89471735  0.          7.        ]","[-2.52862388  0.          0.        ]","[-0.07061544 -0.         -0.        ]"
"18","[9.30766016 0.         7.        ]","[-2.58705719  0.          0.        ]","[-0.05843331 -0.         -0.        ]"
"19","[6.67475088 0.         7.        ]","[-2.63290928  0.          0.        ]","[-0.04585209 -0.         -0.        ]"
"20","[4.00888954 0.         7.        ]","[-2.66586135  0.          0.        ]","[-0.03295207 -0.         -0.        ]"
"21","[1.32320835 0.         7.        ]","[-2.68568119  0.          0.        ]","[-0.01981984 -0.         -0.        ]"
"22","[-1.3690195  0.         7.       ]","[-2.69222785  0.          0.        ]","[-0.00654666 -0.         -0.        ]"
"23","[-4.05447408  0.          7.        ]","[-2.68545458  0.          0.        ]","[0.00677328 0.         0.        ]"
"24","[-6.71988382  0.          7.        ]","[-2.66540974  0.          0.        ]","[0.02004483 0.         0.        ]"
"25","[-9.3521197  0.         7.       ]","[-2.63223588  0.          0.        ]","[0.03317387 0.         0.        ]"
"26","[-11.93828641   0.           7.        ]","[-2.58616671  0.          0.        ]","[0.04606916 0.         0.        ]"
"27","[-14.46580888   0.           7.        ]","[-2.52752247  0.          0.        ]","[0.05864424 0.         0.        ]"
"28","[-16.92251242   0.           7.        ]","[-2.45670354  0.          0.        ]","[0.07081893 0.         0.        ]"
"29","[-19.29669532   0.           7.        ]","[-2.37418289  0.          0.        ]","[0.08252065 0.         0.        ]"
"30","[-21.57719281   0.           7.        ]","[-2.2804975  0.         0.       ]","[0.0936854 0.        0.       ]"
"31","[-23.75343193   0.           7.        ]","[-2.17623912  0.          0.        ]","[0.10425838 0.         0.        ]"
"32","[-25.81547682   0.           7.        ]","[-2.06204489  0.          0.        ]","[0.11419423 0.         0.        ]"
"33","[-27.75406476   0.           7.        ]","[-1.93858793  0.          0.        ]","[0.12345696 0.         0.        ]"
"34","[-29.56063317   0.           7.        ]","[-1.80656842  0.          0.        ]","[0.13201952 0.         0.        ]"
"35","[-31.22733847   0.           7.        ]","[-1.6667053  0.         0.       ]","[0.13986312 0.         0.        ]"
"36","[-32.74706742   0.           7.        ]","[-1.51972895  0.          0.        ]","[0.14697635 0.         0.        ]"
"37","[-34.11344231   0.           7.        ]","[-1.36637489  0.          0.        ]","[0.15335406 0.         0.        ]"
"38","[-35.32082098   0.           7.        ]","[-1.20737867  0.          0.        ]","[0.15899623 0.         0.        ]"
"39","[-36.36429294   0.           7.        ]","[-1.04347196  0.          0.        ]","[0.16390671 0.         0.        ]"
"40","[-37.23967288   0.           7.        ]","[-0.87537995  0.          0.        ]","[0.16809201 0.         0.        ]"
"41","[-37.94349266   0.           7.        ]","[-0.70381978  0.          0.        ]","[0.17156017 0.         0.        ]"
"42","[-38.47299282   0.           7.        ]","[-0.52950016  0.          0.        ]","[0.17431962 0.         0.        ]"
"43","[-38.82611468   0.           7.        ]","[-0.35312186  0.          0.        ]","[0.1763783 0.        0.       ]"
"44","[-39.00149368   0.           7.        ]","[-0.175379  0.        0.      ]","[0.17774286 0.         0.        ]"
"45","[-38.9984546   0.          7.       ]","[0.00303908 0.         0.        ]","[0.17841807 0.         0.        ]"
"46","[-38.81700914   0.           7.        ]","[0.18144547 0.         0.        ]","[0.17840639 0.         0.        ]"
"47","[-38.45785591   0.           7.        ]","[0.35915323 0.         0.        ]","[0.17770776 0.         0.        ]"
"48","[-37.92238302   0.           7.        ]","[0.53547288 0.         0.        ]","[0.17631966 0.         0.        ]"
"49","[-37.21267291   0.           7.        ]","[0.70971012 0.         0.        ]","[0.17423723 0.         0.        ]"
"50","[-36.331509   0.         7.      ]","[0.88116391 0.         0.        ]","[0.17145379 0.         0.        ]"
"51","[-35.28238373   0.           7.        ]","[1.04912527 0.         0.        ]","[0.16796136 0.         0.        ]"
"52","[-34.06950697   0.           7.        ]","[1.21287676 0.         0.        ]","[0.16375149 0.         0.        ]"
"53","[-32.69781402   0.           7.        ]","[1.37169295 0.         0.        ]","[0.15881619 0.         0.        ]"
"54","[-31.17297204   0.           7.        ]","[1.52484198 0.         0.        ]","[0.15314903 0.         0.        ]"
"55","[-29.5013838   0.          7.       ]","[1.67158823 0.         0.        ]","[0.14674625 0.         0.        ]"
"56","[-27.69018753   0.           7.        ]","[1.81119627 0.         0.        ]","[0.13960804 0.         0.        ]"
"57","[-25.74725153   0.           7.        ]","[1.942936 0.       0.      ]","[0.13173973 0.         0.        ]"
"58","[-23.68116255   0.           7.        ]","[2.06608898 0.         0.        ]","[0.12315298 0.         0.        ]"
"59","[-21.50120673   0.           7.        ]","[2.17995582 0.         0.        ]","[0.11386684 0.         0.        ]"
"60","[-19.21734225   0.           7.        ]","[2.28386448 0.         0.        ]","[0.10390865 0.         0.        ]"
"61","[-16.84016305   0.           7.        ]","[2.3771792 0.        0.       ]","[0.09331473 0.         0.        ]"
"62","[-14.38085311   0.           7.        ]","[2.45930994 0.         0.        ]","[0.08213074 0.         0.        ]"
"63","[-11.85113135   0.           7.        ]","[2.52972176 0.         0.        ]","[0.07041182 0.         0.        ]"
"64","[-9.26318733  0.          7.        ]","[2.58794402 0.         0.        ]","[0.05822226 0.         0.        ]"
"65","[-6.62960839  0.          7.        ]","[2.63357894 0.         0.        ]","[0.04563492 0.         0.        ]"
"66","[-3.96329925  0.          7.        ]","[2.66630915 0.         0.        ]","[0.03273021 0.         0.        ]"
"67","[-1.2773953  0.         7.       ]","[2.68590395 0.         0.        ]","[0.0195948 0.        0.       ]"
"68","[1.41482869 0.         7.        ]","[2.69222399 0.         0.        ]","[0.00632004 0.         0.        ]"
"69","[4.10005281 0.         7.        ]","[2.68522412 0.         0.        ]","[-0.00699987 -0.         -0.        ]"
"70","[6.76500714 0.         7.        ]","[2.66495433 0.         0.        ]","[-0.02026979 -0.         -0.        ]"
"71","[9.39656588 0.         7.        ]","[2.63155874 0.         0.        ]","[-0.03339559 -0.         -0.        ]"
"72","[11.98183847  0.          7.        ]","[2.58527259 0.         0.        ]","[-0.04628615 -0.         -0.        ]"
"73","[14.508256  0.        7.      ]","[2.52641753 0.         0.        ]","[-0.05885506 -0.         -0.        ]"
"74","[16.96365125  0.          7.        ]","[2.45539525 0.         0.        ]","[-0.07102228 -0.         -0.        ]"
"75","[19.33633113  0.          7.        ]","[2.37267988 0.         0.        ]","[-0.08271537 -0.         -0.        ]"
"76","[21.61514054  0.          7.        ]","[2.27880941 0.         0.        ]","[-0.09387048 -0.         -0.        ]"
"77","[23.78951699  0.          7.        ]","[2.17437645 0.         0.        ]","[-0.10443296 -0.         -0.        ]"
"78","[25.8495358  0.         7.       ]","[2.06001882 0.         0.        ]","[-0.11435763 -0.         -0.        ]"
"79","[27.78594598  0.          7.        ]","[1.93641017 0.         0.        ]","[-0.12360864 -0.         -0.        ]"
"80","[29.59019705  0.          7.        ]","[1.80425108 0.         0.        ]","[-0.1321591 -0.        -0.       ]"
"81","[31.25445779  0.          7.        ]","[1.66426074 0.         0.        ]","[-0.13999034 -0.         -0.        ]"
"82","[32.77162745  0.          7.        ]","[1.51716966 0.         0.        ]","[-0.14709108 -0.         -0.        ]"
"83","[34.13534086  0.          7.        ]","[1.36371341 0.         0.        ]","[-0.15345625 -0.         -0.        ]"
"84","[35.33996834  0.          7.        ]","[1.20462748 0.         0.        ]","[-0.15908593 -0.         -0.        ]"
"85","[36.38061183  0.          7.        ]","[1.04064348 0.         0.        ]","[-0.163984 -0.       -0.      ]"
"86","[37.25309828  0.          7.        ]","[0.87248645 0.         0.        ]","[-0.16815703 -0.         -0.        ]"
"87","[37.95397169  0.          7.        ]","[0.70087341 0.         0.        ]","[-0.17161305 -0.         -0.        ]"
"88","[38.48048459  0.          7.        ]","[0.5265129 0.        0.       ]","[-0.1743605 -0.        -0.       ]"
"89","[38.83059017  0.          7.        ]","[0.35010558 0.         0.        ]","[-0.17640732 -0.         -0.        ]"
"90","[39.00293564  0.          7.        ]","[0.17234547 0.         0.        ]","[-0.17776012 -0.         -0.        ]"
"91","[38.99685749  0.          7.        ]","[-0.00607815  0.          0.        ]","[-0.17842362 -0.         -0.        ]"
"92","[38.81237909  0.          7.        ]","[-0.1844784  0.         0.       ]","[-0.17840025 -0.         -0.        ]"
"93","[38.45021078  0.          7.        ]","[-0.36216831  0.          0.        ]","[-0.17768991 -0.         -0.        ]"
"94","[37.91175244  0.          7.        ]","[-0.53845834  0.          0.        ]","[-0.17629003 -0.         -0.        ]"
"95","[37.19909836  0.          7.        ]","[-0.71265408  0.          0.        ]","[-0.17419574 -0.         -0.        ]"
"96","[36.31504399  0.          7.        ]","[-0.88405437  0.          0.        ]","[-0.1714003 -0.        -0.       ]"
"97","[35.26309389  0.          7.        ]","[-1.0519501  0.         0.       ]","[-0.16789572 -0.         -0.        ]"
"98","[34.04747023  0.          7.        ]","[-1.21562366  0.          0.        ]","[-0.16367357 -0.         -0.        ]"
"99","[32.6731207  0.         7.       ]","[-1.37434952  0.          0.        ]","[-0.15872586 -0.         -0.        ]"
"100","[31.14572499  0.          7.        ]","[-1.52739572  0.          0.        ]","[-0.15304619 -0.         -0.        ]"
"101","[29.47169839  0.          7.        ]","[-1.6740266  0.         0.       ]","[-0.14663088 -0.         -0.        ]"
"102","[27.65819161  0.          7.        ]","[-1.81350678  0.          0.        ]","[-0.13948018 -0.         -0.        ]"
"103","[25.71308531  0.          7.        ]","[-1.9451063  0.         0.       ]","[-0.13159953 -0.         -0.        ]"
"104","[23.64497832  0.          7.        ]","[-2.06810699  0.          0.        ]","[-0.12300069 -0.         -0.        ]"
"105","[21.46316847  0.          7.        ]","[-2.18180985  0.          0.        ]","[-0.11370286 -0.         -0.        ]"
"106","[19.17762511  0.          7.        ]","[-2.28554336  0.          0.        ]","[-0.10373351 -0.         -0.        ]"
"107","[16.79895262  0.          7.        ]","[-2.3786725  0.         0.       ]","[-0.09312913 -0.         -0.        ]"
"108","[14.33834457  0.          7.        ]","[-2.46060805  0.          0.        ]","[-0.08193555 -0.         -0.        ]"
"109","[11.80752846  0.          7.        ]","[-2.5308161  0.         0.       ]","[-0.07020806 -0.         -0.        ]"
"110","[9.21870127 0.         7.        ]","[-2.5888272  0.         0.       ]","[-0.05801109 -0.         -0.        ]"
"111","[6.58445641 0.         7.        ]","[-2.63424486  0.          0.        ]","[-0.04541766 -0.         -0.        ]"
"112","[3.91770327 0.         7.        ]","[-2.66675314  0.          0.        ]","[-0.03250828 -0.         -0.        ]"
"113","[1.23158041 0.         7.        ]","[-2.68612286  0.          0.        ]","[-0.01936973 -0.         -0.        ]"
"114","[-1.46063585  0.          7.        ]","[-2.69221626  0.          0.        ]","[-0.0060934 -0.        -0.       ]"
"115","[-4.14562566  0.          7.        ]","[-2.68498981  0.          0.        ]","[0.00722646 0.         0.        ]"
"116","[-6.81012077  0.          7.        ]","[-2.66449511  0.          0.        ]","[0.0204947 0.        0.       ]"
"117","[-9.44099863  0.          7.        ]","[-2.63087786  0.          0.        ]","[0.03361725 0.         0.        ]"
"118","[-12.02537346   0.           7.        ]","[-2.58437483  0.          0.        ]","[0.04650304 0.         0.        ]"
"119","[-14.55068252   0.           7.        ]","[-2.52530906  0.          0.        ]","[0.05906576 0.         0.        ]"
"120","[-17.00476609   0.           7.        ]","[-2.45408357  0.          0.        ]","[0.07122549 0.         0.        ]"
"121","[-19.37593973   0.           7.        ]","[-2.37117364  0.          0.        ]","[0.08290993 0.         0.        ]"
"122","[-21.65305799   0.           7.        ]","[-2.27711826  0.          0.        ]","[0.09405538 0.         0.        ]"
"123","[-23.82556888   0.           7.        ]","[-2.1725109  0.         0.       ]","[0.10460736 0.         0.        ]"
"124","[-25.88355894   0.           7.        ]","[-2.05799006  0.          0.        ]","[0.11452084 0.         0.        ]"
"125","[-27.81778888   0.           7.        ]","[-1.93422994  0.          0.        ]","[0.12376012 0.         0.        ]"
"126","[-29.61972035   0.           7.        ]","[-1.80193147  0.          0.        ]","[0.13229847 0.         0.        ]"
"127","[-31.28153447   0.           7.        ]","[-1.66181412  0.          0.        ]","[0.14011735 0.         0.        ]"
"128","[-32.796143   0.         7.      ]","[-1.51460853  0.          0.        ]","[0.14720559 0.         0.        ]"
"129","[-34.15719329   0.           7.        ]","[-1.36105029  0.          0.        ]","[0.15355824 0.         0.        ]"
"130","[-35.35906817   0.           7.        ]","[-1.20187488  0.          0.        ]","[0.15917541 0.         0.        ]"
"131","[-36.39688197   0.           7.        ]","[-1.0378138  0.         0.       ]","[0.16406108 0.         0.        ]"
"132","[-37.26647393   0.           7.        ]","[-0.86959196  0.          0.        ]","[0.16822184 0.         0.        ]"
"133","[-37.96440017   0.           7.        ]","[-0.69792624  0.          0.        ]","[0.17166572 0.         0.        ]"
"134","[-38.48792522   0.           7.        ]","[-0.52352505  0.          0.        ]","[0.17440119 0.         0.        ]"
"135","[-38.83501413   0.           7.        ]","[-0.34708891  0.          0.        ]","[0.17643614 0.         0.        ]"
"136","[-39.00432588   0.           7.        ]","[-0.16931175  0.          0.        ]","[0.17777717 0.         0.        ]"
"137","[-38.99520866   0.           7.        ]","[0.00911722 0.         0.        ]","[0.17842896 0.         0.        ]"
"138","[-38.80769754   0.           7.        ]","[0.18751112 0.         0.        ]","[0.17839391 0.         0.        ]"
"139","[-38.44251455   0.           7.        ]","[0.36518299 0.         0.        ]","[0.17767186 0.         0.        ]"
"140","[-37.90107135   0.           7.        ]","[0.54144319 0.         0.        ]","[0.17626021 0.         0.        ]"
"141","[-37.18547412   0.           7.        ]","[0.71559723 0.         0.        ]","[0.17415404 0.         0.        ]"
"142","[-36.2985303   0.          7.       ]","[0.88694382 0.         0.        ]","[0.17134659 0.         0.        ]"
"143","[-35.2437566   0.          7.       ]","[1.0547737 0.        0.       ]","[0.16782988 0.         0.        ]"
"144","[-34.02538747   0.           7.        ]","[1.21836913 0.         0.        ]","[0.16359543 0.         0.        ]"
"145","[-32.64838302   0.           7.        ]","[1.37700445 0.         0.        ]","[0.15863531 0.         0.        ]"
"146","[-31.11843543   0.           7.        ]","[1.52994759 0.         0.        ]","[0.15294315 0.         0.        ]"
"147","[-29.44197254   0.           7.        ]","[1.67646289 0.         0.        ]","[0.1465153 0.        0.       ]"
"148","[-27.62615754   0.           7.        ]","[1.815815 0.       0.      ]","[0.13935211 0.         0.        ]"
"149","[-25.67888342   0.           7.        ]","[1.94727411 0.         0.        ]","[0.13145911 0.         0.        ]"
"150","[-23.60876112   0.           7.        ]","[2.07012231 0.         0.        ]","[0.12284819 0.         0.        ]"
"151","[-21.42510014   0.           7.        ]","[2.18366098 0.         0.        ]","[0.11353867 0.         0.        ]"
"152","[-19.13788097   0.           7.        ]","[2.28721917 0.         0.        ]","[0.10355819 0.         0.        ]"
"153","[-16.75771842   0.           7.        ]","[2.38016254 0.         0.        ]","[0.09294337 0.         0.        ]"
"154","[-14.29581567   0.           7.        ]","[2.46190275 0.         0.        ]","[0.08174021 0.         0.        ]"
"155","[-11.76390876   0.           7.        ]","[2.53190691 0.         0.        ]","[0.07000416 0.         0.        ]"
"156","[-9.17420203  0.          7.        ]","[2.58970672 0.         0.        ]","[0.05779981 0.         0.        ]"
"157","[-6.539295  0.        7.      ]","[2.63490703 0.         0.        ]","[0.04520031 0.         0.        ]"
"158","[-3.87210169  0.          7.        ]","[2.66719332 0.         0.        ]","[0.03228629 0.         0.        ]"
"159","[-1.18576376  0.          7.        ]","[2.68633793 0.         0.        ]","[0.01914461 0.         0.        ]"
"160","[1.50644092 0.         7.        ]","[2.69220468 0.         0.        ]","[0.00586675 0.         0.        ]"
"161","[4.19119257 0.         7.        ]","[2.68475165 0.         0.        ]","[-0.00745302 -0.         -0.        ]"
"162","[6.85522466 0.         7.        ]","[2.66403209 0.         0.        ]","[-0.02071957 -0.         -0.        ]"
"163","[9.48541791 0.         7.        ]","[2.63019325 0.         0.        ]","[-0.03383884 -0.         -0.        ]"
"164","[12.06889133  0.          7.        ]","[2.58347342 0.         0.        ]","[-0.04671983 -0.         -0.        ]"
"165","[14.59308839  0.          7.        ]","[2.52419707 0.         0.        ]","[-0.05927635 -0.         -0.        ]"
"166","[17.04585689  0.          7.        ]","[2.4527685 0.        0.       ]","[-0.07142857 -0.         -0.        ]"
"167","[19.41552106  0.          7.        ]","[2.36966416 0.         0.        ]","[-0.08310434 -0.         -0.        ]"
"168","[21.69094511  0.          7.        ]","[2.27542405 0.         0.        ]","[-0.09424012 -0.         -0.        ]"
"169","[23.86158758  0.          7.        ]","[2.17064247 0.         0.        ]","[-0.10478158 -0.         -0.        ]"
"170","[25.9175462  0.         7.       ]","[2.05595863 0.         0.        ]","[-0.11468385 -0.         -0.        ]"
"171","[27.84959343  0.          7.        ]","[1.93204723 0.         0.        ]","[-0.1239114 -0.        -0.       ]"
"172","[29.64920303  0.          7.        ]","[1.7996096 0.        0.       ]","[-0.13243763 -0.         -0.        ]"
"173","[31.30856847  0.          7.        ]","[1.65936544 0.         0.        ]","[-0.14024415 -0.         -0.        ]"
"174","[32.82061402  0.          7.        ]","[1.51204555 0.         0.        ]","[-0.14731989 -0.         -0.        ]"
"175","[34.17899957  0.          7.        ]","[1.35838555 0.         0.        ]","[-0.15366 -0.      -0.     ]"
"176","[35.37812043  0.          7.        ]","[1.19912086 0.         0.        ]","[-0.15926468 -0.         -0.        ]"
"177","[36.41310334  0.          7.        ]","[1.03498291 0.         0.        ]","[-0.16413795 -0.         -0.        ]"
"178","[37.27979981  0.          7.        ]","[0.86669647 0.         0.        ]","[-0.16828644 -0.         -0.        ]"
"179","[37.97477809  0.          7.        ]","[0.69497828 0.         0.        ]","[-0.17171819 -0.         -0.        ]"
"180","[38.4953147  0.         7.       ]","[0.52053661 0.         0.        ]","[-0.17444167 -0.         -0.        ]"
"181","[38.83938656  0.          7.        ]","[0.34407186 0.         0.        ]","[-0.17646476 -0.         -0.        ]"
"182","[39.00566439  0.          7.        ]","[0.16627784 0.         0.        ]","[-0.17779402 -0.         -0.        ]"
"183","[38.99350812  0.          7.        ]","[-0.01215628  0.          0.        ]","[-0.17843411 -0.         -0.        ]"
"184","[38.80296448  0.          7.        ]","[-0.19054364  0.          0.        ]","[-0.17838737 -0.         -0.        ]"
"185","[38.43476722  0.          7.        ]","[-0.36819725  0.          0.        ]","[-0.17765361 -0.         -0.        ]"
"186","[37.89033979  0.          7.        ]","[-0.54442743  0.          0.        ]","[-0.17623018 -0.         -0.        ]"
"187","[37.17180022  0.          7.        ]","[-0.71853957  0.          0.        ]","[-0.17411213 -0.         -0.        ]"
"188","[36.28196796  0.          7.        ]","[-0.88983226  0.          0.        ]","[-0.17129269 -0.         -0.        ]"
"189","[35.22437189  0.          7.        ]","[-1.05759608  0.          0.        ]","[-0.16776382 -0.         -0.        ]"
"190","[34.00325872  0.          7.        ]","[-1.22111316  0.          0.        ]","[-0.16351709 -0.         -0.        ]"
"191","[32.623601  0.        7.      ]","[-1.37965772  0.          0.        ]","[-0.15854456 -0.         -0.        ]"
"192","[31.0911034  0.         7.       ]","[-1.5324976  0.         0.       ]","[-0.15283988 -0.         -0.        ]"
"193","[29.41220629  0.          7.        ]","[-1.67889711  0.          0.        ]","[-0.1463995 -0.        -0.       ]"
"194","[27.59408535  0.          7.        ]","[-1.81812094  0.          0.        ]","[-0.13922383 -0.         -0.        ]"
"195","[25.64464592  0.          7.        ]","[-1.94943943  0.          0.        ]","[-0.13131849 -0.         -0.        ]"
"196","[23.572511  0.        7.      ]","[-2.07213492  0.          0.        ]","[-0.12269549 -0.         -0.        ]"
"197","[21.38700178  0.          7.        ]","[-2.18550922  0.          0.        ]","[-0.1133743 -0.        -0.       ]"
"198","[19.09810987  0.          7.        ]","[-2.28889191  0.          0.        ]","[-0.10338268 -0.         -0.        ]"
"199","[16.71646053  0.          7.        ]","[-2.38164934  0.          0.        ]","[-0.09275744 -0.         -0.        ]"
"200","[14.25326647  0.          7.        ]","[-2.46319406  0.          0.        ]","[-0.08154472 -0.         -0.        ]"
"201","[11.72027229  0.          7.        ]","[-2.53299418  0.          0.        ]","[-0.06980012 -0.         -0.        ]"
"202","[9.12968969 0.         7.        ]","[-2.5905826  0.         0.       ]","[-0.05758842 -0.         -0.        ]"
"203","[6.49412423 0.         7.        ]","[-2.63556546  0.          0.        ]","[-0.04498286 -0.         -0.        ]"
"204","[3.82649455 0.         7.        ]","[-2.66762969  0.          0.        ]","[-0.03206422 -0.         -0.        ]"
"205","[1.13994541 0.         7.        ]","[-2.68654914  0.          0.        ]","[-0.01891946 -0.         -0.        ]"
"206","[-1.55224382  0.          7.        ]","[-2.69218923  0.          0.        ]","[-0.00564009 -0.         -0.        ]"
"207","[-4.23675348  0.          7.        ]","[-2.68450965  0.          0.        ]","[0.00767958 0.         0.        ]"
"208","[-6.90031874  0.          7.        ]","[-2.66356526  0.          0.        ]","[0.02094439 0.         0.        ]"
"209","[-9.52982364  0.          7.        ]","[-2.6295049  0.         0.       ]","[0.03406036 0.         0.        ]"
"210","[-12.112392   0.         7.      ]","[-2.58256837  0.          0.        ]","[0.04693653 0.         0.        ]"
"211","[-14.63547356   0.           7.        ]","[-2.52308155  0.          0.        ]","[0.05948681 0.         0.        ]"
"212","[-17.0869236   0.          7.       ]","[-2.45145005  0.          0.        ]","[0.07163151 0.         0.        ]"
"213","[-19.45507506   0.           7.        ]","[-2.36815146  0.          0.        ]","[0.08329859 0.         0.        ]"
"214","[-21.72880184   0.           7.        ]","[-2.27372678  0.          0.        ]","[0.09442468 0.         0.        ]"
"215","[-23.89757302   0.           7.        ]","[-2.16877118  0.          0.        ]","[0.1049556 0.        0.       ]"
"216","[-25.95149754   0.           7.        ]","[-2.05392452  0.          0.        ]","[0.11484666 0.         0.        ]"
"217","[-27.88135958   0.           7.        ]","[-1.92986204  0.          0.        ]","[0.12406247 0.         0.        ]"
"218","[-29.67864504   0.           7.        ]","[-1.79728546  0.          0.        ]","[0.13257658 0.         0.        ]"
"219","[-31.33555976   0.           7.        ]","[-1.65691472  0.          0.        ]","[0.14037074 0.         0.        ]"
"220","[-32.8450405   0.          7.       ]","[-1.50948074  0.          0.        ]","[0.14743398 0.         0.        ]"
"221","[-34.20075968   0.           7.        ]","[-1.35571918  0.          0.        ]","[0.15376156 0.         0.        ]"
"222","[-35.39712511   0.           7.        ]","[-1.19636543  0.          0.        ]","[0.15935375 0.         0.        ]"
"223","[-36.42927593   0.           7.        ]","[-1.03215082  0.          0.        ]","[0.16421462 0.         0.        ]"
"224","[-37.29307592   0.           7.        ]","[-0.86379999  0.          0.        ]","[0.16835083 0.         0.        ]"
"225","[-37.98510545   0.           7.        ]","[-0.69202953  0.          0.        ]","[0.17177046 0.         0.        ]"
"226","[-38.50265304   0.           7.        ]","[-0.51754758  0.          0.        ]","[0.17448195 0.         0.        ]"
"227","[-38.84370745   0.           7.        ]","[-0.34105441  0.          0.        ]","[0.17649317 0.         0.        ]"
"228","[-39.00695119   0.           7.        ]","[-0.16324374  0.          0.        ]","[0.17781067 0.         0.        ]"
"229","[-38.99175587   0.           7.        ]","[0.01519532 0.         0.        ]","[0.17843906 0.         0.        ]"
"230","[-38.79817992   0.           7.        ]","[0.19357595 0.         0.        ]","[0.17838063 0.         0.        ]"
"231","[-38.42696881   0.           7.        ]","[0.37121111 0.         0.        ]","[0.17763516 0.         0.        ]"
"232","[-37.87955775   0.           7.        ]","[0.54741106 0.         0.        ]","[0.17619995 0.         0.        ]"
"233","[-37.15807666   0.           7.        ]","[0.72148109 0.         0.        ]","[0.17407003 0.         0.        ]"
"234","[-36.26535699   0.           7.        ]","[0.89271966 0.         0.        ]","[0.17123857 0.         0.        ]"
"235","[-35.20493977   0.           7.        ]","[1.06041722 0.         0.        ]","[0.16769756 0.         0.        ]"
"236","[-33.98108401   0.           7.        ]","[1.22385576 0.         0.        ]","[0.16343853 0.         0.        ]"
"237","[-32.59877467   0.           7.        ]","[1.38230934 0.         0.        ]","[0.15845358 0.         0.        ]"
"238","[-31.06372892   0.           7.        ]","[1.53504575 0.         0.        ]","[0.15273641 0.         0.        ]"
"239","[-29.38239967   0.           7.        ]","[1.68132925 0.         0.        ]","[0.1462835 0.        0.       ]"
"240","[-27.56197509   0.           7.        ]","[1.82042458 0.         0.        ]","[0.13909534 0.         0.        ]"
"241","[-25.61037285   0.           7.        ]","[1.95160224 0.         0.        ]","[0.13117766 0.         0.        ]"
"242","[-23.53622801   0.           7.        ]","[2.07414484 0.         0.        ]","[0.12254259 0.         0.        ]"
"243","[-21.34887345   0.           7.        ]","[2.18735456 0.         0.        ]","[0.11320973 0.         0.        ]"
"244","[-19.05831189   0.           7.        ]","[2.29056156 0.         0.        ]","[0.10320699 0.         0.        ]"
"245","[-16.675179   0.         7.      ]","[2.38313289 0.         0.        ]","[0.09257133 0.         0.        ]"
"246","[-14.21069704   0.           7.        ]","[2.46448196 0.         0.        ]","[0.08134907 0.         0.        ]"
"247","[-11.67661913   0.           7.        ]","[2.53407791 0.         0.        ]","[0.06959595 0.         0.        ]"
"248","[-9.08516431  0.          7.        ]","[2.59145482 0.         0.        ]","[0.05737691 0.         0.        ]"
"249","[-6.44894417  0.          7.        ]","[2.63622015 0.         0.        ]","[0.04476533 0.         0.        ]"
"250","[-3.78088192  0.          7.        ]","[2.66806224 0.         0.        ]","[0.0318421 0.        0.       ]"
"251","[-1.09412542  0.          7.        ]","[2.68675651 0.         0.        ]","[0.01869426 0.         0.        ]"
"252","[1.5980445 0.        7.       ]","[2.69216992 0.         0.        ]","[0.00541341 0.         0.        ]"
"253","[4.28230831 0.         7.        ]","[2.68426381 0.         0.        ]","[-0.00790611 -0.         -0.        ]"
"254","[6.94540294 0.         7.        ]","[2.66309463 0.         0.        ]","[-0.02116918 -0.         -0.        ]"
"255","[9.57421575 0.         7.        ]","[2.62881282 0.         0.        ]","[-0.03428181 -0.         -0.        ]"
"256","[12.15587543  0.          7.        ]","[2.58165968 0.         0.        ]","[-0.04715314 -0.         -0.        ]"
"257","[14.67783795  0.          7.        ]","[2.52196251 0.         0.        ]","[-0.05969716 -0.         -0.        ]"
"258","[17.12796616  0.          7.        ]","[2.45012821 0.         0.        ]","[-0.0718343 -0.        -0.       ]"
"259","[19.49460169  0.          7.        ]","[2.36663553 0.         0.        ]","[-0.08349268 -0.         -0.        ]"
"260","[21.76662815  0.          7.        ]","[2.27202646 0.         0.        ]","[-0.09460907 -0.         -0.        ]"
"261","[23.93352517  0.          7.        ]","[2.16689702 0.         0.        ]","[-0.10512945 -0.         -0.        ]"
"262","[25.9854129  0.         7.       ]","[2.05188774 0.         0.        ]","[-0.11500928 -0.         -0.        ]"
"263","[27.9130873  0.         7.       ]","[1.92767439 0.         0.        ]","[-0.12421334 -0.         -0.        ]"
"264","[29.70804636  0.          7.        ]","[1.79495906 0.         0.        ]","[-0.13271533 -0.         -0.        ]"
"265","[31.36250831  0.          7.        ]","[1.65446195 0.         0.        ]","[-0.14049711 -0.         -0.        ]"
"266","[32.86942241  0.          7.        ]","[1.50691409 0.         0.        ]","[-0.14754786 -0.         -0.        ]"
"267","[34.2224736  0.         7.       ]","[1.35305119 0.         0.        ]","[-0.1538629 -0.        -0.       ]"
"268","[35.41608219  0.          7.        ]","[1.19360859 0.         0.        ]","[-0.1594426 -0.        -0.       ]"
"269","[36.44539972  0.          7.        ]","[1.02931753 0.         0.        ]","[-0.16429107 -0.         -0.        ]"
"270","[37.30630223  0.          7.        ]","[0.86090251 0.         0.        ]","[-0.16841501 -0.         -0.        ]"
"271","[37.99538223  0.          7.        ]","[0.68908 0.      0.     ]","[-0.17182252 -0.         -0.        ]"
"272","[38.5099402  0.         7.       ]","[0.51455798 0.         0.        ]","[-0.17452202 -0.         -0.        ]"
"273","[38.84797679  0.          7.        ]","[0.33803659 0.         0.        ]","[-0.17652139 -0.         -0.        ]"
"274","[39.00818625  0.          7.        ]","[0.16020946 0.         0.        ]","[-0.17782712 -0.         -0.        ]"
"275","[38.98995191  0.          7.        ]","[-0.01823435  0.          0.        ]","[-0.17844381 -0.         -0.        ]"
"276","[38.79334387  0.          7.        ]","[-0.19660804  0.          0.        ]","[-0.17837369 -0.         -0.        ]"
"277","[38.41911932  0.          7.        ]","[-0.37422455  0.          0.        ]","[-0.17761651 -0.         -0.        ]"
"278","[37.86872525  0.          7.        ]","[-0.55039407  0.          0.        ]","[-0.17616953 -0.         -0.        ]"
"279","[37.14430346  0.          7.        ]","[-0.72442179  0.          0.        ]","[-0.17402772 -0.         -0.        ]"
"280","[36.24869741  0.          7.        ]","[-0.89560605  0.          0.        ]","[-0.17118425 -0.         -0.        ]"
"281","[35.18546027  0.          7.        ]","[-1.06323714  0.          0.        ]","[-0.16763109 -0.         -0.        ]"
"282","[33.95886337  0.          7.        ]","[-1.2265969  0.         0.       ]","[-0.16335977 -0.         -0.        ]"
"283","[32.57390406  0.          7.        ]","[-1.38495931  0.          0.        ]","[-0.1583624 -0.        -0.       ]"
"284","[31.03631204  0.          7.        ]","[-1.53759203  0.          0.        ]","[-0.15263272 -0.         -0.        ]"
"285","[29.35255273  0.          7.        ]","[-1.6837593  0.         0.       ]","[-0.14616727 -0.         -0.        ]"
"286","[27.5298268  0.         7.       ]","[-1.82272593  0.          0.        ]","[-0.13896663 -0.         -0.        ]"
"287","[25.57606425  0.          7.        ]","[-1.95376256  0.          0.        ]","[-0.13103662 -0.         -0.        ]"
"288","[23.4999122  0.         7.       ]","[-2.07615205  0.          0.        ]","[-0.12238949 -0.         -0.        ]"
"289","[21.31071519  0.          7.        ]","[-2.18919701  0.          0.        ]","[-0.11304496 -0.         -0.        ]"
"290","[19.01848706  0.          7.        ]","[-2.29222813  0.          0.        ]","[-0.10303112 -0.         -0.        ]"
"291","[16.63387388  0.          7.        ]","[-2.38461319  0.          0.        ]","[-0.09238506 -0.         -0.        ]"
"292","[14.16810743  0.          7.        ]","[-2.46576645  0.          0.        ]","[-0.08115326 -0.         -0.        ]"
"293","[11.63294933  0.          7.        ]","[-2.5351581  0.         0.       ]","[-0.06939165 -0.         -0.        ]"
"294","[9.04062595 0.         7.        ]","[-2.59232338  0.          0.        ]","[-0.05716528 -0.         -0.        ]"
"295","[6.40375487 0.         7.        ]","[-2.63687108  0.          0.        ]","[-0.0445477 -0.        -0.       ]"
"296","[3.73526388 0.         7.        ]","[-2.66849099  0.          0.        ]","[-0.03161991 -0.         -0.        ]"
"297","[1.04830386 0.         7.        ]","[-2.68696002  0.          0.        ]","[-0.01846903 -0.         -0.        ]"
"298","[-1.64384289  0.          7.        ]","[-2.69214674  0.          0.        ]","[-0.00518673 -0.         -0.        ]"
"299","[-4.327857  0.        7.      ]","[-2.68401411  0.          0.        ]","[0.00813263 0.         0.        ]"
"300","[-6.99047719  0.          7.        ]","[-2.6626202  0.         0.       ]","[0.02139392 0.         0.        ]"
"301","[-9.6185942  0.         7.       ]","[-2.62811701  0.          0.        ]","[0.03450319 0.         0.        ]"
"302","[-12.19934155   0.           7.        ]","[-2.58074735  0.          0.        ]","[0.04736965 0.         0.        ]"
"303","[-14.72018151   0.           7.        ]","[-2.52083996  0.          0.        ]","[0.0599074 0.        0.       ]"
"304","[-17.16898451   0.           7.        ]","[-2.448803  0.        0.      ]","[0.07203696 0.         0.        ]"
"305","[-19.53410088   0.           7.        ]","[-2.36511638  0.          0.        ]","[0.08368662 0.         0.        ]"
"306","[-21.80442398   0.           7.        ]","[-2.2703231  0.         0.       ]","[0.09479328 0.         0.        ]"
"307","[-23.96944397   0.           7.        ]","[-2.16501999  0.          0.        ]","[0.10530311 0.         0.        ]"
"308","[-26.01929226   0.           7.        ]","[-2.04984829  0.          0.        ]","[0.1151717 0.        0.       ]"
"309","[-27.94477654   0.           7.        ]","[-1.92548428  0.          0.        ]","[0.12436401 0.         0.        ]"
"310","[-29.73740695   0.           7.        ]","[-1.79263041  0.          0.        ]","[0.13285386 0.         0.        ]"
"311","[-31.38941409   0.           7.        ]","[-1.65200714  0.          0.        ]","[0.14062328 0.         0.        ]"
"312","[-32.89375971   0.           7.        ]","[-1.50434562  0.          0.        ]","[0.14766152 0.         0.        ]"
"313","[-34.24414129   0.           7.        ]","[-1.35038159  0.          0.        ]","[0.15396403 0.         0.        ]"
"314","[-35.43499164   0.           7.        ]","[-1.19085035  0.          0.        ]","[0.15953123 0.         0.        ]"
"315","[-36.46147468   0.           7.        ]","[-1.02648304  0.          0.        ]","[0.16436731 0.         0.        ]"
"316","[-37.31947874   0.           7.        ]","[-0.85800405  0.          0.        ]","[0.16847899 0.         0.        ]"
"317","[-38.00560842   0.           7.        ]","[-0.68612968  0.          0.        ]","[0.17187437 0.         0.        ]"
"318","[-38.5171762   0.          7.       ]","[-0.51156779  0.          0.        ]","[0.1745619 0.        0.       ]"
"319","[-38.85219459   0.           7.        ]","[-0.33501838  0.          0.        ]","[0.1765494 0.        0.       ]"
"320","[-39.00936959   0.           7.        ]","[-0.15717501  0.          0.        ]","[0.17784338 0.         0.        ]"
"321","[-38.98809624   0.           7.        ]","[0.02127335 0.         0.        ]","[0.17844836 0.         0.        ]"
"322","[-38.78845633   0.           7.        ]","[0.19963991 0.         0.        ]","[0.17836655 0.         0.        ]"
"323","[-38.41121877   0.           7.        ]","[0.37723757 0.         0.        ]","[0.17759766 0.         0.        ]"
"324","[-37.8578423   0.          7.       ]","[0.55337646 0.         0.        ]","[0.1761389 0.        0.       ]"
"325","[-37.13048063   0.           7.        ]","[0.72736167 0.         0.        ]","[0.17398521 0.         0.        ]"
"326","[-36.23198923   0.           7.        ]","[0.8984914 0.        0.       ]","[0.17112973 0.         0.        ]"
"327","[-35.16593342   0.           7.        ]","[1.06605581 0.         0.        ]","[0.16756441 0.         0.        ]"
"328","[-33.93659682   0.           7.        ]","[1.2293366 0.        0.       ]","[0.16328079 0.         0.        ]"
"329","[-32.54898921   0.           7.        ]","[1.38760761 0.         0.        ]","[0.15827101 0.         0.        ]"
"330","[-31.00885278   0.           7.        ]","[1.54013643 0.         0.        ]","[0.15252882 0.         0.        ]"
"331","[-29.32266551   0.           7.        ]","[1.68618727 0.         0.        ]","[0.14605084 0.         0.        ]"
"332","[-27.49764052   0.           7.        ]","[1.82502499 0.         0.        ]","[0.13883772 0.         0.        ]"
"333","[-25.54172016   0.           7.        ]","[1.95592036 0.         0.        ]","[0.13089538 0.         0.        ]"
"334","[-23.46356361   0.           7.        ]","[2.07815655 0.         0.        ]","[0.12223619 0.         0.        ]"
"335","[-21.27252706   0.           7.        ]","[2.19103655 0.         0.        ]","[0.11288 0.      0.     ]"
"336","[-18.97863545   0.           7.        ]","[2.29389161 0.         0.        ]","[0.10285506 0.         0.        ]"
"337","[-16.59254522   0.           7.        ]","[2.38609023 0.         0.        ]","[0.09219861 0.         0.        ]"
"338","[-14.1254977   0.          7.       ]","[2.46704753 0.         0.        ]","[0.0809573 0.        0.       ]"
"339","[-11.58926296   0.           7.        ]","[2.53623474 0.         0.        ]","[0.06918721 0.         0.        ]"
"340","[-8.99607467  0.          7.        ]","[2.59318829 0.         0.        ]","[0.05695355 0.         0.        ]"
"341","[-6.3585564  0.         7.       ]","[2.63751827 0.         0.        ]","[0.04432999 0.         0.        ]"
"342","[-3.68964048  0.          7.        ]","[2.66891592 0.         0.        ]","[0.03139765 0.         0.        ]"
"343","[-1.0024808  0.         7.       ]","[2.68715968 0.         0.        ]","[0.01824376 0.         0.        ]"
"344","[1.68963891 0.         7.        ]","[2.69211971 0.         0.        ]","[0.00496003 0.         0.        ]"
"345","[4.37339949 0.         7.        ]","[2.68376057 0.         0.        ]","[-0.00835914 -0.         -0.        ]"
"346","[7.03554145 0.         7.        ]","[2.66214196 0.         0.        ]","[-0.02161861 -0.         -0.        ]"
"347","[9.66295891 0.         7.        ]","[2.62741746 0.         0.        ]","[-0.0347245 -0.        -0.       ]"
"348","[12.2427903  0.         7.       ]","[2.57983139 0.         0.        ]","[-0.04758607 -0.         -0.        ]"
"349","[14.76250419  0.          7.        ]","[2.51971388 0.         0.        ]","[-0.06011751 -0.         -0.        ]"
"350","[17.20997859  0.          7.        ]","[2.4474744 0.        0.       ]","[-0.07223948 -0.         -0.        ]"
"351","[19.5735726  0.         7.       ]","[2.363594 0.       0.      ]","[-0.0838804 -0.        -0.       ]"
"352","[21.84218928  0.          7.        ]","[2.26861668 0.         0.        ]","[-0.09497732 -0.         -0.        ]"
"353","[24.00532938  0.          7.        ]","[2.1631401 0.        0.       ]","[-0.10547658 -0.         -0.        ]"
"354","[26.05313556  0.          7.        ]","[2.04780618 0.         0.        ]","[-0.11533393 -0.         -0.        ]"
"355","[27.97642726  0.          7.        ]","[1.9232917 0.        0.       ]","[-0.12451447 -0.         -0.        ]"
"356","[29.76672677  0.          7.        ]","[1.79029951 0.         0.        ]","[-0.13299219 -0.         -0.        ]"
"357","[31.41627706  0.          7.        ]","[1.64955028 0.         0.        ]","[-0.14074923 -0.         -0.        ]"
"358","[32.91805237  0.          7.        ]","[1.50177531 0.         0.        ]","[-0.14777497 -0.         -0.        ]"
"359","[34.26576274  0.          7.        ]","[1.34771037 0.         0.        ]","[-0.15406495 -0.         -0.        ]"
"360","[35.45385345  0.          7.        ]","[1.18809071 0.         0.        ]","[-0.15961966 -0.         -0.        ]"
"361","[36.47750081  0.          7.        ]","[1.02364736 0.         0.        ]","[-0.16444334 -0.         -0.        ]"
"362","[37.33260542  0.          7.        ]","[0.85510461 0.         0.        ]","[-0.16854276 -0.         -0.        ]"
"363","[38.015784  0.        7.      ]","[0.68317859 0.         0.        ]","[-0.17192602 -0.         -0.        ]"
"364","[38.52436103  0.          7.        ]","[0.50857702 0.         0.        ]","[-0.17460156 -0.         -0.        ]"
"365","[38.85636083  0.          7.        ]","[0.3319998 0.        0.       ]","[-0.17657722 -0.         -0.        ]"
"366","[39.0105012  0.         7.       ]","[0.15414037 0.         0.        ]","[-0.17785943 -0.         -0.        ]"
"367","[38.98618887  0.          7.        ]","[-0.02431234  0.          0.        ]","[-0.17845271 -0.         -0.        ]"
"368","[38.78351732  0.          7.        ]","[-0.20267155  0.          0.        ]","[-0.17835922 -0.         -0.        ]"
"369","[38.40326715  0.          7.        ]","[-0.38025017  0.          0.        ]","[-0.17757861 -0.         -0.        ]"
"370","[37.84690892  0.          7.        ]","[-0.55635823  0.          0.        ]","[-0.17610806 -0.         -0.        ]"
"371","[37.1166082  0.         7.       ]","[-0.73030072  0.          0.        ]","[-0.17394249 -0.         -0.        ]"
"372","[36.21523248  0.          7.        ]","[-0.90137572  0.          0.        ]","[-0.171075 -0.       -0.      ]"
"373","[35.14635923  0.          7.        ]","[-1.06887324  0.          0.        ]","[-0.16749752 -0.         -0.        ]"
"374","[33.91428438  0.          7.        ]","[-1.23207485  0.          0.        ]","[-0.16320161 -0.         -0.        ]"
"375","[32.52403013  0.          7.        ]","[-1.39025425  0.          0.        ]","[-0.1581794 -0.        -0.       ]"
"376","[30.98135118  0.          7.        ]","[-1.54267896  0.          0.        ]","[-0.15242471 -0.         -0.        ]"
"377","[29.29273803  0.          7.        ]","[-1.68861315  0.          0.        ]","[-0.14593419 -0.         -0.        ]"
"378","[27.46541629  0.          7.        ]","[-1.82732174  0.          0.        ]","[-0.13870859 -0.         -0.        ]"
"379","[25.50734064  0.          7.        ]","[-1.95807566  0.          0.        ]","[-0.13075392 -0.         -0.        ]"
"380","[23.4271823  0.         7.       ]","[-2.08015834  0.          0.        ]","[-0.12208268 -0.         -0.        ]"
"381","[21.23430911  0.          7.        ]","[-2.19287319  0.          0.        ]","[-0.11271485 -0.         -0.        ]"
"382","[18.9387571  0.         7.       ]","[-2.29555201  0.          0.        ]","[-0.10267882 -0.         -0.        ]"
"383","[16.5511931  0.         7.       ]","[-2.38756401  0.          0.        ]","[-0.092012 -0.       -0.      ]"
"384","[14.0828679  0.         7.       ]","[-2.4683252  0.         0.       ]","[-0.08076119 -0.         -0.        ]"
"385","[11.54556007  0.          7.        ]","[-2.53730783  0.          0.        ]","[-0.06898264 -0.         -0.        ]"
"386","[8.95151054 0.         7.        ]","[-2.59404953  0.          0.        ]","[-0.0567417 -0.        -0.       ]"
"387","[6.31334883 0.         7.        ]","[-2.63816171  0.          0.        ]","[-0.04411218 -0.         -0.        ]"
"388","[3.64401179 0.         7.        ]","[-2.66933704  0.          0.        ]","[-0.03117533 -0.         -0.        ]"
"389","[0.9566563 0.        7.       ]","[-2.68735549  0.          0.        ]","[-0.01801845 -0.         -0.        ]"
"390","[-1.73543252  0.          7.        ]","[-2.69208881  0.          0.        ]","[-0.00473332 -0.         -0.        ]"
"391","[-4.41893571  0.          7.        ]","[-2.68350319  0.          0.        ]","[0.00858562 0.         0.        ]"
"392","[-7.08059564  0.          7.        ]","[-2.66165993  0.          0.        ]","[0.02184326 0.         0.        ]"
"393","[-9.70730982  0.          7.        ]","[-2.62671419  0.          0.        ]","[0.03494574 0.         0.        ]"
"394","[-12.28622162   0.           7.        ]","[-2.5789118  0.         0.       ]","[0.04780239 0.         0.        ]"
"395","[-14.80480592   0.           7.        ]","[-2.5185843  0.         0.       ]","[0.0603275 0.        0.       ]"
"396","[-17.25094835   0.           7.        ]","[-2.44614243  0.          0.        ]","[0.07244186 0.         0.        ]"
"397","[-19.61301677   0.           7.        ]","[-2.36206842  0.          0.        ]","[0.08407402 0.         0.        ]"
"398","[-21.87992399   0.           7.        ]","[-2.26690722  0.          0.        ]","[0.09516119 0.         0.        ]"
"399","[-24.04118135   0.           7.        ]","[-2.16125736  0.          0.        ]","[0.10564986 0.         0.        ]"
"400","[-26.08694276   0.           7.        ]","[-2.0457614  0.         0.       ]","[0.11549596 0.         0.        ]"
"401","[-28.00803943   0.           7.        ]","[-1.92109667  0.          0.        ]","[0.12466473 0.         0.        ]"
"402","[-29.79600579   0.           7.        ]","[-1.78796636  0.          0.        ]","[0.13313031 0.         0.        ]"
"403","[-31.44309718   0.           7.        ]","[-1.64709139  0.          0.        ]","[0.14087497 0.         0.        ]"
"404","[-32.94230037   0.           7.        ]","[-1.49920319  0.          0.        ]","[0.1478882 0.        0.       ]"
"405","[-34.28733791   0.           7.        ]","[-1.34503754  0.          0.        ]","[0.15416565 0.         0.        ]"
"406","[-35.47266758   0.           7.        ]","[-1.18532967  0.          0.        ]","[0.15970787 0.         0.        ]"
"407","[-36.49347808   0.           7.        ]","[-1.0208105  0.         0.       ]","[0.16451917 0.         0.        ]"
"408","[-37.34568226   0.           7.        ]","[-0.85220418  0.          0.        ]","[0.16860632 0.         0.        ]"
"409","[-38.02590897   0.           7.        ]","[-0.68022672  0.          0.        ]","[0.17197746 0.         0.        ]"
"410","[-38.53149466   0.           7.        ]","[-0.50558569  0.          0.        ]","[0.17464103 0.         0.        ]"
"411","[-38.86047551   0.           7.        ]","[-0.32898085  0.          0.        ]","[0.17660483 0.         0.        ]"
"412","[-39.01158108   0.           7.        ]","[-0.15110557  0.          0.        ]","[0.17787529 0.         0.        ]"
"413","[-38.98422979   0.           7.        ]","[0.02735129 0.         0.        ]","[0.17845686 0.         0.        ]"
"414","[-38.77852682   0.           7.        ]","[0.20570297 0.         0.        ]","[0.17835168 0.         0.        ]"
"415","[-38.39526448   0.           7.        ]","[0.38326234 0.         0.        ]","[0.17755936 0.         0.        ]"
"416","[-37.83592511   0.           7.        ]","[0.55933937 0.         0.        ]","[0.17607703 0.         0.        ]"
"417","[-37.10268617   0.           7.        ]","[0.73323894 0.         0.        ]","[0.17389957 0.         0.        ]"
"418","[-36.19842717   0.           7.        ]","[0.90425901 0.         0.        ]","[0.17102007 0.         0.        ]"
"419","[-35.12673773   0.           7.        ]","[1.07168943 0.         0.        ]","[0.16743043 0.         0.        ]"
"420","[-33.89192609   0.           7.        ]","[1.23481164 0.         0.        ]","[0.16312221 0.         0.        ]"
"421","[-32.49902687   0.           7.        ]","[1.39289922 0.         0.        ]","[0.15808758 0.         0.        ]"
"422","[-30.95380727   0.           7.        ]","[1.5452196 0.        0.       ]","[0.15232038 0.         0.        ]"
"423","[-29.26277034   0.           7.        ]","[1.69103693 0.         0.        ]","[0.14581733 0.         0.        ]"
"424","[-27.43315416   0.           7.        ]","[1.82961618 0.         0.        ]","[0.13857925 0.         0.        ]"
"425","[-25.47292572   0.           7.        ]","[1.96022844 0.         0.        ]","[0.13061226 0.         0.        ]"
"426","[-23.39076831   0.           7.        ]","[2.08215741 0.         0.        ]","[0.12192897 0.         0.        ]"
"427","[-21.19606139   0.           7.        ]","[2.19470691 0.         0.        ]","[0.1125495 0.        0.       ]"
"428","[-18.89885208   0.           7.        ]","[2.29720931 0.         0.        ]","[0.1025024 0.        0.       ]"
"429","[-16.50981756   0.           7.        ]","[2.38903452 0.         0.        ]","[0.09182521 0.         0.        ]"
"430","[-14.04021811   0.           7.        ]","[2.46959945 0.         0.        ]","[0.08056493 0.         0.        ]"
"431","[-11.50184073   0.           7.        ]","[2.53837738 0.         0.        ]","[0.06877793 0.         0.        ]"
"432","[-8.90693362  0.          7.        ]","[2.59490711 0.         0.        ]","[0.05652973 0.         0.        ]"
"433","[-6.26813221  0.          7.        ]","[2.6388014 0.        0.       ]","[0.04389429 0.         0.        ]"
"434","[-3.59837787  0.          7.        ]","[2.66975434 0.         0.        ]","[0.03095294 0.         0.        ]"
"435","[-0.91083042  0.          7.        ]","[2.68754745 0.         0.        ]","[0.0177931 0.        0.       ]"
"436","[1.78122363 0.         7.        ]","[2.69205405 0.         0.        ]","[0.00450661 0.         0.        ]"
"437","[4.46446559 0.         7.        ]","[2.68324196 0.         0.        ]","[-0.00881209 -0.         -0.        ]"
"438","[7.12563969 0.         7.        ]","[2.6611741 0.        0.       ]","[-0.02206787 -0.         -0.        ]"
"439","[9.75164688 0.         7.        ]","[2.62600719 0.         0.        ]","[-0.03516691 -0.         -0.        ]"
"440","[12.32963545  0.          7.        ]","[2.57798857 0.         0.        ]","[-0.04801862 -0.         -0.        ]"
"441","[14.84708665  0.          7.        ]","[2.5174512 0.        0.       ]","[-0.06053738 -0.         -0.        ]"
"442","[17.29189374  0.          7.        ]","[2.44480709 0.         0.        ]","[-0.0726441 -0.        -0.       ]"
"443","[19.65243335  0.          7.        ]","[2.36053961 0.         0.        ]","[-0.08426748 -0.         -0.        ]"
"444","[21.91762808  0.          7.        ]","[2.26519472 0.         0.        ]","[-0.09534489 -0.         -0.        ]"
"445","[24.07699984  0.          7.        ]","[2.15937176 0.         0.        ]","[-0.10582296 -0.         -0.        ]"
"446","[26.12071381  0.          7.        ]","[2.04371397 0.         0.        ]","[-0.11565779 -0.         -0.        ]"
"447","[28.039613  0.        7.      ]","[1.91889918 0.         0.        ]","[-0.12481479 -0.         -0.        ]"
"448","[29.82524396  0.          7.        ]","[1.78563097 0.         0.        ]","[-0.13326822 -0.         -0.        ]"
"449","[31.46987443  0.          7.        ]","[1.64463047 0.         0.        ]","[-0.14100049 -0.         -0.        ]"
"450","[32.96650368  0.          7.        ]","[1.49662924 0.         0.        ]","[-0.14800123 -0.         -0.        ]"
"451","[34.30886679  0.          7.        ]","[1.34236311 0.         0.        ]","[-0.15426614 -0.         -0.        ]"
"452","[35.49143402  0.          7.        ]","[1.18256723 0.         0.        ]","[-0.15979588 -0.         -0.        ]"
"453","[36.50940647  0.          7.        ]","[1.01797245 0.         0.        ]","[-0.16459478 -0.         -0.        ]"
"454","[37.35870924  0.          7.        ]","[0.84930278 0.         0.        ]","[-0.16866967 -0.         -0.        ]"
"455","[38.03598332  0.          7.        ]","[0.67727408 0.         0.        ]","[-0.1720287 -0.        -0.       ]"
"456","[38.5385771  0.         7.       ]","[0.50259378 0.         0.        ]","[-0.1746803 -0.        -0.       ]"
"457","[38.86453864  0.          7.        ]","[0.32596154 0.         0.        ]","[-0.17663224 -0.         -0.        ]"
"458","[39.01260923  0.          7.        ]","[0.1480706 0.        0.       ]","[-0.17789094 -0.         -0.        ]"
"459","[38.98221902  0.          7.        ]","[-0.03039022  0.          0.        ]","[-0.17846081 -0.         -0.        ]"
"460","[38.77348485  0.          7.        ]","[-0.20873416  0.          0.        ]","[-0.17834395 -0.         -0.        ]"
"461","[38.38721077  0.          7.        ]","[-0.38627408  0.          0.        ]","[-0.17753991 -0.         -0.        ]"
"462","[37.8248909  0.         7.       ]","[-0.56231988  0.          0.        ]","[-0.1760458 -0.        -0.       ]"
"463","[37.08871457  0.          7.        ]","[-0.73617633  0.          0.        ]","[-0.17385645 -0.         -0.        ]"
"464","[36.18157332  0.          7.        ]","[-0.90714125  0.          0.        ]","[-0.17096492 -0.         -0.        ]"
"465","[35.10706895  0.          7.        ]","[-1.07450437  0.          0.        ]","[-0.16736312 -0.         -0.        ]"
"466","[33.86952197  0.          7.        ]","[-1.23754698  0.          0.        ]","[-0.1630426 -0.        -0.       ]"
"467","[32.47397945  0.          7.        ]","[-1.39554252  0.          0.        ]","[-0.15799555 -0.         -0.        ]"
"468","[30.92622109  0.          7.        ]","[-1.54775836  0.          0.        ]","[-0.15221584 -0.         -0.        ]"
"469","[29.23276247  0.          7.        ]","[-1.69345862  0.          0.        ]","[-0.14570026 -0.         -0.        ]"
"470","[27.40085415  0.          7.        ]","[-1.83190832  0.          0.        ]","[-0.1384497 -0.        -0.       ]"
"471","[25.43847545  0.          7.        ]","[-1.96237871  0.          0.        ]","[-0.13047039 -0.         -0.        ]"
"472","[23.35432168  0.          7.        ]","[-2.08415376  0.          0.        ]","[-0.12177506 -0.         -0.        ]"
"473","[21.15778395  0.          7.        ]","[-2.19653773  0.          0.        ]","[-0.11238396 -0.         -0.        ]"
"474","[18.85892044  0.          7.        ]","[-2.29886352  0.          0.        ]","[-0.10232579 -0.         -0.        ]"
"475","[16.46841866  0.          7.        ]","[-2.39050178  0.          0.        ]","[-0.09163826 -0.         -0.        ]"
"476","[13.99754837  0.          7.        ]","[-2.47087029  0.          0.        ]","[-0.08036851 -0.         -0.        ]"
"477","[11.458105  0.        7.      ]","[-2.53944337  0.          0.        ]","[-0.06857309 -0.         -0.        ]"
"478","[8.86234397 0.         7.        ]","[-2.59576103  0.          0.        ]","[-0.05631766 -0.         -0.        ]"
"479","[6.22290663 0.         7.        ]","[-2.63943734  0.          0.        ]","[-0.04367631 -0.         -0.        ]"
"480","[3.5527388 0.        7.       ]","[-2.67016783  0.          0.        ]","[-0.03073049 -0.         -0.        ]"
"481","[0.86500324 0.         7.        ]","[-2.68773555  0.          0.        ]","[-0.01756772 -0.         -0.        ]"
"482","[-1.82701219  0.          7.        ]","[-2.69201543  0.          0.        ]","[-0.00427988 -0.         -0.        ]"
"483","[-4.50998908  0.          7.        ]","[-2.68297689  0.          0.        ]","[0.00903854 0.         0.        ]"
"484","[-7.17067355  0.          7.        ]","[-2.66068447  0.          0.        ]","[0.02229243 0.         0.        ]"
"485","[-9.79597001  0.          7.        ]","[-2.62529646  0.          0.        ]","[0.035388 0.       0.      ]"
"486","[-12.37303173   0.           7.        ]","[-2.57706172  0.          0.        ]","[0.04823474 0.         0.        ]"
"487","[-14.88934631   0.           7.        ]","[-2.51631459  0.          0.        ]","[0.06074713 0.         0.        ]"
"488","[-17.33281469   0.           7.        ]","[-2.44346838  0.          0.        ]","[0.0728462 0.        0.       ]"
"489","[-19.69182229   0.           7.        ]","[-2.3590076  0.         0.       ]","[0.08446078 0.         0.        ]"
"490","[-21.95530148   0.           7.        ]","[-2.26347919  0.          0.        ]","[0.09552841 0.         0.        ]"
"491","[-24.11278479   0.           7.        ]","[-2.15748331  0.          0.        ]","[0.10599587 0.         0.        ]"
"492","[-26.15444868   0.           7.        ]","[-2.04166389  0.          0.        ]","[0.11581943 0.         0.        ]"
"493","[-28.07114793   0.           7.        ]","[-1.91669925  0.          0.        ]","[0.12496464 0.         0.        ]"
"494","[-29.85444126   0.           7.        ]","[-1.78329333  0.          0.        ]","[0.13340592 0.         0.        ]"
"495","[-31.49660878   0.           7.        ]","[-1.64216752  0.          0.        ]","[0.14112581 0.         0.        ]"
"496","[-32.99066227   0.           7.        ]","[-1.49405349  0.          0.        ]","[0.14811404 0.         0.        ]"
"497","[-34.33034934   0.           7.        ]","[-1.33968707  0.          0.        ]","[0.15436642 0.         0.        ]"
"498","[-35.51015274   0.           7.        ]","[-1.1798034  0.         0.       ]","[0.15988367 0.         0.        ]"
"499","[-36.52528596   0.           7.        ]","[-1.01513322  0.          0.        ]","[0.16467018 0.         0.        ]"
