"time","theta3d","omega3d","alpha3d"
"0","[35.93475584  0.          5.        ]","[-0.06524416  0.          0.        ]","[-0.06524416 -0.         -0.        ]"
"1","[35.80436981  0.          5.        ]","[-0.13038603  0.          0.        ]","[-0.06514186 -0.         -0.        ]"
"2","[35.60904662  0.          5.        ]","[-0.19532319  0.          0.        ]","[-0.06493717 -0.         -0.        ]"
"3","[35.34909353  0.          5.        ]","[-0.25995309  0.          0.        ]","[-0.0646299 -0.        -0.       ]"
"4","[35.02492064  0.          5.        ]","[-0.32417289  0.          0.        ]","[-0.0642198 -0.        -0.       ]"
"5","[34.63704122  0.          5.        ]","[-0.38787941  0.          0.        ]","[-0.06370653 -0.         -0.        ]"
"6","[34.1860721  0.         5.       ]","[-0.45096913  0.          0.        ]","[-0.06308971 -0.         -0.        ]"
"7","[33.67273404  0.          5.        ]","[-0.51333806  0.          0.        ]","[-0.06236894 -0.         -0.        ]"
"8","[33.0978522  0.         5.       ]","[-0.57488184  0.          0.        ]","[-0.06154378 -0.         -0.        ]"
"9","[32.46235653  0.          5.        ]","[-0.63549567  0.          0.        ]","[-0.06061383 -0.         -0.        ]"
"10","[31.76728212  0.          5.        ]","[-0.69507441  0.          0.        ]","[-0.05957874 -0.         -0.        ]"
"11","[31.01376949  0.          5.        ]","[-0.75351262  0.          0.        ]","[-0.05843821 -0.         -0.        ]"
"12","[30.20306478  0.          5.        ]","[-0.81070471  0.          0.        ]","[-0.05719209 -0.         -0.        ]"
"13","[29.33651972  0.          5.        ]","[-0.86654506  0.          0.        ]","[-0.05584035 -0.         -0.        ]"
"14","[28.41559152  0.          5.        ]","[-0.9209282  0.         0.       ]","[-0.05438314 -0.         -0.        ]"
"15","[27.44184247  0.          5.        ]","[-0.97374905  0.          0.        ]","[-0.05282086 -0.         -0.        ]"
"16","[26.41693928  0.          5.        ]","[-1.02490319  0.          0.        ]","[-0.05115413 -0.         -0.        ]"
"17","[25.3426522  0.         5.       ]","[-1.07428708  0.          0.        ]","[-0.0493839 -0.        -0.       ]"
"18","[24.2208537  0.         5.       ]","[-1.1217985  0.         0.       ]","[-0.04751141 -0.         -0.        ]"
"19","[23.0535169  0.         5.       ]","[-1.1673368  0.         0.       ]","[-0.0455383 -0.        -0.       ]"
"20","[21.84271353  0.          5.        ]","[-1.21080337  0.          0.        ]","[-0.04346657 -0.         -0.        ]"
"21","[20.5906115  0.         5.       ]","[-1.25210202  0.          0.        ]","[-0.04129865 -0.         -0.        ]"
"22","[19.29947208  0.          5.        ]","[-1.29113942  0.          0.        ]","[-0.0390374 -0.        -0.       ]"
"23","[17.97164653  0.          5.        ]","[-1.32782555  0.          0.        ]","[-0.03668613 -0.         -0.        ]"
"24","[16.60957234  0.          5.        ]","[-1.36207419  0.          0.        ]","[-0.03424864 -0.         -0.        ]"
"25","[15.21576896  0.          5.        ]","[-1.39380337  0.          0.        ]","[-0.03172918 -0.         -0.        ]"
"26","[13.79283311  0.          5.        ]","[-1.42293585  0.          0.        ]","[-0.02913248 -0.         -0.        ]"
"27","[12.34343353  0.          5.        ]","[-1.44939958  0.          0.        ]","[-0.02646373 -0.         -0.        ]"
"28","[10.87030536  0.          5.        ]","[-1.47312816  0.          0.        ]","[-0.02372858 -0.         -0.        ]"
"29","[9.3762441 0.        5.       ]","[-1.49406126  0.          0.        ]","[-0.0209331 -0.        -0.       ]"
"30","[7.86409906 0.         5.        ]","[-1.51214504  0.          0.        ]","[-0.01808378 -0.         -0.        ]"
"31","[6.33676657 0.         5.        ]","[-1.52733249  0.          0.        ]","[-0.01518745 -0.         -0.        ]"
"32","[4.79718278 0.         5.        ]","[-1.53958379  0.          0.        ]","[-0.0122513 -0.        -0.       ]"
"33","[3.24831619 0.         5.        ]","[-1.5488666  0.         0.       ]","[-0.0092828 -0.        -0.       ]"
"34","[1.69315995 0.         5.        ]","[-1.55515624  0.          0.        ]","[-0.00628964 -0.         -0.        ]"
"35","[0.134724 0.       5.      ]","[-1.55843595  0.          0.        ]","[-0.00327971 -0.         -0.        ]"
"36","[-1.42397295  0.          5.        ]","[-1.55869695  0.          0.        ]","[-0.000261 -0.       -0.      ]"
"37","[-2.97991149  0.          5.        ]","[-1.55593855  0.          0.        ]","[0.0027584 0.        0.       ]"
"38","[-4.53007961  0.          5.        ]","[-1.55016812  0.          0.        ]","[0.00577043 0.         0.        ]"
"39","[-6.07148068  0.          5.        ]","[-1.54140107  0.          0.        ]","[0.00876705 0.         0.        ]"
"40","[-7.60114138  0.          5.        ]","[-1.5296607  0.         0.       ]","[0.01174037 0.         0.        ]"
"41","[-9.11611942  0.          5.        ]","[-1.51497804  0.          0.        ]","[0.01468265 0.         0.        ]"
"42","[-10.61351109   0.           5.        ]","[-1.49739166  0.          0.        ]","[0.01758638 0.         0.        ]"
"43","[-12.09045842   0.           5.        ]","[-1.47694734  0.          0.        ]","[0.02044433 0.         0.        ]"
"44","[-13.54415618   0.           5.        ]","[-1.45369775  0.          0.        ]","[0.02324959 0.         0.        ]"
"45","[-14.97185832   0.           5.        ]","[-1.42770214  0.          0.        ]","[0.02599561 0.         0.        ]"
"46","[-16.37088421   0.           5.        ]","[-1.39902589  0.          0.        ]","[0.02867625 0.         0.        ]"
"47","[-17.73862432   0.           5.        ]","[-1.36774011  0.          0.        ]","[0.03128579 0.         0.        ]"
"48","[-19.07254548   0.           5.        ]","[-1.33392116  0.          0.        ]","[0.03381895 0.         0.        ]"
"49","[-20.37019572   0.           5.        ]","[-1.29765024  0.          0.        ]","[0.03627092 0.         0.        ]"
"50","[-21.62920858   0.           5.        ]","[-1.25901286  0.          0.        ]","[0.03863737 0.         0.        ]"
"51","[-22.84730701   0.           5.        ]","[-1.21809843  0.          0.        ]","[0.04091443 0.         0.        ]"
"52","[-24.02230674   0.           5.        ]","[-1.17499973  0.          0.        ]","[0.0430987 0.        0.       ]"
"53","[-25.15211923   0.           5.        ]","[-1.12981249  0.          0.        ]","[0.04518724 0.         0.        ]"
"54","[-26.23475416   0.           5.        ]","[-1.08263493  0.          0.        ]","[0.04717755 0.         0.        ]"
"55","[-27.26832154   0.           5.        ]","[-1.03356738  0.          0.        ]","[0.04906755 0.         0.        ]"
"56","[-28.25103336   0.           5.        ]","[-0.98271182  0.          0.        ]","[0.05085556 0.         0.        ]"
"57","[-29.18120494   0.           5.        ]","[-0.93017158  0.          0.        ]","[0.05254025 0.         0.        ]"
"58","[-30.05725588   0.           5.        ]","[-0.87605094  0.          0.        ]","[0.05412063 0.         0.        ]"
"59","[-30.87771079   0.           5.        ]","[-0.82045491  0.          0.        ]","[0.05559603 0.         0.        ]"
"60","[-31.64119967   0.           5.        ]","[-0.76348889  0.          0.        ]","[0.05696602 0.         0.        ]"
"61","[-32.34645816   0.           5.        ]","[-0.70525848  0.          0.        ]","[0.0582304 0.        0.       ]"
"62","[-32.99232747   0.           5.        ]","[-0.64586931  0.          0.        ]","[0.05938917 0.         0.        ]"
"63","[-33.57775432   0.           5.        ]","[-0.58542685  0.          0.        ]","[0.06044247 0.         0.        ]"
"64","[-34.10179061   0.           5.        ]","[-0.52403629  0.          0.        ]","[0.06139056 0.         0.        ]"
"65","[-34.56359309   0.           5.        ]","[-0.46180249  0.          0.        ]","[0.0622338 0.        0.       ]"
"66","[-34.96242299   0.           5.        ]","[-0.3988299  0.         0.       ]","[0.06297259 0.         0.        ]"
"67","[-35.29764555   0.           5.        ]","[-0.33522256  0.          0.        ]","[0.06360734 0.         0.        ]"
"68","[-35.56872964   0.           5.        ]","[-0.27108409  0.          0.        ]","[0.06413847 0.         0.        ]"
"69","[-35.77524735   0.           5.        ]","[-0.20651771  0.          0.        ]","[0.06456638 0.         0.        ]"
"70","[-35.91687366   0.           5.        ]","[-0.1416263  0.         0.       ]","[0.0648914 0.        0.       ]"
"71","[-35.99338615   0.           5.        ]","[-0.0765125  0.         0.       ]","[0.06511381 0.         0.        ]"
"72","[-36.00466485   0.           5.        ]","[-0.0112787  0.         0.       ]","[0.0652338 0.        0.       ]"
"73","[-35.95069208   0.           5.        ]","[0.05397277 0.         0.        ]","[0.06525147 0.         0.        ]"
"74","[-35.83155244   0.           5.        ]","[0.11913963 0.         0.        ]","[0.06516686 0.         0.        ]"
"75","[-35.64743294   0.           5.        ]","[0.1841195 0.        0.       ]","[0.06497987 0.         0.        ]"
"76","[-35.39862309   0.           5.        ]","[0.24880985 0.         0.        ]","[0.06469035 0.         0.        ]"
"77","[-35.08551521   0.           5.        ]","[0.31310788 0.         0.        ]","[0.06429804 0.         0.        ]"
"78","[-34.70860471   0.           5.        ]","[0.37691051 0.         0.        ]","[0.06380262 0.         0.        ]"
"79","[-34.26849047   0.           5.        ]","[0.44011424 0.         0.        ]","[0.06320373 0.         0.        ]"
"80","[-33.76587528   0.           5.        ]","[0.50261519 0.         0.        ]","[0.06250095 0.         0.        ]"
"81","[-33.20156622   0.           5.        ]","[0.56430906 0.         0.        ]","[0.06169387 0.         0.        ]"
"82","[-32.57647511   0.           5.        ]","[0.62509111 0.         0.        ]","[0.06078206 0.         0.        ]"
"83","[-31.89161884   0.           5.        ]","[0.68485627 0.         0.        ]","[0.05976516 0.         0.        ]"
"84","[-31.1481197   0.          5.       ]","[0.74349914 0.         0.        ]","[0.05864287 0.         0.        ]"
"85","[-30.34720555   0.           5.        ]","[0.80091414 0.         0.        ]","[0.057415 0.       0.      ]"
"86","[-29.4902099   0.          5.       ]","[0.85699565 0.         0.        ]","[0.05608151 0.         0.        ]"
"87","[-28.57857175   0.           5.        ]","[0.91163816 0.         0.        ]","[0.05464251 0.         0.        ]"
"88","[-27.61383524   0.           5.        ]","[0.9647365 0.        0.       ]","[0.05309834 0.         0.        ]"
"89","[-26.59764913   0.           5.        ]","[1.01618611 0.         0.        ]","[0.05144961 0.         0.        ]"
"90","[-25.53176583   0.           5.        ]","[1.0658833 0.        0.       ]","[0.04969719 0.         0.        ]"
"91","[-24.41804026   0.           5.        ]","[1.11372557 0.         0.        ]","[0.04784227 0.         0.        ]"
"92","[-23.25842828   0.           5.        ]","[1.15961199 0.         0.        ]","[0.04588642 0.         0.        ]"
"93","[-22.05498472   0.           5.        ]","[1.20344356 0.         0.        ]","[0.04383157 0.         0.        ]"
"94","[-20.80986108   0.           5.        ]","[1.24512364 0.         0.        ]","[0.04168008 0.         0.        ]"
"95","[-19.52530272   0.           5.        ]","[1.28455837 0.         0.        ]","[0.03943473 0.         0.        ]"
"96","[-18.20364559   0.           5.        ]","[1.32165713 0.         0.        ]","[0.03709877 0.         0.        ]"
"97","[-16.84731257   0.           5.        ]","[1.35633302 0.         0.        ]","[0.03467589 0.         0.        ]"
"98","[-15.45880929   0.           5.        ]","[1.38850328 0.         0.        ]","[0.03217027 0.         0.        ]"
"99","[-14.04071945   0.           5.        ]","[1.41808984 0.         0.        ]","[0.02958655 0.         0.        ]"
"100","[-12.59569974   0.           5.        ]","[1.4450197 0.        0.       ]","[0.02692987 0.         0.        ]"
"101","[-11.12647427   0.           5.        ]","[1.46922547 0.         0.        ]","[0.02420577 0.         0.        ]"
"102","[-9.63582853  0.          5.        ]","[1.49064574 0.         0.        ]","[0.02142027 0.         0.        ]"
"103","[-8.12660302  0.          5.        ]","[1.50922551 0.         0.        ]","[0.01857977 0.         0.        ]"
"104","[-6.60168646  0.          5.        ]","[1.52491657 0.         0.        ]","[0.01569106 0.         0.        ]"
"105","[-5.06400862  0.          5.        ]","[1.53767783 0.         0.        ]","[0.01276127 0.         0.        ]"
"106","[-3.51653297  0.          5.        ]","[1.54747565 0.         0.        ]","[0.00979781 0.         0.        ]"
"107","[-1.96224897  0.          5.        ]","[1.55428401 0.         0.        ]","[0.00680836 0.         0.        ]"
"108","[-0.40416421  0.          5.        ]","[1.55808476 0.         0.        ]","[0.00380075 0.         0.        ]"
"109","[1.15470354 0.         5.        ]","[1.55886775 0.         0.        ]","[0.00078299 0.         0.        ]"
"110","[2.71133441 0.         5.        ]","[1.55663087 0.         0.        ]","[-0.00223687 -0.         -0.        ]"
"111","[4.26271453 0.         5.        ]","[1.55138012 0.         0.        ]","[-0.00525075 -0.         -0.        ]"
"112","[5.80584405 0.         5.        ]","[1.54312952 0.         0.        ]","[-0.00825061 -0.         -0.        ]"
"113","[7.33774505 0.         5.        ]","[1.531901 0.       0.      ]","[-0.01122851 -0.         -0.        ]"
"114","[8.85546935 0.         5.        ]","[1.5177243 0.        0.       ]","[-0.0141767 -0.        -0.       ]"
"115","[10.35610604  0.          5.        ]","[1.50063669 0.         0.        ]","[-0.01708762 -0.         -0.        ]"
"116","[11.83678875  0.          5.        ]","[1.48068271 0.         0.        ]","[-0.01995398 -0.         -0.        ]"
"117","[13.29470263  0.          5.        ]","[1.45791388 0.         0.        ]","[-0.02276882 -0.         -0.        ]"
"118","[14.72709098  0.          5.        ]","[1.43238835 0.         0.        ]","[-0.02552553 -0.         -0.        ]"
"119","[16.13126144  0.          5.        ]","[1.40417046 0.         0.        ]","[-0.02821789 -0.         -0.        ]"
"120","[17.50459179  0.          5.        ]","[1.37333035 0.         0.        ]","[-0.03084011 -0.         -0.        ]"
"121","[18.84453531  0.          5.        ]","[1.33994352 0.         0.        ]","[-0.03338683 -0.         -0.        ]"
"122","[20.14862567  0.          5.        ]","[1.30409036 0.         0.        ]","[-0.03585316 -0.         -0.        ]"
"123","[21.41448135  0.          5.        ]","[1.26585568 0.         0.        ]","[-0.03823468 -0.         -0.        ]"
"124","[22.63980959  0.          5.        ]","[1.22532824 0.         0.        ]","[-0.04052744 -0.         -0.        ]"
"125","[23.82240986  0.          5.        ]","[1.18260027 0.         0.        ]","[-0.04272797 -0.         -0.        ]"
"126","[24.96017688  0.          5.        ]","[1.13776702 0.         0.        ]","[-0.04483325 -0.         -0.        ]"
"127","[26.05110321  0.          5.        ]","[1.09092633 0.         0.        ]","[-0.04684069 -0.         -0.        ]"
"128","[27.09328138  0.          5.        ]","[1.04217817 0.         0.        ]","[-0.04874816 -0.         -0.        ]"
"129","[28.08490565  0.          5.        ]","[0.99162427 0.         0.        ]","[-0.0505539 -0.        -0.       ]"
"130","[29.0242734  0.         5.       ]","[0.93936775 0.         0.        ]","[-0.05225652 -0.         -0.        ]"
"131","[29.90978615  0.          5.        ]","[0.88551276 0.         0.        ]","[-0.05385499 -0.         -0.        ]"
"132","[30.73995033  0.          5.        ]","[0.83016418 0.         0.        ]","[-0.05534857 -0.         -0.        ]"
"133","[31.51337772  0.          5.        ]","[0.77342738 0.         0.        ]","[-0.0567368 -0.        -0.       ]"
"134","[32.22878566  0.          5.        ]","[0.71540795 0.         0.        ]","[-0.05801944 -0.         -0.        ]"
"135","[32.88499716  0.          5.        ]","[0.6562115 0.        0.       ]","[-0.05919645 -0.         -0.        ]"
"136","[33.4809407  0.         5.       ]","[0.59594354 0.         0.        ]","[-0.06026796 -0.         -0.        ]"
"137","[34.01565002  0.          5.        ]","[0.53470933 0.         0.        ]","[-0.06123421 -0.         -0.        ]"
"138","[34.48826381  0.          5.        ]","[0.47261378 0.         0.        ]","[-0.06209555 -0.         -0.        ]"
"139","[34.89802523  0.          5.        ]","[0.40976143 0.         0.        ]","[-0.06285235 -0.         -0.        ]"
"140","[35.24428161  0.          5.        ]","[0.34625637 0.         0.        ]","[-0.06350505 -0.         -0.        ]"
"141","[35.52648391  0.          5.        ]","[0.28220231 0.         0.        ]","[-0.06405407 -0.         -0.        ]"
"142","[35.74418643  0.          5.        ]","[0.21770251 0.         0.        ]","[-0.06449979 -0.         -0.        ]"
"143","[35.89704637  0.          5.        ]","[0.15285994 0.         0.        ]","[-0.06484257 -0.         -0.        ]"
"144","[35.98482362  0.          5.        ]","[0.08777725 0.         0.        ]","[-0.0650827 -0.        -0.       ]"
"145","[36.00738049  0.          5.        ]","[0.02255687 0.         0.        ]","[-0.06522037 -0.         -0.        ]"
"146","[35.96468163  0.          5.        ]","[-0.04269886  0.          0.        ]","[-0.06525573 -0.         -0.        ]"
"147","[35.85679397  0.          5.        ]","[-0.10788765  0.          0.        ]","[-0.0651888 -0.        -0.       ]"
"148","[35.68388681  0.          5.        ]","[-0.17290716  0.          0.        ]","[-0.06501951 -0.         -0.        ]"
"149","[35.44623192  0.          5.        ]","[-0.23765489  0.          0.        ]","[-0.06474772 -0.         -0.        ]"
"150","[35.14420384  0.          5.        ]","[-0.30202808  0.          0.        ]","[-0.0643732 -0.        -0.       ]"
"151","[34.77828013  0.          5.        ]","[-0.36592371  0.          0.        ]","[-0.06389563 -0.         -0.        ]"
"152","[34.34904177  0.          5.        ]","[-0.42923836  0.          0.        ]","[-0.06331465 -0.         -0.        ]"
"153","[33.85717356  0.          5.        ]","[-0.49186821  0.          0.        ]","[-0.06262986 -0.         -0.        ]"
"154","[33.30346452  0.          5.        ]","[-0.55370904  0.          0.        ]","[-0.06184083 -0.         -0.        ]"
"155","[32.68880833  0.          5.        ]","[-0.61465618  0.          0.        ]","[-0.06094714 -0.         -0.        ]"
"156","[32.01420372  0.          5.        ]","[-0.67460461  0.          0.        ]","[-0.05994843 -0.         -0.        ]"
"157","[31.28075474  0.          5.        ]","[-0.73344898  0.          0.        ]","[-0.05884437 -0.         -0.        ]"
"158","[30.489671  0.        5.      ]","[-0.79108374  0.          0.        ]","[-0.05763476 -0.         -0.        ]"
"159","[29.64226774  0.          5.        ]","[-0.84740326  0.          0.        ]","[-0.05631952 -0.         -0.        ]"
"160","[28.73996574  0.          5.        ]","[-0.90230199  0.          0.        ]","[-0.05489873 -0.         -0.        ]"
"161","[27.78429104  0.          5.        ]","[-0.9556747  0.         0.       ]","[-0.05337271 -0.         -0.        ]"
"162","[26.77687435  0.          5.        ]","[-1.0074167  0.         0.       ]","[-0.05174199 -0.         -0.        ]"
"163","[25.71945024  0.          5.        ]","[-1.05742411  0.          0.        ]","[-0.05000741 -0.         -0.        ]"
"164","[24.61385602  0.          5.        ]","[-1.10559422  0.          0.        ]","[-0.04817011 -0.         -0.        ]"
"165","[23.46203023  0.          5.        ]","[-1.15182579  0.          0.        ]","[-0.04623157 -0.         -0.        ]"
"166","[22.26601076  0.          5.        ]","[-1.19601947  0.          0.        ]","[-0.04419368 -0.         -0.        ]"
"167","[21.02793259  0.          5.        ]","[-1.23807817  0.          0.        ]","[-0.0420587 -0.        -0.       ]"
"168","[19.75002506  0.          5.        ]","[-1.27790753  0.          0.        ]","[-0.03982936 -0.         -0.        ]"
"169","[18.43460872  0.          5.        ]","[-1.31541633  0.          0.        ]","[-0.0375088 -0.        -0.       ]"
"170","[17.08409173  0.          5.        ]","[-1.35051699  0.          0.        ]","[-0.03510066 -0.         -0.        ]"
"171","[15.70096573  0.          5.        ]","[-1.38312601  0.          0.        ]","[-0.03260902 -0.         -0.        ]"
"172","[14.28780127  0.          5.        ]","[-1.41316446  0.          0.        ]","[-0.03003845 -0.         -0.        ]"
"173","[12.84724282  0.          5.        ]","[-1.44055845  0.          0.        ]","[-0.02739399 -0.         -0.        ]"
"174","[11.38200325  0.          5.        ]","[-1.46523957  0.          0.        ]","[-0.02468112 -0.         -0.        ]"
"175","[9.89485789 0.         5.        ]","[-1.48714536  0.          0.        ]","[-0.02190579 -0.         -0.        ]"
"176","[8.38863822 0.         5.        ]","[-1.50621967  0.          0.        ]","[-0.01907432 -0.         -0.        ]"
"177","[6.8662251 0.        5.       ]","[-1.52241312  0.          0.        ]","[-0.01619344 -0.         -0.        ]"
"178","[5.33054176 0.         5.        ]","[-1.53568334  0.          0.        ]","[-0.01327023 -0.         -0.        ]"
"179","[3.78454636 0.         5.        ]","[-1.54599539  0.          0.        ]","[-0.01031205 -0.         -0.        ]"
"180","[2.23122444 0.         5.        ]","[-1.55332192  0.          0.        ]","[-0.00732653 -0.         -0.        ]"
"181","[0.67358102 0.         5.        ]","[-1.55764342  0.          0.        ]","[-0.00432149 -0.         -0.        ]"
"182","[-0.8853673  0.         5.       ]","[-1.55894833  0.          0.        ]","[-0.00130491 -0.         -0.        ]"
"183","[-2.44260046  0.          5.        ]","[-1.55723316  0.          0.        ]","[0.00171517 0.         0.        ]"
"184","[-3.99510296  0.          5.        ]","[-1.5525025  0.         0.       ]","[0.00473065 0.         0.        ]"
"185","[-5.53987196  0.          5.        ]","[-1.544769  0.        0.      ]","[0.0077335 0.        0.       ]"
"186","[-7.07392519  0.          5.        ]","[-1.53405323  0.          0.        ]","[0.01071576 0.         0.        ]"
"187","[-8.59430879  0.          5.        ]","[-1.5203836  0.         0.       ]","[0.01366963 0.         0.        ]"
"188","[-10.09810487   0.           5.        ]","[-1.50379608  0.          0.        ]","[0.01658752 0.         0.        ]"
"189","[-11.58243886   0.           5.        ]","[-1.48433399  0.          0.        ]","[0.01946209 0.         0.        ]"
"190","[-13.04448652   0.           5.        ]","[-1.46204766  0.          0.        ]","[0.02228632 0.         0.        ]"
"191","[-14.48148065   0.           5.        ]","[-1.43699413  0.          0.        ]","[0.02505354 0.         0.        ]"
"192","[-15.89071734   0.           5.        ]","[-1.40923669  0.          0.        ]","[0.02775744 0.         0.        ]"
"193","[-17.26956184   0.           5.        ]","[-1.37884451  0.          0.        ]","[0.03039218 0.         0.        ]"
"194","[-18.61545404   0.           5.        ]","[-1.3458922  0.         0.       ]","[0.03295231 0.         0.        ]"
"195","[-19.92591339   0.           5.        ]","[-1.31045934  0.          0.        ]","[0.03543286 0.         0.        ]"
"196","[-21.1985434   0.          5.       ]","[-1.27263001  0.          0.        ]","[0.03782933 0.         0.        ]"
"197","[-22.43103572   0.           5.        ]","[-1.23249232  0.          0.        ]","[0.0401377 0.        0.       ]"
"198","[-23.62117364   0.           5.        ]","[-1.19013792  0.          0.        ]","[0.04235439 0.         0.        ]"
"199","[-24.76683523   0.           5.        ]","[-1.14566159  0.          0.        ]","[0.04447633 0.         0.        ]"
"200","[-25.86599598   0.           5.        ]","[-1.09916075  0.          0.        ]","[0.04650085 0.         0.        ]"
"201","[-26.916731   0.         5.      ]","[-1.05073502  0.          0.        ]","[0.04842573 0.         0.        ]"
"202","[-27.91721685   0.           5.        ]","[-1.00048586  0.          0.        ]","[0.05024916 0.         0.        ]"
"203","[-28.86573303   0.           5.        ]","[-0.94851617  0.          0.        ]","[0.05196968 0.         0.        ]"
"204","[-29.76066299   0.           5.        ]","[-0.89492996  0.          0.        ]","[0.05358622 0.         0.        ]"
"205","[-30.60049498   0.           5.        ]","[-0.83983199  0.          0.        ]","[0.05509797 0.         0.        ]"
"206","[-31.38382255   0.           5.        ]","[-0.78332757  0.          0.        ]","[0.05650442 0.         0.        ]"
"207","[-32.1093448   0.          5.       ]","[-0.72552225  0.          0.        ]","[0.05780532 0.         0.        ]"
"208","[-32.77586647   0.           5.        ]","[-0.66652168  0.          0.        ]","[0.05900058 0.         0.        ]"
"209","[-33.38229784   0.           5.        ]","[-0.60643137  0.          0.        ]","[0.06009031 0.         0.        ]"
"210","[-33.92765449   0.           5.        ]","[-0.54535664  0.          0.        ]","[0.06107473 0.         0.        ]"
"211","[-34.41105696   0.           5.        ]","[-0.48340247  0.          0.        ]","[0.06195417 0.         0.        ]"
"212","[-34.83173042   0.           5.        ]","[-0.42067346  0.          0.        ]","[0.06272901 0.         0.        ]"
"213","[-35.18900421   0.           5.        ]","[-0.35727379  0.          0.        ]","[0.06339967 0.         0.        ]"
"214","[-35.48231142   0.           5.        ]","[-0.29330721  0.          0.        ]","[0.06396658 0.         0.        ]"
"215","[-35.7111885   0.          5.       ]","[-0.22887708  0.          0.        ]","[0.06443013 0.         0.        ]"
"216","[-35.87527491   0.           5.        ]","[-0.16408641  0.          0.        ]","[0.06479068 0.         0.        ]"
"217","[-35.97431279   0.           5.        ]","[-0.09903788  0.          0.        ]","[0.06504852 0.         0.        ]"
"218","[-36.00814678   0.           5.        ]","[-0.03383399  0.          0.        ]","[0.0652039 0.        0.       ]"
"219","[-35.97672383   0.           5.        ]","[0.03142294 0.         0.        ]","[0.06525693 0.         0.        ]"
"220","[-35.88009321   0.           5.        ]","[0.09663062 0.         0.        ]","[0.06520768 0.         0.        ]"
"221","[-35.7184065   0.          5.       ]","[0.16168671 0.         0.        ]","[0.06505609 0.         0.        ]"
"222","[-35.49191777   0.           5.        ]","[0.22648874 0.         0.        ]","[0.06480203 0.         0.        ]"
"223","[-35.20098375   0.           5.        ]","[0.29093402 0.         0.        ]","[0.06444528 0.         0.        ]"
"224","[-34.84606419   0.           5.        ]","[0.35491956 0.         0.        ]","[0.06398554 0.         0.        ]"
"225","[-34.42772216   0.           5.        ]","[0.41834203 0.         0.        ]","[0.06342247 0.         0.        ]"
"226","[-33.94662449   0.           5.        ]","[0.48109767 0.         0.        ]","[0.06275564 0.         0.        ]"
"227","[-33.40354215   0.           5.        ]","[0.54308233 0.         0.        ]","[0.06198466 0.         0.        ]"
"228","[-32.79935073   0.           5.        ]","[0.60419142 0.         0.        ]","[0.06110909 0.         0.        ]"
"229","[-32.13503076   0.           5.        ]","[0.66431998 0.         0.        ]","[0.06012855 0.         0.        ]"
"230","[-31.41166806   0.           5.        ]","[0.7233627 0.        0.       ]","[0.05904272 0.         0.        ]"
"231","[-30.630454   0.         5.      ]","[0.78121406 0.         0.        ]","[0.05785136 0.         0.        ]"
"232","[-29.79268557   0.           5.        ]","[0.83776843 0.         0.        ]","[0.05655437 0.         0.        ]"
"233","[-28.89976532   0.           5.        ]","[0.89292024 0.         0.        ]","[0.05515181 0.         0.        ]"
"234","[-27.95320113   0.           5.        ]","[0.94656419 0.         0.        ]","[0.05364395 0.         0.        ]"
"235","[-26.95460567   0.           5.        ]","[0.99859547 0.         0.        ]","[0.05203127 0.         0.        ]"
"236","[-25.90569563   0.           5.        ]","[1.04891004 0.         0.        ]","[0.05031457 0.         0.        ]"
"237","[-24.80829067   0.           5.        ]","[1.09740496 0.         0.        ]","[0.04849492 0.         0.        ]"
"238","[-23.66431195   0.           5.        ]","[1.14397872 0.         0.        ]","[0.04657376 0.         0.        ]"
"239","[-22.47578034   0.           5.        ]","[1.18853161 0.         0.        ]","[0.04455289 0.         0.        ]"
"240","[-21.24481422   0.           5.        ]","[1.23096612 0.         0.        ]","[0.04243451 0.         0.        ]"
"241","[-19.97362685   0.           5.        ]","[1.27118738 0.         0.        ]","[0.04022126 0.         0.        ]"
"242","[-18.66452325   0.           5.        ]","[1.3091036 0.        0.       ]","[0.03791622 0.         0.        ]"
"243","[-17.31989672   0.           5.        ]","[1.34462653 0.         0.        ]","[0.03552293 0.         0.        ]"
"244","[-15.94222478   0.           5.        ]","[1.37767194 0.         0.        ]","[0.03304541 0.         0.        ]"
"245","[-14.5340647   0.          5.       ]","[1.40816008 0.         0.        ]","[0.03048814 0.         0.        ]"
"246","[-13.09804856   0.           5.        ]","[1.43601615 0.         0.        ]","[0.02785607 0.         0.        ]"
"247","[-11.6368778   0.          5.       ]","[1.46117076 0.         0.        ]","[0.02515461 0.         0.        ]"
"248","[-10.15331741   0.           5.        ]","[1.48356039 0.         0.        ]","[0.02238963 0.         0.        ]"
"249","[-8.65018963  0.          5.        ]","[1.50312778 0.         0.        ]","[0.01956739 0.         0.        ]"
"250","[-7.13036729  0.          5.        ]","[1.51982234 0.         0.        ]","[0.01669456 0.         0.        ]"
"251","[-5.59676682  0.          5.        ]","[1.53360048 0.         0.        ]","[0.01377814 0.         0.        ]"
"252","[-4.05234087  0.          5.        ]","[1.54442595 0.         0.        ]","[0.01082547 0.         0.        ]"
"253","[-2.50007081  0.          5.        ]","[1.55227006 0.         0.        ]","[0.00784412 0.         0.        ]"
"254","[-0.94295885  0.          5.        ]","[1.55711195 0.         0.        ]","[0.00484189 0.         0.        ]"
"255","[0.61597982 0.         5.        ]","[1.55893868 0.         0.        ]","[0.00182673 0.         0.        ]"
"256","[2.17372518 0.         5.        ]","[1.55774536 0.         0.        ]","[-0.00119332 -0.         -0.        ]"
"257","[3.72726035 0.         5.        ]","[1.55353517 0.         0.        ]","[-0.00421018 -0.         -0.        ]"
"258","[5.27357974 0.         5.        ]","[1.54631939 0.         0.        ]","[-0.00721579 -0.         -0.        ]"
"259","[6.80969696 0.         5.        ]","[1.53611722 0.         0.        ]","[-0.01020217 -0.         -0.        ]"
"260","[8.33265268 0.         5.        ]","[1.52295572 0.         0.        ]","[-0.01316149 -0.         -0.        ]"
"261","[9.83952228 0.         5.        ]","[1.50686959 0.         0.        ]","[-0.01608613 -0.         -0.        ]"
"262","[11.32742317  0.          5.        ]","[1.48790089 0.         0.        ]","[-0.0189687 -0.        -0.       ]"
"263","[12.79352194  0.          5.        ]","[1.46609878 0.         0.        ]","[-0.02180212 -0.         -0.        ]"
"264","[14.23504107  0.          5.        ]","[1.44151913 0.         0.        ]","[-0.02457964 -0.         -0.        ]"
"265","[15.64926528  0.          5.        ]","[1.4142242 0.        0.       ]","[-0.02729493 -0.         -0.        ]"
"266","[17.03354747  0.          5.        ]","[1.38428219 0.         0.        ]","[-0.02994202 -0.         -0.        ]"
"267","[18.38531425  0.          5.        ]","[1.35176678 0.         0.        ]","[-0.03251541 -0.         -0.        ]"
"268","[19.70207099  0.          5.        ]","[1.31675674 0.         0.        ]","[-0.03501005 -0.         -0.        ]"
"269","[20.98140638  0.          5.        ]","[1.27933539 0.         0.        ]","[-0.03742135 -0.         -0.        ]"
"270","[22.22099655  0.          5.        ]","[1.23959018 0.         0.        ]","[-0.03974521 -0.         -0.        ]"
"271","[23.41860874  0.          5.        ]","[1.19761219 0.         0.        ]","[-0.04197799 -0.         -0.        ]"
"272","[24.57210443  0.          5.        ]","[1.15349569 0.         0.        ]","[-0.0441165 -0.        -0.       ]"
"273","[25.6794421  0.         5.       ]","[1.10733766 0.         0.        ]","[-0.04615803 -0.         -0.        ]"
"274","[26.73867949  0.          5.        ]","[1.0592374 0.        0.       ]","[-0.04810027 -0.         -0.        ]"
"275","[27.74797555  0.          5.        ]","[1.00929606 0.         0.        ]","[-0.04994134 -0.         -0.        ]"
"276","[28.70559186  0.          5.        ]","[0.95761631 0.         0.        ]","[-0.05167974 -0.         -0.        ]"
"277","[29.60989387  0.          5.        ]","[0.904302 0.       0.      ]","[-0.05331431 -0.         -0.        ]"
"278","[30.45935166  0.          5.        ]","[0.84945779 0.         0.        ]","[-0.05484421 -0.         -0.        ]"
"279","[31.25254056  0.          5.        ]","[0.7931889 0.        0.       ]","[-0.05626889 -0.         -0.        ]"
"280","[31.98814142  0.          5.        ]","[0.73560086 0.         0.        ]","[-0.05758804 -0.         -0.        ]"
"281","[32.66494072  0.          5.        ]","[0.67679931 0.         0.        ]","[-0.05880155 -0.         -0.        ]"
"282","[33.28183052  0.          5.        ]","[0.6168898 0.        0.       ]","[-0.05990951 -0.         -0.        ]"
"283","[33.83780821  0.          5.        ]","[0.55597769 0.         0.        ]","[-0.06091211 -0.         -0.        ]"
"284","[34.33197623  0.          5.        ]","[0.49416802 0.         0.        ]","[-0.06180967 -0.         -0.        ]"
"285","[34.7635417  0.         5.       ]","[0.43156547 0.         0.        ]","[-0.06260256 -0.         -0.        ]"
"286","[35.13181597  0.          5.        ]","[0.36827427 0.         0.        ]","[-0.06329119 -0.         -0.        ]"
"287","[35.43621424  0.          5.        ]","[0.30439827 0.         0.        ]","[-0.063876 -0.       -0.      ]"
"288","[35.67625512  0.          5.        ]","[0.24004088 0.         0.        ]","[-0.06435739 -0.         -0.        ]"
"289","[35.85156029  0.          5.        ]","[0.17530517 0.         0.        ]","[-0.06473571 -0.         -0.        ]"
"290","[35.96185417  0.          5.        ]","[0.11029388 0.         0.        ]","[-0.06501129 -0.         -0.        ]"
"291","[36.00696369  0.          5.        ]","[0.04510952 0.         0.        ]","[-0.06518436 -0.         -0.        ]"
"292","[35.98681813  0.          5.        ]","[-0.02014556  0.          0.        ]","[-0.06525508 -0.         -0.        ]"
"293","[35.90144907  0.          5.        ]","[-0.08536906  0.          0.        ]","[-0.0652235 -0.        -0.       ]"
"294","[35.75099041  0.          5.        ]","[-0.15045867  0.          0.        ]","[-0.06508961 -0.         -0.        ]"
"295","[35.53567847  0.          5.        ]","[-0.21531194  0.          0.        ]","[-0.06485327 -0.         -0.        ]"
"296","[35.25585225  0.          5.        ]","[-0.27982622  0.          0.        ]","[-0.06451429 -0.         -0.        ]"
"297","[34.91195365  0.          5.        ]","[-0.3438986  0.         0.       ]","[-0.06407237 -0.         -0.        ]"
"298","[34.50452787  0.          5.        ]","[-0.40742578  0.          0.        ]","[-0.06352718 -0.         -0.        ]"
"299","[34.03422377  0.          5.        ]","[-0.4703041  0.         0.       ]","[-0.06287832 -0.         -0.        ]"
"300","[33.5017943  0.         5.       ]","[-0.53242947  0.          0.        ]","[-0.06212537 -0.         -0.        ]"
"301","[32.90809692  0.          5.        ]","[-0.59369737  0.          0.        ]","[-0.0612679 -0.        -0.       ]"
"302","[32.25409401  0.          5.        ]","[-0.65400291  0.          0.        ]","[-0.06030553 -0.         -0.        ]"
"303","[31.54085319  0.          5.        ]","[-0.71324083  0.          0.        ]","[-0.05923792 -0.         -0.        ]"
"304","[30.76954755  0.          5.        ]","[-0.77130564  0.          0.        ]","[-0.05806481 -0.         -0.        ]"
"305","[29.94145584  0.          5.        ]","[-0.82809171  0.          0.        ]","[-0.05678607 -0.         -0.        ]"
"306","[29.05796238  0.          5.        ]","[-0.88349346  0.          0.        ]","[-0.05540175 -0.         -0.        ]"
"307","[28.12055687  0.          5.        ]","[-0.93740551  0.          0.        ]","[-0.05391205 -0.         -0.        ]"
"308","[27.13083391  0.          5.        ]","[-0.98972296  0.          0.        ]","[-0.05231745 -0.         -0.        ]"
"309","[26.0904923  0.         5.       ]","[-1.04034161  0.          0.        ]","[-0.05061865 -0.         -0.        ]"
"310","[25.00133398  0.          5.        ]","[-1.08915832  0.          0.        ]","[-0.04881671 -0.         -0.        ]"
"311","[23.8652627  0.         5.       ]","[-1.13607129  0.          0.        ]","[-0.04691297 -0.         -0.        ]"
"312","[22.68428223  0.          5.        ]","[-1.18098047  0.          0.        ]","[-0.04490918 -0.         -0.        ]"
"313","[21.46049428  0.          5.        ]","[-1.22378795  0.          0.        ]","[-0.04280748 -0.         -0.        ]"
"314","[20.19609592  0.          5.        ]","[-1.26439836  0.          0.        ]","[-0.04061042 -0.         -0.        ]"
"315","[18.89337655  0.          5.        ]","[-1.30271936  0.          0.        ]","[-0.038321 -0.       -0.      ]"
"316","[17.5547145  0.         5.       ]","[-1.33866206  0.          0.        ]","[-0.03594269 -0.         -0.        ]"
"317","[16.18257302  0.          5.        ]","[-1.37214148  0.          0.        ]","[-0.03347942 -0.         -0.        ]"
"318","[14.77949595  0.          5.        ]","[-1.40307707  0.          0.        ]","[-0.03093559 -0.         -0.        ]"
"319","[13.34810281  0.          5.        ]","[-1.43139314  0.          0.        ]","[-0.02831607 -0.         -0.        ]"
"320","[11.89108346  0.          5.        ]","[-1.45701934  0.          0.        ]","[-0.0256262 -0.        -0.       ]"
"321","[10.41119235  0.          5.        ]","[-1.47989111  0.          0.        ]","[-0.02287176 -0.         -0.        ]"
"322","[8.9112423 0.        5.       ]","[-1.49995006  0.          0.        ]","[-0.02005895 -0.         -0.        ]"
"323","[7.39409787 0.         5.        ]","[-1.51714443  0.          0.        ]","[-0.01719437 -0.         -0.        ]"
"324","[5.86266847 0.         5.        ]","[-1.5314294  0.         0.       ]","[-0.01428497 -0.         -0.        ]"
"325","[4.31990104 0.         5.        ]","[-1.54276743  0.          0.        ]","[-0.01133803 -0.         -0.        ]"
"326","[2.76877252 0.         5.        ]","[-1.55112851  0.          0.        ]","[-0.00836108 -0.         -0.        ]"
"327","[1.21228211 0.         5.        ]","[-1.55649041  0.          0.        ]","[-0.0053619 -0.        -0.       ]"
"328","[-0.3465567  0.         5.       ]","[-1.55883881  0.          0.        ]","[-0.0023484 -0.        -0.       ]"
"329","[-1.90472412  0.          5.        ]","[-1.55816742  0.          0.        ]","[0.00067139 0.         0.        ]"
"330","[-3.45920217  0.          5.        ]","[-1.55447805  0.          0.        ]","[0.00368937 0.         0.        ]"
"331","[-5.00698273  0.          5.        ]","[-1.54778056  0.          0.        ]","[0.0066975 0.        0.       ]"
"332","[-6.54507553  0.          5.        ]","[-1.53809279  0.          0.        ]","[0.00968776 0.         0.        ]"
"333","[-8.070516  0.        5.      ]","[-1.52544048  0.          0.        ]","[0.01265232 0.         0.        ]"
"334","[-9.58037299  0.          5.        ]","[-1.50985699  0.          0.        ]","[0.01558348 0.         0.        ]"
"335","[-11.07175615   0.           5.        ]","[-1.49138315  0.          0.        ]","[0.01847384 0.         0.        ]"
"336","[-12.54182306   0.           5.        ]","[-1.47006691  0.          0.        ]","[0.02131624 0.         0.        ]"
"337","[-13.98778607   0.           5.        ]","[-1.44596302  0.          0.        ]","[0.02410389 0.         0.        ]"
"338","[-15.40691872   0.           5.        ]","[-1.41913265  0.          0.        ]","[0.02683037 0.         0.        ]"
"339","[-16.79656171   0.           5.        ]","[-1.38964299  0.          0.        ]","[0.02948965 0.         0.        ]"
"340","[-18.15412856   0.           5.        ]","[-1.35756684  0.          0.        ]","[0.03207615 0.         0.        ]"
"341","[-19.47711066   0.           5.        ]","[-1.3229821  0.         0.       ]","[0.03458474 0.         0.        ]"
"342","[-20.763082   0.         5.      ]","[-1.28597134  0.          0.        ]","[0.03701076 0.         0.        ]"
"343","[-22.00970333   0.           5.        ]","[-1.24662134  0.          0.        ]","[0.03935 0.      0.     ]"
"344","[-23.21472591   0.           5.        ]","[-1.20502258  0.          0.        ]","[0.04159876 0.         0.        ]"
"345","[-24.37599471   0.           5.        ]","[-1.1612688  0.         0.       ]","[0.04375377 0.         0.        ]"
"346","[-25.49145128   0.           5.        ]","[-1.11545657  0.          0.        ]","[0.04581224 0.         0.        ]"
"347","[-26.55913606   0.           5.        ]","[-1.06768478  0.          0.        ]","[0.04777178 0.         0.        ]"
"348","[-27.57719039   0.           5.        ]","[-1.01805433  0.          0.        ]","[0.04963046 0.         0.        ]"
"349","[-28.54385802   0.           5.        ]","[-0.96666763  0.          0.        ]","[0.0513867 0.        0.       ]"
"350","[-29.45748637   0.           5.        ]","[-0.91362835  0.          0.        ]","[0.05303928 0.         0.        ]"
"351","[-30.31652741   0.           5.        ]","[-0.85904104  0.          0.        ]","[0.05458732 0.         0.        ]"
"352","[-31.11953824   0.           5.        ]","[-0.80301083  0.          0.        ]","[0.05603021 0.         0.        ]"
"353","[-31.86518146   0.           5.        ]","[-0.74564322  0.          0.        ]","[0.05736761 0.         0.        ]"
"354","[-32.55222531   0.           5.        ]","[-0.68704384  0.          0.        ]","[0.05859938 0.         0.        ]"
"355","[-33.17954359   0.           5.        ]","[-0.62731828  0.          0.        ]","[0.05972556 0.         0.        ]"
"356","[-33.74611552   0.           5.        ]","[-0.56657193  0.          0.        ]","[0.06074635 0.         0.        ]"
"357","[-34.25102541   0.           5.        ]","[-0.50490989  0.          0.        ]","[0.06166204 0.         0.        ]"
"358","[-34.69346231   0.           5.        ]","[-0.4424369  0.         0.       ]","[0.06247299 0.         0.        ]"
"359","[-35.07271959   0.           5.        ]","[-0.37925729  0.          0.        ]","[0.06317961 0.         0.        ]"
"360","[-35.38819454   0.           5.        ]","[-0.31547495  0.          0.        ]","[0.06378234 0.         0.        ]"
"361","[-35.63938793   0.           5.        ]","[-0.25119338  0.          0.        ]","[0.06428157 0.         0.        ]"
"362","[-35.82590364   0.           5.        ]","[-0.18651571  0.          0.        ]","[0.06467768 0.         0.        ]"
"363","[-35.94744834   0.           5.        ]","[-0.12154471  0.          0.        ]","[0.064971 0.       0.      ]"
"364","[-36.00383128   0.           5.        ]","[-0.05638294  0.          0.        ]","[0.06516177 0.         0.        ]"
"365","[-35.99496405   0.           5.        ]","[0.00886723 0.         0.        ]","[0.06525017 0.         0.        ]"
"366","[-35.92086055   0.           5.        ]","[0.0741035 0.        0.       ]","[0.06523627 0.         0.        ]"
"367","[-35.78163699   0.           5.        ]","[0.13922356 0.         0.        ]","[0.06512006 0.         0.        ]"
"368","[-35.57751198   0.           5.        ]","[0.20412501 0.         0.        ]","[0.06490145 0.         0.        ]"
"369","[-35.30880675   0.           5.        ]","[0.26870523 0.         0.        ]","[0.06458022 0.         0.        ]"
"370","[-34.9759454   0.          5.       ]","[0.33286135 0.         0.        ]","[0.06415612 0.         0.        ]"
"371","[-34.57945525   0.           5.        ]","[0.39649015 0.         0.        ]","[0.06362881 0.         0.        ]"
"372","[-34.1199672   0.          5.       ]","[0.45948804 0.         0.        ]","[0.06299789 0.         0.        ]"
"373","[-33.5982162   0.          5.       ]","[0.521751 0.       0.      ]","[0.06226296 0.         0.        ]"
"374","[-33.01504162   0.           5.        ]","[0.58317458 0.         0.        ]","[0.06142358 0.         0.        ]"
"375","[-32.37138766   0.           5.        ]","[0.64365395 0.         0.        ]","[0.06047937 0.         0.        ]"
"376","[-31.66830374   0.           5.        ]","[0.70308392 0.         0.        ]","[0.05942996 0.         0.        ]"
"377","[-30.90694473   0.           5.        ]","[0.76135902 0.         0.        ]","[0.0582751 0.        0.       ]"
"378","[-30.08857108   0.           5.        ]","[0.81837364 0.         0.        ]","[0.05701462 0.         0.        ]"
"379","[-29.21454891   0.           5.        ]","[0.87402218 0.         0.        ]","[0.05564854 0.         0.        ]"
"380","[-28.28634971   0.           5.        ]","[0.9281992 0.        0.       ]","[0.05417702 0.         0.        ]"
"381","[-27.30555   0.        5.     ]","[0.98079971 0.         0.        ]","[0.05260051 0.         0.        ]"
"382","[-26.27383064   0.           5.        ]","[1.03171936 0.         0.        ]","[0.05091965 0.         0.        ]"
"383","[-25.19297583   0.           5.        ]","[1.08085481 0.         0.        ]","[0.04913545 0.         0.        ]"
"384","[-24.06487184   0.           5.        ]","[1.128104 0.       0.      ]","[0.04724919 0.         0.        ]"
"385","[-22.89150529   0.           5.        ]","[1.17336655 0.         0.        ]","[0.04526255 0.         0.        ]"
"386","[-21.67496114   0.           5.        ]","[1.21654414 0.         0.        ]","[0.0431776 0.        0.       ]"
"387","[-20.41742018   0.           5.        ]","[1.25754096 0.         0.        ]","[0.04099682 0.         0.        ]"
"388","[-19.1211561   0.          5.       ]","[1.29626409 0.         0.        ]","[0.03872313 0.         0.        ]"
"389","[-17.7885321   0.          5.       ]","[1.332624 0.       0.      ]","[0.03635991 0.         0.        ]"
"390","[-16.42199707   0.           5.        ]","[1.36653503 0.         0.        ]","[0.03391102 0.         0.        ]"
"391","[-15.02408126   0.           5.        ]","[1.39791581 0.         0.        ]","[0.03138078 0.         0.        ]"
"392","[-13.59739148   0.           5.        ]","[1.42668978 0.         0.        ]","[0.02877397 0.         0.        ]"
"393","[-12.14460584   0.           5.        ]","[1.45278564 0.         0.        ]","[0.02609586 0.         0.        ]"
"394","[-10.66846804   0.           5.        ]","[1.47613779 0.         0.        ]","[0.02335215 0.         0.        ]"
"395","[-9.17178128  0.          5.        ]","[1.49668676 0.         0.        ]","[0.02054897 0.         0.        ]"
"396","[-7.65740168  0.          5.        ]","[1.5143796 0.        0.       ]","[0.01769284 0.         0.        ]"
"397","[-6.12823139  0.          5.        ]","[1.52917028 0.         0.        ]","[0.01479068 0.         0.        ]"
"398","[-4.58721142  0.          5.        ]","[1.54101998 0.         0.        ]","[0.01184969 0.         0.        ]"
"399","[-3.03731405  0.          5.        ]","[1.54989736 0.         0.        ]","[0.00887738 0.         0.        ]"
"400","[-1.48153521  0.          5.        ]","[1.55577884 0.         0.        ]","[0.00588148 0.         0.        ]"
"401","[0.07711351 0.         5.        ]","[1.55864872 0.         0.        ]","[0.00286988 0.         0.        ]"
"402","[1.63561284 0.         5.        ]","[1.55849933 0.         0.        ]","[-0.00014939 -0.         -0.        ]"
"403","[3.19094391 0.         5.        ]","[1.55533106 0.         0.        ]","[-0.00316827 -0.         -0.        ]"
"404","[4.7400963 0.        5.       ]","[1.54915239 0.         0.        ]","[-0.00617867 -0.         -0.        ]"
"405","[6.2800761 0.        5.       ]","[1.5399798 0.        0.       ]","[-0.00917259 -0.         -0.        ]"
"406","[7.80791376 0.         5.        ]","[1.52783766 0.         0.        ]","[-0.01214214 -0.         -0.        ]"
"407","[9.32067181 0.         5.        ]","[1.51275804 0.         0.        ]","[-0.01507962 -0.         -0.        ]"
"408","[10.81545231  0.          5.        ]","[1.4947805 0.        0.       ]","[-0.01797754 -0.         -0.        ]"
"409","[12.28940407  0.          5.        ]","[1.47395177 0.         0.        ]","[-0.02082873 -0.         -0.        ]"
"410","[13.73972953  0.          5.        ]","[1.45032545 0.         0.        ]","[-0.02362632 -0.         -0.        ]"
"411","[15.16369117  0.          5.        ]","[1.42396165 0.         0.        ]","[-0.02636381 -0.         -0.        ]"
"412","[16.5586177  0.         5.       ]","[1.39492653 0.         0.        ]","[-0.02903511 -0.         -0.        ]"
"413","[17.92190967  0.          5.        ]","[1.36329196 0.         0.        ]","[-0.03163457 -0.         -0.        ]"
"414","[19.25104465  0.          5.        ]","[1.32913499 0.         0.        ]","[-0.03415697 -0.         -0.        ]"
"415","[20.54358207  0.          5.        ]","[1.29253742 0.         0.        ]","[-0.03659757 -0.         -0.        ]"
"416","[21.79716739  0.          5.        ]","[1.25358532 0.         0.        ]","[-0.03895209 -0.         -0.        ]"
"417","[23.00953598  0.          5.        ]","[1.21236859 0.         0.        ]","[-0.04121673 -0.         -0.        ]"
"418","[24.17851641  0.          5.        ]","[1.16898043 0.         0.        ]","[-0.04338816 -0.         -0.        ]"
"419","[25.30203334  0.          5.        ]","[1.12351694 0.         0.        ]","[-0.04546349 -0.         -0.        ]"
"420","[26.37811  0.       5.     ]","[1.07607665 0.         0.        ]","[-0.04744028 -0.         -0.        ]"
"421","[27.40487013  0.          5.        ]","[1.02676014 0.         0.        ]","[-0.04931652 -0.         -0.        ]"
"422","[28.38053972  0.          5.        ]","[0.97566958 0.         0.        ]","[-0.05109055 -0.         -0.        ]"
"423","[29.30344818  0.          5.        ]","[0.92290846 0.         0.        ]","[-0.05276112 -0.         -0.        ]"
"424","[30.17202937  0.          5.        ]","[0.86858119 0.         0.        ]","[-0.05432728 -0.         -0.        ]"
"425","[30.98482218  0.          5.        ]","[0.81279281 0.         0.        ]","[-0.05578837 -0.         -0.        ]"
"426","[31.74047097  0.          5.        ]","[0.75564879 0.         0.        ]","[-0.05714402 -0.         -0.        ]"
"427","[32.43772572  0.          5.        ]","[0.69725475 0.         0.        ]","[-0.05839405 -0.         -0.        ]"
"428","[33.07544199  0.          5.        ]","[0.63771627 0.         0.        ]","[-0.05953847 -0.         -0.        ]"
"429","[33.65258081  0.          5.        ]","[0.57713882 0.         0.        ]","[-0.06057746 -0.         -0.        ]"
"430","[34.16820835  0.          5.        ]","[0.51562754 0.         0.        ]","[-0.06151128 -0.         -0.        ]"
"431","[34.62149558  0.          5.        ]","[0.45328723 0.         0.        ]","[-0.06234031 -0.         -0.        ]"
"432","[35.01171788  0.          5.        ]","[0.3902223 0.        0.       ]","[-0.06306493 -0.         -0.        ]"
"433","[35.3382546  0.         5.       ]","[0.32653672 0.         0.        ]","[-0.06368558 -0.         -0.        ]"
"434","[35.60058866  0.          5.        ]","[0.26233406 0.         0.        ]","[-0.06420267 -0.         -0.        ]"
"435","[35.79830614  0.          5.        ]","[0.19771748 0.         0.        ]","[-0.06461658 -0.         -0.        ]"
"436","[35.93109598  0.          5.        ]","[0.13278984 0.         0.        ]","[-0.06492764 -0.         -0.        ]"
"437","[35.99874969  0.          5.        ]","[0.06765372 0.         0.        ]","[-0.06513612 -0.         -0.        ]"
"438","[36.00116121  0.          5.        ]","[0.00241151 0.         0.        ]","[-0.0652422 -0.        -0.       ]"
"439","[35.93832674  0.          5.        ]","[-0.06283447  0.          0.        ]","[-0.06524598 -0.         -0.        ]"
"440","[35.81034481  0.          5.        ]","[-0.12798193  0.          0.        ]","[-0.06514746 -0.         -0.        ]"
"441","[35.61741632  0.          5.        ]","[-0.19292849  0.          0.        ]","[-0.06494656 -0.         -0.        ]"
"442","[35.35984475  0.          5.        ]","[-0.25757157  0.          0.        ]","[-0.06464308 -0.         -0.        ]"
"443","[35.0380364  0.         5.       ]","[-0.32180835  0.          0.        ]","[-0.06423678 -0.         -0.        ]"
"444","[34.65250071  0.          5.        ]","[-0.38553568  0.          0.        ]","[-0.06372733 -0.         -0.        ]"
"445","[34.20385068  0.          5.        ]","[-0.44865004  0.          0.        ]","[-0.06311435 -0.         -0.        ]"
"446","[33.69280322  0.          5.        ]","[-0.51104746  0.          0.        ]","[-0.06239742 -0.         -0.        ]"
"447","[33.12017963  0.          5.        ]","[-0.57262359  0.          0.        ]","[-0.06157613 -0.         -0.        ]"
"448","[32.48690597  0.          5.        ]","[-0.63327366  0.          0.        ]","[-0.06065006 -0.         -0.        ]"
"449","[31.79401345  0.          5.        ]","[-0.69289252  0.          0.        ]","[-0.05961886 -0.         -0.        ]"
"450","[31.0426387  0.         5.       ]","[-0.75137475  0.          0.        ]","[-0.05848224 -0.         -0.        ]"
"451","[30.23402393  0.          5.        ]","[-0.80861477  0.          0.        ]","[-0.05724002 -0.         -0.        ]"
"452","[29.36951699  0.          5.        ]","[-0.86450694  0.          0.        ]","[-0.05589217 -0.         -0.        ]"
"453","[28.45057119  0.          5.        ]","[-0.9189458  0.         0.       ]","[-0.05443886 -0.         -0.        ]"
"454","[27.47874494  0.          5.        ]","[-0.97182625  0.          0.        ]","[-0.05288045 -0.         -0.        ]"
"455","[26.45570113  0.          5.        ]","[-1.02304382  0.          0.        ]","[-0.05121757 -0.         -0.        ]"
"456","[25.38320617  0.          5.        ]","[-1.07249495  0.          0.        ]","[-0.04945114 -0.         -0.        ]"
"457","[24.26312881  0.          5.        ]","[-1.12007736  0.          0.        ]","[-0.04758241 -0.         -0.        ]"
"458","[23.09743846  0.          5.        ]","[-1.16569034  0.          0.        ]","[-0.04561298 -0.         -0.        ]"
"459","[21.88820327  0.          5.        ]","[-1.2092352  0.         0.       ]","[-0.04354486 -0.         -0.        ]"
"460","[20.63758763  0.          5.        ]","[-1.25061564  0.          0.        ]","[-0.04138044 -0.         -0.        ]"
"461","[19.34784941  0.          5.        ]","[-1.28973822  0.          0.        ]","[-0.03912258 -0.         -0.        ]"
"462","[18.02133662  0.          5.        ]","[-1.32651279  0.          0.        ]","[-0.03677457 -0.         -0.        ]"
"463","[16.66048364  0.          5.        ]","[-1.36085299  0.          0.        ]","[-0.0343402 -0.        -0.       ]"
"464","[15.26780697  0.          5.        ]","[-1.39267667  0.          0.        ]","[-0.03182368 -0.         -0.        ]"
"465","[13.84590055  0.          5.        ]","[-1.42190642  0.          0.        ]","[-0.02922975 -0.         -0.        ]"
"466","[12.39743057  0.          5.        ]","[-1.44846998  0.          0.        ]","[-0.02656356 -0.         -0.        ]"
"467","[10.92512983  0.          5.        ]","[-1.47230074  0.          0.        ]","[-0.02383076 -0.         -0.        ]"
"468","[9.4317917 0.        5.       ]","[-1.49333814  0.          0.        ]","[-0.0210374 -0.        -0.       ]"
"469","[7.92026362 0.         5.        ]","[-1.51152808  0.          0.        ]","[-0.01818994 -0.         -0.        ]"
"470","[6.39344031 0.         5.        ]","[-1.52682331  0.          0.        ]","[-0.01529523 -0.         -0.        ]"
"471","[4.85425658 0.         5.        ]","[-1.53918373  0.          0.        ]","[-0.01236042 -0.         -0.        ]"
"472","[3.30567987 0.         5.        ]","[-1.54857671  0.          0.        ]","[-0.00939298 -0.         -0.        ]"
"473","[1.75070257 0.         5.        ]","[-1.5549773  0.         0.       ]","[-0.00640059 -0.         -0.        ]"
"474","[0.19233413 0.         5.        ]","[-1.55836844  0.          0.        ]","[-0.00339114 -0.         -0.        ]"
"475","[-1.36640691  0.          5.        ]","[-1.55874105  0.          0.        ]","[-0.00037261 -0.         -0.        ]"
"476","[-2.92250105  0.          5.        ]","[-1.55609414  0.          0.        ]","[0.00264691 0.         0.        ]"
"477","[-4.47293584  0.          5.        ]","[-1.55043479  0.          0.        ]","[0.00565935 0.         0.        ]"
"478","[-6.01471394  0.          5.        ]","[-1.5417781  0.         0.       ]","[0.00865669 0.         0.        ]"
"479","[-7.54486102  0.          5.        ]","[-1.53014709  0.          0.        ]","[0.01163101 0.         0.        ]"
"480","[-9.06043354  0.          5.        ]","[-1.51557252  0.          0.        ]","[0.01457457 0.         0.        ]"
"481","[-10.55852621   0.           5.        ]","[-1.49809267  0.          0.        ]","[0.01747985 0.         0.        ]"
"482","[-12.03627926   0.           5.        ]","[-1.47775305  0.          0.        ]","[0.02033962 0.         0.        ]"
"483","[-13.49088537   0.           5.        ]","[-1.45460611  0.          0.        ]","[0.02314694 0.         0.        ]"
"484","[-14.91959621   0.           5.        ]","[-1.42871084  0.          0.        ]","[0.02589527 0.         0.        ]"
"485","[-16.31972863   0.           5.        ]","[-1.40013242  0.          0.        ]","[0.02857843 0.         0.        ]"
"486","[-17.68867036   0.           5.        ]","[-1.36894173  0.          0.        ]","[0.03119069 0.         0.        ]"
"487","[-19.02388533   0.           5.        ]","[-1.33521497  0.          0.        ]","[0.03372676 0.         0.        ]"
"488","[-20.32291848   0.           5.        ]","[-1.29903316  0.          0.        ]","[0.03618181 0.         0.        ]"
"489","[-21.58340014   0.           5.        ]","[-1.26048166  0.          0.        ]","[0.0385515 0.        0.       ]"
"490","[-22.80304988   0.           5.        ]","[-1.21964974  0.          0.        ]","[0.04083192 0.         0.        ]"
"491","[-23.97967994   0.           5.        ]","[-1.17663006  0.          0.        ]","[0.04301968 0.         0.        ]"
"492","[-25.11119819   0.           5.        ]","[-1.13151826  0.          0.        ]","[0.0451118 0.        0.       ]"
"493","[-26.19561067   0.           5.        ]","[-1.08441248  0.          0.        ]","[0.04710578 0.         0.        ]"
"494","[-27.23102363   0.           5.        ]","[-1.03541296  0.          0.        ]","[0.04899952 0.         0.        ]"
"495","[-28.21564527   0.           5.        ]","[-0.98462164  0.          0.        ]","[0.05079132 0.         0.        ]"
"496","[-29.14778706   0.           5.        ]","[-0.93214179  0.          0.        ]","[0.05247985 0.         0.        ]"
"497","[-30.02586475   0.           5.        ]","[-0.87807769  0.          0.        ]","[0.0540641 0.        0.       ]"
"498","[-30.84839905   0.           5.        ]","[-0.8225343  0.         0.       ]","[0.05554339 0.         0.        ]"
"499","[-31.61401608   0.           5.        ]","[-0.76561703  0.          0.        ]","[0.05691728 0.         0.        ]"
