"time","theta3d","omega3d","alpha3d"
"0","[56.67124114  0.          5.        ]","[-0.32875886  0.          0.        ]","[-0.32875886 -0.         -0.        ]"
"1","[56.01495386  0.          5.        ]","[-0.65628728  0.          0.        ]","[-0.32752842 -0.         -0.        ]"
"2","[55.03362665  0.          5.        ]","[-0.98132721  0.          0.        ]","[-0.32503993 -0.         -0.        ]"
"3","[53.73105993  0.          5.        ]","[-1.30256671  0.          0.        ]","[-0.3212395 -0.        -0.       ]"
"4","[52.11244357  0.          5.        ]","[-1.61861636  0.          0.        ]","[-0.31604964 -0.         -0.        ]"
"5","[50.18445396  0.          5.        ]","[-1.92798961  0.          0.        ]","[-0.30937325 -0.         -0.        ]"
"6","[47.9553653  0.         5.       ]","[-2.22908866  0.          0.        ]","[-0.30109905 -0.         -0.        ]"
"7","[45.4351683  0.         5.       ]","[-2.520197  0.        0.      ]","[-0.29110835 -0.         -0.        ]"
"8","[42.63568819  0.          5.        ]","[-2.79948011  0.          0.        ]","[-0.2792831 -0.        -0.       ]"
"9","[39.57069303  0.          5.        ]","[-3.06499517  0.          0.        ]","[-0.26551506 -0.         -0.        ]"
"10","[36.25598218  0.          5.        ]","[-3.31471084  0.          0.        ]","[-0.24971568 -0.         -0.        ]"
"11","[32.70944495  0.          5.        ]","[-3.54653723  0.          0.        ]","[-0.23182639 -0.         -0.        ]"
"12","[28.95107914  0.          5.        ]","[-3.75836581  0.          0.        ]","[-0.21182858 -0.         -0.        ]"
"13","[25.00296077  0.          5.        ]","[-3.94811838  0.          0.        ]","[-0.18975257 -0.         -0.        ]"
"14","[20.88915767  0.          5.        ]","[-4.11380309  0.          0.        ]","[-0.16568472 -0.         -0.        ]"
"15","[16.63558259  0.          5.        ]","[-4.25357509  0.          0.        ]","[-0.13977199 -0.         -0.        ]"
"16","[12.26978438  0.          5.        ]","[-4.3657982  0.         0.       ]","[-0.11222312 -0.         -0.        ]"
"17","[7.82068026 0.         5.        ]","[-4.44910412  0.          0.        ]","[-0.08330592 -0.         -0.        ]"
"18","[3.31823545 0.         5.        ]","[-4.5024448  0.         0.       ]","[-0.05334068 -0.         -0.        ]"
"19","[-1.206899  0.        5.      ]","[-4.52513446  0.          0.        ]","[-0.02268965 -0.         -0.        ]"
"20","[-5.72377684  0.          5.        ]","[-4.51687784  0.          0.        ]","[0.00825662 0.         0.        ]"
"21","[-10.20155947   0.           5.        ]","[-4.47778263  0.          0.        ]","[0.03909521 0.         0.        ]"
"22","[-14.60991438   0.           5.        ]","[-4.40835491  0.          0.        ]","[0.06942772 0.         0.        ]"
"23","[-18.91939246   0.           5.        ]","[-4.30947808  0.          0.        ]","[0.09887683 0.         0.        ]"
"24","[-23.1017694   0.          5.       ]","[-4.18237694  0.          0.        ]","[0.12710114 0.         0.        ]"
"25","[-27.13033905   0.           5.        ]","[-4.02856965  0.          0.        ]","[0.15380728 0.         0.        ]"
"26","[-30.98015034   0.           5.        ]","[-3.84981129  0.          0.        ]","[0.17875836 0.         0.        ]"
"27","[-34.62818313   0.           5.        ]","[-3.64803279  0.          0.        ]","[0.20177851 0.         0.        ]"
"28","[-38.05346248   0.           5.        ]","[-3.42527935  0.          0.        ]","[0.22275344 0.         0.        ]"
"29","[-41.2371144   0.          5.       ]","[-3.18365192  0.          0.        ]","[0.24162743 0.         0.        ]"
"30","[-44.16236905   0.           5.        ]","[-2.92525465  0.          0.        ]","[0.25839727 0.         0.        ]"
"31","[-46.81451961   0.           5.        ]","[-2.65215056  0.          0.        ]","[0.27310409 0.         0.        ]"
"32","[-49.18084648   0.           5.        ]","[-2.36632687  0.          0.        ]","[0.28582369 0.         0.        ]"
"33","[-51.25051693   0.           5.        ]","[-2.06967045  0.          0.        ]","[0.29665642 0.         0.        ]"
"34","[-53.01447045   0.           5.        ]","[-1.76395352  0.          0.        ]","[0.30571693 0.         0.        ]"
"35","[-54.46529928   0.           5.        ]","[-1.45082883  0.          0.        ]","[0.31312469 0.         0.        ]"
"36","[-55.59713275   0.           5.        ]","[-1.13183347  0.          0.        ]","[0.31899536 0.         0.        ]"
"37","[-56.40553281   0.           5.        ]","[-0.80840006  0.          0.        ]","[0.32343341 0.         0.        ]"
"38","[-56.88740679   0.           5.        ]","[-0.48187399  0.          0.        ]","[0.32652607 0.         0.        ]"
"39","[-57.04094211   0.           5.        ]","[-0.15353531  0.          0.        ]","[0.32833868 0.         0.        ]"
"40","[-56.86556608   0.           5.        ]","[0.17537603 0.         0.        ]","[0.32891134 0.         0.        ]"
"41","[-56.36193302   0.           5.        ]","[0.50363305 0.         0.        ]","[0.32825702 0.         0.        ]"
"42","[-55.53193904   0.           5.        ]","[0.82999398 0.         0.        ]","[0.32636093 0.         0.        ]"
"43","[-54.37876388   0.           5.        ]","[1.15317517 0.         0.        ]","[0.32318119 0.         0.        ]"
"44","[-52.90693781   0.           5.        ]","[1.47182606 0.         0.        ]","[0.3186509 0.        0.       ]"
"45","[-51.12243022   0.           5.        ]","[1.78450759 0.         0.        ]","[0.31268153 0.         0.        ]"
"46","[-49.03275497   0.           5.        ]","[2.08967525 0.         0.        ]","[0.30516766 0.         0.        ]"
"47","[-46.64708658   0.           5.        ]","[2.38566838 0.         0.        ]","[0.29599313 0.         0.        ]"
"48","[-43.97637968   0.           5.        ]","[2.6707069 0.        0.       ]","[0.28503852 0.         0.        ]"
"49","[-41.03348297   0.           5.        ]","[2.94289671 0.         0.        ]","[0.27218981 0.         0.        ]"
"50","[-37.83323827   0.           5.        ]","[3.2002447 0.        0.       ]","[0.25734798 0.         0.        ]"
"51","[-34.39255436   0.           5.        ]","[3.44068391 0.         0.        ]","[0.24043921 0.         0.        ]"
"52","[-30.73044542   0.           5.        ]","[3.66210894 0.         0.        ]","[0.22142503 0.         0.        ]"
"53","[-26.86802458   0.           5.        ]","[3.86242084 0.         0.        ]","[0.2003119 0.        0.       ]"
"54","[-22.82844445   0.           5.        ]","[4.03958013 0.         0.        ]","[0.17715928 0.         0.        ]"
"55","[-18.63677883   0.           5.        ]","[4.19166562 0.         0.        ]","[0.15208549 0.         0.        ]"
"56","[-14.3198427   0.          5.       ]","[4.31693613 0.         0.        ]","[0.12527051 0.         0.        ]"
"57","[-9.90595142  0.          5.        ]","[4.41389129 0.         0.        ]","[0.09695516 0.         0.        ]"
"58","[-5.42462381  0.          5.        ]","[4.48132761 0.         0.        ]","[0.06743632 0.         0.        ]"
"59","[-0.90623803  0.          5.        ]","[4.51838578 0.         0.        ]","[0.03705818 0.         0.        ]"
"60","[3.61834769 0.         5.        ]","[4.52458572 0.         0.        ]","[0.00619994 0.         0.        ]"
"61","[8.11819425 0.         5.        ]","[4.49984656 0.         0.        ]","[-0.02473916 -0.         -0.        ]"
"62","[12.5626843  0.         5.       ]","[4.44449004 0.         0.        ]","[-0.05535652 -0.         -0.        ]"
"63","[16.92191136  0.          5.        ]","[4.35922706 0.         0.        ]","[-0.08526298 -0.         -0.        ]"
"64","[21.16703973  0.          5.        ]","[4.24512838 0.         0.        ]","[-0.11409869 -0.         -0.        ]"
"65","[25.27062154  0.          5.        ]","[4.10358181 0.         0.        ]","[-0.14154657 -0.         -0.        ]"
"66","[29.20686081  0.          5.        ]","[3.93623927 0.         0.        ]","[-0.16734254 -0.         -0.        ]"
"67","[32.95181812  0.          5.        ]","[3.74495731 0.         0.        ]","[-0.19128196 -0.         -0.        ]"
"68","[36.48355347  0.          5.        ]","[3.53173535 0.         0.        ]","[-0.21322196 -0.         -0.        ]"
"69","[39.78220874  0.          5.        ]","[3.29865528 0.         0.        ]","[-0.23308007 -0.         -0.        ]"
"70","[42.83003454  0.          5.        ]","[3.0478258 0.        0.       ]","[-0.25082947 -0.         -0.        ]"
"71","[45.61136862  0.          5.        ]","[2.78133408 0.         0.        ]","[-0.26649173 -0.         -0.        ]"
"72","[48.11257499  0.          5.        ]","[2.50120637 0.         0.        ]","[-0.28012771 -0.         -0.        ]"
"73","[50.32195379  0.          5.        ]","[2.2093788 0.        0.       ]","[-0.29182758 -0.         -0.        ]"
"74","[52.22963203  0.          5.        ]","[1.90767825 0.         0.        ]","[-0.30170055 -0.         -0.        ]"
"75","[53.8274453  0.         5.       ]","[1.59781327 0.         0.        ]","[-0.30986498 -0.         -0.        ]"
"76","[55.10881926  0.          5.        ]","[1.28137396 0.         0.        ]","[-0.31643931 -0.         -0.        ]"
"77","[56.06865917  0.          5.        ]","[0.95983991 0.         0.        ]","[-0.32153405 -0.         -0.        ]"
"78","[56.70325391  0.          5.        ]","[0.63459474 0.         0.        ]","[-0.32524517 -0.         -0.        ]"
"79","[57.01019994  0.          5.        ]","[0.30694603 0.         0.        ]","[-0.32764871 -0.         -0.        ]"
"80","[56.9883491  0.         5.       ]","[-0.02185084  0.          0.        ]","[-0.32879686 -0.         -0.        ]"
"81","[56.63778282  0.          5.        ]","[-0.35056628  0.          0.        ]","[-0.32871544 -0.         -0.        ]"
"82","[55.95981395  0.          5.        ]","[-0.67796887  0.          0.        ]","[-0.32740259 -0.         -0.        ]"
"83","[54.95701618  0.          5.        ]","[-1.00279777  0.          0.        ]","[-0.3248289 -0.        -0.       ]"
"84","[53.63327958  0.          5.        ]","[-1.3237366  0.         0.       ]","[-0.32093883 -0.         -0.        ]"
"85","[51.99388954  0.          5.        ]","[-1.63939003  0.          0.        ]","[-0.31565343 -0.         -0.        ]"
"86","[50.04562503  0.          5.        ]","[-1.94826451  0.          0.        ]","[-0.30887448 -0.         -0.        ]"
"87","[47.79687055  0.          5.        ]","[-2.24875448  0.          0.        ]","[-0.30048997 -0.         -0.        ]"
"88","[45.25773504  0.          5.        ]","[-2.5391355  0.         0.       ]","[-0.29038102 -0.         -0.        ]"
"89","[42.44016962  0.          5.        ]","[-2.81756543  0.          0.        ]","[-0.27842992 -0.         -0.        ]"
"90","[39.35807478  0.          5.        ]","[-3.08209484  0.          0.        ]","[-0.26452942 -0.         -0.        ]"
"91","[36.02738729  0.          5.        ]","[-3.33068749  0.          0.        ]","[-0.24859264 -0.         -0.        ]"
"92","[32.46613642  0.          5.        ]","[-3.56125087  0.          0.        ]","[-0.23056338 -0.         -0.        ]"
"93","[28.69445954  0.          5.        ]","[-3.77167688  0.          0.        ]","[-0.21042601 -0.         -0.        ]"
"94","[24.73456829  0.          5.        ]","[-3.95989124  0.          0.        ]","[-0.18821436 -0.         -0.        ]"
"95","[20.61065832  0.          5.        ]","[-4.12390997  0.          0.        ]","[-0.16401873 -0.         -0.        ]"
"96","[16.34875817  0.          5.        ]","[-4.26190015  0.          0.        ]","[-0.13799018 -0.         -0.        ]"
"97","[11.97651653  0.          5.        ]","[-4.37224164  0.          0.        ]","[-0.11034149 -0.         -0.        ]"
"98","[7.52293066 0.         5.        ]","[-4.45358586  0.          0.        ]","[-0.08134422 -0.         -0.        ]"
"99","[3.01802299 0.         5.        ]","[-4.50490767  0.          0.        ]","[-0.05132181 -0.         -0.        ]"
"100","[-1.50752351  0.          5.        ]","[-4.5255465  0.         0.       ]","[-0.02063883 -0.         -0.        ]"
"101","[-6.02275719  0.          5.        ]","[-4.51523368  0.          0.        ]","[0.01031282 0.         0.        ]"
"102","[-10.49686087   0.           5.        ]","[-4.47410368  0.          0.        ]","[0.04113 0.      0.     ]"
"103","[-14.89954935   0.           5.        ]","[-4.40268847  0.          0.        ]","[0.07141521 0.         0.        ]"
"104","[-19.20144475   0.           5.        ]","[-4.3018954  0.         0.       ]","[0.10079308 0.         0.        ]"
"105","[-23.37441509   0.           5.        ]","[-4.17297034  0.          0.        ]","[0.12892506 0.         0.        ]"
"106","[-27.39186412   0.           5.        ]","[-4.01744903  0.          0.        ]","[0.15552131 0.         0.        ]"
"107","[-31.22896425   0.           5.        ]","[-3.83710013  0.          0.        ]","[0.1803489 0.        0.       ]"
"108","[-34.86282832   0.           5.        ]","[-3.63386407  0.          0.        ]","[0.20323606 0.         0.        ]"
"109","[-38.27261983   0.           5.        ]","[-3.40979151  0.          0.        ]","[0.22407256 0.         0.        ]"
"110","[-41.439605   0.         5.      ]","[-3.16698517  0.          0.        ]","[0.24280634 0.         0.        ]"
"111","[-44.34715273   0.           5.        ]","[-2.90754773  0.          0.        ]","[0.25943744 0.         0.        ]"
"112","[-46.98069087   0.           5.        ]","[-2.63353814  0.          0.        ]","[0.27400958 0.         0.        ]"
"113","[-49.32762847   0.           5.        ]","[-2.3469376  0.         0.       ]","[0.28660054 0.         0.        ]"
"114","[-51.37725419   0.           5.        ]","[-2.04962572  0.          0.        ]","[0.29731189 0.         0.        ]"
"115","[-53.12062099   0.           5.        ]","[-1.7433668  0.         0.       ]","[0.30625891 0.         0.        ]"
"116","[-54.55042672   0.           5.        ]","[-1.42980573  0.          0.        ]","[0.31356107 0.         0.        ]"
"117","[-55.66089894   0.           5.        ]","[-1.11047222  0.          0.        ]","[0.3193335 0.        0.       ]"
"118","[-56.44769146   0.           5.        ]","[-0.78679252  0.          0.        ]","[0.3236797 0.        0.       ]"
"119","[-56.9077984   0.          5.       ]","[-0.46010694  0.          0.        ]","[0.32668558 0.         0.        ]"
"120","[-57.03949047   0.           5.        ]","[-0.13169207  0.          0.        ]","[0.32841487 0.         0.        ]"
"121","[-56.8422766   0.          5.       ]","[0.19721387 0.         0.        ]","[0.32890594 0.         0.        ]"
"122","[-56.31689284   0.           5.        ]","[0.52538377 0.         0.        ]","[0.3281699 0.        0.       ]"
"123","[-55.46531894   0.           5.        ]","[0.85157389 0.         0.        ]","[0.32619013 0.         0.        ]"
"124","[-54.29082204   0.           5.        ]","[1.17449691 0.         0.        ]","[0.32292301 0.         0.        ]"
"125","[-52.79802503   0.           5.        ]","[1.492797 0.       0.      ]","[0.3183001 0.        0.       ]"
"126","[-50.99299647   0.           5.        ]","[1.80502856 0.         0.        ]","[0.31223156 0.         0.        ]"
"127","[-48.88335685   0.           5.        ]","[2.10963962 0.         0.        ]","[0.30461106 0.         0.        ]"
"128","[-46.47839525   0.           5.        ]","[2.4049616 0.        0.       ]","[0.29532198 0.         0.        ]"
"129","[-43.78918866   0.           5.        ]","[2.68920659 0.         0.        ]","[0.28424499 0.         0.        ]"
"130","[-40.82871533   0.           5.        ]","[2.96047332 0.         0.        ]","[0.27126673 0.         0.        ]"
"131","[-37.61195245   0.           5.        ]","[3.21676289 0.         0.        ]","[0.25628956 0.         0.        ]"
"132","[-34.15594787   0.           5.        ]","[3.45600458 0.         0.        ]","[0.23924169 0.         0.        ]"
"133","[-30.47985595   0.           5.        ]","[3.67609192 0.         0.        ]","[0.22008734 0.         0.        ]"
"134","[-26.60492775   0.           5.        ]","[3.8749282 0.        0.       ]","[0.19883628 0.         0.        ]"
"135","[-22.55444785   0.           5.        ]","[4.0504799 0.        0.       ]","[0.17555171 0.         0.        ]"
"136","[-18.35361195   0.           5.        ]","[4.2008359 0.        0.       ]","[0.150356 0.       0.      ]"
"137","[-14.02934281   0.           5.        ]","[4.32426914 0.         0.        ]","[0.12343323 0.         0.        ]"
"138","[-9.61004551  0.          5.        ]","[4.4192973 0.        0.       ]","[0.09502816 0.         0.        ]"
"139","[-5.1253071  0.         5.       ]","[4.48473841 0.         0.        ]","[0.06544111 0.         0.        ]"
"140","[-0.60554967  0.          5.        ]","[4.51975743 0.         0.        ]","[0.03501902 0.         0.        ]"
"141","[3.91835067 0.         5.        ]","[4.52390034 0.         0.        ]","[0.00414291 0.         0.        ]"
"142","[8.41546375 0.         5.        ]","[4.49711309 0.         0.        ]","[-0.02678725 -0.         -0.        ]"
"143","[12.85520763  0.          5.        ]","[4.43974388 0.         0.        ]","[-0.05736921 -0.         -0.        ]"
"144","[17.20773621  0.          5.        ]","[4.35252858 0.         0.        ]","[-0.0872153 -0.        -0.       ]"
"145","[21.44429667  0.          5.        ]","[4.23656046 0.         0.        ]","[-0.11596812 -0.         -0.        ]"
"146","[25.53754331  0.          5.        ]","[4.09324664 0.         0.        ]","[-0.14331383 -0.         -0.        ]"
"147","[29.46179779  0.          5.        ]","[3.92425449 0.         0.        ]","[-0.16899215 -0.         -0.        ]"
"148","[33.19324977  0.          5.        ]","[3.73145198 0.         0.        ]","[-0.19280251 -0.         -0.        ]"
"149","[36.71009561  0.          5.        ]","[3.51684584 0.         0.        ]","[-0.21460614 -0.         -0.        ]"
"150","[39.99261701  0.          5.        ]","[3.2825214 0.        0.       ]","[-0.23432443 -0.         -0.        ]"
"151","[43.02320437  0.          5.        ]","[3.03058736 0.         0.        ]","[-0.25193405 -0.         -0.        ]"
"152","[45.78633228  0.          5.        ]","[2.76312792 0.         0.        ]","[-0.26745944 -0.         -0.        ]"
"153","[48.26849644  0.          5.        ]","[2.48216416 0.         0.        ]","[-0.28096376 -0.         -0.        ]"
"154","[50.45812186  0.          5.        ]","[2.18962542 0.         0.        ]","[-0.29253874 -0.         -0.        ]"
"155","[52.34545276  0.          5.        ]","[1.88733091 0.         0.        ]","[-0.30229451 -0.         -0.        ]"
"156","[53.92243397  0.          5.        ]","[1.57698121 0.         0.        ]","[-0.3103497 -0.        -0.       ]"
"157","[55.18259274  0.          5.        ]","[1.26015877 0.         0.        ]","[-0.31682244 -0.         -0.        ]"
"158","[56.120929  0.        5.      ]","[0.93833626 0.         0.        ]","[-0.32182251 -0.         -0.        ]"
"159","[56.73382061  0.          5.        ]","[0.6128916 0.        0.       ]","[-0.32544466 -0.         -0.        ]"
"160","[57.01894874  0.          5.        ]","[0.28512814 0.         0.        ]","[-0.32776347 -0.         -0.        ]"
"161","[56.97524743  0.          5.        ]","[-0.04370132  0.          0.        ]","[-0.32882945 -0.         -0.        ]"
"162","[56.60287952  0.          5.        ]","[-0.37236791  0.          0.        ]","[-0.3286666 -0.        -0.       ]"
"163","[55.9032404  0.         5.       ]","[-0.69963912  0.          0.        ]","[-0.32727121 -0.         -0.        ]"
"164","[54.8789892  0.         5.       ]","[-1.0242512  0.         0.       ]","[-0.32461208 -0.         -0.        ]"
"165","[53.53410598  0.          5.        ]","[-1.34488321  0.          0.        ]","[-0.32063201 -0.         -0.        ]"
"166","[51.87397214  0.          5.        ]","[-1.66013384  0.          0.        ]","[-0.31525063 -0.         -0.        ]"
"167","[49.90546968  0.          5.        ]","[-1.96850246  0.          0.        ]","[-0.30836862 -0.         -0.        ]"
"168","[47.63709393  0.          5.        ]","[-2.26837575  0.          0.        ]","[-0.29987329 -0.         -0.        ]"
"169","[45.07907262  0.          5.        ]","[-2.55802131  0.          0.        ]","[-0.28964556 -0.         -0.        ]"
"170","[42.24348317  0.          5.        ]","[-2.83558945  0.          0.        ]","[-0.27756813 -0.         -0.        ]"
"171","[39.14435894  0.          5.        ]","[-3.09912423  0.          0.        ]","[-0.26353478 -0.         -0.        ]"
"172","[35.79777435  0.          5.        ]","[-3.34658459  0.          0.        ]","[-0.24746036 -0.         -0.        ]"
"173","[32.2218987  0.         5.       ]","[-3.57587565  0.          0.        ]","[-0.22929106 -0.         -0.        ]"
"174","[28.43700878  0.          5.        ]","[-3.78488992  0.          0.        ]","[-0.20901427 -0.         -0.        ]"
"175","[24.46545148  0.          5.        ]","[-3.9715573  0.         0.       ]","[-0.18666738 -0.         -0.        ]"
"176","[20.33154955  0.          5.        ]","[-4.13390193  0.          0.        ]","[-0.16234463 -0.         -0.        ]"
"177","[16.06144642  0.          5.        ]","[-4.27010313  0.          0.        ]","[-0.1362012 -0.        -0.       ]"
"178","[11.6828894  0.         5.       ]","[-4.37855702  0.          0.        ]","[-0.10845389 -0.         -0.        ]"
"179","[7.22495439 0.         5.        ]","[-4.45793501  0.          0.        ]","[-0.07937798 -0.         -0.        ]"
"180","[2.71771938 0.         5.        ]","[-4.50723501  0.          0.        ]","[-0.04930001 -0.         -0.        ]"
"181","[-1.80810246  0.          5.        ]","[-4.52582184  0.          0.        ]","[-0.01858682 -0.         -0.        ]"
"182","[-6.32155588  0.          5.        ]","[-4.51345341  0.          0.        ]","[0.01236842 0.         0.        ]"
"183","[-10.79184685   0.           5.        ]","[-4.47029098  0.          0.        ]","[0.04316243 0.         0.        ]"
"184","[-15.18873915   0.           5.        ]","[-4.3968923  0.         0.       ]","[0.07339868 0.         0.        ]"
"185","[-19.48292764   0.           5.        ]","[-4.29418849  0.          0.        ]","[0.10270381 0.         0.        ]"
"186","[-23.64637395   0.           5.        ]","[-4.16344631  0.          0.        ]","[0.13074218 0.         0.        ]"
"187","[-27.65259275   0.           5.        ]","[-4.0062188  0.         0.       ]","[0.15722751 0.         0.        ]"
"188","[-31.47688071   0.           5.        ]","[-3.82428795  0.          0.        ]","[0.18193085 0.         0.        ]"
"189","[-35.09648411   0.           5.        ]","[-3.6196034  0.         0.       ]","[0.20468455 0.         0.        ]"
"190","[-38.49070513   0.           5.        ]","[-3.39422102  0.          0.        ]","[0.22538238 0.         0.        ]"
"191","[-41.64095019   0.           5.        ]","[-3.15024506  0.          0.        ]","[0.24397597 0.         0.        ]"
"192","[-44.53072672   0.           5.        ]","[-2.88977654  0.          0.        ]","[0.26046852 0.         0.        ]"
"193","[-47.14559693   0.           5.        ]","[-2.6148702  0.         0.       ]","[0.27490633 0.         0.        ]"
"194","[-49.47309805   0.           5.        ]","[-2.32750112  0.          0.        ]","[0.28736908 0.         0.        ]"
"195","[-51.5026396   0.          5.       ]","[-2.02954155  0.          0.        ]","[0.29795957 0.         0.        ]"
"196","[-53.22538751   0.           5.        ]","[-1.72274791  0.          0.        ]","[0.30679364 0.         0.        ]"
"197","[-54.63414471   0.           5.        ]","[-1.4087572  0.         0.       ]","[0.31399071 0.         0.        ]"
"198","[-55.72323654   0.           5.        ]","[-1.08909183  0.          0.        ]","[0.31966536 0.         0.        ]"
"199","[-56.48840828   0.           5.        ]","[-0.76517174  0.          0.        ]","[0.32392009 0.         0.        ]"
"200","[-56.92674056   0.           5.        ]","[-0.43833228  0.          0.        ]","[0.32683946 0.         0.        ]"
"201","[-57.03658723   0.           5.        ]","[-0.10984667  0.          0.        ]","[0.32848561 0.         0.        ]"
"202","[-56.81753876   0.           5.        ]","[0.21904846 0.         0.        ]","[0.32889513 0.         0.        ]"
"203","[-56.270413   0.         5.      ]","[0.54712576 0.         0.        ]","[0.3280773 0.        0.       ]"
"204","[-55.39727358   0.           5.        ]","[0.87313942 0.         0.        ]","[0.32601366 0.         0.        ]"
"205","[-54.2014753   0.          5.       ]","[1.19579828 0.         0.        ]","[0.32265886 0.         0.        ]"
"206","[-52.68773409   0.           5.        ]","[1.51374121 0.         0.        ]","[0.31794292 0.         0.        ]"
"207","[-50.86221814   0.           5.        ]","[1.82551595 0.         0.        ]","[0.31177474 0.         0.        ]"
"208","[-48.7326551   0.          5.       ]","[2.12956305 0.         0.        ]","[0.3040471 0.        0.       ]"
"209","[-46.3084491   0.          5.       ]","[2.424206 0.       0.      ]","[0.29464295 0.         0.        ]"
"210","[-43.60080005   0.           5.        ]","[2.70764905 0.         0.        ]","[0.28344306 0.         0.        ]"
"211","[-40.62281617   0.           5.        ]","[2.97798388 0.         0.        ]","[0.27033482 0.         0.        ]"
"212","[-37.3896103   0.          5.       ]","[3.23320587 0.         0.        ]","[0.255222 0.       0.      ]"
"213","[-33.91836957   0.           5.        ]","[3.47124073 0.         0.        ]","[0.23803486 0.         0.        ]"
"214","[-30.22838845   0.           5.        ]","[3.68998112 0.         0.        ]","[0.21874039 0.         0.        ]"
"215","[-26.34105568   0.           5.        ]","[3.88733277 0.         0.        ]","[0.19735166 0.         0.        ]"
"216","[-22.27978723   0.           5.        ]","[4.06126845 0.         0.        ]","[0.17393568 0.         0.        ]"
"217","[-18.06989992   0.           5.        ]","[4.20988731 0.         0.        ]","[0.14861886 0.         0.        ]"
"218","[-13.73842321   0.           5.        ]","[4.33147671 0.         0.        ]","[0.1215894 0.        0.       ]"
"219","[-9.31385057  0.          5.        ]","[4.42457264 0.         0.        ]","[0.09309593 0.         0.        ]"
"220","[-4.82583572  0.          5.        ]","[4.48801485 0.         0.        ]","[0.06344221 0.         0.        ]"
"221","[-0.30484301  0.          5.        ]","[4.5209927 0.        0.       ]","[0.03297785 0.         0.        ]"
"222","[4.21823532 0.         5.        ]","[4.52307834 0.         0.        ]","[0.00208563 0.         0.        ]"
"223","[8.71247986 0.         5.        ]","[4.49424454 0.         0.        ]","[-0.0288338 -0.        -0.       ]"
"224","[13.14734576  0.          5.        ]","[4.4348659 0.        0.       ]","[-0.05937864 -0.         -0.        ]"
"225","[17.49304888  0.          5.        ]","[4.34570312 0.         0.        ]","[-0.08916278 -0.         -0.        ]"
"226","[21.72092068  0.          5.        ]","[4.2278718 0.        0.       ]","[-0.11783132 -0.         -0.        ]"
"227","[25.80371878  0.          5.        ]","[4.0827981 0.        0.       ]","[-0.14507371 -0.         -0.        ]"
"228","[29.71588337  0.          5.        ]","[3.9121646 0.        0.       ]","[-0.1706335 -0.        -0.       ]"
"229","[33.43373379  0.          5.        ]","[3.71785041 0.         0.        ]","[-0.19431418 -0.         -0.        ]"
"230","[36.93560311  0.          5.        ]","[3.50186932 0.         0.        ]","[-0.21598109 -0.         -0.        ]"
"231","[40.20191296  0.          5.        ]","[3.26630985 0.         0.        ]","[-0.23555947 -0.         -0.        ]"
"232","[43.21519339  0.          5.        ]","[3.01328044 0.         0.        ]","[-0.25302941 -0.         -0.        ]"
"233","[45.9600556  0.         5.       ]","[2.74486221 0.         0.        ]","[-0.26841823 -0.         -0.        ]"
"234","[48.42312651  0.          5.        ]","[2.46307091 0.         0.        ]","[-0.28179129 -0.         -0.        ]"
"235","[50.59295555  0.          5.        ]","[2.16982904 0.         0.        ]","[-0.29324188 -0.         -0.        ]"
"236","[52.45990362  0.          5.        ]","[1.86694807 0.         0.        ]","[-0.30288097 -0.         -0.        ]"
"237","[54.01602426  0.          5.        ]","[1.55612064 0.         0.        ]","[-0.31082743 -0.         -0.        ]"
"238","[55.2549458  0.         5.       ]","[1.23892155 0.         0.        ]","[-0.31719909 -0.         -0.        ]"
"239","[56.17176246  0.          5.        ]","[0.91681666 0.         0.        ]","[-0.32210489 -0.         -0.        ]"
"240","[56.76294073  0.          5.        ]","[0.59117826 0.         0.        ]","[-0.3256384 -0.        -0.       ]"
"241","[57.02624628  0.          5.        ]","[0.26330555 0.         0.        ]","[-0.32787271 -0.         -0.        ]"
"242","[56.9606952  0.         5.       ]","[-0.06555108  0.          0.        ]","[-0.32885663 -0.         -0.        ]"
"243","[56.5665318  0.         5.       ]","[-0.3941634  0.         0.       ]","[-0.32861233 -0.         -0.        ]"
"244","[55.84523414  0.          5.        ]","[-0.72129766  0.          0.        ]","[-0.32713426 -0.         -0.        ]"
"245","[54.79954704  0.          5.        ]","[-1.0456871  0.         0.       ]","[-0.32438944 -0.         -0.        ]"
"246","[53.43354093  0.          5.        ]","[-1.36600611  0.          0.        ]","[-0.32031901 -0.         -0.        ]"
"247","[51.7526936  0.         5.       ]","[-1.68084733  0.          0.        ]","[-0.31484122 -0.         -0.        ]"
"248","[49.76399063  0.          5.        ]","[-1.98870297  0.          0.        ]","[-0.30785565 -0.         -0.        ]"
"249","[47.47603869  0.          5.        ]","[-2.28795194  0.          0.        ]","[-0.29924897 -0.         -0.        ]"
"250","[44.89918482  0.          5.        ]","[-2.57685388  0.          0.        ]","[-0.28890194 -0.         -0.        ]"
"251","[42.04563324  0.          5.        ]","[-2.85355158  0.          0.        ]","[-0.27669771 -0.         -0.        ]"
"252","[38.92955052  0.          5.        ]","[-3.11608271  0.          0.        ]","[-0.26253113 -0.         -0.        ]"
"253","[35.56714899  0.          5.        ]","[-3.36240154  0.          0.        ]","[-0.24631883 -0.         -0.        ]"
"254","[31.97673803  0.          5.        ]","[-3.59041096  0.          0.        ]","[-0.22800942 -0.         -0.        ]"
"255","[28.17873371  0.          5.        ]","[-3.79800432  0.          0.        ]","[-0.20759337 -0.         -0.        ]"
"256","[24.19561772  0.          5.        ]","[-3.98311598  0.          0.        ]","[-0.18511166 -0.         -0.        ]"
"257","[20.05183926  0.          5.        ]","[-4.14377846  0.          0.        ]","[-0.16066248 -0.         -0.        ]"
"258","[15.77365568  0.          5.        ]","[-4.27818358  0.          0.        ]","[-0.13440512 -0.         -0.        ]"
"259","[11.38891168  0.          5.        ]","[-4.384744  0.        0.      ]","[-0.10656042 -0.         -0.        ]"
"260","[6.92676037 0.         5.        ]","[-4.46215131  0.          0.        ]","[-0.07740731 -0.         -0.        ]"
"261","[2.41733366 0.         5.        ]","[-4.50942671  0.          0.        ]","[-0.0472754 -0.        -0.       ]"
"262","[-2.10862679  0.          5.        ]","[-4.52596045  0.          0.        ]","[-0.01653374 -0.         -0.        ]"
"263","[-6.62016392  0.          5.        ]","[-4.51153713  0.          0.        ]","[0.01442332 0.         0.        ]"
"264","[-11.08650865   0.           5.        ]","[-4.46634473  0.          0.        ]","[0.0451924 0.        0.       ]"
"265","[-15.47747535   0.           5.        ]","[-4.3909667  0.         0.       ]","[0.07537803 0.         0.        ]"
"266","[-19.76383312   0.           5.        ]","[-4.28635777  0.          0.        ]","[0.10460893 0.         0.        ]"
"267","[-23.91763846   0.           5.        ]","[-4.15380534  0.          0.        ]","[0.13255242 0.         0.        ]"
"268","[-27.91251798   0.           5.        ]","[-3.99487952  0.          0.        ]","[0.15892582 0.         0.        ]"
"269","[-31.72389332   0.           5.        ]","[-3.81137535  0.          0.        ]","[0.18350417 0.         0.        ]"
"270","[-35.32914472   0.           5.        ]","[-3.60525139  0.          0.        ]","[0.20612395 0.         0.        ]"
"271","[-38.70771321   0.           5.        ]","[-3.3785685  0.         0.       ]","[0.2266829 0.        0.       ]"
"272","[-41.84114541   0.           5.        ]","[-3.13343219  0.          0.        ]","[0.2451363 0.        0.       ]"
"273","[-44.71308709   0.           5.        ]","[-2.87194168  0.          0.        ]","[0.26149052 0.         0.        ]"
"274","[-47.3092344   0.          5.       ]","[-2.59614732  0.          0.        ]","[0.27579436 0.         0.        ]"
"275","[-49.61725236   0.           5.        ]","[-2.30801796  0.          0.        ]","[0.28812936 0.         0.        ]"
"276","[-51.62667081   0.           5.        ]","[-2.00941845  0.          0.        ]","[0.2985995 0.        0.       ]"
"277","[-53.32876812   0.           5.        ]","[-1.70209731  0.          0.        ]","[0.30732114 0.         0.        ]"
"278","[-54.71645178   0.           5.        ]","[-1.38768367  0.          0.        ]","[0.31441364 0.         0.        ]"
"279","[-55.78414449   0.           5.        ]","[-1.0676927  0.         0.       ]","[0.31999096 0.         0.        ]"
"280","[-56.52768259   0.           5.        ]","[-0.7435381  0.         0.       ]","[0.3241546 0.        0.       ]"
"281","[-56.94423296   0.           5.        ]","[-0.41655037  0.          0.        ]","[0.32698774 0.         0.        ]"
"282","[-57.03223242   0.           5.        ]","[-0.08799946  0.          0.        ]","[0.3285509 0.        0.       ]"
"283","[-56.79135296   0.           5.        ]","[0.24087946 0.         0.        ]","[0.32887892 0.         0.        ]"
"284","[-56.22249429   0.           5.        ]","[0.56885867 0.         0.        ]","[0.32797921 0.         0.        ]"
"285","[-55.32780412   0.           5.        ]","[0.89469017 0.         0.        ]","[0.3258315 0.        0.       ]"
"286","[-54.11072524   0.           5.        ]","[1.21707889 0.         0.        ]","[0.32238872 0.         0.        ]"
"287","[-52.576067   0.         5.      ]","[1.53465823 0.         0.        ]","[0.31757934 0.         0.        ]"
"288","[-50.73009772   0.           5.        ]","[1.84596928 0.         0.        ]","[0.31131105 0.         0.        ]"
"289","[-48.58065269   0.           5.        ]","[2.14944503 0.         0.        ]","[0.30347575 0.         0.        ]"
"290","[-46.13725167   0.           5.        ]","[2.44340102 0.         0.        ]","[0.29395599 0.         0.        ]"
"291","[-43.41121796   0.           5.        ]","[2.72603371 0.         0.        ]","[0.2826327 0.        0.       ]"
"292","[-40.41579018   0.           5.        ]","[2.99542778 0.         0.        ]","[0.26939406 0.         0.        ]"
"293","[-37.16621714   0.           5.        ]","[3.24957304 0.         0.        ]","[0.25414526 0.         0.        ]"
"294","[-33.67982539   0.           5.        ]","[3.48639175 0.         0.        ]","[0.23681871 0.         0.        ]"
"295","[-29.97604948   0.           5.        ]","[3.70377592 0.         0.        ]","[0.21738417 0.         0.        ]"
"296","[-26.07641548   0.           5.        ]","[3.89963399 0.         0.        ]","[0.19585807 0.         0.        ]"
"297","[-22.00447026   0.           5.        ]","[4.07194523 0.         0.        ]","[0.17231124 0.         0.        ]"
"298","[-17.78565089   0.           5.        ]","[4.21881937 0.         0.        ]","[0.14687414 0.         0.        ]"
"299","[-13.44709244   0.           5.        ]","[4.33855845 0.         0.        ]","[0.11973908 0.         0.        ]"
"300","[-9.01737542  0.          5.        ]","[4.42971702 0.         0.        ]","[0.09115857 0.         0.        ]"
"301","[-4.52621868  0.          5.        ]","[4.49115674 0.         0.        ]","[0.06143972 0.         0.        ]"
"302","[-4.12714568e-03  0.00000000e+00  5.00000000e+00]","[4.52209153 0.         0.        ]","[0.03093479 0.         0.        ]"
"303","[4.51799262 0.         5.        ]","[4.52211977 0.         0.        ]","[2.82366541e-05 0.00000000e+00 0.00000000e+00]"
"304","[9.0092337 0.        5.       ]","[4.49124108 0.         0.        ]","[-0.03087868 -0.         -0.        ]"
"305","[13.43909008  0.          5.        ]","[4.42985638 0.         0.        ]","[-0.06138471 -0.         -0.        ]"
"306","[17.77784114  0.          5.        ]","[4.33875106 0.         0.        ]","[-0.09110532 -0.         -0.        ]"
"307","[21.99690399  0.          5.        ]","[4.21906285 0.         0.        ]","[-0.1196882 -0.        -0.       ]"
"308","[26.0691407  0.         5.       ]","[4.07223671 0.         0.        ]","[-0.14682614 -0.         -0.        ]"
"309","[29.96911088  0.          5.        ]","[3.89997018 0.         0.        ]","[-0.17226653 -0.         -0.        ]"
"310","[33.67326411  0.          5.        ]","[3.70415323 0.         0.        ]","[-0.19581695 -0.         -0.        ]"
"311","[37.16007053  0.          5.        ]","[3.48680642 0.         0.        ]","[-0.21734681 -0.         -0.        ]"
"312","[40.41009175  0.          5.        ]","[3.25002122 0.         0.        ]","[-0.2367852 -0.        -0.       ]"
"313","[43.4059974  0.         5.       ]","[2.99590564 0.         0.        ]","[-0.25411558 -0.         -0.        ]"
"314","[46.13253492  0.          5.        ]","[2.72653753 0.         0.        ]","[-0.26936812 -0.         -0.        ]"
"315","[48.57646212  0.          5.        ]","[2.44392719 0.         0.        ]","[-0.28261034 -0.         -0.        ]"
"316","[50.72645229  0.          5.        ]","[2.14999017 0.         0.        ]","[-0.29393702 -0.         -0.        ]"
"317","[52.57298251  0.          5.        ]","[1.84653022 0.         0.        ]","[-0.30345996 -0.         -0.        ]"
"318","[54.10821449  0.          5.        ]","[1.53523199 0.         0.        ]","[-0.31129823 -0.         -0.        ]"
"319","[55.32587721  0.          5.        ]","[1.21766272 0.         0.        ]","[-0.31756927 -0.         -0.        ]"
"320","[56.22115871  0.          5.        ]","[0.8952815 0.        0.       ]","[-0.32238122 -0.         -0.        ]"
"321","[56.79061378  0.          5.        ]","[0.56945508 0.         0.        ]","[-0.32582642 -0.         -0.        ]"
"322","[57.03209242  0.          5.        ]","[0.24147863 0.         0.        ]","[-0.32797644 -0.         -0.        ]"
"323","[56.94469265  0.          5.        ]","[-0.08739976  0.          0.        ]","[-0.3288784 -0.        -0.       ]"
"324","[56.52874027  0.          5.        ]","[-0.41595238  0.          0.        ]","[-0.32855262 -0.         -0.        ]"
"325","[55.78579616  0.          5.        ]","[-0.74294411  0.          0.        ]","[-0.32699173 -0.         -0.        ]"
"326","[54.71869109  0.          5.        ]","[-1.06710506  0.          0.        ]","[-0.32416095 -0.         -0.        ]"
"327","[53.33158622  0.          5.        ]","[-1.38710488  0.          0.        ]","[-0.31999981 -0.         -0.        ]"
"328","[51.63005618  0.          5.        ]","[-1.70153003  0.          0.        ]","[-0.31442515 -0.         -0.        ]"
"329","[49.62119063  0.          5.        ]","[-2.00886556  0.          0.        ]","[-0.30733552 -0.         -0.        ]"
"330","[47.31370811  0.          5.        ]","[-2.30748252  0.          0.        ]","[-0.29861696 -0.         -0.        ]"
"331","[44.71807548  0.          5.        ]","[-2.59563263  0.          0.        ]","[-0.28815012 -0.         -0.        ]"
"332","[41.84662424  0.          5.        ]","[-2.87145124  0.          0.        ]","[-0.27581861 -0.         -0.        ]"
"333","[38.71365456  0.          5.        ]","[-3.13296968  0.          0.        ]","[-0.26151844 -0.         -0.        ]"
"334","[35.33551685  0.          5.        ]","[-3.37813771  0.          0.        ]","[-0.24516802 -0.         -0.        ]"
"335","[31.73066068  0.          5.        ]","[-3.60485617  0.          0.        ]","[-0.22671846 -0.         -0.        ]"
"336","[27.91964118  0.          5.        ]","[-3.8110195  0.         0.       ]","[-0.20616333 -0.         -0.        ]"
"337","[23.92507444  0.          5.        ]","[-3.99456674  0.          0.        ]","[-0.18354724 -0.         -0.        ]"
"338","[19.77153538  0.          5.        ]","[-4.15353907  0.          0.        ]","[-0.15897233 -0.         -0.        ]"
"339","[15.4853943  0.         5.       ]","[-4.28614108  0.          0.        ]","[-0.13260202 -0.         -0.        ]"
"340","[11.09459207  0.          5.        ]","[-4.39080223  0.          0.        ]","[-0.10466115 -0.         -0.        ]"
"341","[6.62835754 0.         5.        ]","[-4.46623453  0.          0.        ]","[-0.0754323 -0.        -0.       ]"
"342","[2.11687492 0.         5.        ]","[-4.51148262  0.          0.        ]","[-0.04524809 -0.         -0.        ]"
"343","[-2.4090874  0.         5.       ]","[-4.52596233  0.          0.        ]","[-0.01447971 -0.         -0.        ]"
"344","[-6.91857236  0.          5.        ]","[-4.50948495  0.          0.        ]","[0.01647737 0.         0.        ]"
"345","[-11.38083752   0.           5.        ]","[-4.46226517  0.          0.        ]","[0.04721978 0.         0.        ]"
"346","[-15.76574953   0.           5.        ]","[-4.38491201  0.          0.        ]","[0.07735316 0.         0.        ]"
"347","[-20.04415318   0.           5.        ]","[-4.27840365  0.          0.        ]","[0.10650836 0.         0.        ]"
"348","[-24.18820111   0.           5.        ]","[-4.14404793  0.          0.        ]","[0.13435572 0.         0.        ]"
"349","[-28.17163284   0.           5.        ]","[-3.98343173  0.          0.        ]","[0.1606162 0.        0.       ]"
"350","[-31.96999574   0.           5.        ]","[-3.7983629  0.         0.       ]","[0.18506883 0.         0.        ]"
"351","[-35.56080441   0.           5.        ]","[-3.59080866  0.          0.        ]","[0.20755424 0.         0.        ]"
"352","[-38.92363896   0.           5.        ]","[-3.36283456  0.          0.        ]","[0.22797411 0.         0.        ]"
"353","[-42.04018616   0.           5.        ]","[-3.11654719  0.          0.        ]","[0.24628736 0.         0.        ]"
"354","[-44.8942299   0.          5.       ]","[-2.85404374  0.          0.        ]","[0.26250345 0.         0.        ]"
"355","[-47.47159994   0.           5.        ]","[-2.57737005  0.          0.        ]","[0.27667369 0.         0.        ]"
"356","[-49.76008858   0.           5.        ]","[-2.28848864  0.          0.        ]","[0.28888141 0.         0.        ]"
"357","[-51.7493455   0.          5.       ]","[-1.98925692  0.          0.        ]","[0.29923172 0.         0.        ]"
"358","[-53.43076095   0.           5.        ]","[-1.68141545  0.          0.        ]","[0.30784146 0.         0.        ]"
"359","[-54.79734652   0.           5.        ]","[-1.36658557  0.          0.        ]","[0.31482988 0.         0.        ]"
"360","[-55.84362175   0.           5.        ]","[-1.04627523  0.          0.        ]","[0.32031034 0.         0.        ]"
"361","[-56.56551374   0.           5.        ]","[-0.72189199  0.          0.        ]","[0.32438324 0.         0.        ]"
"362","[-56.96027531   0.           5.        ]","[-0.39476157  0.          0.        ]","[0.32713042 0.         0.        ]"
"363","[-57.02642612   0.           5.        ]","[-0.06615081  0.          0.        ]","[0.32861076 0.         0.        ]"
"364","[-56.76371963   0.           5.        ]","[0.26270649 0.         0.        ]","[0.3288573 0.        0.       ]"
"365","[-56.17313751   0.           5.        ]","[0.59058212 0.         0.        ]","[0.32787563 0.         0.        ]"
"366","[-55.25691176   0.           5.        ]","[0.91622576 0.         0.        ]","[0.32564364 0.         0.        ]"
"367","[-54.01857345   0.           5.        ]","[1.23833831 0.         0.        ]","[0.32211255 0.         0.        ]"
"368","[-52.46302581   0.           5.        ]","[1.55554764 0.         0.        ]","[0.31720934 0.         0.        ]"
"369","[-50.59663771   0.           5.        ]","[1.86638809 0.         0.        ]","[0.31084045 0.         0.        ]"
"370","[-48.42735266   0.           5.        ]","[2.16928505 0.         0.        ]","[0.30289696 0.         0.        ]"
"371","[-45.96480655   0.           5.        ]","[2.46254612 0.         0.        ]","[0.29326106 0.         0.        ]"
"372","[-43.22044654   0.           5.        ]","[2.74436 0.      0.     ]","[0.28181389 0.         0.        ]"
"373","[-40.20764212   0.           5.        ]","[3.01280443 0.         0.        ]","[0.26844442 0.         0.        ]"
"374","[-36.94177835   0.           5.        ]","[3.26586377 0.         0.        ]","[0.25305935 0.         0.        ]"
"375","[-33.44032133   0.           5.        ]","[3.50145702 0.         0.        ]","[0.23559324 0.         0.        ]"
"376","[-29.72284561   0.           5.        ]","[3.71747572 0.         0.        ]","[0.2160187 0.        0.       ]"
"377","[-25.81101434   0.           5.        ]","[3.91183127 0.         0.        ]","[0.19435555 0.         0.        ]"
"378","[-21.72850464   0.           5.        ]","[4.0825097 0.        0.       ]","[0.17067843 0.         0.        ]"
"379","[-17.50087303   0.           5.        ]","[4.22763161 0.         0.        ]","[0.14512191 0.         0.        ]"
"380","[-13.15535904   0.           5.        ]","[4.34551398 0.         0.        ]","[0.11788237 0.         0.        ]"
"381","[-8.7206289  0.         5.       ]","[4.43473015 0.         0.        ]","[0.08921616 0.         0.        ]"
"382","[-4.226465  0.        5.      ]","[4.4941639 0.        0.       ]","[0.05943375 0.         0.        ]"
"383","[0.29658885 0.         5.        ]","[4.52305385 0.         0.        ]","[0.02888995 0.         0.        ]"
"384","[4.81761353 0.         5.        ]","[4.52102469 0.         0.        ]","[-0.00202916 -0.         -0.        ]"
"385","[9.30571642 0.         5.        ]","[4.48810289 0.         0.        ]","[-0.0329218 -0.        -0.       ]"
"386","[13.73043202  0.          5.        ]","[4.4247156 0.        0.       ]","[-0.06338729 -0.         -0.        ]"
"387","[18.06210479  0.          5.        ]","[4.33167277 0.         0.        ]","[-0.09304282 -0.         -0.        ]"
"388","[22.27223887  0.          5.        ]","[4.21013408 0.         0.        ]","[-0.1215387 -0.        -0.       ]"
"389","[26.33380188  0.          5.        ]","[4.06156301 0.         0.        ]","[-0.14857107 -0.         -0.        ]"
"390","[30.22147369  0.          5.        ]","[3.88767181 0.         0.        ]","[-0.1738912 -0.        -0.       ]"
"391","[33.91183471  0.          5.        ]","[3.69036103 0.         0.        ]","[-0.19731078 -0.         -0.        ]"
"392","[37.38349246  0.          5.        ]","[3.47165774 0.         0.        ]","[-0.21870328 -0.         -0.        ]"
"393","[40.6171486  0.         5.       ]","[3.23365614 0.         0.        ]","[-0.2380016 -0.        -0.       ]"
"394","[43.59561218  0.          5.        ]","[2.97846358 0.         0.        ]","[-0.25519256 -0.         -0.        ]"
"395","[46.30376664  0.          5.        ]","[2.70815446 0.         0.        ]","[-0.27030912 -0.         -0.        ]"
"396","[48.72850018  0.          5.        ]","[2.42473354 0.         0.        ]","[-0.28342092 -0.         -0.        ]"
"397","[50.85860952  0.          5.        ]","[2.13010934 0.         0.        ]","[-0.2946242 -0.        -0.       ]"
"398","[52.68468734  0.          5.        ]","[1.82607782 0.         0.        ]","[-0.30403152 -0.         -0.        ]"
"399","[54.19900305  0.          5.        ]","[1.51431571 0.         0.        ]","[-0.31176211 -0.         -0.        ]"
"400","[55.39538574  0.          5.        ]","[1.19638269 0.         0.        ]","[-0.31793303 -0.         -0.        ]"
"401","[56.2691169  0.         5.       ]","[0.87373116 0.         0.        ]","[-0.32265153 -0.         -0.        ]"
"402","[56.81683932  0.          5.        ]","[0.54772242 0.         0.        ]","[-0.32600873 -0.         -0.        ]"
"403","[57.03648707  0.          5.        ]","[0.21964774 0.         0.        ]","[-0.32807468 -0.         -0.        ]"
"404","[56.92724005  0.          5.        ]","[-0.10924701  0.          0.        ]","[-0.32889476 -0.         -0.        ]"
"405","[56.48950557  0.          5.        ]","[-0.43773449  0.          0.        ]","[-0.32848748 -0.         -0.        ]"
"406","[55.72492747  0.          5.        ]","[-0.7645781  0.         0.       ]","[-0.32684361 -0.         -0.        ]"
"407","[54.63642276  0.          5.        ]","[-1.0885047  0.         0.       ]","[-0.32392661 -0.         -0.        ]"
"408","[53.22824368  0.          5.        ]","[-1.40817909  0.          0.        ]","[-0.31967438 -0.         -0.        ]"
"409","[51.50606218  0.          5.        ]","[-1.7221815  0.         0.       ]","[-0.31400241 -0.         -0.        ]"
"410","[49.47707246  0.          5.        ]","[-2.02898971  0.          0.        ]","[-0.30680821 -0.         -0.        ]"
"411","[47.15010551  0.          5.        ]","[-2.32696696  0.          0.        ]","[-0.29797724 -0.         -0.        ]"
"412","[44.53574849  0.          5.        ]","[-2.61435702  0.          0.        ]","[-0.28739006 -0.         -0.        ]"
"413","[41.64646065  0.          5.        ]","[-2.88928784  0.          0.        ]","[-0.27493082 -0.         -0.        ]"
"414","[38.49667611  0.          5.        ]","[-3.14978453  0.          0.        ]","[-0.26049669 -0.         -0.        ]"
"415","[35.10288364  0.          5.        ]","[-3.39379247  0.          0.        ]","[-0.24400794 -0.         -0.        ]"
"416","[31.48367297  0.          5.        ]","[-3.61921067  0.          0.        ]","[-0.2254182 -0.        -0.       ]"
"417","[27.65973811  0.          5.        ]","[-3.82393486  0.          0.        ]","[-0.20472419 -0.         -0.        ]"
"418","[23.6538291  0.         5.       ]","[-4.00590901  0.          0.        ]","[-0.18197415 -0.         -0.        ]"
"419","[19.49064586  0.          5.        ]","[-4.16318324  0.          0.        ]","[-0.15727423 -0.         -0.        ]"
"420","[15.19667067  0.          5.        ]","[-4.2939752  0.         0.       ]","[-0.13079196 -0.         -0.        ]"
"421","[10.79993929  0.          5.        ]","[-4.39673137  0.          0.        ]","[-0.10275618 -0.         -0.        ]"
"422","[6.32975485 0.         5.        ]","[-4.47018444  0.          0.        ]","[-0.07345307 -0.         -0.        ]"
"423","[1.81635222 0.         5.        ]","[-4.51340263  0.          0.        ]","[-0.04321819 -0.         -0.        ]"
"424","[-2.70947524  0.          5.        ]","[-4.52582747  0.          0.        ]","[-0.01242484 -0.         -0.        ]"
"425","[-7.21677223  0.          5.        ]","[-4.50729698  0.          0.        ]","[0.01853048 0.         0.        ]"
"426","[-11.67482474   0.           5.        ]","[-4.45805251  0.          0.        ]","[0.04924447 0.         0.        ]"
"427","[-16.05355331   0.           5.        ]","[-4.37872856  0.          0.        ]","[0.07932395 0.         0.        ]"
"428","[-20.32387987   0.           5.        ]","[-4.27032657  0.          0.        ]","[0.108402 0.       0.      ]"
"429","[-24.45805444   0.           5.        ]","[-4.13417457  0.          0.        ]","[0.13615199 0.         0.        ]"
"430","[-28.42993045   0.           5.        ]","[-3.971876  0.        0.      ]","[0.16229857 0.         0.        ]"
"431","[-32.21518166   0.           5.        ]","[-3.78525121  0.          0.        ]","[0.18662479 0.         0.        ]"
"432","[-35.79145748   0.           5.        ]","[-3.57627582  0.          0.        ]","[0.20897539 0.         0.        ]"
"433","[-39.1384773   0.          5.       ]","[-3.34701982  0.          0.        ]","[0.229256 0.       0.      ]"
"434","[-42.23806797   0.           5.        ]","[-3.09959067  0.          0.        ]","[0.24742915 0.         0.        ]"
"435","[-45.07415128   0.           5.        ]","[-2.83608331  0.          0.        ]","[0.26350735 0.         0.        ]"
"436","[-47.63269023   0.           5.        ]","[-2.55853896  0.          0.        ]","[0.27754436 0.         0.        ]"
"437","[-49.90160393   0.           5.        ]","[-2.2689137  0.         0.       ]","[0.28962526 0.         0.        ]"
"438","[-51.87066137   0.           5.        ]","[-1.96905744  0.          0.        ]","[0.29985626 0.         0.        ]"
"439","[-53.53136417   0.           5.        ]","[-1.66070281  0.          0.        ]","[0.30835463 0.         0.        ]"
"440","[-54.8768275   0.          5.       ]","[-1.34546332  0.          0.        ]","[0.31523948 0.         0.        ]"
"441","[-55.90166732   0.           5.        ]","[-1.02483982  0.          0.        ]","[0.3206235 0.        0.       ]"
"442","[-56.6019011   0.          5.       ]","[-0.70023378  0.          0.        ]","[0.32460605 0.         0.        ]"
"443","[-56.97486735   0.           5.        ]","[-0.37296625  0.          0.        ]","[0.32726752 0.         0.        ]"
"444","[-57.01916842   0.           5.        ]","[-0.04430107  0.          0.        ]","[0.32866518 0.         0.        ]"
"445","[-56.73463923   0.           5.        ]","[0.2845292 0.        0.       ]","[0.32883027 0.         0.        ]"
"446","[-56.12234349   0.           5.        ]","[0.61229574 0.         0.        ]","[0.32776654 0.         0.        ]"
"447","[-55.1845977   0.          5.       ]","[0.93774579 0.         0.        ]","[0.32545005 0.         0.        ]"
"448","[-53.92502157   0.           5.        ]","[1.25957613 0.         0.        ]","[0.32183034 0.         0.        ]"
"449","[-52.34861258   0.           5.        ]","[1.57640899 0.         0.        ]","[0.31683287 0.         0.        ]"
"450","[-50.46184068   0.           5.        ]","[1.8867719 0.        0.       ]","[0.3103629 0.        0.       ]"
"451","[-48.27275808   0.           5.        ]","[2.1890826 0.        0.       ]","[0.30231071 0.         0.        ]"
"452","[-45.79111733   0.           5.        ]","[2.48164075 0.         0.        ]","[0.29255815 0.         0.        ]"
"453","[-43.02848999   0.           5.        ]","[2.76262734 0.         0.        ]","[0.28098659 0.         0.        ]"
"454","[-39.99837677   0.           5.        ]","[3.03011322 0.         0.        ]","[0.26748588 0.         0.        ]"
"455","[-36.71629932   0.           5.        ]","[3.28207745 0.         0.        ]","[0.25196424 0.         0.        ]"
"456","[-33.19986341   0.           5.        ]","[3.51643591 0.         0.        ]","[0.23435846 0.         0.        ]"
"457","[-29.4687835   0.          5.       ]","[3.73107991 0.         0.        ]","[0.214644 0.       0.      ]"
"458","[-25.54485946   0.           5.        ]","[3.92392403 0.         0.        ]","[0.19284412 0.         0.        ]"
"459","[-21.45189811   0.           5.        ]","[4.09296135 0.         0.        ]","[0.16903731 0.         0.        ]"
"460","[-17.21557453   0.           5.        ]","[4.23632358 0.         0.        ]","[0.14336223 0.         0.        ]"
"461","[-12.86323161   0.           5.        ]","[4.35234292 0.         0.        ]","[0.11601934 0.         0.        ]"
"462","[-8.42361987  0.          5.        ]","[4.43961174 0.         0.        ]","[0.08726882 0.         0.        ]"
"463","[-3.92658372  0.          5.        ]","[4.49703615 0.         0.        ]","[0.05742441 0.         0.        ]"
"464","[0.59729588 0.         5.        ]","[4.5238796 0.        0.       ]","[0.02684345 0.         0.        ]"
"465","[5.11708904 0.         5.        ]","[4.51979316 0.         0.        ]","[-0.00408644 -0.         -0.        ]"
"466","[9.60191918 0.         5.        ]","[4.48483014 0.         0.        ]","[-0.03496302 -0.         -0.        ]"
"467","[14.02136302  0.          5.        ]","[4.41944384 0.         0.        ]","[-0.0653863 -0.        -0.       ]"
"468","[18.34583167  0.          5.        ]","[4.32446865 0.         0.        ]","[-0.09497519 -0.         -0.        ]"
"469","[22.54691761  0.          5.        ]","[4.20108594 0.         0.        ]","[-0.12338271 -0.         -0.        ]"
"470","[26.59769513  0.          5.        ]","[4.05077752 0.         0.        ]","[-0.15030842 -0.         -0.        ]"
"471","[30.47296519  0.          5.        ]","[3.87527006 0.         0.        ]","[-0.17550746 -0.         -0.        ]"
"472","[34.14943961  0.          5.        ]","[3.67647441 0.         0.        ]","[-0.19879565 -0.         -0.        ]"
"473","[37.60586353  0.          5.        ]","[3.45642392 0.         0.        ]","[-0.2200505 -0.        -0.       ]"
"474","[40.82307876  0.          5.        ]","[3.21721523 0.         0.        ]","[-0.23920869 -0.         -0.        ]"
"475","[43.78403361  0.          5.        ]","[2.96095485 0.         0.        ]","[-0.25626038 -0.         -0.        ]"
"476","[46.47374719  0.          5.        ]","[2.68971358 0.         0.        ]","[-0.27124127 -0.         -0.        ]"
"477","[48.87923768  0.          5.        ]","[2.40549049 0.         0.        ]","[-0.28422309 -0.         -0.        ]"
"478","[50.98942472  0.          5.        ]","[2.11018704 0.         0.        ]","[-0.29530345 -0.         -0.        ]"
"479","[52.79501608  0.          5.        ]","[1.80559136 0.         0.        ]","[-0.30459568 -0.         -0.        ]"
"480","[54.28838833  0.          5.        ]","[1.49337225 0.         0.        ]","[-0.31221911 -0.         -0.        ]"
"481","[55.46347021  0.          5.        ]","[1.17508187 0.         0.        ]","[-0.31829038 -0.         -0.        ]"
"482","[56.31563624  0.          5.        ]","[0.85216603 0.         0.        ]","[-0.32291584 -0.         -0.        ]"
"483","[56.84161691  0.          5.        ]","[0.52598067 0.         0.        ]","[-0.32618536 -0.         -0.        ]"
"484","[57.03943016  0.          5.        ]","[0.19781324 0.         0.        ]","[-0.32816743 -0.         -0.        ]"
"485","[56.90833769  0.          5.        ]","[-0.13109247  0.          0.        ]","[-0.32890571 -0.         -0.        ]"
"486","[56.44882833  0.          5.        ]","[-0.45950936  0.          0.        ]","[-0.32841689 -0.         -0.        ]"
"487","[55.6626291  0.         5.       ]","[-0.78619923  0.          0.        ]","[-0.32668988 -0.         -0.        ]"
"488","[54.55274348  0.          5.        ]","[-1.10988561  0.          0.        ]","[-0.32368638 -0.         -0.        ]"
"489","[53.12351517  0.          5.        ]","[-1.42922831  0.          0.        ]","[-0.3193427 -0.        -0.       ]"
"490","[51.3807139  0.         5.       ]","[-1.74280127  0.          0.        ]","[-0.31357296 -0.         -0.        ]"
"491","[49.33163895  0.          5.        ]","[-2.04907496  0.          0.        ]","[-0.30627369 -0.         -0.        ]"
"492","[46.98523422  0.          5.        ]","[-2.34640473  0.          0.        ]","[-0.29732977 -0.         -0.        ]"
"493","[44.35220775  0.          5.        ]","[-2.63302647  0.          0.        ]","[-0.28662174 -0.         -0.        ]"
"494","[41.44514697  0.          5.        ]","[-2.90706079  0.          0.        ]","[-0.27403432 -0.         -0.        ]"
"495","[38.27862031  0.          5.        ]","[-3.16652665  0.          0.        ]","[-0.25946587 -0.         -0.        ]"
"496","[34.86925509  0.          5.        ]","[-3.40936522  0.          0.        ]","[-0.24283857 -0.         -0.        ]"
"497","[31.23578123  0.          5.        ]","[-3.63347386  0.          0.        ]","[-0.22410863 -0.         -0.        ]"
"498","[27.39903143  0.          5.        ]","[-3.8367498  0.         0.       ]","[-0.20327594 -0.         -0.        ]"
"499","[23.38188919  0.          5.        ]","[-4.01714223  0.          0.        ]","[-0.18039243 -0.         -0.        ]"
