"time","theta3d","omega3d","alpha3d"
"0","[26.89898711  0.         22.        ]","[-0.10101289  0.          0.        ]","[-0.10101289 -0.         -0.        ]"
"1","[26.69731101  0.         22.        ]","[-0.2016761  0.         0.       ]","[-0.10066322 -0.         -0.        ]"
"2","[26.39567076  0.         22.        ]","[-0.30164025  0.          0.        ]","[-0.09996415 -0.         -0.        ]"
"3","[25.99511425  0.         22.        ]","[-0.40055652  0.          0.        ]","[-0.09891627 -0.         -0.        ]"
"4","[25.4970372  0.        22.       ]","[-0.49807704  0.          0.        ]","[-0.09752053 -0.         -0.        ]"
"5","[24.90318182  0.         22.        ]","[-0.59385538  0.          0.        ]","[-0.09577833 -0.         -0.        ]"
"6","[24.21563477  0.         22.        ]","[-0.68754705  0.          0.        ]","[-0.09369168 -0.         -0.        ]"
"7","[23.43682446  0.         22.        ]","[-0.77881031  0.          0.        ]","[-0.09126325 -0.         -0.        ]"
"8","[22.56951753  0.         22.        ]","[-0.86730693  0.          0.        ]","[-0.08849663 -0.         -0.        ]"
"9","[21.61681418  0.         22.        ]","[-0.95270335  0.          0.        ]","[-0.08539641 -0.         -0.        ]"
"10","[20.58214241  0.         22.        ]","[-1.03467177  0.          0.        ]","[-0.08196842 -0.         -0.        ]"
"11","[19.46925079  0.         22.        ]","[-1.11289162  0.          0.        ]","[-0.07821985 -0.         -0.        ]"
"12","[18.28219972  0.         22.        ]","[-1.18705107  0.          0.        ]","[-0.07415945 -0.         -0.        ]"
"13","[17.02535096  0.         22.        ]","[-1.25684876  0.          0.        ]","[-0.06979769 -0.         -0.        ]"
"14","[15.70335536  0.         22.        ]","[-1.3219956  0.         0.       ]","[-0.06514684 -0.         -0.        ]"
"15","[14.32113861  0.         22.        ]","[-1.38221675  0.          0.        ]","[-0.06022114 -0.         -0.        ]"
"16","[12.88388504  0.         22.        ]","[-1.43725357  0.          0.        ]","[-0.05503682 -0.         -0.        ]"
"17","[11.39701933  0.         22.        ]","[-1.48686572  0.          0.        ]","[-0.04961215 -0.         -0.        ]"
"18","[ 9.8661862  0.        22.       ]","[-1.53083313  0.          0.        ]","[-0.04396741 -0.         -0.        ]"
"19","[ 8.29722821  0.         22.        ]","[-1.56895799  0.          0.        ]","[-0.03812486 -0.         -0.        ]"
"20","[ 6.69616161  0.         22.        ]","[-1.60106659  0.          0.        ]","[-0.0321086 -0.        -0.       ]"
"21","[ 5.06915058  0.         22.        ]","[-1.62701103  0.          0.        ]","[-0.02594443 -0.         -0.        ]"
"22","[ 3.4224799  0.        22.       ]","[-1.64667068  0.          0.        ]","[-0.01965965 -0.         -0.        ]"
"23","[ 1.76252641  0.         22.        ]","[-1.65995349  0.          0.        ]","[-0.01328281 -0.         -0.        ]"
"24","[ 0.09572947  0.         22.        ]","[-1.66679693  0.          0.        ]","[-0.00684344 -0.         -0.        ]"
"25","[-1.57143921  0.         22.        ]","[-1.66716869  0.          0.        ]","[-0.00037175 -0.         -0.        ]"
"26","[-3.2325062  0.        22.       ]","[-1.66106699  0.          0.        ]","[0.0061017 0.        0.       ]"
"27","[-4.88102687  0.         22.        ]","[-1.64852067  0.          0.        ]","[0.01254632 0.         0.        ]"
"28","[-6.51061569  0.         22.        ]","[-1.62958882  0.          0.        ]","[0.01893185 0.         0.        ]"
"29","[-8.11497583  0.         22.        ]","[-1.60436014  0.          0.        ]","[0.02522867 0.         0.        ]"
"30","[-9.68792788  0.         22.        ]","[-1.57295204  0.          0.        ]","[0.0314081 0.        0.       ]"
"31","[-11.22343724   0.          22.        ]","[-1.53550937  0.          0.        ]","[0.03744268 0.         0.        ]"
"32","[-12.71564019   0.          22.        ]","[-1.49220295  0.          0.        ]","[0.04330642 0.         0.        ]"
"33","[-14.15886811   0.          22.        ]","[-1.44322792  0.          0.        ]","[0.04897503 0.         0.        ]"
"34","[-15.54766999   0.          22.        ]","[-1.38880189  0.          0.        ]","[0.05442603 0.         0.        ]"
"35","[-16.87683298   0.          22.        ]","[-1.32916298  0.          0.        ]","[0.0596389 0.        0.       ]"
"36","[-18.14140081   0.          22.        ]","[-1.26456783  0.          0.        ]","[0.06459515 0.         0.        ]"
"37","[-19.33669033   0.          22.        ]","[-1.19528952  0.          0.        ]","[0.06927831 0.         0.        ]"
"38","[-20.45830594   0.          22.        ]","[-1.12161561  0.          0.        ]","[0.07367391 0.         0.        ]"
"39","[-21.50215209   0.          22.        ]","[-1.04384615  0.          0.        ]","[0.07776946 0.         0.        ]"
"40","[-22.46444394   0.          22.        ]","[-0.96229185  0.          0.        ]","[0.0815543 0.        0.       ]"
"41","[-23.34171631   0.          22.        ]","[-0.87727237  0.          0.        ]","[0.08501948 0.         0.        ]"
"42","[-24.13083105   0.          22.        ]","[-0.78911473  0.          0.        ]","[0.08815764 0.         0.        ]"
"43","[-24.82898297   0.          22.        ]","[-0.69815193  0.          0.        ]","[0.09096281 0.         0.        ]"
"44","[-25.43370465   0.          22.        ]","[-0.60472168  0.          0.        ]","[0.09343025 0.         0.        ]"
"45","[-25.94287004   0.          22.        ]","[-0.50916539  0.          0.        ]","[0.09555629 0.         0.        ]"
"46","[-26.3546973   0.         22.       ]","[-0.41182726  0.          0.        ]","[0.09733813 0.         0.        ]"
"47","[-26.66775085   0.          22.        ]","[-0.31305355  0.          0.        ]","[0.09877372 0.         0.        ]"
"48","[-26.88094282   0.          22.        ]","[-0.21319197  0.          0.        ]","[0.09986158 0.         0.        ]"
"49","[-26.99353406   0.          22.        ]","[-0.11259125  0.          0.        ]","[0.10060072 0.         0.        ]"
"50","[-27.0051348   0.         22.       ]","[-0.01160073  0.          0.        ]","[0.10099051 0.         0.        ]"
"51","[-26.91570488   0.          22.        ]","[0.08942992 0.         0.        ]","[0.10103065 0.         0.        ]"
"52","[-26.72555385   0.          22.        ]","[0.19015103 0.         0.        ]","[0.10072111 0.         0.        ]"
"53","[-26.43534071   0.          22.        ]","[0.29021315 0.         0.        ]","[0.10006212 0.         0.        ]"
"54","[-26.04607332   0.          22.        ]","[0.38926738 0.         0.        ]","[0.09905424 0.         0.        ]"
"55","[-25.55910758   0.          22.        ]","[0.48696574 0.         0.        ]","[0.09769836 0.         0.        ]"
"56","[-24.97614599   0.          22.        ]","[0.58296159 0.         0.        ]","[0.09599584 0.         0.        ]"
"57","[-24.29923581   0.          22.        ]","[0.67691019 0.         0.        ]","[0.0939486 0.        0.       ]"
"58","[-23.53076638   0.          22.        ]","[0.76846943 0.         0.        ]","[0.09155924 0.         0.        ]"
"59","[-22.67346573   0.          22.        ]","[0.85730065 0.         0.        ]","[0.08883122 0.         0.        ]"
"60","[-21.73039605   0.          22.        ]","[0.94306968 0.         0.        ]","[0.08576902 0.         0.        ]"
"61","[-20.70494806   0.          22.        ]","[1.02544799 0.         0.        ]","[0.08237832 0.         0.        ]"
"62","[-19.60083394   0.          22.        ]","[1.10411412 0.         0.        ]","[0.07866613 0.         0.        ]"
"63","[-18.4220788   0.         22.       ]","[1.17875514 0.         0.        ]","[0.07464103 0.         0.        ]"
"64","[-17.1730104   0.         22.       ]","[1.2490684 0.        0.       ]","[0.07031326 0.         0.        ]"
"65","[-15.85824708   0.          22.        ]","[1.31476332 0.         0.        ]","[0.06569491 0.         0.        ]"
"66","[-14.48268379   0.          22.        ]","[1.37556329 0.         0.        ]","[0.06079997 0.         0.        ]"
"67","[-13.05147606   0.          22.        ]","[1.43120773 0.         0.        ]","[0.05564445 0.         0.        ]"
"68","[-11.57002196   0.          22.        ]","[1.4814541 0.        0.       ]","[0.05024637 0.         0.        ]"
"69","[-10.04394207   0.          22.        ]","[1.52607989 0.         0.        ]","[0.04462579 0.         0.        ]"
"70","[-8.47905742  0.         22.        ]","[1.56488465 0.         0.        ]","[0.03880476 0.         0.        ]"
"71","[-6.88136561  0.         22.        ]","[1.59769181 0.         0.        ]","[0.03280716 0.         0.        ]"
"72","[-5.2570152  0.        22.       ]","[1.62435041 0.         0.        ]","[0.02665861 0.         0.        ]"
"73","[-3.61227854  0.         22.        ]","[1.64473665 0.         0.        ]","[0.02038624 0.         0.        ]"
"74","[-1.95352341  0.         22.        ]","[1.65875513 0.         0.        ]","[0.01401848 0.         0.        ]"
"75","[-0.28718352  0.         22.        ]","[1.66633989 0.         0.        ]","[0.00758476 0.         0.        ]"
"76","[ 1.3802716  0.        22.       ]","[1.66745512 0.         0.        ]","[0.00111523 0.         0.        ]"
"77","[ 3.04236715  0.         22.        ]","[1.66209555 0.         0.        ]","[-0.00535957 -0.         -0.        ]"
"78","[ 4.69265365  0.         22.        ]","[1.6502865 0.        0.       ]","[-0.01180905 -0.         -0.        ]"
"79","[ 6.32473727  0.         22.        ]","[1.63208362 0.         0.        ]","[-0.01820289 -0.         -0.        ]"
"80","[ 7.93230953  0.         22.        ]","[1.60757225 0.         0.        ]","[-0.02451137 -0.         -0.        ]"
"81","[ 9.50917609  0.         22.        ]","[1.57686657 0.         0.        ]","[-0.03070569 -0.         -0.        ]"
"82","[11.04928442  0.         22.        ]","[1.54010833 0.         0.        ]","[-0.03675824 -0.         -0.        ]"
"83","[12.5467499  0.        22.       ]","[1.49746547 0.         0.        ]","[-0.04264286 -0.         -0.        ]"
"84","[13.99588033  0.         22.        ]","[1.44913043 0.         0.        ]","[-0.04833504 -0.         -0.        ]"
"85","[15.39119866  0.         22.        ]","[1.39531833 0.         0.        ]","[-0.0538121 -0.        -0.       ]"
"86","[16.72746371  0.         22.        ]","[1.33626505 0.         0.        ]","[-0.05905328 -0.         -0.        ]"
"87","[17.99968889  0.         22.        ]","[1.27222519 0.         0.        ]","[-0.06403986 -0.         -0.        ]"
"88","[19.20315895  0.         22.        ]","[1.20347005 0.         0.        ]","[-0.06875513 -0.         -0.        ]"
"89","[20.33344459  0.         22.        ]","[1.13028564 0.         0.        ]","[-0.07318441 -0.         -0.        ]"
"90","[21.38641525  0.         22.        ]","[1.05297066 0.         0.        ]","[-0.07731498 -0.         -0.        ]"
"91","[22.35824995  0.         22.        ]","[0.9718347 0.        0.       ]","[-0.08113596 -0.         -0.        ]"
"92","[23.2454464  0.        22.       ]","[0.88719646 0.         0.        ]","[-0.08463824 -0.         -0.        ]"
"93","[24.0448286  0.        22.       ]","[0.7993822 0.        0.       ]","[-0.08781426 -0.         -0.        ]"
"94","[24.75355288  0.         22.        ]","[0.70872429 0.         0.        ]","[-0.09065791 -0.         -0.        ]"
"95","[25.36911285  0.         22.        ]","[0.61555996 0.         0.        ]","[-0.09316432 -0.         -0.        ]"
"96","[25.88934311  0.         22.        ]","[0.52023026 0.         0.        ]","[-0.0953297 -0.        -0.       ]"
"97","[26.31242221  0.         22.        ]","[0.42307909 0.         0.        ]","[-0.09715117 -0.         -0.        ]"
"98","[26.63687472  0.         22.        ]","[0.32445251 0.         0.        ]","[-0.09862658 -0.         -0.        ]"
"99","[26.86157281  0.         22.        ]","[0.22469809 0.         0.        ]","[-0.09975442 -0.         -0.        ]"
"100","[26.98573728  0.         22.        ]","[0.12416447 0.         0.        ]","[-0.10053362 -0.         -0.        ]"
"101","[27.00893822  0.         22.        ]","[0.02320094 0.         0.        ]","[-0.10096353 -0.         -0.        ]"
"102","[26.93109535  0.         22.        ]","[-0.07784287  0.          0.        ]","[-0.10104381 -0.         -0.        ]"
"103","[26.75247808  0.         22.        ]","[-0.17861727  0.          0.        ]","[-0.1007744 -0.        -0.       ]"
"104","[26.47370532  0.         22.        ]","[-0.27877276  0.          0.        ]","[-0.1001555 -0.        -0.       ]"
"105","[26.09574493  0.         22.        ]","[-0.37796038  0.          0.        ]","[-0.09918762 -0.         -0.        ]"
"106","[25.61991292  0.         22.        ]","[-0.47583201  0.          0.        ]","[-0.09787163 -0.         -0.        ]"
"107","[25.0478721  0.        22.       ]","[-0.57204082  0.          0.        ]","[-0.09620881 -0.         -0.        ]"
"108","[24.38163026  0.         22.        ]","[-0.66624184  0.          0.        ]","[-0.09420102 -0.         -0.        ]"
"109","[23.62353766  0.         22.        ]","[-0.75809261  0.          0.        ]","[-0.09185077 -0.         -0.        ]"
"110","[22.77628364  0.         22.        ]","[-0.84725402  0.          0.        ]","[-0.08916141 -0.         -0.        ]"
"111","[21.84289231  0.         22.        ]","[-0.93339133  0.          0.        ]","[-0.08613731 -0.         -0.        ]"
"112","[20.82671701  0.         22.        ]","[-1.0161753  0.         0.       ]","[-0.08278397 -0.         -0.        ]"
"113","[19.73143343  0.         22.        ]","[-1.09528358  0.          0.        ]","[-0.07910828 -0.         -0.        ]"
"114","[18.56103125  0.         22.        ]","[-1.17040219  0.          0.        ]","[-0.07511861 -0.         -0.        ]"
"115","[17.31980405  0.         22.        ]","[-1.24122719  0.          0.        ]","[-0.070825 -0.       -0.      ]"
"116","[16.01233753  0.         22.        ]","[-1.30746652  0.          0.        ]","[-0.06623933 -0.         -0.        ]"
"117","[14.64349564  0.         22.        ]","[-1.36884189  0.          0.        ]","[-0.06137537 -0.         -0.        ]"
"118","[13.21840488  0.         22.        ]","[-1.42509076  0.          0.        ]","[-0.05624887 -0.         -0.        ]"
"119","[11.74243647  0.         22.        ]","[-1.47596841  0.          0.        ]","[-0.05087765 -0.         -0.        ]"
"120","[10.22118653  0.         22.        ]","[-1.52124994  0.          0.        ]","[-0.04528153 -0.         -0.        ]"
"121","[ 8.66045426  0.         22.        ]","[-1.56073227  0.          0.        ]","[-0.03948233 -0.         -0.        ]"
"122","[ 7.06621827  0.         22.        ]","[-1.59423599  0.          0.        ]","[-0.03350372 -0.         -0.        ]"
"123","[ 5.44461113  0.         22.        ]","[-1.62160713  0.          0.        ]","[-0.02737114 -0.         -0.        ]"
"124","[ 3.80189243  0.         22.        ]","[-1.6427187  0.         0.       ]","[-0.02111157 -0.         -0.        ]"
"125","[ 2.14442046  0.         22.        ]","[-1.65747198  0.          0.        ]","[-0.01475328 -0.         -0.        ]"
"126","[ 0.47862288  0.         22.        ]","[-1.66579758  0.          0.        ]","[-0.00832561 -0.         -0.        ]"
"127","[-1.18903335  0.         22.        ]","[-1.66765622  0.          0.        ]","[-0.00185864 -0.         -0.        ]"
"128","[-2.85207246  0.         22.        ]","[-1.66303911  0.          0.        ]","[0.00461711 0.         0.        ]"
"129","[-4.50404053  0.         22.        ]","[-1.65196807  0.          0.        ]","[0.01107104 0.         0.        ]"
"130","[-6.13853581  0.         22.        ]","[-1.63449528  0.          0.        ]","[0.01747279 0.         0.        ]"
"131","[-7.74923854  0.         22.        ]","[-1.61070273  0.          0.        ]","[0.02379255 0.         0.        ]"
"132","[-9.32993987  0.         22.        ]","[-1.58070133  0.          0.        ]","[0.0300014 0.        0.       ]"
"133","[-10.87456961   0.          22.        ]","[-1.54462974  0.          0.        ]","[0.03607158 0.         0.        ]"
"134","[-12.37722259   0.          22.        ]","[-1.50265298  0.          0.        ]","[0.04197676 0.         0.        ]"
"135","[-13.83218336   0.          22.        ]","[-1.45496077  0.          0.        ]","[0.04769222 0.         0.        ]"
"136","[-15.23394907   0.          22.        ]","[-1.40176571  0.          0.        ]","[0.05319506 0.         0.        ]"
"137","[-16.57725047   0.          22.        ]","[-1.3433014  0.         0.       ]","[0.05846431 0.         0.        ]"
"138","[-17.85707088   0.          22.        ]","[-1.27982041  0.          0.        ]","[0.06348099 0.         0.        ]"
"139","[-19.0686631   0.         22.       ]","[-1.21159222  0.          0.        ]","[0.06822819 0.         0.        ]"
"140","[-20.20756434   0.          22.        ]","[-1.13890124  0.          0.        ]","[0.07269098 0.         0.        ]"
"141","[-21.26960916   0.          22.        ]","[-1.06204482  0.          0.        ]","[0.07685642 0.         0.        ]"
"142","[-22.25094056   0.          22.        ]","[-0.98133139  0.          0.        ]","[0.08071343 0.         0.        ]"
"143","[-23.14801925   0.          22.        ]","[-0.8970787  0.         0.       ]","[0.0842527 0.        0.       ]"
"144","[-23.95763145   0.          22.        ]","[-0.80961219  0.          0.        ]","[0.0874665 0.        0.       ]"
"145","[-24.67689507   0.          22.        ]","[-0.71926362  0.          0.        ]","[0.09034857 0.         0.        ]"
"146","[-25.30326479   0.          22.        ]","[-0.62636972  0.          0.        ]","[0.0928939 0.        0.       ]"
"147","[-25.83453592   0.          22.        ]","[-0.53127113  0.          0.        ]","[0.09509859 0.         0.        ]"
"148","[-26.26884741   0.          22.        ]","[-0.43431149  0.          0.        ]","[0.09695965 0.         0.        ]"
"149","[-26.60468403   0.          22.        ]","[-0.33583661  0.          0.        ]","[0.09847487 0.         0.        ]"
"150","[-26.84087798   0.          22.        ]","[-0.23619395  0.          0.        ]","[0.09964266 0.         0.        ]"
"151","[-26.97661001   0.          22.        ]","[-0.13573203  0.          0.        ]","[0.10046192 0.         0.        ]"
"152","[-27.0114101   0.         22.       ]","[-0.03480009  0.          0.        ]","[0.10093195 0.         0.        ]"
"153","[-26.94515782   0.          22.        ]","[0.06625228 0.         0.        ]","[0.10105236 0.         0.        ]"
"154","[-26.77808247   0.          22.        ]","[0.16707536 0.         0.        ]","[0.10082308 0.         0.        ]"
"155","[-26.51076284   0.          22.        ]","[0.26731963 0.         0.        ]","[0.10024427 0.         0.        ]"
"156","[-26.14412679   0.          22.        ]","[0.36663605 0.         0.        ]","[0.09931642 0.         0.        ]"
"157","[-25.67945042   0.          22.        ]","[0.46467637 0.         0.        ]","[0.09804032 0.         0.        ]"
"158","[-25.11835682   0.          22.        ]","[0.5610936 0.        0.       ]","[0.09641723 0.         0.        ]"
"159","[-24.46281429   0.          22.        ]","[0.65554252 0.         0.        ]","[0.09444892 0.         0.        ]"
"160","[-23.71513394   0.          22.        ]","[0.74768035 0.         0.        ]","[0.09213782 0.         0.        ]"
"161","[-22.87796641   0.          22.        ]","[0.83716754 0.         0.        ]","[0.08948719 0.         0.        ]"
"162","[-21.95429761   0.          22.        ]","[0.92366879 0.         0.        ]","[0.08650125 0.         0.        ]"
"163","[-20.94744344   0.          22.        ]","[1.00685418 0.         0.        ]","[0.08318539 0.         0.        ]"
"164","[-19.86104297   0.          22.        ]","[1.08640047 0.         0.        ]","[0.0795463 0.        0.       ]"
"165","[-18.69905031   0.          22.        ]","[1.16199265 0.         0.        ]","[0.07559218 0.         0.        ]"
"166","[-17.46572476   0.          22.        ]","[1.23332555 0.         0.        ]","[0.0713329 0.        0.       ]"
"167","[-16.16561913   0.          22.        ]","[1.30010564 0.         0.        ]","[0.06678009 0.         0.        ]"
"168","[-14.80356619   0.          22.        ]","[1.36205293 0.         0.        ]","[0.0619473 0.        0.       ]"
"169","[-13.38466319   0.          22.        ]","[1.418903 0.       0.      ]","[0.05685007 0.         0.        ]"
"170","[-11.91425421   0.          22.        ]","[1.47040897 0.         0.        ]","[0.05150597 0.         0.        ]"
"171","[-10.39791065   0.          22.        ]","[1.51634357 0.         0.        ]","[0.04593459 0.         0.        ]"
"172","[-8.84140955  0.         22.        ]","[1.5565011 0.        0.       ]","[0.04015753 0.         0.        ]"
"173","[-7.2507102  0.        22.       ]","[1.59069935 0.         0.        ]","[0.03419825 0.         0.        ]"
"174","[-5.63192884  0.         22.        ]","[1.61878136 0.         0.        ]","[0.02808201 0.         0.        ]"
"175","[-3.99131189  0.         22.        ]","[1.64061695 0.         0.        ]","[0.02183559 0.         0.        ]"
"176","[-2.33520778  0.         22.        ]","[1.65610411 0.         0.        ]","[0.01548716 0.         0.        ]"
"177","[-0.67003773  0.         22.        ]","[1.66517005 0.         0.        ]","[0.00906594 0.         0.        ]"
"178","[ 0.99773425  0.         22.        ]","[1.66777198 0.         0.        ]","[0.00260194 0.         0.        ]"
"179","[ 2.66163187  0.         22.        ]","[1.66389762 0.         0.        ]","[-0.00387436 -0.         -0.        ]"
"180","[ 4.31519714  0.         22.        ]","[1.65356527 0.         0.        ]","[-0.01033235 -0.         -0.        ]"
"181","[ 5.95202079  0.         22.        ]","[1.63682365 0.         0.        ]","[-0.01674162 -0.         -0.        ]"
"182","[ 7.56577217  0.         22.        ]","[1.61375138 0.         0.        ]","[-0.02307228 -0.         -0.        ]"
"183","[ 9.15022825  0.         22.        ]","[1.58445609 0.         0.        ]","[-0.02929529 -0.         -0.        ]"
"184","[10.69930158  0.         22.        ]","[1.54907333 0.         0.        ]","[-0.03538276 -0.         -0.        ]"
"185","[12.20706676  0.         22.        ]","[1.50776517 0.         0.        ]","[-0.04130816 -0.         -0.        ]"
"186","[13.66778534  0.         22.        ]","[1.46071858 0.         0.        ]","[-0.04704659 -0.         -0.        ]"
"187","[15.07592899  0.         22.        ]","[1.40814365 0.         0.        ]","[-0.05257494 -0.         -0.        ]"
"188","[16.42620063  0.         22.        ]","[1.35027165 0.         0.        ]","[-0.057872 -0.       -0.      ]"
"189","[17.71355371  0.         22.        ]","[1.28735307 0.         0.        ]","[-0.06291857 -0.         -0.        ]"
"190","[18.93320928  0.         22.        ]","[1.21965558 0.         0.        ]","[-0.0676975 -0.        -0.       ]"
"191","[20.08067124  0.         22.        ]","[1.14746195 0.         0.        ]","[-0.07219362 -0.         -0.        ]"
"192","[21.1517394  0.        22.       ]","[1.07106816 0.         0.        ]","[-0.07639379 -0.         -0.        ]"
"193","[22.14252086  0.         22.        ]","[0.99078146 0.         0.        ]","[-0.08028671 -0.         -0.        ]"
"194","[23.04943944  0.         22.        ]","[0.90691859 0.         0.        ]","[-0.08386287 -0.         -0.        ]"
"195","[23.86924366  0.         22.        ]","[0.81980422 0.         0.        ]","[-0.08711437 -0.         -0.        ]"
"196","[24.59901308  0.         22.        ]","[0.72976942 0.         0.        ]","[-0.09003479 -0.         -0.        ]"
"197","[25.23616351  0.         22.        ]","[0.63715043 0.         0.        ]","[-0.09261899 -0.         -0.        ]"
"198","[25.778451  0.       22.      ]","[0.54228749 0.         0.        ]","[-0.09486294 -0.         -0.        ]"
"199","[26.22397491  0.         22.        ]","[0.44552391 0.         0.        ]","[-0.09676357 -0.         -0.        ]"
"200","[26.57118025  0.         22.        ]","[0.34720533 0.         0.        ]","[-0.09831858 -0.         -0.        ]"
"201","[26.81885927  0.         22.        ]","[0.24767902 0.         0.        ]","[-0.09952631 -0.         -0.        ]"
"202","[26.96615267  0.         22.        ]","[0.1472934 0.        0.       ]","[-0.10038562 -0.         -0.        ]"
"203","[27.01255032  0.         22.        ]","[0.04639765 0.         0.        ]","[-0.10089575 -0.         -0.        ]"
"204","[26.95789166  0.         22.        ]","[-0.05465866  0.          0.        ]","[-0.10105631 -0.         -0.        ]"
"205","[26.80236584  0.         22.        ]","[-0.15552582  0.          0.        ]","[-0.10086716 -0.         -0.        ]"
"206","[26.54651157  0.         22.        ]","[-0.25585427  0.          0.        ]","[-0.10032845 -0.         -0.        ]"
"207","[26.19121667  0.         22.        ]","[-0.3552949  0.         0.       ]","[-0.09944062 -0.         -0.        ]"
"208","[25.73771733  0.         22.        ]","[-0.45349934  0.          0.        ]","[-0.09820445 -0.         -0.        ]"
"209","[25.18759688  0.         22.        ]","[-0.55012045  0.          0.        ]","[-0.09662111 -0.         -0.        ]"
"210","[24.54278412  0.         22.        ]","[-0.64481276  0.          0.        ]","[-0.09469231 -0.         -0.        ]"
"211","[23.80555095  0.         22.        ]","[-0.73723317  0.          0.        ]","[-0.09242041 -0.         -0.        ]"
"212","[22.97850923  0.         22.        ]","[-0.82704172  0.          0.        ]","[-0.08980855 -0.         -0.        ]"
"213","[22.06460667  0.         22.        ]","[-0.91390257  0.          0.        ]","[-0.08686085 -0.         -0.        ]"
"214","[21.06712157  0.         22.        ]","[-0.9974851  0.         0.       ]","[-0.08358254 -0.         -0.        ]"
"215","[19.98965631  0.         22.        ]","[-1.07746526  0.          0.        ]","[-0.07998016 -0.         -0.        ]"
"216","[18.83612931  0.         22.        ]","[-1.15352699  0.          0.        ]","[-0.07606173 -0.         -0.        ]"
"217","[17.6107654  0.        22.       ]","[-1.22536392  0.          0.        ]","[-0.07183692 -0.         -0.        ]"
"218","[16.31808433  0.         22.        ]","[-1.29268106  0.          0.        ]","[-0.06731715 -0.         -0.        ]"
"219","[14.96288753  0.         22.        ]","[-1.35519681  0.          0.        ]","[-0.06251574 -0.         -0.        ]"
"220","[13.5502427  0.        22.       ]","[-1.41264482  0.          0.        ]","[-0.05744802 -0.         -0.        ]"
"221","[12.08546659  0.         22.        ]","[-1.46477612  0.          0.        ]","[-0.05213129 -0.         -0.        ]"
"222","[10.57410552  0.         22.        ]","[-1.51136106  0.          0.        ]","[-0.04658494 -0.         -0.        ]"
"223","[ 9.02191413  0.         22.        ]","[-1.55219139  0.          0.        ]","[-0.04083033 -0.         -0.        ]"
"224","[ 7.43483203  0.         22.        ]","[-1.58708211  0.          0.        ]","[-0.03489072 -0.         -0.        ]"
"225","[ 5.81895876  0.         22.        ]","[-1.61587326  0.          0.        ]","[-0.02879115 -0.         -0.        ]"
"226","[ 4.18052723  0.         22.        ]","[-1.63843153  0.          0.        ]","[-0.02255827 -0.         -0.        ]"
"227","[ 2.52587561  0.         22.        ]","[-1.65465162  0.          0.        ]","[-0.01622008 -0.         -0.        ]"
"228","[ 0.8614183  0.        22.       ]","[-1.66445732  0.          0.        ]","[-0.0098057 -0.        -0.       ]"
"229","[-0.80638409  0.         22.        ]","[-1.66780239  0.          0.        ]","[-0.00334507 -0.         -0.        ]"
"230","[-2.4710551  0.        22.       ]","[-1.66467101  0.          0.        ]","[0.00313137 0.         0.        ]"
"231","[-4.1261331  0.        22.       ]","[-1.655078  0.        0.      ]","[0.00959302 0.         0.        ]"
"232","[-5.76520169  0.         22.        ]","[-1.63906859  0.          0.        ]","[0.0160094 0.        0.       ]"
"233","[-7.3819197  0.        22.       ]","[-1.61671801  0.          0.        ]","[0.02235058 0.         0.        ]"
"234","[-8.97005032  0.         22.        ]","[-1.58813062  0.          0.        ]","[0.02858739 0.         0.        ]"
"235","[-10.52348915   0.          22.        ]","[-1.55343883  0.          0.        ]","[0.03469179 0.         0.        ]"
"236","[-12.03629089   0.          22.        ]","[-1.51280174  0.          0.        ]","[0.04063709 0.         0.        ]"
"237","[-13.50269444   0.          22.        ]","[-1.46640355  0.          0.        ]","[0.04639819 0.         0.        ]"
"238","[-14.91714622   0.          22.        ]","[-1.41445178  0.          0.        ]","[0.05195177 0.         0.        ]"
"239","[-16.27432161   0.          22.        ]","[-1.35717539  0.          0.        ]","[0.05727639 0.         0.        ]"
"240","[-17.56914437   0.          22.        ]","[-1.29482276  0.          0.        ]","[0.06235263 0.         0.        ]"
"241","[-18.79680406   0.          22.        ]","[-1.22765969  0.          0.        ]","[0.06716308 0.         0.        ]"
"242","[-19.95277138   0.          22.        ]","[-1.15596732  0.          0.        ]","[0.07169237 0.         0.        ]"
"243","[-21.03281159   0.          22.        ]","[-1.08004021  0.          0.        ]","[0.07592711 0.         0.        ]"
"244","[-22.03299598   0.          22.        ]","[-1.0001844  0.         0.       ]","[0.07985581 0.         0.        ]"
"245","[-22.94971162   0.          22.        ]","[-0.91671564  0.          0.        ]","[0.08346876 0.         0.        ]"
"246","[-23.77966938   0.          22.        ]","[-0.82995776  0.          0.        ]","[0.08675788 0.         0.        ]"
"247","[-24.51991055   0.          22.        ]","[-0.74024117  0.          0.        ]","[0.08971659 0.         0.        ]"
"248","[-25.16781212   0.          22.        ]","[-0.64790157  0.          0.        ]","[0.0923396 0.        0.       ]"
"249","[-25.72109092   0.          22.        ]","[-0.5532788  0.         0.       ]","[0.09462278 0.         0.        ]"
"250","[-26.17780678   0.          22.        ]","[-0.45671586  0.          0.        ]","[0.09656294 0.         0.        ]"
"251","[-26.53636492   0.          22.        ]","[-0.35855814  0.          0.        ]","[0.09815772 0.         0.        ]"
"252","[-26.79551768   0.          22.        ]","[-0.25915277  0.          0.        ]","[0.09940537 0.         0.        ]"
"253","[-26.95436573   0.          22.        ]","[-0.15884805  0.          0.        ]","[0.10030472 0.         0.        ]"
"254","[-27.01235883   0.          22.        ]","[-0.0579931  0.         0.       ]","[0.10085496 0.         0.        ]"
"255","[-26.96929628   0.          22.        ]","[0.04306255 0.         0.        ]","[0.10105565 0.         0.        ]"
"256","[-26.82532709   0.          22.        ]","[0.14396919 0.         0.        ]","[0.10090663 0.         0.        ]"
"257","[-26.58094988   0.          22.        ]","[0.24437722 0.         0.        ]","[0.10040803 0.         0.        ]"
"258","[-26.23701241   0.          22.        ]","[0.34393746 0.         0.        ]","[0.09956024 0.         0.        ]"
"259","[-25.79471096   0.          22.        ]","[0.44230146 0.         0.        ]","[0.098364 0.       0.      ]"
"260","[-25.25558907   0.          22.        ]","[0.53912189 0.         0.        ]","[0.09682043 0.         0.        ]"
"261","[-24.62153601   0.          22.        ]","[0.63405306 0.         0.        ]","[0.09493117 0.         0.        ]"
"262","[-23.89478444   0.          22.        ]","[0.72675157 0.         0.        ]","[0.09269851 0.         0.        ]"
"263","[-23.07790738   0.          22.        ]","[0.81687706 0.         0.        ]","[0.09012549 0.         0.        ]"
"264","[-22.17381424   0.          22.        ]","[0.90409314 0.         0.        ]","[0.08721609 0.         0.        ]"
"265","[-21.18574568   0.          22.        ]","[0.98806856 0.         0.        ]","[0.08397542 0.         0.        ]"
"266","[-20.11726727   0.          22.        ]","[1.06847842 0.         0.        ]","[0.08040986 0.         0.        ]"
"267","[-18.9722616   0.         22.       ]","[1.14500566 0.         0.        ]","[0.07652725 0.         0.        ]"
"268","[-17.75491888   0.          22.        ]","[1.21734272 0.         0.        ]","[0.07233706 0.         0.        ]"
"269","[-16.46972566   0.          22.        ]","[1.28519322 0.         0.        ]","[0.0678505 0.        0.       ]"
"270","[-15.12145176   0.          22.        ]","[1.3482739 0.        0.       ]","[0.06308068 0.         0.        ]"
"271","[-13.71513518   0.          22.        ]","[1.40631658 0.         0.        ]","[0.05804268 0.         0.        ]"
"272","[-12.25606501   0.          22.        ]","[1.45907017 0.         0.        ]","[0.05275359 0.         0.        ]"
"273","[-10.7497623   0.         22.       ]","[1.50630272 0.         0.        ]","[0.04723255 0.         0.        ]"
"274","[-9.20195889  0.         22.        ]","[1.54780341 0.         0.        ]","[0.04150069 0.         0.        ]"
"275","[-7.61857441  0.         22.        ]","[1.58338448 0.         0.        ]","[0.03558107 0.         0.        ]"
"276","[-6.00569139  0.         22.        ]","[1.61288302 0.         0.        ]","[0.02949854 0.         0.        ]"
"277","[-4.3695288  0.        22.       ]","[1.63616259 0.         0.        ]","[0.02327956 0.         0.        ]"
"278","[-2.71641422  0.         22.        ]","[1.65311459 0.         0.        ]","[0.016952 0.       0.      ]"
"279","[-1.05275477  0.         22.        ]","[1.66365944 0.         0.        ]","[0.01054486 0.         0.        ]"
"280","[ 0.61499266  0.         22.        ]","[1.66774744 0.         0.        ]","[0.00408799 0.         0.        ]"
"281","[ 2.28035191  0.         22.        ]","[1.66535924 0.         0.        ]","[-0.00238819 -0.         -0.        ]"
"282","[ 3.93685807  0.         22.        ]","[1.65650616 0.         0.        ]","[-0.00885308 -0.         -0.        ]"
"283","[ 5.57808803  0.         22.        ]","[1.64122996 0.         0.        ]","[-0.0152762 -0.        -0.       ]"
"284","[ 7.19769048  0.         22.        ]","[1.61960245 0.         0.        ]","[-0.02162751 -0.         -0.        ]"
"285","[ 8.78941518  0.         22.        ]","[1.59172471 0.         0.        ]","[-0.02787775 -0.         -0.        ]"
"286","[10.34714116  0.         22.        ]","[1.55772598 0.         0.        ]","[-0.03399873 -0.         -0.        ]"
"287","[11.86490355  0.         22.        ]","[1.51776238 0.         0.        ]","[-0.0399636 -0.        -0.       ]"
"288","[13.33691887  0.         22.        ]","[1.47201532 0.         0.        ]","[-0.04574706 -0.         -0.        ]"
"289","[14.75760861  0.         22.        ]","[1.42068974 0.         0.        ]","[-0.05132558 -0.         -0.        ]"
"290","[16.12162085  0.         22.        ]","[1.36401224 0.         0.        ]","[-0.05667751 -0.         -0.        ]"
"291","[17.42384991  0.         22.        ]","[1.30222906 0.         0.        ]","[-0.06178317 -0.         -0.        ]"
"292","[18.65945403  0.         22.        ]","[1.23560411 0.         0.        ]","[-0.06662495 -0.         -0.        ]"
"293","[19.82387091  0.         22.        ]","[1.16441688 0.         0.        ]","[-0.07118723 -0.         -0.        ]"
"294","[20.91283139  0.         22.        ]","[1.08896048 0.         0.        ]","[-0.0754564 -0.        -0.       ]"
"295","[21.92237112  0.         22.        ]","[1.00953973 0.         0.        ]","[-0.07942075 -0.         -0.        ]"
"296","[22.84884047  0.         22.        ]","[0.92646935 0.         0.        ]","[-0.08307038 -0.         -0.        ]"
"297","[23.68891279  0.         22.        ]","[0.84007232 0.         0.        ]","[-0.08639703 -0.         -0.        ]"
"298","[24.43959115  0.         22.        ]","[0.75067836 0.         0.        ]","[-0.08939395 -0.         -0.        ]"
"299","[25.09821379  0.         22.        ]","[0.65862263 0.         0.        ]","[-0.09205573 -0.         -0.        ]"
"300","[25.66245833  0.         22.        ]","[0.56424454 0.         0.        ]","[-0.09437809 -0.         -0.        ]"
"301","[26.13034512  0.         22.        ]","[0.46788679 0.         0.        ]","[-0.09635776 -0.         -0.        ]"
"302","[26.50023963  0.         22.        ]","[0.36989451 0.         0.        ]","[-0.09799228 -0.         -0.        ]"
"303","[26.77085429  0.         22.        ]","[0.27061466 0.         0.        ]","[-0.09927985 -0.         -0.        ]"
"304","[26.94124974  0.         22.        ]","[0.17039545 0.         0.        ]","[-0.10021921 -0.         -0.        ]"
"305","[27.01083564  0.         22.        ]","[0.0695859 0.        0.       ]","[-0.10080955 -0.         -0.        ]"
"306","[26.97937116  0.         22.        ]","[-0.03146448  0.          0.        ]","[-0.10105038 -0.         -0.        ]"
"307","[26.84696518  0.         22.        ]","[-0.13240598  0.          0.        ]","[-0.1009415 -0.        -0.       ]"
"308","[26.61407618  0.         22.        ]","[-0.23288899  0.          0.        ]","[-0.10048301 -0.         -0.        ]"
"309","[26.28151192  0.         22.        ]","[-0.33256426  0.          0.        ]","[-0.09967527 -0.         -0.        ]"
"310","[25.85042868  0.         22.        ]","[-0.43108323  0.          0.        ]","[-0.09851897 -0.         -0.        ]"
"311","[25.32233026  0.         22.        ]","[-0.52809843  0.          0.        ]","[-0.09701519 -0.         -0.        ]"
"312","[24.69906631  0.         22.        ]","[-0.62326394  0.          0.        ]","[-0.09516552 -0.         -0.        ]"
"313","[23.98283024  0.         22.        ]","[-0.71623607  0.          0.        ]","[-0.09297213 -0.         -0.        ]"
"314","[23.17615618  0.         22.        ]","[-0.80667406  0.          0.        ]","[-0.09043799 -0.         -0.        ]"
"315","[22.28191515  0.         22.        ]","[-0.89424102  0.          0.        ]","[-0.08756696 -0.         -0.        ]"
"316","[21.30331012  0.         22.        ]","[-0.97860504  0.          0.        ]","[-0.08436401 -0.         -0.        ]"
"317","[20.24386971  0.         22.        ]","[-1.05944041  0.          0.        ]","[-0.08083537 -0.         -0.        ]"
"318","[19.10744059  0.         22.        ]","[-1.13642912  0.          0.        ]","[-0.07698871 -0.         -0.        ]"
"319","[17.89817818  0.         22.        ]","[-1.20926241  0.          0.        ]","[-0.07283329 -0.         -0.        ]"
"320","[16.62053566  0.         22.        ]","[-1.27764252  0.          0.        ]","[-0.06838012 -0.         -0.        ]"
"321","[15.27925106  0.         22.        ]","[-1.3412846  0.         0.       ]","[-0.06364208 -0.         -0.        ]"
"322","[13.87933242  0.         22.        ]","[-1.39991863  0.          0.        ]","[-0.05863403 -0.         -0.        ]"
"323","[12.42604096  0.         22.        ]","[-1.45329146  0.          0.        ]","[-0.05337283 -0.         -0.        ]"
"324","[10.92487213  0.         22.        ]","[-1.50116883  0.          0.        ]","[-0.04787737 -0.         -0.        ]"
"325","[ 9.38153472  0.         22.        ]","[-1.54333741  0.          0.        ]","[-0.04216858 -0.         -0.        ]"
"326","[ 7.80192803  0.         22.        ]","[-1.57960669  0.          0.        ]","[-0.03626928 -0.         -0.        ]"
"327","[ 6.19211721  0.         22.        ]","[-1.60981082  0.          0.        ]","[-0.03020413 -0.         -0.        ]"
"328","[ 4.55830696  0.         22.        ]","[-1.63381025  0.          0.        ]","[-0.02399942 -0.         -0.        ]"
"329","[ 2.90681385  0.         22.        ]","[-1.65149311  0.          0.        ]","[-0.01768287 -0.         -0.        ]"
"330","[ 1.24403738  0.         22.        ]","[-1.66277647  0.          0.        ]","[-0.01128336 -0.         -0.        ]"
"331","[-0.42356976  0.         22.        ]","[-1.66760713  0.          0.        ]","[-0.00483066 -0.         -0.        ]"
"332","[-2.08953203  0.         22.        ]","[-1.66596228  0.          0.        ]","[0.00164486 0.         0.        ]"
"333","[-3.74738171  0.         22.        ]","[-1.65784967  0.          0.        ]","[0.0081126 0.        0.       ]"
"334","[-5.39068933  0.         22.        ]","[-1.64330762  0.          0.        ]","[0.01454205 0.         0.        ]"
"335","[-7.01309385  0.         22.        ]","[-1.62240452  0.          0.        ]","[0.0209031 0.        0.       ]"
"336","[-8.60833197  0.         22.        ]","[-1.59523812  0.          0.        ]","[0.0271664 0.        0.       ]"
"337","[-10.17026649   0.          22.        ]","[-1.56193452  0.          0.        ]","[0.03330361 0.         0.        ]"
"338","[-11.6929133   0.         22.       ]","[-1.52264681  0.          0.        ]","[0.03928771 0.         0.        ]"
"339","[-13.17046688   0.          22.        ]","[-1.47755358  0.          0.        ]","[0.04509322 0.         0.        ]"
"340","[-14.59732406   0.          22.        ]","[-1.42685718  0.          0.        ]","[0.0506964 0.        0.       ]"
"341","[-15.96810587   0.          22.        ]","[-1.3707818  0.         0.       ]","[0.05607538 0.         0.        ]"
"342","[-17.27767743   0.          22.        ]","[-1.30957156  0.          0.        ]","[0.06121024 0.         0.        ]"
"343","[-18.52116585   0.          22.        ]","[-1.24348842  0.          0.        ]","[0.06608314 0.         0.        ]"
"344","[-19.69397604   0.          22.        ]","[-1.17281019  0.          0.        ]","[0.07067823 0.         0.        ]"
"345","[-20.79180456   0.          22.        ]","[-1.09782852  0.          0.        ]","[0.07498167 0.         0.        ]"
"346","[-21.81065153   0.          22.        ]","[-1.01884697  0.          0.        ]","[0.07898155 0.         0.        ]"
"347","[-22.74683076   0.          22.        ]","[-0.93617923  0.          0.        ]","[0.08266775 0.         0.        ]"
"348","[-23.59697815   0.          22.        ]","[-0.85014739  0.          0.        ]","[0.08603184 0.         0.        ]"
"349","[-24.35805863   0.          22.        ]","[-0.76108048  0.          0.        ]","[0.08906691 0.         0.        ]"
"350","[-25.02737173   0.          22.        ]","[-0.6693131  0.         0.       ]","[0.09176738 0.         0.        ]"
"351","[-25.60255594   0.          22.        ]","[-0.57518421  0.          0.        ]","[0.09412889 0.         0.        ]"
"352","[-26.08159212   0.          22.        ]","[-0.47903618  0.          0.        ]","[0.09614803 0.         0.        ]"
"353","[-26.46280603   0.          22.        ]","[-0.38121391  0.          0.        ]","[0.09782227 0.         0.        ]"
"354","[-26.74487021   0.          22.        ]","[-0.28206418  0.          0.        ]","[0.09914973 0.         0.        ]"
"355","[-26.92680528   0.          22.        ]","[-0.18193507  0.          0.        ]","[0.10012911 0.         0.        ]"
"356","[-27.00798081   0.          22.        ]","[-0.08117553  0.          0.        ]","[0.10075954 0.         0.        ]"
"357","[-26.98811584   0.          22.        ]","[0.01986497 0.         0.        ]","[0.1010405 0.        0.       ]"
"358","[-26.8672791   0.         22.       ]","[0.12083674 0.         0.        ]","[0.10097176 0.         0.        ]"
"359","[-26.64588897   0.          22.        ]","[0.22139013 0.         0.        ]","[0.10055339 0.         0.        ]"
"360","[-26.32471314   0.          22.        ]","[0.32117583 0.         0.        ]","[0.09978571 0.         0.        ]"
"361","[-25.90486794   0.          22.        ]","[0.4198452 0.        0.       ]","[0.09866937 0.         0.        ]"
"362","[-25.38781734   0.          22.        ]","[0.5170506 0.        0.       ]","[0.0972054 0.        0.       ]"
"363","[-24.77537141   0.          22.        ]","[0.61244593 0.         0.        ]","[0.09539533 0.         0.        ]"
"364","[-24.06968423   0.          22.        ]","[0.70568719 0.         0.        ]","[0.09324126 0.         0.        ]"
"365","[-23.27325099   0.          22.        ]","[0.79643324 0.         0.        ]","[0.09074605 0.         0.        ]"
"366","[-22.38890429   0.          22.        ]","[0.8843467 0.        0.       ]","[0.08791346 0.         0.        ]"
"367","[-21.41980927   0.          22.        ]","[0.96909502 0.         0.        ]","[0.08474832 0.         0.        ]"
"368","[-20.36945755   0.          22.        ]","[1.05035172 0.         0.        ]","[0.0812567 0.        0.       ]"
"369","[-19.24165973   0.          22.        ]","[1.12779782 0.         0.        ]","[0.0774461 0.        0.       ]"
"370","[-18.04053632   0.          22.        ]","[1.20112341 0.         0.        ]","[0.07332559 0.         0.        ]"
"371","[-16.77050693   0.          22.        ]","[1.27002939 0.         0.        ]","[0.06890598 0.         0.        ]"
"372","[-15.43627762   0.          22.        ]","[1.33422931 0.         0.        ]","[0.06419992 0.         0.        ]"
"373","[-14.04282627   0.          22.        ]","[1.39345136 0.         0.        ]","[0.05922205 0.         0.        ]"
"374","[-12.59538594   0.          22.        ]","[1.44744033 0.         0.        ]","[0.05398898 0.         0.        ]"
"375","[-11.09942622   0.          22.        ]","[1.49595972 0.         0.        ]","[0.04851938 0.         0.        ]"
"376","[-9.56063255  0.         22.        ]","[1.53879367 0.         0.        ]","[0.04283395 0.         0.        ]"
"377","[-7.98488358  0.         22.        ]","[1.57574897 0.         0.        ]","[0.0369553 0.        0.       ]"
"378","[-6.37822673  0.         22.        ]","[1.60665685 0.         0.        ]","[0.03090788 0.         0.        ]"
"379","[-4.74685207  0.         22.        ]","[1.63137466 0.         0.        ]","[0.02471781 0.         0.        ]"
"380","[-3.09706477  0.         22.        ]","[1.6497873 0.        0.       ]","[0.01841264 0.         0.        ]"
"381","[-1.43525631  0.         22.        ]","[1.66180846 0.         0.        ]","[0.01202115 0.         0.        ]"
"382","[ 0.23212517  0.         22.        ]","[1.66738149 0.         0.        ]","[0.00557303 0.         0.        ]"
"383","[ 1.89860524  0.         22.        ]","[1.66648007 0.         0.        ]","[-0.00090142 -0.         -0.        ]"
"384","[ 3.55771369  0.         22.        ]","[1.65910845 0.         0.        ]","[-0.00737161 -0.         -0.        ]"
"385","[ 5.20301514  0.         22.        ]","[1.64530145 0.         0.        ]","[-0.013807 -0.       -0.      ]"
"386","[ 6.82813919  0.         22.        ]","[1.62512404 0.         0.        ]","[-0.02017741 -0.         -0.        ]"
"387","[ 8.42680985  0.         22.        ]","[1.59867066 0.         0.        ]","[-0.02645339 -0.         -0.        ]"
"388","[ 9.99287404  0.         22.        ]","[1.56606419 0.         0.        ]","[-0.03260647 -0.         -0.        ]"
"389","[11.52032876  0.         22.        ]","[1.52745473 0.         0.        ]","[-0.03860947 -0.         -0.        ]"
"390","[13.00334677  0.         22.        ]","[1.483018 0.       0.      ]","[-0.04443672 -0.         -0.        ]"
"391","[14.4363005  0.        22.       ]","[1.43295373 0.         0.        ]","[-0.05006427 -0.         -0.        ]"
"392","[15.8137842  0.        22.       ]","[1.3774837 0.        0.       ]","[-0.05547003 -0.         -0.        ]"
"393","[17.13063405  0.         22.        ]","[1.31684984 0.         0.        ]","[-0.06063386 -0.         -0.        ]"
"394","[18.38194622  0.         22.        ]","[1.25131218 0.         0.        ]","[-0.06553767 -0.         -0.        ]"
"395","[19.56309302  0.         22.        ]","[1.18114679 0.         0.        ]","[-0.07016538 -0.         -0.        ]"
"396","[20.66973687  0.         22.        ]","[1.10664385 0.         0.        ]","[-0.07450294 -0.         -0.        ]"
"397","[21.69784252  0.         22.        ]","[1.02810565 0.         0.        ]","[-0.07853821 -0.         -0.        ]"
"398","[22.6436873  0.        22.       ]","[0.94584478 0.         0.        ]","[-0.08226087 -0.         -0.        ]"
"399","[23.50386976  0.         22.        ]","[0.86018247 0.         0.        ]","[-0.08566231 -0.         -0.        ]"
"400","[24.27531678  0.         22.        ]","[0.77144702 0.         0.        ]","[-0.08873545 -0.         -0.        ]"
"401","[24.95528923  0.         22.        ]","[0.67997244 0.         0.        ]","[-0.09147457 -0.         -0.        ]"
"402","[25.5413865  0.        22.       ]","[0.58609727 0.         0.        ]","[-0.09387517 -0.         -0.        ]"
"403","[26.03155001  0.         22.        ]","[0.49016351 0.         0.        ]","[-0.09593376 -0.         -0.        ]"
"404","[26.42406584  0.         22.        ]","[0.39251583 0.         0.        ]","[-0.09764769 -0.         -0.        ]"
"405","[26.71756664  0.         22.        ]","[0.2935008 0.        0.       ]","[-0.09901503 -0.         -0.        ]"
"406","[26.91103303  0.         22.        ]","[0.19346638 0.         0.        ]","[-0.10003442 -0.         -0.        ]"
"407","[27.00379448  0.         22.        ]","[0.09276145 0.         0.        ]","[-0.10070493 -0.         -0.        ]"
"408","[26.99552992  0.         22.        ]","[-0.00826456  0.          0.        ]","[-0.10102602 -0.         -0.        ]"
"409","[26.88626794  0.         22.        ]","[-0.10926198  0.          0.        ]","[-0.10099742 -0.         -0.        ]"
"410","[26.6763868  0.        22.       ]","[-0.20988114  0.          0.        ]","[-0.10061916 -0.         -0.        ]"
"411","[26.3666141  0.        22.       ]","[-0.30977269  0.          0.        ]","[-0.09989155 -0.         -0.        ]"
"412","[25.95802623  0.         22.        ]","[-0.40858787  0.          0.        ]","[-0.09881518 -0.         -0.        ]"
"413","[25.4520473  0.        22.       ]","[-0.50597893  0.          0.        ]","[-0.09739105 -0.         -0.        ]"
"414","[24.85044777  0.         22.        ]","[-0.60159953  0.          0.        ]","[-0.09562061 -0.         -0.        ]"
"415","[24.15534235  0.         22.        ]","[-0.69510543  0.          0.        ]","[-0.09350589 -0.         -0.        ]"
"416","[23.36918725  0.         22.        ]","[-0.78615509  0.          0.        ]","[-0.09104967 -0.         -0.        ]"
"417","[22.49477659  0.         22.        ]","[-0.87441067  0.          0.        ]","[-0.08825558 -0.         -0.        ]"
"418","[21.53523759  0.         22.        ]","[-0.95953899  0.          0.        ]","[-0.08512832 -0.         -0.        ]"
"419","[20.49402478  0.         22.        ]","[-1.04121282  0.          0.        ]","[-0.08167383 -0.         -0.        ]"
"420","[19.37491255  0.         22.        ]","[-1.11911223  0.          0.        ]","[-0.07789941 -0.         -0.        ]"
"421","[18.18198637  0.         22.        ]","[-1.19292618  0.          0.        ]","[-0.07381395 -0.         -0.        ]"
"422","[16.91963213  0.         22.        ]","[-1.26235424  0.          0.        ]","[-0.06942806 -0.         -0.        ]"
"423","[15.59252371  0.         22.        ]","[-1.32710842  0.          0.        ]","[-0.06475418 -0.         -0.        ]"
"424","[14.2056086  0.        22.       ]","[-1.38691512  0.          0.        ]","[-0.0598067 -0.        -0.       ]"
"425","[12.76409147  0.         22.        ]","[-1.44151712  0.          0.        ]","[-0.05460201 -0.         -0.        ]"
"426","[11.2734158  0.        22.       ]","[-1.49067567  0.          0.        ]","[-0.04915855 -0.         -0.        ]"
"427","[ 9.73924335  0.         22.        ]","[-1.53417245  0.          0.        ]","[-0.04349678 -0.         -0.        ]"
"428","[ 8.1674318  0.        22.       ]","[-1.57181155  0.          0.        ]","[-0.0376391 -0.        -0.       ]"
"429","[ 6.5640105  0.        22.       ]","[-1.6034213  0.         0.       ]","[-0.03160975 -0.         -0.        ]"
"430","[ 4.93515452  0.         22.        ]","[-1.62885598  0.          0.        ]","[-0.02543468 -0.         -0.        ]"
"431","[ 3.28715726  0.         22.        ]","[-1.64799726  0.          0.        ]","[-0.01914128 -0.         -0.        ]"
"432","[ 1.6264018  0.        22.       ]","[-1.66075546  0.          0.        ]","[-0.01275821 -0.         -0.        ]"
"433","[-0.04066871  0.         22.        ]","[-1.66707051  0.          0.        ]","[-0.00631505 -0.         -0.        ]"
"434","[-1.70758129  0.         22.        ]","[-1.66691258  0.          0.        ]","[0.00015793 0.         0.        ]"
"435","[-3.36786371  0.         22.        ]","[-1.66028242  0.          0.        ]","[0.00663017 0.         0.        ]"
"436","[-5.01507504  0.         22.        ]","[-1.64721133  0.          0.        ]","[0.01307109 0.         0.        ]"
"437","[-6.64283589  0.         22.        ]","[-1.62776086  0.          0.        ]","[0.01945047 0.         0.        ]"
"438","[-8.244858  0.       22.      ]","[-1.6020221  0.         0.       ]","[0.02573875 0.         0.        ]"
"439","[-9.81497275  0.         22.        ]","[-1.57011476  0.          0.        ]","[0.03190735 0.         0.        ]"
"440","[-11.3471586   0.         22.       ]","[-1.53218585  0.          0.        ]","[0.03792891 0.         0.        ]"
"441","[-12.83556686   0.          22.        ]","[-1.48840826  0.          0.        ]","[0.04377759 0.         0.        ]"
"442","[-14.2745459   0.         22.       ]","[-1.43897904  0.          0.        ]","[0.04942922 0.         0.        ]"
"443","[-15.65866346   0.          22.        ]","[-1.38411755  0.          0.        ]","[0.05486149 0.         0.        ]"
"444","[-16.98272696   0.          22.        ]","[-1.32406351  0.          0.        ]","[0.06005405 0.         0.        ]"
"445","[-18.24180191   0.          22.        ]","[-1.25907495  0.          0.        ]","[0.06498855 0.         0.        ]"
"446","[-19.43122815   0.          22.        ]","[-1.18942624  0.          0.        ]","[0.06964871 0.         0.        ]"
"447","[-20.54663417   0.          22.        ]","[-1.11540601  0.          0.        ]","[0.07402023 0.         0.        ]"
"448","[-21.58394943   0.          22.        ]","[-1.03731527  0.          0.        ]","[0.07809075 0.         0.        ]"
"449","[-22.53941495   0.          22.        ]","[-0.95546551  0.          0.        ]","[0.08184976 0.         0.        ]"
"450","[-23.409592   0.        22.      ]","[-0.87017706  0.          0.        ]","[0.08528845 0.         0.        ]"
"451","[-24.19136947   0.          22.        ]","[-0.78177747  0.          0.        ]","[0.08839959 0.         0.        ]"
"452","[-24.88196963   0.          22.        ]","[-0.69060016  0.          0.        ]","[0.0911773 0.        0.       ]"
"453","[-25.47895284   0.          22.        ]","[-0.59698321  0.          0.        ]","[0.09361695 0.         0.        ]"
"454","[-25.98022111   0.          22.        ]","[-0.50126827  0.          0.        ]","[0.09571494 0.         0.        ]"
"455","[-26.38402084   0.          22.        ]","[-0.40379973  0.          0.        ]","[0.09746854 0.         0.        ]"
"456","[-26.68894482   0.          22.        ]","[-0.30492399  0.          0.        ]","[0.09887574 0.         0.        ]"
"457","[-26.89393369   0.          22.        ]","[-0.20498886  0.          0.        ]","[0.09993512 0.         0.        ]"
"458","[-26.99827684   0.          22.        ]","[-0.10434315  0.          0.        ]","[0.10064571 0.         0.        ]"
"459","[-27.00161307   0.          22.        ]","[-0.00333623  0.          0.        ]","[0.10100692 0.         0.        ]"
"460","[-26.90393083   0.          22.        ]","[0.09768224 0.         0.        ]","[0.10101847 0.         0.        ]"
"461","[-26.70556825   0.          22.        ]","[0.19836258 0.         0.        ]","[0.10068034 0.         0.        ]"
"462","[-26.40721288   0.          22.        ]","[0.29835537 0.         0.        ]","[0.09999279 0.         0.        ]"
"463","[-26.00990109   0.          22.        ]","[0.39731179 0.         0.        ]","[0.09895642 0.         0.        ]"
"464","[-25.51501717   0.          22.        ]","[0.49488392 0.         0.        ]","[0.09757214 0.         0.        ]"
"465","[-24.9242919   0.         22.       ]","[0.59072527 0.         0.        ]","[0.09584135 0.         0.        ]"
"466","[-24.2398006   0.         22.       ]","[0.6844913 0.        0.       ]","[0.09376603 0.         0.        ]"
"467","[-23.46396047   0.          22.        ]","[0.77584013 0.         0.        ]","[0.09134883 0.         0.        ]"
"468","[-22.59952703   0.          22.        ]","[0.86443343 0.         0.        ]","[0.0885933 0.        0.       ]"
"469","[-21.64958958   0.          22.        ]","[0.94993745 0.         0.        ]","[0.08550401 0.         0.        ]"
"470","[-20.6175654   0.         22.       ]","[1.03202418 0.         0.        ]","[0.08208673 0.         0.        ]"
"471","[-19.50719261   0.          22.        ]","[1.1103728 0.        0.       ]","[0.07834861 0.         0.        ]"
"472","[-18.32252146   0.          22.        ]","[1.18467115 0.         0.        ]","[0.07429835 0.         0.        ]"
"473","[-17.06790396   0.          22.        ]","[1.2546175 0.        0.       ]","[0.06994635 0.         0.        ]"
"474","[-15.74798162   0.          22.        ]","[1.31992233 0.         0.        ]","[0.06530483 0.         0.        ]"
"475","[-14.36767133   0.          22.        ]","[1.38031029 0.         0.        ]","[0.06038796 0.         0.        ]"
"476","[-12.93214915   0.          22.        ]","[1.43552218 0.         0.        ]","[0.05521189 0.         0.        ]"
"477","[-11.44683213   0.          22.        ]","[1.48531702 0.         0.        ]","[0.04979484 0.         0.        ]"
"478","[-9.91735809  0.         22.        ]","[1.52947404 0.         0.        ]","[0.04415702 0.         0.        ]"
"479","[-8.34956342  0.         22.        ]","[1.56779467 0.         0.        ]","[0.03832063 0.         0.        ]"
"480","[-6.74945905  0.         22.        ]","[1.60010437 0.         0.        ]","[0.0323097 0.        0.       ]"
"481","[-5.1232047  0.        22.       ]","[1.62625435 0.         0.        ]","[0.02614998 0.         0.        ]"
"482","[-3.47708161  0.         22.        ]","[1.64612309 0.         0.        ]","[0.01986873 0.         0.        ]"
"483","[-1.81746406  0.         22.        ]","[1.65961755 0.         0.        ]","[0.01349446 0.         0.        ]"
"484","[-0.15078983  0.         22.        ]","[1.66667423 0.         0.        ]","[0.00705668 0.         0.        ]"
"485","[ 1.51646997  0.         22.        ]","[1.6672598 0.        0.       ]","[0.00058557 0.         0.        ]"
"486","[ 3.17784146  0.         22.        ]","[1.66137149 0.         0.        ]","[-0.00588831 -0.         -0.        ]"
"487","[ 4.82687859  0.         22.        ]","[1.64903713 0.         0.        ]","[-0.01233437 -0.         -0.        ]"
"488","[ 6.45719338  0.         22.        ]","[1.63031479 0.         0.        ]","[-0.01872233 -0.         -0.        ]"
"489","[ 8.06248563  0.         22.        ]","[1.60529225 0.         0.        ]","[-0.02502254 -0.         -0.        ]"
"490","[ 9.63657159  0.         22.        ]","[1.57408596 0.         0.        ]","[-0.03120629 -0.         -0.        ]"
"491","[11.17341149  0.         22.        ]","[1.53683989 0.         0.        ]","[-0.03724607 -0.         -0.        ]"
"492","[12.66713552  0.         22.        ]","[1.49372404 0.         0.        ]","[-0.04311585 -0.         -0.        ]"
"493","[14.11206829  0.         22.        ]","[1.44493277 0.         0.        ]","[-0.04879127 -0.         -0.        ]"
"494","[15.50275127  0.         22.        ]","[1.39068298 0.         0.        ]","[-0.05424979 -0.         -0.        ]"
"495","[16.83396341  0.         22.        ]","[1.33121214 0.         0.        ]","[-0.05947083 -0.         -0.        ]"
"496","[18.10073973  0.         22.        ]","[1.26677632 0.         0.        ]","[-0.06443583 -0.         -0.        ]"
"497","[19.29838781  0.         22.        ]","[1.19764808 0.         0.        ]","[-0.06912824 -0.         -0.        ]"
"498","[20.42250234  0.         22.        ]","[1.12411454 0.         0.        ]","[-0.07353354 -0.         -0.        ]"
"499","[21.4689777  0.        22.       ]","[1.04647536 0.         0.        ]","[-0.07763918 -0.         -0.        ]"
