"time","theta3d","omega3d","alpha3d"
"0","[42.97237907  0.         26.        ]","[-0.02762093  0.          0.        ]","[-0.02762093 -0.         -0.        ]"
"1","[42.91715148  0.         26.        ]","[-0.05522758  0.          0.        ]","[-0.02760665 -0.         -0.        ]"
"2","[42.83434582  0.         26.        ]","[-0.08280566  0.          0.        ]","[-0.02757808 -0.         -0.        ]"
"3","[42.72400498  0.         26.        ]","[-0.11034084  0.          0.        ]","[-0.02753518 -0.         -0.        ]"
"4","[42.5861862  0.        26.       ]","[-0.13781878  0.          0.        ]","[-0.02747793 -0.         -0.        ]"
"5","[42.42096114  0.         26.        ]","[-0.16522506  0.          0.        ]","[-0.02740629 -0.         -0.        ]"
"6","[42.22841589  0.         26.        ]","[-0.19254525  0.          0.        ]","[-0.02732019 -0.         -0.        ]"
"7","[42.00865108  0.         26.        ]","[-0.21976481  0.          0.        ]","[-0.02721956 -0.         -0.        ]"
"8","[41.76178194  0.         26.        ]","[-0.24686914  0.          0.        ]","[-0.02710433 -0.         -0.        ]"
"9","[41.48793837  0.         26.        ]","[-0.27384356  0.          0.        ]","[-0.02697442 -0.         -0.        ]"
"10","[41.18726508  0.         26.        ]","[-0.30067329  0.          0.        ]","[-0.02682973 -0.         -0.        ]"
"11","[40.85992164  0.         26.        ]","[-0.32734344  0.          0.        ]","[-0.02667015 -0.         -0.        ]"
"12","[40.50608262  0.         26.        ]","[-0.35383902  0.          0.        ]","[-0.02649558 -0.         -0.        ]"
"13","[40.12593768  0.         26.        ]","[-0.38014494  0.          0.        ]","[-0.02630592 -0.         -0.        ]"
"14","[39.71969171  0.         26.        ]","[-0.40624597  0.          0.        ]","[-0.02610103 -0.         -0.        ]"
"15","[39.28756494  0.         26.        ]","[-0.43212677  0.          0.        ]","[-0.0258808 -0.        -0.       ]"
"16","[38.82979305  0.         26.        ]","[-0.45777189  0.          0.        ]","[-0.02564512 -0.         -0.        ]"
"17","[38.34662729  0.         26.        ]","[-0.48316576  0.          0.        ]","[-0.02539386 -0.         -0.        ]"
"18","[37.83833463  0.         26.        ]","[-0.50829267  0.          0.        ]","[-0.02512691 -0.         -0.        ]"
"19","[37.30519782  0.         26.        ]","[-0.53313681  0.          0.        ]","[-0.02484414 -0.         -0.        ]"
"20","[36.74751556  0.         26.        ]","[-0.55768226  0.          0.        ]","[-0.02454545 -0.         -0.        ]"
"21","[36.16560256  0.         26.        ]","[-0.581913  0.        0.      ]","[-0.02423074 -0.         -0.        ]"
"22","[35.55978966  0.         26.        ]","[-0.6058129  0.         0.       ]","[-0.0238999 -0.        -0.       ]"
"23","[34.93042389  0.         26.        ]","[-0.62936577  0.          0.        ]","[-0.02355286 -0.         -0.        ]"
"24","[34.27786858  0.         26.        ]","[-0.65255531  0.          0.        ]","[-0.02318954 -0.         -0.        ]"
"25","[33.6025034  0.        26.       ]","[-0.67536519  0.          0.        ]","[-0.02280988 -0.         -0.        ]"
"26","[32.90472437  0.         26.        ]","[-0.69777902  0.          0.        ]","[-0.02241383 -0.         -0.        ]"
"27","[32.18494398  0.         26.        ]","[-0.71978039  0.          0.        ]","[-0.02200137 -0.         -0.        ]"
"28","[31.44359111  0.         26.        ]","[-0.74135287  0.          0.        ]","[-0.02157248 -0.         -0.        ]"
"29","[30.68111106  0.         26.        ]","[-0.76248006  0.          0.        ]","[-0.02112718 -0.         -0.        ]"
"30","[29.89796549  0.         26.        ]","[-0.78314556  0.          0.        ]","[-0.02066551 -0.         -0.        ]"
"31","[29.09463242  0.         26.        ]","[-0.80333307  0.          0.        ]","[-0.02018751 -0.         -0.        ]"
"32","[28.27160609  0.         26.        ]","[-0.82302634  0.          0.        ]","[-0.01969327 -0.         -0.        ]"
"33","[27.42939685  0.         26.        ]","[-0.84220924  0.          0.        ]","[-0.0191829 -0.        -0.       ]"
"34","[26.56853108  0.         26.        ]","[-0.86086577  0.          0.        ]","[-0.01865654 -0.         -0.        ]"
"35","[25.68955095  0.         26.        ]","[-0.87898012  0.          0.        ]","[-0.01811435 -0.         -0.        ]"
"36","[24.79301429  0.         26.        ]","[-0.89653666  0.          0.        ]","[-0.01755654 -0.         -0.        ]"
"37","[23.8794943  0.        26.       ]","[-0.91351999  0.          0.        ]","[-0.01698333 -0.         -0.        ]"
"38","[22.94957933  0.         26.        ]","[-0.92991497  0.          0.        ]","[-0.01639498 -0.         -0.        ]"
"39","[22.00387257  0.         26.        ]","[-0.94570677  0.          0.        ]","[-0.0157918 -0.        -0.       ]"
"40","[21.0429917  0.        26.       ]","[-0.96088087  0.          0.        ]","[-0.01517411 -0.         -0.        ]"
"41","[20.06756855  0.         26.        ]","[-0.97542314  0.          0.        ]","[-0.01454227 -0.         -0.        ]"
"42","[19.07824873  0.         26.        ]","[-0.98931983  0.          0.        ]","[-0.01389669 -0.         -0.        ]"
"43","[18.0756911  0.        26.       ]","[-1.00255762  0.          0.        ]","[-0.0132378 -0.        -0.       ]"
"44","[17.06056742  0.         26.        ]","[-1.01512368  0.          0.        ]","[-0.01256606 -0.         -0.        ]"
"45","[16.03356175  0.         26.        ]","[-1.02700567  0.          0.        ]","[-0.01188199 -0.         -0.        ]"
"46","[14.99536996  0.         26.        ]","[-1.03819179  0.          0.        ]","[-0.01118612 -0.         -0.        ]"
"47","[13.94669916  0.         26.        ]","[-1.0486708  0.         0.       ]","[-0.01047901 -0.         -0.        ]"
"48","[12.88826708  0.         26.        ]","[-1.05843207  0.          0.        ]","[-0.00976128 -0.         -0.        ]"
"49","[11.82080146  0.         26.        ]","[-1.06746562  0.          0.        ]","[-0.00903355 -0.         -0.        ]"
"50","[10.74503936  0.         26.        ]","[-1.0757621  0.         0.       ]","[-0.00829648 -0.         -0.        ]"
"51","[ 9.66172648  0.         26.        ]","[-1.08331288  0.          0.        ]","[-0.00755078 -0.         -0.        ]"
"52","[ 8.57161645  0.         26.        ]","[-1.09011003  0.          0.        ]","[-0.00679715 -0.         -0.        ]"
"53","[ 7.47547007  0.         26.        ]","[-1.09614638  0.          0.        ]","[-0.00603634 -0.         -0.        ]"
"54","[ 6.37405458  0.         26.        ]","[-1.10141549  0.          0.        ]","[-0.00526912 -0.         -0.        ]"
"55","[ 5.26814282  0.         26.        ]","[-1.10591176  0.          0.        ]","[-0.00449627 -0.         -0.        ]"
"56","[ 4.15851247  0.         26.        ]","[-1.10963035  0.          0.        ]","[-0.00371859 -0.         -0.        ]"
"57","[ 3.04594522  0.         26.        ]","[-1.11256725  0.          0.        ]","[-0.0029369 -0.        -0.       ]"
"58","[ 1.93122594  0.         26.        ]","[-1.11471928  0.          0.        ]","[-0.00215204 -0.         -0.        ]"
"59","[ 0.81514181  0.         26.        ]","[-1.11608413  0.          0.        ]","[-0.00136484 -0.         -0.        ]"
"60","[-0.30151849  0.         26.        ]","[-1.1166603  0.         0.       ]","[-0.00057617 -0.         -0.        ]"
"61","[-1.41796565  0.         26.        ]","[-1.11644717  0.          0.        ]","[0.00021313 0.         0.        ]"
"62","[-2.53341062  0.         26.        ]","[-1.11544497  0.          0.        ]","[0.0010022 0.        0.       ]"
"63","[-3.64706542  0.         26.        ]","[-1.11365479  0.          0.        ]","[0.00179018 0.         0.        ]"
"64","[-4.75814399  0.         26.        ]","[-1.11107857  0.          0.        ]","[0.00257622 0.         0.        ]"
"65","[-5.86586309  0.         26.        ]","[-1.1077191  0.         0.       ]","[0.00335947 0.         0.        ]"
"66","[-6.9694431  0.        26.       ]","[-1.10358001  0.          0.        ]","[0.00413909 0.         0.        ]"
"67","[-8.06810884  0.         26.        ]","[-1.09866574  0.          0.        ]","[0.00491427 0.         0.        ]"
"68","[-9.1610904  0.        26.       ]","[-1.09298156  0.          0.        ]","[0.00568418 0.         0.        ]"
"69","[-10.24762392   0.          26.        ]","[-1.08653352  0.          0.        ]","[0.00644804 0.         0.        ]"
"70","[-11.32695238   0.          26.        ]","[-1.07932846  0.          0.        ]","[0.00720506 0.         0.        ]"
"71","[-12.39832634   0.          26.        ]","[-1.07137396  0.          0.        ]","[0.0079545 0.        0.       ]"
"72","[-13.46100468   0.          26.        ]","[-1.06267834  0.          0.        ]","[0.00869563 0.         0.        ]"
"73","[-14.51425528   0.          26.        ]","[-1.0532506  0.         0.       ]","[0.00942773 0.         0.        ]"
"74","[-15.55735574   0.          26.        ]","[-1.04310046  0.          0.        ]","[0.01015015 0.         0.        ]"
"75","[-16.58959398   0.          26.        ]","[-1.03223824  0.          0.        ]","[0.01086222 0.         0.        ]"
"76","[-17.61026889   0.          26.        ]","[-1.02067491  0.          0.        ]","[0.01156333 0.         0.        ]"
"77","[-18.6186909   0.         26.       ]","[-1.00842201  0.          0.        ]","[0.0122529 0.        0.       ]"
"78","[-19.61418254   0.          26.        ]","[-0.99549164  0.          0.        ]","[0.01293037 0.         0.        ]"
"79","[-20.59607895   0.          26.        ]","[-0.98189641  0.          0.        ]","[0.01359523 0.         0.        ]"
"80","[-21.56372836   0.          26.        ]","[-0.96764941  0.          0.        ]","[0.01424699 0.         0.        ]"
"81","[-22.51649257   0.          26.        ]","[-0.95276421  0.          0.        ]","[0.0148852 0.        0.       ]"
"82","[-23.45374733   0.          26.        ]","[-0.93725476  0.          0.        ]","[0.01550945 0.         0.        ]"
"83","[-24.37488274   0.          26.        ]","[-0.92113541  0.          0.        ]","[0.01611935 0.         0.        ]"
"84","[-25.2793036   0.         26.       ]","[-0.90442085  0.          0.        ]","[0.01671456 0.         0.        ]"
"85","[-26.16642969   0.          26.        ]","[-0.88712609  0.          0.        ]","[0.01729477 0.         0.        ]"
"86","[-27.03569608   0.          26.        ]","[-0.86926639  0.          0.        ]","[0.01785969 0.         0.        ]"
"87","[-27.88655338   0.          26.        ]","[-0.8508573  0.         0.       ]","[0.01840909 0.         0.        ]"
"88","[-28.71846793   0.          26.        ]","[-0.83191454  0.          0.        ]","[0.01894276 0.         0.        ]"
"89","[-29.53092197   0.          26.        ]","[-0.81245404  0.          0.        ]","[0.0194605 0.        0.       ]"
"90","[-30.32341384   0.          26.        ]","[-0.79249187  0.          0.        ]","[0.01996218 0.         0.        ]"
"91","[-31.09545805   0.          26.        ]","[-0.77204421  0.          0.        ]","[0.02044766 0.         0.        ]"
"92","[-31.84658541   0.          26.        ]","[-0.75112736  0.          0.        ]","[0.02091685 0.         0.        ]"
"93","[-32.57634308   0.          26.        ]","[-0.72975767  0.          0.        ]","[0.02136969 0.         0.        ]"
"94","[-33.28429463   0.          26.        ]","[-0.70795154  0.          0.        ]","[0.02180613 0.         0.        ]"
"95","[-33.97002003   0.          26.        ]","[-0.6857254  0.         0.       ]","[0.02222614 0.         0.        ]"
"96","[-34.63311568   0.          26.        ]","[-0.66309566  0.          0.        ]","[0.02262974 0.         0.        ]"
"97","[-35.27319441   0.          26.        ]","[-0.64007872  0.          0.        ]","[0.02301694 0.         0.        ]"
"98","[-35.88988536   0.          26.        ]","[-0.61669096  0.          0.        ]","[0.02338777 0.         0.        ]"
"99","[-36.48283403   0.          26.        ]","[-0.59294867  0.          0.        ]","[0.02374229 0.         0.        ]"
"100","[-37.05170213   0.          26.        ]","[-0.5688681  0.         0.       ]","[0.02408057 0.         0.        ]"
"101","[-37.59616754   0.          26.        ]","[-0.54446541  0.          0.        ]","[0.02440269 0.         0.        ]"
"102","[-38.11592423   0.          26.        ]","[-0.51975668  0.          0.        ]","[0.02470873 0.         0.        ]"
"103","[-38.6106821   0.         26.       ]","[-0.49475787  0.          0.        ]","[0.02499881 0.         0.        ]"
"104","[-39.08016694   0.          26.        ]","[-0.46948485  0.          0.        ]","[0.02527302 0.         0.        ]"
"105","[-39.5241203   0.         26.       ]","[-0.44395336  0.          0.        ]","[0.02553149 0.         0.        ]"
"106","[-39.94229934   0.          26.        ]","[-0.41817904  0.          0.        ]","[0.02577432 0.         0.        ]"
"107","[-40.33447673   0.          26.        ]","[-0.3921774  0.         0.       ]","[0.02600164 0.         0.        ]"
"108","[-40.70044056   0.          26.        ]","[-0.36596383  0.          0.        ]","[0.02621357 0.         0.        ]"
"109","[-41.03999417   0.          26.        ]","[-0.33955361  0.          0.        ]","[0.02641022 0.         0.        ]"
"110","[-41.35295605   0.          26.        ]","[-0.31296189  0.          0.        ]","[0.02659172 0.         0.        ]"
"111","[-41.63915976   0.          26.        ]","[-0.28620371  0.          0.        ]","[0.02675818 0.         0.        ]"
"112","[-41.89845377   0.          26.        ]","[-0.259294  0.        0.      ]","[0.0269097 0.        0.       ]"
"113","[-42.13070137   0.          26.        ]","[-0.2322476  0.         0.       ]","[0.0270464 0.        0.       ]"
"114","[-42.33578059   0.          26.        ]","[-0.20507922  0.          0.        ]","[0.02716838 0.         0.        ]"
"115","[-42.5135841   0.         26.       ]","[-0.17780351  0.          0.        ]","[0.02727571 0.         0.        ]"
"116","[-42.66401913   0.          26.        ]","[-0.15043503  0.          0.        ]","[0.02736848 0.         0.        ]"
"117","[-42.7870074   0.         26.       ]","[-0.12298826  0.          0.        ]","[0.02744677 0.         0.        ]"
"118","[-42.88248503   0.          26.        ]","[-0.09547763  0.          0.        ]","[0.02751063 0.         0.        ]"
"119","[-42.95040253   0.          26.        ]","[-0.0679175  0.         0.       ]","[0.02756012 0.         0.        ]"
"120","[-42.99072475   0.          26.        ]","[-0.04032222  0.          0.        ]","[0.02759528 0.         0.        ]"
"121","[-43.00343084   0.          26.        ]","[-0.01270608  0.          0.        ]","[0.02761614 0.         0.        ]"
"122","[-42.98851421   0.          26.        ]","[0.01491662 0.         0.        ]","[0.02762271 0.         0.        ]"
"123","[-42.94598259   0.          26.        ]","[0.04253162 0.         0.        ]","[0.027615 0.       0.      ]"
"124","[-42.87585798   0.          26.        ]","[0.07012462 0.         0.        ]","[0.027593 0.       0.      ]"
"125","[-42.77817667   0.          26.        ]","[0.09768131 0.         0.        ]","[0.02755669 0.         0.        ]"
"126","[-42.65298931   0.          26.        ]","[0.12518736 0.         0.        ]","[0.02750605 0.         0.        ]"
"127","[-42.50036091   0.          26.        ]","[0.1526284 0.        0.       ]","[0.02744104 0.         0.        ]"
"128","[-42.32037093   0.          26.        ]","[0.17998999 0.         0.        ]","[0.02736159 0.         0.        ]"
"129","[-42.11311328   0.          26.        ]","[0.20725764 0.         0.        ]","[0.02726766 0.         0.        ]"
"130","[-41.87869649   0.          26.        ]","[0.2344168 0.        0.       ]","[0.02715915 0.         0.        ]"
"131","[-41.61724368   0.          26.        ]","[0.26145281 0.         0.        ]","[0.02703601 0.         0.        ]"
"132","[-41.32889275   0.          26.        ]","[0.28835093 0.         0.        ]","[0.02689813 0.         0.        ]"
"133","[-41.01379641   0.          26.        ]","[0.31509634 0.         0.        ]","[0.02674541 0.         0.        ]"
"134","[-40.67212232   0.          26.        ]","[0.34167409 0.         0.        ]","[0.02657775 0.         0.        ]"
"135","[-40.30405319   0.          26.        ]","[0.36806913 0.         0.        ]","[0.02639504 0.         0.        ]"
"136","[-39.90978689   0.          26.        ]","[0.3942663 0.        0.       ]","[0.02619717 0.         0.        ]"
"137","[-39.48953657   0.          26.        ]","[0.42025032 0.         0.        ]","[0.02598402 0.         0.        ]"
"138","[-39.04353079   0.          26.        ]","[0.44600578 0.         0.        ]","[0.02575546 0.         0.        ]"
"139","[-38.57201363   0.          26.        ]","[0.47151716 0.         0.        ]","[0.02551138 0.         0.        ]"
"140","[-38.07524481   0.          26.        ]","[0.49676882 0.         0.        ]","[0.02525166 0.         0.        ]"
"141","[-37.5534998   0.         26.       ]","[0.521745 0.       0.      ]","[0.02497618 0.         0.        ]"
"142","[-37.00706997   0.          26.        ]","[0.54642983 0.         0.        ]","[0.02468483 0.         0.        ]"
"143","[-36.43626264   0.          26.        ]","[0.57080733 0.         0.        ]","[0.0243775 0.        0.       ]"
"144","[-35.84140122   0.          26.        ]","[0.59486142 0.         0.        ]","[0.02405409 0.         0.        ]"
"145","[-35.22282528   0.          26.        ]","[0.61857594 0.         0.        ]","[0.02371452 0.         0.        ]"
"146","[-34.58089066   0.          26.        ]","[0.64193463 0.         0.        ]","[0.02335869 0.         0.        ]"
"147","[-33.91596948   0.          26.        ]","[0.66492118 0.         0.        ]","[0.02298655 0.         0.        ]"
"148","[-33.22845025   0.          26.        ]","[0.68751923 0.         0.        ]","[0.02259805 0.         0.        ]"
"149","[-32.51873789   0.          26.        ]","[0.70971236 0.         0.        ]","[0.02219314 0.         0.        ]"
"150","[-31.78725372   0.          26.        ]","[0.73148416 0.         0.        ]","[0.0217718 0.        0.       ]"
"151","[-31.03443551   0.          26.        ]","[0.75281822 0.         0.        ]","[0.02133405 0.         0.        ]"
"152","[-30.26073739   0.          26.        ]","[0.77369812 0.         0.        ]","[0.0208799 0.        0.       ]"
"153","[-29.46662987   0.          26.        ]","[0.79410752 0.         0.        ]","[0.0204094 0.        0.       ]"
"154","[-28.65259973   0.          26.        ]","[0.81403014 0.         0.        ]","[0.01992262 0.         0.        ]"
"155","[-27.81914993   0.          26.        ]","[0.8334498 0.        0.       ]","[0.01941966 0.         0.        ]"
"156","[-26.9667995   0.         26.       ]","[0.85235043 0.         0.        ]","[0.01890063 0.         0.        ]"
"157","[-26.09608337   0.          26.        ]","[0.87071613 0.         0.        ]","[0.0183657 0.        0.       ]"
"158","[-25.20755219   0.          26.        ]","[0.88853118 0.         0.        ]","[0.01781505 0.         0.        ]"
"159","[-24.30177211   0.          26.        ]","[0.90578007 0.         0.        ]","[0.01724889 0.         0.        ]"
"160","[-23.37932457   0.          26.        ]","[0.92244755 0.         0.        ]","[0.01666747 0.         0.        ]"
"161","[-22.44080594   0.          26.        ]","[0.93851862 0.         0.        ]","[0.01607108 0.         0.        ]"
"162","[-21.48682731   0.          26.        ]","[0.95397864 0.         0.        ]","[0.01546001 0.         0.        ]"
"163","[-20.51801404   0.          26.        ]","[0.96881327 0.         0.        ]","[0.01483464 0.         0.        ]"
"164","[-19.53500544   0.          26.        ]","[0.9830086 0.        0.       ]","[0.01419533 0.         0.        ]"
"165","[-18.53845434   0.          26.        ]","[0.9965511 0.        0.       ]","[0.0135425 0.        0.       ]"
"166","[-17.52902663   0.          26.        ]","[1.00942771 0.         0.        ]","[0.01287661 0.         0.        ]"
"167","[-16.50740077   0.          26.        ]","[1.02162586 0.         0.        ]","[0.01219815 0.         0.        ]"
"168","[-15.47426727   0.          26.        ]","[1.0331335 0.        0.       ]","[0.01150764 0.         0.        ]"
"169","[-14.43032815   0.          26.        ]","[1.04393912 0.         0.        ]","[0.01080563 0.         0.        ]"
"170","[-13.37629632   0.          26.        ]","[1.05403183 0.         0.        ]","[0.0100927 0.        0.       ]"
"171","[-12.312895   0.        26.      ]","[1.06340132 0.         0.        ]","[0.00936949 0.         0.        ]"
"172","[-11.24085705   0.          26.        ]","[1.07203795 0.         0.        ]","[0.00863664 0.         0.        ]"
"173","[-10.16092428   0.          26.        ]","[1.07993277 0.         0.        ]","[0.00789482 0.         0.        ]"
"174","[-9.07384676  0.         26.        ]","[1.08707752 0.         0.        ]","[0.00714475 0.         0.        ]"
"175","[-7.98038209  0.         26.        ]","[1.09346467 0.         0.        ]","[0.00638715 0.         0.        ]"
"176","[-6.88129465  0.         26.        ]","[1.09908744 0.         0.        ]","[0.00562278 0.         0.        ]"
"177","[-5.77735479  0.         26.        ]","[1.10393986 0.         0.        ]","[0.00485242 0.         0.        ]"
"178","[-4.66933807  0.         26.        ]","[1.10801671 0.         0.        ]","[0.00407685 0.         0.        ]"
"179","[-3.55802445  0.         26.        ]","[1.11131362 0.         0.        ]","[0.00329691 0.         0.        ]"
"180","[-2.44419742  0.         26.        ]","[1.11382703 0.         0.        ]","[0.0025134 0.        0.       ]"
"181","[-1.32864322  0.         26.        ]","[1.1155542 0.        0.       ]","[0.00172718 0.         0.        ]"
"182","[-0.21214994  0.         26.        ]","[1.11649328 0.         0.        ]","[0.00093908 0.         0.        ]"
"183","[ 0.9044933  0.        26.       ]","[1.11664324 0.         0.        ]","[0.00014996 0.         0.        ]"
"184","[ 2.02049722  0.         26.        ]","[1.11600392 0.         0.        ]","[-0.00063932 -0.         -0.        ]"
"185","[ 3.13507323  0.         26.        ]","[1.11457601 0.         0.        ]","[-0.00142791 -0.         -0.        ]"
"186","[ 4.24743429  0.         26.        ]","[1.11236106 0.         0.        ]","[-0.00221495 -0.         -0.        ]"
"187","[ 5.35679577  0.         26.        ]","[1.10936148 0.         0.        ]","[-0.00299959 -0.         -0.        ]"
"188","[ 6.46237627  0.         26.        ]","[1.1055805 0.        0.       ]","[-0.00378098 -0.         -0.        ]"
"189","[ 7.56339846  0.         26.        ]","[1.10102219 0.         0.        ]","[-0.00455831 -0.         -0.        ]"
"190","[ 8.65908991  0.         26.        ]","[1.09569145 0.         0.        ]","[-0.00533074 -0.         -0.        ]"
"191","[ 9.74868388  0.         26.        ]","[1.08959398 0.         0.        ]","[-0.00609748 -0.         -0.        ]"
"192","[10.83142012  0.         26.        ]","[1.08273624 0.         0.        ]","[-0.00685774 -0.         -0.        ]"
"193","[11.9065456  0.        26.       ]","[1.07512548 0.         0.        ]","[-0.00761076 -0.         -0.        ]"
"194","[12.97331528  0.         26.        ]","[1.06676968 0.         0.        ]","[-0.0083558 -0.        -0.       ]"
"195","[14.03099283  0.         26.        ]","[1.05767754 0.         0.        ]","[-0.00909214 -0.         -0.        ]"
"196","[15.07885128  0.         26.        ]","[1.04785845 0.         0.        ]","[-0.00981909 -0.         -0.        ]"
"197","[16.11617373  0.         26.        ]","[1.03732245 0.         0.        ]","[-0.010536 -0.       -0.      ]"
"198","[17.14225396  0.         26.        ]","[1.02608023 0.         0.        ]","[-0.01124223 -0.         -0.        ]"
"199","[18.15639701  0.         26.        ]","[1.01414305 0.         0.        ]","[-0.01193718 -0.         -0.        ]"
"200","[19.15791978  0.         26.        ]","[1.00152277 0.         0.        ]","[-0.01262028 -0.         -0.        ]"
"201","[20.14615154  0.         26.        ]","[0.98823176 0.         0.        ]","[-0.01329101 -0.         -0.        ]"
"202","[21.12043445  0.         26.        ]","[0.97428291 0.         0.        ]","[-0.01394885 -0.         -0.        ]"
"203","[22.08012402  0.         26.        ]","[0.95968957 0.         0.        ]","[-0.01459335 -0.         -0.        ]"
"204","[23.02458952  0.         26.        ]","[0.9444655 0.        0.       ]","[-0.01522406 -0.         -0.        ]"
"205","[23.95321442  0.         26.        ]","[0.92862489 0.         0.        ]","[-0.01584061 -0.         -0.        ]"
"206","[24.8653967  0.        26.       ]","[0.91218228 0.         0.        ]","[-0.01644262 -0.         -0.        ]"
"207","[25.76054921  0.         26.        ]","[0.89515252 0.         0.        ]","[-0.01702976 -0.         -0.        ]"
"208","[26.63809998  0.         26.        ]","[0.87755077 0.         0.        ]","[-0.01760175 -0.         -0.        ]"
"209","[27.49749243  0.         26.        ]","[0.85939245 0.         0.        ]","[-0.01815832 -0.         -0.        ]"
"210","[28.33818563  0.         26.        ]","[0.8406932 0.        0.       ]","[-0.01869925 -0.         -0.        ]"
"211","[29.1596545  0.        26.       ]","[0.82146887 0.         0.        ]","[-0.01922433 -0.         -0.        ]"
"212","[29.96138995  0.         26.        ]","[0.80173545 0.         0.        ]","[-0.01973342 -0.         -0.        ]"
"213","[30.74289904  0.         26.        ]","[0.78150909 0.         0.        ]","[-0.02022636 -0.         -0.        ]"
"214","[31.50370507  0.         26.        ]","[0.76080603 0.         0.        ]","[-0.02070306 -0.         -0.        ]"
"215","[32.24334768  0.         26.        ]","[0.73964261 0.         0.        ]","[-0.02116342 -0.         -0.        ]"
"216","[32.96138288  0.         26.        ]","[0.7180352 0.        0.       ]","[-0.02160741 -0.         -0.        ]"
"217","[33.65738309  0.         26.        ]","[0.69600022 0.         0.        ]","[-0.02203498 -0.         -0.        ]"
"218","[34.33093718  0.         26.        ]","[0.67355408 0.         0.        ]","[-0.02244613 -0.         -0.        ]"
"219","[34.9816504  0.        26.       ]","[0.65071322 0.         0.        ]","[-0.02284087 -0.         -0.        ]"
"220","[35.60914439  0.         26.        ]","[0.627494 0.       0.      ]","[-0.02321922 -0.         -0.        ]"
"221","[36.21305716  0.         26.        ]","[0.60391276 0.         0.        ]","[-0.02358124 -0.         -0.        ]"
"222","[36.79304294  0.         26.        ]","[0.57998579 0.         0.        ]","[-0.02392698 -0.         -0.        ]"
"223","[37.34877221  0.         26.        ]","[0.55572927 0.         0.        ]","[-0.02425652 -0.         -0.        ]"
"224","[37.87993153  0.         26.        ]","[0.53115932 0.         0.        ]","[-0.02456995 -0.         -0.        ]"
"225","[38.3862235  0.        26.       ]","[0.50629197 0.         0.        ]","[-0.02486736 -0.         -0.        ]"
"226","[38.86736661  0.         26.        ]","[0.48114311 0.         0.        ]","[-0.02514885 -0.         -0.        ]"
"227","[39.32309518  0.         26.        ]","[0.45572857 0.         0.        ]","[-0.02541455 -0.         -0.        ]"
"228","[39.75315919  0.         26.        ]","[0.43006401 0.         0.        ]","[-0.02566456 -0.         -0.        ]"
"229","[40.1573242  0.        26.       ]","[0.40416501 0.         0.        ]","[-0.025899 -0.       -0.      ]"
"230","[40.53537123  0.         26.        ]","[0.37804702 0.         0.        ]","[-0.02611799 -0.         -0.        ]"
"231","[40.8870966  0.        26.       ]","[0.35172537 0.         0.        ]","[-0.02632165 -0.         -0.        ]"
"232","[41.21231186  0.         26.        ]","[0.32521526 0.         0.        ]","[-0.02651011 -0.         -0.        ]"
"233","[41.51084366  0.         26.        ]","[0.29853179 0.         0.        ]","[-0.02668347 -0.         -0.        ]"
"234","[41.7825336  0.        26.       ]","[0.27168994 0.         0.        ]","[-0.02684185 -0.         -0.        ]"
"235","[42.02723818  0.         26.        ]","[0.24470458 0.         0.        ]","[-0.02698536 -0.         -0.        ]"
"236","[42.24482866  0.         26.        ]","[0.21759049 0.         0.        ]","[-0.02711409 -0.         -0.        ]"
"237","[42.435191  0.       26.      ]","[0.19036234 0.         0.        ]","[-0.02722815 -0.         -0.        ]"
"238","[42.59822573  0.         26.        ]","[0.16303473 0.         0.        ]","[-0.02732761 -0.         -0.        ]"
"239","[42.7338479  0.        26.       ]","[0.13562217 0.         0.        ]","[-0.02741255 -0.         -0.        ]"
"240","[42.84198703  0.         26.        ]","[0.10813913 0.         0.        ]","[-0.02748305 -0.         -0.        ]"
"241","[42.92258701  0.         26.        ]","[0.08059999 0.         0.        ]","[-0.02753914 -0.         -0.        ]"
"242","[42.97560611  0.         26.        ]","[0.0530191 0.        0.       ]","[-0.02758089 -0.         -0.        ]"
"243","[43.00101689  0.         26.        ]","[0.02541078 0.         0.        ]","[-0.02760832 -0.         -0.        ]"
"244","[42.9988062  0.        26.       ]","[-0.00221068  0.          0.        ]","[-0.02762146 -0.         -0.        ]"
"245","[42.9689752  0.        26.       ]","[-0.029831  0.        0.      ]","[-0.02762032 -0.         -0.        ]"
"246","[42.91153931  0.         26.        ]","[-0.05743589  0.          0.        ]","[-0.02760489 -0.         -0.        ]"
"247","[42.82652825  0.         26.        ]","[-0.08501106  0.          0.        ]","[-0.02757517 -0.         -0.        ]"
"248","[42.71398606  0.         26.        ]","[-0.11254219  0.          0.        ]","[-0.02753113 -0.         -0.        ]"
"249","[42.57397114  0.         26.        ]","[-0.14001492  0.          0.        ]","[-0.02747273 -0.         -0.        ]"
"250","[42.40655629  0.         26.        ]","[-0.16741485  0.          0.        ]","[-0.02739993 -0.         -0.        ]"
"251","[42.21182878  0.         26.        ]","[-0.19472752  0.          0.        ]","[-0.02731267 -0.         -0.        ]"
"252","[41.98989038  0.         26.        ]","[-0.2219384  0.         0.       ]","[-0.02721088 -0.         -0.        ]"
"253","[41.7408575  0.        26.       ]","[-0.24903288  0.          0.        ]","[-0.02709448 -0.         -0.        ]"
"254","[41.46486124  0.         26.        ]","[-0.27599626  0.          0.        ]","[-0.02696339 -0.         -0.        ]"
"255","[41.16204748  0.         26.        ]","[-0.30281377  0.          0.        ]","[-0.0268175 -0.        -0.       ]"
"256","[40.83257698  0.         26.        ]","[-0.3294705  0.         0.       ]","[-0.02665673 -0.         -0.        ]"
"257","[40.47662552  0.         26.        ]","[-0.35595146  0.          0.        ]","[-0.02648096 -0.         -0.        ]"
"258","[40.09438398  0.         26.        ]","[-0.38224154  0.          0.        ]","[-0.02629008 -0.         -0.        ]"
"259","[39.68605847  0.         26.        ]","[-0.40832551  0.          0.        ]","[-0.02608397 -0.         -0.        ]"
"260","[39.25187045  0.         26.        ]","[-0.43418802  0.          0.        ]","[-0.02586251 -0.         -0.        ]"
"261","[38.79205684  0.         26.        ]","[-0.45981361  0.          0.        ]","[-0.02562559 -0.         -0.        ]"
"262","[38.30687015  0.         26.        ]","[-0.48518669  0.          0.        ]","[-0.02537308 -0.         -0.        ]"
"263","[37.79657859  0.         26.        ]","[-0.51029155  0.          0.        ]","[-0.02510486 -0.         -0.        ]"
"264","[37.26146622  0.         26.        ]","[-0.53511238  0.          0.        ]","[-0.02482082 -0.         -0.        ]"
"265","[36.70183298  0.         26.        ]","[-0.55963324  0.          0.        ]","[-0.02452086 -0.         -0.        ]"
"266","[36.11799489  0.         26.        ]","[-0.58383809  0.          0.        ]","[-0.02420486 -0.         -0.        ]"
"267","[35.51028407  0.         26.        ]","[-0.60771082  0.          0.        ]","[-0.02387273 -0.         -0.        ]"
"268","[34.87904886  0.         26.        ]","[-0.63123521  0.          0.        ]","[-0.02352439 -0.         -0.        ]"
"269","[34.22465389  0.         26.        ]","[-0.65439497  0.          0.        ]","[-0.02315976 -0.         -0.        ]"
"270","[33.54748013  0.         26.        ]","[-0.67717376  0.          0.        ]","[-0.02277879 -0.         -0.        ]"
"271","[32.84792495  0.         26.        ]","[-0.69955518  0.          0.        ]","[-0.02238143 -0.         -0.        ]"
"272","[32.12640211  0.         26.        ]","[-0.72152283  0.          0.        ]","[-0.02196765 -0.         -0.        ]"
"273","[31.38334183  0.         26.        ]","[-0.74306028  0.          0.        ]","[-0.02153745 -0.         -0.        ]"
"274","[30.61919071  0.         26.        ]","[-0.76415112  0.          0.        ]","[-0.02109084 -0.         -0.        ]"
"275","[29.83441173  0.         26.        ]","[-0.78477897  0.          0.        ]","[-0.02062785 -0.         -0.        ]"
"276","[29.02948421  0.         26.        ]","[-0.80492752  0.          0.        ]","[-0.02014855 -0.         -0.        ]"
"277","[28.20490367  0.         26.        ]","[-0.82458054  0.          0.        ]","[-0.01965302 -0.         -0.        ]"
"278","[27.36118177  0.         26.        ]","[-0.8437219  0.         0.       ]","[-0.01914136 -0.         -0.        ]"
"279","[26.49884615  0.         26.        ]","[-0.86233563  0.          0.        ]","[-0.01861373 -0.         -0.        ]"
"280","[25.61844024  0.         26.        ]","[-0.88040591  0.          0.        ]","[-0.01807028 -0.         -0.        ]"
"281","[24.7205231  0.        26.       ]","[-0.89791713  0.          0.        ]","[-0.01751123 -0.         -0.        ]"
"282","[23.80566917  0.         26.        ]","[-0.91485393  0.          0.        ]","[-0.0169368 -0.        -0.       ]"
"283","[22.87446799  0.         26.        ]","[-0.93120118  0.          0.        ]","[-0.01634725 -0.         -0.        ]"
"284","[21.92752392  0.         26.        ]","[-0.94694407  0.          0.        ]","[-0.01574289 -0.         -0.        ]"
"285","[20.96545579  0.         26.        ]","[-0.96206813  0.          0.        ]","[-0.01512405 -0.         -0.        ]"
"286","[19.98889656  0.         26.        ]","[-0.97655923  0.          0.        ]","[-0.0144911 -0.        -0.       ]"
"287","[18.99849289  0.         26.        ]","[-0.99040367  0.          0.        ]","[-0.01384444 -0.         -0.        ]"
"288","[17.99490471  0.         26.        ]","[-1.00358818  0.          0.        ]","[-0.0131845 -0.        -0.       ]"
"289","[16.97880477  0.         26.        ]","[-1.01609994  0.          0.        ]","[-0.01251176 -0.         -0.        ]"
"290","[15.95087811  0.         26.        ]","[-1.02792666  0.          0.        ]","[-0.01182673 -0.         -0.        ]"
"291","[14.91182151  0.         26.        ]","[-1.0390566  0.         0.       ]","[-0.01112993 -0.         -0.        ]"
"292","[13.86234297  0.         26.        ]","[-1.04947855  0.          0.        ]","[-0.01042195 -0.         -0.        ]"
"293","[12.80316102  0.         26.        ]","[-1.05918194  0.          0.        ]","[-0.00970339 -0.         -0.        ]"
"294","[11.73500419  0.         26.        ]","[-1.06815684  0.          0.        ]","[-0.00897489 -0.         -0.        ]"
"295","[10.65861024  0.         26.        ]","[-1.07639395  0.          0.        ]","[-0.00823711 -0.         -0.        ]"
"296","[ 9.57472554  0.         26.        ]","[-1.0838847  0.         0.       ]","[-0.00749075 -0.         -0.        ]"
"297","[ 8.48410432  0.         26.        ]","[-1.09062122  0.          0.        ]","[-0.00673652 -0.         -0.        ]"
"298","[ 7.38750794  0.         26.        ]","[-1.09659638  0.          0.        ]","[-0.00597517 -0.         -0.        ]"
"299","[ 6.28570409  0.         26.        ]","[-1.10180385  0.          0.        ]","[-0.00520746 -0.         -0.        ]"
"300","[ 5.17946605  0.         26.        ]","[-1.10623804  0.          0.        ]","[-0.0044342 -0.        -0.       ]"
"301","[ 4.06957184  0.         26.        ]","[-1.10989421  0.          0.        ]","[-0.00365616 -0.         -0.        ]"
"302","[ 2.95680344  0.         26.        ]","[-1.1127684  0.         0.       ]","[-0.00287419 -0.         -0.        ]"
"303","[ 1.84194592  0.         26.        ]","[-1.11485752  0.          0.        ]","[-0.00208911 -0.         -0.        ]"
"304","[ 0.72578663  0.         26.        ]","[-1.11615929  0.          0.        ]","[-0.00130177 -0.         -0.        ]"
"305","[-0.39088567  0.         26.        ]","[-1.1166723  0.         0.       ]","[-0.00051301 -0.         -0.        ]"
"306","[-1.50728167  0.         26.        ]","[-1.116396  0.        0.      ]","[0.0002763 0.        0.       ]"
"307","[-2.62261236  0.         26.        ]","[-1.11533069  0.          0.        ]","[0.00106531 0.         0.        ]"
"308","[-3.73608988  0.         26.        ]","[-1.11347752  0.          0.        ]","[0.00185317 0.         0.        ]"
"309","[-4.84692839  0.         26.        ]","[-1.11083851  0.          0.        ]","[0.00263902 0.         0.        ]"
"310","[-5.95434489  0.         26.        ]","[-1.1074165  0.         0.       ]","[0.00342201 0.         0.        ]"
"311","[-7.05756008  0.         26.        ]","[-1.10321519  0.          0.        ]","[0.00420131 0.         0.        ]"
"312","[-8.15579918  0.         26.        ]","[-1.0982391  0.         0.       ]","[0.00497609 0.         0.        ]"
"313","[-9.24829274  0.         26.        ]","[-1.09249356  0.          0.        ]","[0.00574555 0.         0.        ]"
"314","[-10.33427742   0.          26.        ]","[-1.08598468  0.          0.        ]","[0.00650888 0.         0.        ]"
"315","[-11.41299676   0.          26.        ]","[-1.07871935  0.          0.        ]","[0.00726533 0.         0.        ]"
"316","[-12.48370198   0.          26.        ]","[-1.07070522  0.          0.        ]","[0.00801413 0.         0.        ]"
"317","[-13.54565265   0.          26.        ]","[-1.06195066  0.          0.        ]","[0.00875456 0.         0.        ]"
"318","[-14.5981174   0.         26.       ]","[-1.05246475  0.          0.        ]","[0.00948591 0.         0.        ]"
"319","[-15.64037463   0.          26.        ]","[-1.04225723  0.          0.        ]","[0.01020752 0.         0.        ]"
"320","[-16.67171312   0.          26.        ]","[-1.03133849  0.          0.        ]","[0.01091874 0.         0.        ]"
"321","[-17.69143266   0.          26.        ]","[-1.01971954  0.          0.        ]","[0.01161895 0.         0.        ]"
"322","[-18.69884464   0.          26.        ]","[-1.00741197  0.          0.        ]","[0.01230757 0.         0.        ]"
"323","[-19.69327256   0.          26.        ]","[-0.99442792  0.          0.        ]","[0.01298405 0.         0.        ]"
"324","[-20.6740526   0.         26.       ]","[-0.98078004  0.          0.        ]","[0.01364788 0.         0.        ]"
"325","[-21.64053407   0.          26.        ]","[-0.96648147  0.          0.        ]","[0.01429857 0.         0.        ]"
"326","[-22.59207985   0.          26.        ]","[-0.95154579  0.          0.        ]","[0.01493568 0.         0.        ]"
"327","[-23.52806685   0.          26.        ]","[-0.935987  0.        0.      ]","[0.01555879 0.         0.        ]"
"328","[-24.44788632   0.          26.        ]","[-0.91981947  0.          0.        ]","[0.01616753 0.         0.        ]"
"329","[-25.35094423   0.          26.        ]","[-0.90305792  0.          0.        ]","[0.01676155 0.         0.        ]"
"330","[-26.23666161   0.          26.        ]","[-0.88571737  0.          0.        ]","[0.01734054 0.         0.        ]"
"331","[-27.10447475   0.          26.        ]","[-0.86781314  0.          0.        ]","[0.01790424 0.         0.        ]"
"332","[-27.9538355   0.         26.       ]","[-0.84936075  0.          0.        ]","[0.01845238 0.         0.        ]"
"333","[-28.78421148   0.          26.        ]","[-0.83037597  0.          0.        ]","[0.01898478 0.         0.        ]"
"334","[-29.59508621   0.          26.        ]","[-0.81087473  0.          0.        ]","[0.01950124 0.         0.        ]"
"335","[-30.38595931   0.          26.        ]","[-0.79087311  0.          0.        ]","[0.02000163 0.         0.        ]"
"336","[-31.15634661   0.          26.        ]","[-0.7703873  0.         0.       ]","[0.02048581 0.         0.        ]"
"337","[-31.90578022   0.          26.        ]","[-0.74943361  0.          0.        ]","[0.02095369 0.         0.        ]"
"338","[-32.6338086   0.         26.       ]","[-0.72802838  0.          0.        ]","[0.02140522 0.         0.        ]"
"339","[-33.33999664   0.          26.        ]","[-0.70618804  0.          0.        ]","[0.02184035 0.         0.        ]"
"340","[-34.02392563   0.          26.        ]","[-0.68392899  0.          0.        ]","[0.02225905 0.         0.        ]"
"341","[-34.68519329   0.          26.        ]","[-0.66126766  0.          0.        ]","[0.02266133 0.         0.        ]"
"342","[-35.32341373   0.          26.        ]","[-0.63822044  0.          0.        ]","[0.02304722 0.         0.        ]"
"343","[-35.93821743   0.          26.        ]","[-0.6148037  0.         0.       ]","[0.02341674 0.         0.        ]"
"344","[-36.52925118   0.          26.        ]","[-0.59103375  0.          0.        ]","[0.02376996 0.         0.        ]"
"345","[-37.09617799   0.          26.        ]","[-0.56692681  0.          0.        ]","[0.02410694 0.         0.        ]"
"346","[-37.63867702   0.          26.        ]","[-0.54249904  0.          0.        ]","[0.02442777 0.         0.        ]"
"347","[-38.15644353   0.          26.        ]","[-0.5177665  0.         0.       ]","[0.02473253 0.         0.        ]"
"348","[-38.64918869   0.          26.        ]","[-0.49274517  0.          0.        ]","[0.02502134 0.         0.        ]"
"349","[-39.11663957   0.          26.        ]","[-0.46745088  0.          0.        ]","[0.02529429 0.         0.        ]"
"350","[-39.55853895   0.          26.        ]","[-0.44189938  0.          0.        ]","[0.0255515 0.        0.       ]"
"351","[-39.97464525   0.          26.        ]","[-0.4161063  0.         0.       ]","[0.02579308 0.         0.        ]"
"352","[-40.36473238   0.          26.        ]","[-0.39008713  0.          0.        ]","[0.02601917 0.         0.        ]"
"353","[-40.72858964   0.          26.        ]","[-0.36385726  0.          0.        ]","[0.02622987 0.         0.        ]"
"354","[-41.06602161   0.          26.        ]","[-0.33743196  0.          0.        ]","[0.0264253 0.        0.       ]"
"355","[-41.37684797   0.          26.        ]","[-0.31082637  0.          0.        ]","[0.02660559 0.         0.        ]"
"356","[-41.66090349   0.          26.        ]","[-0.28405552  0.          0.        ]","[0.02677085 0.         0.        ]"
"357","[-41.91803781   0.          26.        ]","[-0.25713433  0.          0.        ]","[0.02692119 0.         0.        ]"
"358","[-42.14811543   0.          26.        ]","[-0.23007762  0.          0.        ]","[0.02705671 0.         0.        ]"
"359","[-42.35101555   0.          26.        ]","[-0.20290012  0.          0.        ]","[0.0271775 0.        0.       ]"
"360","[-42.526632   0.        26.      ]","[-0.17561645  0.          0.        ]","[0.02728367 0.         0.        ]"
"361","[-42.67487316   0.          26.        ]","[-0.14824117  0.          0.        ]","[0.02737528 0.         0.        ]"
"362","[-42.79566192   0.          26.        ]","[-0.12078876  0.          0.        ]","[0.02745241 0.         0.        ]"
"363","[-42.88893555   0.          26.        ]","[-0.09327363  0.          0.        ]","[0.02751512 0.         0.        ]"
"364","[-42.95464572   0.          26.        ]","[-0.06571017  0.          0.        ]","[0.02756347 0.         0.        ]"
"365","[-42.99275841   0.          26.        ]","[-0.03811269  0.          0.        ]","[0.02759748 0.         0.        ]"
"366","[-43.00325391   0.          26.        ]","[-0.0104955  0.         0.       ]","[0.02761719 0.         0.        ]"
"367","[-42.9861268   0.         26.       ]","[0.01712712 0.         0.        ]","[0.02762262 0.         0.        ]"
"368","[-42.94138592   0.          26.        ]","[0.04474088 0.         0.        ]","[0.02761376 0.         0.        ]"
"369","[-42.86905443   0.          26.        ]","[0.07233149 0.         0.        ]","[0.02759062 0.         0.        ]"
"370","[-42.76916976   0.          26.        ]","[0.09988466 0.         0.        ]","[0.02755317 0.         0.        ]"
"371","[-42.64178372   0.          26.        ]","[0.12738604 0.         0.        ]","[0.02750138 0.         0.        ]"
"372","[-42.48696247   0.          26.        ]","[0.15482125 0.         0.        ]","[0.02743521 0.         0.        ]"
"373","[-42.30478661   0.          26.        ]","[0.18217586 0.         0.        ]","[0.02735461 0.         0.        ]"
"374","[-42.09535125   0.          26.        ]","[0.20943537 0.         0.        ]","[0.02725951 0.         0.        ]"
"375","[-41.85876604   0.          26.        ]","[0.23658521 0.         0.        ]","[0.02714984 0.         0.        ]"
"376","[-41.59515531   0.          26.        ]","[0.26361073 0.         0.        ]","[0.02702552 0.         0.        ]"
"377","[-41.30465814   0.          26.        ]","[0.29049718 0.         0.        ]","[0.02688645 0.         0.        ]"
"378","[-40.98742842   0.          26.        ]","[0.31722972 0.         0.        ]","[0.02673254 0.         0.        ]"
"379","[-40.64363502   0.          26.        ]","[0.3437934 0.        0.       ]","[0.02656368 0.         0.        ]"
"380","[-40.27346185   0.          26.        ]","[0.37017317 0.         0.        ]","[0.02637977 0.         0.        ]"
"381","[-39.87710801   0.          26.        ]","[0.39635384 0.         0.        ]","[0.02618068 0.         0.        ]"
"382","[-39.45478787   0.          26.        ]","[0.42232014 0.         0.        ]","[0.02596629 0.         0.        ]"
"383","[-39.00673123   0.          26.        ]","[0.44805664 0.         0.        ]","[0.0257365 0.        0.       ]"
"384","[-38.53318342   0.          26.        ]","[0.47354781 0.         0.        ]","[0.02549117 0.         0.        ]"
"385","[-38.03440541   0.          26.        ]","[0.49877801 0.         0.        ]","[0.0252302 0.        0.       ]"
"386","[-37.51067396   0.          26.        ]","[0.52373146 0.         0.        ]","[0.02495345 0.         0.        ]"
"387","[-36.96228168   0.          26.        ]","[0.54839228 0.         0.        ]","[0.02466082 0.         0.        ]"
"388","[-36.38953719   0.          26.        ]","[0.57274449 0.         0.        ]","[0.02435221 0.         0.        ]"
"389","[-35.79276518   0.          26.        ]","[0.596772 0.       0.      ]","[0.02402751 0.         0.        ]"
"390","[-35.17230654   0.          26.        ]","[0.62045864 0.         0.        ]","[0.02368664 0.         0.        ]"
"391","[-34.52851839   0.          26.        ]","[0.64378815 0.         0.        ]","[0.02332951 0.         0.        ]"
"392","[-33.86177418   0.          26.        ]","[0.66674421 0.         0.        ]","[0.02295606 0.         0.        ]"
"393","[-33.17246372   0.          26.        ]","[0.68931046 0.         0.        ]","[0.02256624 0.         0.        ]"
"394","[-32.46099325   0.          26.        ]","[0.71147048 0.         0.        ]","[0.02216002 0.         0.        ]"
"395","[-31.72778539   0.          26.        ]","[0.73320785 0.         0.        ]","[0.02173737 0.         0.        ]"
"396","[-30.97327923   0.          26.        ]","[0.75450616 0.         0.        ]","[0.02129831 0.         0.        ]"
"397","[-30.19793022   0.          26.        ]","[0.77534901 0.         0.        ]","[0.02084285 0.         0.        ]"
"398","[-29.40221016   0.          26.        ]","[0.79572006 0.         0.        ]","[0.02037104 0.         0.        ]"
"399","[-28.58660714   0.          26.        ]","[0.81560302 0.         0.        ]","[0.01988296 0.         0.        ]"
"400","[-27.75162541   0.          26.        ]","[0.83498173 0.         0.        ]","[0.01937871 0.         0.        ]"
"401","[-26.89778528   0.          26.        ]","[0.85384013 0.         0.        ]","[0.0188584 0.        0.       ]"
"402","[-26.02562294   0.          26.        ]","[0.87216234 0.         0.        ]","[0.01832221 0.         0.        ]"
"403","[-25.13569029   0.          26.        ]","[0.88993265 0.         0.        ]","[0.01777031 0.         0.        ]"
"404","[-24.22855472   0.          26.        ]","[0.90713557 0.         0.        ]","[0.01720292 0.         0.        ]"
"405","[-23.30479886   0.          26.        ]","[0.92375586 0.         0.        ]","[0.01662029 0.         0.        ]"
"406","[-22.36502029   0.          26.        ]","[0.93977857 0.         0.        ]","[0.01602271 0.         0.        ]"
"407","[-21.40983124   0.          26.        ]","[0.95518906 0.         0.        ]","[0.01541049 0.         0.        ]"
"408","[-20.4398582   0.         26.       ]","[0.96997304 0.         0.        ]","[0.01478398 0.         0.        ]"
"409","[-19.4557416   0.         26.       ]","[0.98411661 0.         0.        ]","[0.01414357 0.         0.        ]"
"410","[-18.4581353   0.         26.       ]","[0.99760629 0.         0.        ]","[0.01348968 0.         0.        ]"
"411","[-17.44770624   0.          26.        ]","[1.01042906 0.         0.        ]","[0.01282277 0.         0.        ]"
"412","[-16.42513385   0.          26.        ]","[1.02257239 0.         0.        ]","[0.01214333 0.         0.        ]"
"413","[-15.39110959   0.          26.        ]","[1.03402426 0.         0.        ]","[0.01145187 0.         0.        ]"
"414","[-14.34633637   0.          26.        ]","[1.04477322 0.         0.        ]","[0.01074896 0.         0.        ]"
"415","[-13.29152795   0.          26.        ]","[1.05480842 0.         0.        ]","[0.0100352 0.        0.       ]"
"416","[-12.22740834   0.          26.        ]","[1.06411961 0.         0.        ]","[0.00931119 0.         0.        ]"
"417","[-11.15471115   0.          26.        ]","[1.0726972 0.        0.       ]","[0.00857759 0.         0.        ]"
"418","[-10.07417887   0.          26.        ]","[1.08053228 0.         0.        ]","[0.00783509 0.         0.        ]"
"419","[-8.9865622  0.        26.       ]","[1.08761666 0.         0.        ]","[0.00708438 0.         0.        ]"
"420","[-7.89261932  0.         26.        ]","[1.09394288 0.         0.        ]","[0.00632621 0.         0.        ]"
"421","[-6.79311511  0.         26.        ]","[1.09950421 0.         0.        ]","[0.00556134 0.         0.        ]"
"422","[-5.68882037  0.         26.        ]","[1.10429474 0.         0.        ]","[0.00479053 0.         0.        ]"
"423","[-4.58051104  0.         26.        ]","[1.10830933 0.         0.        ]","[0.00401459 0.         0.        ]"
"424","[-3.46896739  0.         26.        ]","[1.11154365 0.         0.        ]","[0.00323432 0.         0.        ]"
"425","[-2.35497316  0.         26.        ]","[1.11399422 0.         0.        ]","[0.00245057 0.         0.        ]"
"426","[-1.23931477  0.         26.        ]","[1.11565839 0.         0.        ]","[0.00166416 0.         0.        ]"
"427","[-0.12278043  0.         26.        ]","[1.11653434 0.         0.        ]","[0.00087595 0.         0.        ]"
"428","[ 0.99384069  0.         26.        ]","[1.11662113 0.         0.        ]","[8.67883083e-05 0.00000000e+00 0.00000000e+00]"
"429","[ 2.10975935  0.         26.        ]","[1.11591866 0.         0.        ]","[-0.00070247 -0.         -0.        ]"
"430","[ 3.22418705  0.         26.        ]","[1.11442769 0.         0.        ]","[-0.00149096 -0.         -0.        ]"
"431","[ 4.3363369  0.        26.       ]","[1.11214985 0.         0.        ]","[-0.00227784 -0.         -0.        ]"
"432","[ 5.4454245  0.        26.       ]","[1.1090876 0.        0.       ]","[-0.00306225 -0.         -0.        ]"
"433","[ 6.55066876  0.         26.        ]","[1.10524425 0.         0.        ]","[-0.00384335 -0.         -0.        ]"
"434","[ 7.65129269  0.         26.        ]","[1.10062394 0.         0.        ]","[-0.00462031 -0.         -0.        ]"
"435","[ 8.74652431  0.         26.        ]","[1.09523162 0.         0.        ]","[-0.00539232 -0.         -0.        ]"
"436","[ 9.83559736  0.         26.        ]","[1.08907305 0.         0.        ]","[-0.00615857 -0.         -0.        ]"
"437","[10.91775213  0.         26.        ]","[1.08215477 0.         0.        ]","[-0.00691828 -0.         -0.        ]"
"438","[11.99223621  0.         26.        ]","[1.07448408 0.         0.        ]","[-0.00767069 -0.         -0.        ]"
"439","[13.05830524  0.         26.        ]","[1.06606903 0.         0.        ]","[-0.00841506 -0.         -0.        ]"
"440","[14.1152236  0.        26.       ]","[1.05691836 0.         0.        ]","[-0.00915067 -0.         -0.        ]"
"441","[15.16226511  0.         26.        ]","[1.04704151 0.         0.        ]","[-0.00987684 -0.         -0.        ]"
"442","[16.19871371  0.         26.        ]","[1.03644859 0.         0.        ]","[-0.01059292 -0.         -0.        ]"
"443","[17.22386404  0.         26.        ]","[1.02515033 0.         0.        ]","[-0.01129827 -0.         -0.        ]"
"444","[18.23702207  0.         26.        ]","[1.01315804 0.         0.        ]","[-0.01199229 -0.         -0.        ]"
"445","[19.23750569  0.         26.        ]","[1.00048362 0.         0.        ]","[-0.01267442 -0.         -0.        ]"
"446","[20.22464517  0.         26.        ]","[0.98713948 0.         0.        ]","[-0.01334413 -0.         -0.        ]"
"447","[21.19778373  0.         26.        ]","[0.97313856 0.         0.        ]","[-0.01400092 -0.         -0.        ]"
"448","[22.15627796  0.         26.        ]","[0.95849422 0.         0.        ]","[-0.01464433 -0.         -0.        ]"
"449","[23.09949825  0.         26.        ]","[0.94322029 0.         0.        ]","[-0.01527393 -0.         -0.        ]"
"450","[24.02682921  0.         26.        ]","[0.92733096 0.         0.        ]","[-0.01588933 -0.         -0.        ]"
"451","[24.93767002  0.         26.        ]","[0.91084081 0.         0.        ]","[-0.01649016 -0.         -0.        ]"
"452","[25.83143473  0.         26.        ]","[0.89376471 0.         0.        ]","[-0.0170761 -0.        -0.       ]"
"453","[26.70755258  0.         26.        ]","[0.87611785 0.         0.        ]","[-0.01764686 -0.         -0.        ]"
"454","[27.56546823  0.         26.        ]","[0.85791566 0.         0.        ]","[-0.01820219 -0.         -0.        ]"
"455","[28.40464204  0.         26.        ]","[0.8391738 0.        0.       ]","[-0.01874185 -0.         -0.        ]"
"456","[29.22455017  0.         26.        ]","[0.81990814 0.         0.        ]","[-0.01926567 -0.         -0.        ]"
"457","[30.02468485  0.         26.        ]","[0.80013467 0.         0.        ]","[-0.01977346 -0.         -0.        ]"
"458","[30.80455441  0.         26.        ]","[0.77986956 0.         0.        ]","[-0.02026511 -0.         -0.        ]"
"459","[31.56368347  0.         26.        ]","[0.75912906 0.         0.        ]","[-0.0207405 -0.        -0.       ]"
"460","[32.30161298  0.         26.        ]","[0.7379295 0.        0.       ]","[-0.02119956 -0.         -0.        ]"
"461","[33.01790025  0.         26.        ]","[0.71628727 0.         0.        ]","[-0.02164223 -0.         -0.        ]"
"462","[33.71211902  0.         26.        ]","[0.69421878 0.         0.        ]","[-0.02206849 -0.         -0.        ]"
"463","[34.38385948  0.         26.        ]","[0.67174045 0.         0.        ]","[-0.02247833 -0.         -0.        ]"
"464","[35.03272818  0.         26.        ]","[0.6488687 0.        0.       ]","[-0.02287175 -0.         -0.        ]"
"465","[35.65834809  0.         26.        ]","[0.62561991 0.         0.        ]","[-0.02324879 -0.         -0.        ]"
"466","[36.2603585  0.        26.       ]","[0.60201041 0.         0.        ]","[-0.0236095 -0.        -0.       ]"
"467","[36.83841496  0.         26.        ]","[0.57805646 0.         0.        ]","[-0.02395395 -0.         -0.        ]"
"468","[37.39218923  0.         26.        ]","[0.55377427 0.         0.        ]","[-0.02428219 -0.         -0.        ]"
"469","[37.92136916  0.         26.        ]","[0.52917993 0.         0.        ]","[-0.02459434 -0.         -0.        ]"
"470","[38.42565862  0.         26.        ]","[0.50428947 0.         0.        ]","[-0.02489047 -0.         -0.        ]"
"471","[38.90477739  0.         26.        ]","[0.47911877 0.         0.        ]","[-0.0251707 -0.        -0.       ]"
"472","[39.35846103  0.         26.        ]","[0.45368364 0.         0.        ]","[-0.02543513 -0.         -0.        ]"
"473","[39.78646078  0.         26.        ]","[0.42799975 0.         0.        ]","[-0.02568389 -0.         -0.        ]"
"474","[40.18854344  0.         26.        ]","[0.40208266 0.         0.        ]","[-0.02591709 -0.         -0.        ]"
"475","[40.56449124  0.         26.        ]","[0.37594781 0.         0.        ]","[-0.02613485 -0.         -0.        ]"
"476","[40.91410176  0.         26.        ]","[0.34961051 0.         0.        ]","[-0.02633729 -0.         -0.        ]"
"477","[41.23718774  0.         26.        ]","[0.32308598 0.         0.        ]","[-0.02652454 -0.         -0.        ]"
"478","[41.53357702  0.         26.        ]","[0.29638928 0.         0.        ]","[-0.0266967 -0.        -0.       ]"
"479","[41.80311242  0.         26.        ]","[0.2695354 0.        0.       ]","[-0.02685388 -0.         -0.        ]"
"480","[42.04565161  0.         26.        ]","[0.24253919 0.         0.        ]","[-0.02699621 -0.         -0.        ]"
"481","[42.26106704  0.         26.        ]","[0.21541543 0.         0.        ]","[-0.02712376 -0.         -0.        ]"
"482","[42.44924583  0.         26.        ]","[0.18817879 0.         0.        ]","[-0.02723665 -0.         -0.        ]"
"483","[42.61008967  0.         26.        ]","[0.16084384 0.         0.        ]","[-0.02733494 -0.         -0.        ]"
"484","[42.74351479  0.         26.        ]","[0.13342512 0.         0.        ]","[-0.02741873 -0.         -0.        ]"
"485","[42.84945184  0.         26.        ]","[0.10593705 0.         0.        ]","[-0.02748806 -0.         -0.        ]"
"486","[42.92784589  0.         26.        ]","[0.07839404 0.         0.        ]","[-0.02754301 -0.         -0.        ]"
"487","[42.97865632  0.         26.        ]","[0.05081043 0.         0.        ]","[-0.02758361 -0.         -0.        ]"
"488","[43.00185685  0.         26.        ]","[0.02320054 0.         0.        ]","[-0.0276099 -0.        -0.       ]"
"489","[42.9974355  0.        26.       ]","[-0.00442136  0.          0.        ]","[-0.02762189 -0.         -0.        ]"
"490","[42.96539453  0.         26.        ]","[-0.03204097  0.          0.        ]","[-0.02761961 -0.         -0.        ]"
"491","[42.90575052  0.         26.        ]","[-0.059644  0.        0.      ]","[-0.02760304 -0.         -0.        ]"
"492","[42.81853435  0.         26.        ]","[-0.08721618  0.          0.        ]","[-0.02757217 -0.         -0.        ]"
"493","[42.70379119  0.         26.        ]","[-0.11474316  0.          0.        ]","[-0.02752698 -0.         -0.        ]"
"494","[42.56158059  0.         26.        ]","[-0.1422106  0.         0.       ]","[-0.02746744 -0.         -0.        ]"
"495","[42.39197651  0.         26.        ]","[-0.16960408  0.          0.        ]","[-0.02739348 -0.         -0.        ]"
"496","[42.19506737  0.         26.        ]","[-0.19690914  0.          0.        ]","[-0.02730506 -0.         -0.        ]"
"497","[41.97095614  0.         26.        ]","[-0.22411124  0.          0.        ]","[-0.0272021 -0.        -0.       ]"
"498","[41.71976037  0.         26.        ]","[-0.25119577  0.          0.        ]","[-0.02708453 -0.         -0.        ]"
"499","[41.44161235  0.         26.        ]","[-0.27814802  0.          0.        ]","[-0.02695226 -0.         -0.        ]"
