"time","theta3d","omega3d","alpha3d"
"0","[46.953 0. -24.0]","[0. 0. 0.]","[0. 0. 0.]"
"1","[46.953 0. -24.0]","[0. 0. 0.]","[0. 0. 0.]"
"2","[46.953 0. -24.0]","[0. 0. 0.]","[0. 0. 0.]"
"3","[46.953 0. -24.0]","[0. 0. 0.]","[0. 0. 0.]"
"4","[46.953 0. -24.0]","[0. 0. 0.]","[0. 0. 0.]"
"5","[46.953 0. -24.0]","[0. 0. 0.]","[0. 0. 0.]"
"6","[46.953 0. -24.0]","[0. 0. 0.]","[0. 0. 0.]"
"7","[46.953 0. -24.0]","[0. 0. 0.]","[0. 0. 0.]"
"8","[46.953 0. -24.0]","[0. 0. 0.]","[0. 0. 0.]"
"9","[46.953 0. -24.0]","[0. 0. 0.]","[0. 0. 0.]"
"10","[46.953 0. -24.0]","[0. 0. 0.]","[0. 0. 0.]"
"11","[46.953 0. -24.0]","[0. 0. 0.]","[0. 0. 0.]"
"12","[46.953 0. -24.0]","[0. 0. 0.]","[0. 0. 0.]"
"13","[46.953 0. -24.0]","[0. 0. 0.]","[0. 0. 0.]"
"14","[46.953 0. -24.0]","[0. 0. 0.]","[0. 0. 0.]"
"15","[46.953 0. -24.0]","[0. 0. 0.]","[0. 0. 0.]"
"16","[46.953 0. -24.0]","[0. 0. 0.]","[0. 0. 0.]"
"17","[46.953 0. -24.0]","[0. 0. 0.]","[0. 0. 0.]"
"18","[46.953 0. -24.0]","[0. 0. 0.]","[0. 0. 0.]"
"19","[46.953 0. -24.0]","[0. 0. 0.]","[0. 0. 0.]"
"20","[46.953 0. -24.0]","[0. 0. 0.]","[0. 0. 0.]"
"21","[46.953 0. -24.0]","[0. 0. 0.]","[0. 0. 0.]"
"22","[46.953 0. -24.0]","[0. 0. 0.]","[0. 0. 0.]"
"23","[46.953 0. -24.0]","[0. 0. 0.]","[0. 0. 0.]"
"24","[46.953 0. -24.0]","[0. 0. 0.]","[0. 0. 0.]"
"25","[46.953 0. -24.0]","[0. 0. 0.]","[0. 0. 0.]"
"26","[46.953 0. -24.0]","[0. 0. 0.]","[0. 0. 0.]"
"27","[46.953 0. -24.0]","[0. 0. 0.]","[0. 0. 0.]"
"28","[46.953 0. -24.0]","[0. 0. 0.]","[0. 0. 0.]"
"29","[46.953 0. -24.0]","[0. 0. 0.]","[0. 0. 0.]"
"30","[46.953 0. -24.0]","[0. 0. 0.]","[0. 0. 0.]"
"31","[46.953 0. -24.0]","[0. 0. 0.]","[0. 0. 0.]"
"32","[46.953 0. -24.0]","[0. 0. 0.]","[0. 0. 0.]"
"33","[46.953 0. -24.0]","[0. 0. 0.]","[0. 0. 0.]"
"34","[46.953 0. -24.0]","[0. 0. 0.]","[0. 0. 0.]"
"35","[46.953 0. -24.0]","[0. 0. 0.]","[0. 0. 0.]"
"36","[46.953 0. -24.0]","[0. 0. 0.]","[0. 0. 0.]"
"37","[46.953 0. -24.0]","[0. 0. 0.]","[0. 0. 0.]"
"38","[46.953 0. -24.0]","[0. 0. 0.]","[0. 0. 0.]"
"39","[46.953 0. -24.0]","[0. 0. 0.]","[0. 0. 0.]"
"40","[46.953 0. -24.0]","[0. 0. 0.]","[0. 0. 0.]"
"41","[46.953 0. -24.0]","[0. 0. 0.]","[0. 0. 0.]"
"42","[46.953 0. -24.0]","[0. 0. 0.]","[0. 0. 0.]"
"43","[46.953 0. -24.0]","[0. 0. 0.]","[0. 0. 0.]"
"44","[46.953 0. -24.0]","[0. 0. 0.]","[0. 0. 0.]"
"45","[46.953 0. -24.0]","[0. 0. 0.]","[0. 0. 0.]"
"46","[46.953 0. -24.0]","[0. 0. 0.]","[0. 0. 0.]"
"47","[46.953 0. -24.0]","[0. 0. 0.]","[0. 0. 0.]"
"48","[46.953 0. -24.0]","[0. 0. 0.]","[0. 0. 0.]"
"49","[46.953 0. -24.0]","[0. 0. 0.]","[0. 0. 0.]"
"50","[46.953 0. -24.0]","[0. 0. 0.]","[0. 0. 0.]"
"51","[46.953 0. -24.0]","[0. 0. 0.]","[0. 0. 0.]"
"52","[46.953 0. -24.0]","[0. 0. 0.]","[0. 0. 0.]"
"53","[46.953 0. -24.0]","[0. 0. 0.]","[0. 0. 0.]"
"54","[46.953 0. -24.0]","[0. 0. 0.]","[0. 0. 0.]"
"55","[46.953 0. -24.0]","[0. 0. 0.]","[0. 0. 0.]"
"56","[46.953 0. -24.0]","[0. 0. 0.]","[0. 0. 0.]"
"57","[46.953 0. -24.0]","[0. 0. 0.]","[0. 0. 0.]"
"58","[46.953 0. -24.0]","[0. 0. 0.]","[0. 0. 0.]"
"59","[46.953 0. -24.0]","[0. 0. 0.]","[0. 0. 0.]"
"60","[46.953 0. -24.0]","[0. 0. 0.]","[0. 0. 0.]"
"61","[46.953 0. -24.0]","[0. 0. 0.]","[0. 0. 0.]"
"62","[46.953 0. -24.0]","[0. 0. 0.]","[0. 0. 0.]"
"63","[46.953 0. -24.0]","[0. 0. 0.]","[0. 0. 0.]"
"64","[46.953 0. -24.0]","[0. 0. 0.]","[0. 0. 0.]"
"65","[46.953 0. -24.0]","[0. 0. 0.]","[0. 0. 0.]"
"66","[46.953 0. -24.0]","[0. 0. 0.]","[0. 0. 0.]"
"67","[46.953 0. -24.0]","[0. 0. 0.]","[0. 0. 0.]"
"68","[46.953 0. -24.0]","[0. 0. 0.]","[0. 0. 0.]"
"69","[46.953 0. -24.0]","[0. 0. 0.]","[0. 0. 0.]"
"70","[46.953 0. -24.0]","[0. 0. 0.]","[0. 0. 0.]"
"71","[46.953 0. -24.0]","[0. 0. 0.]","[0. 0. 0.]"
"72","[46.953 0. -24.0]","[0. 0. 0.]","[0. 0. 0.]"
"73","[46.953 0. -24.0]","[0. 0. 0.]","[0. 0. 0.]"
"74","[46.953 0. -24.0]","[0. 0. 0.]","[0. 0. 0.]"
"75","[46.953 0. -24.0]","[0. 0. 0.]","[0. 0. 0.]"
"76","[46.953 0. -24.0]","[0. 0. 0.]","[0. 0. 0.]"
"77","[46.953 0. -24.0]","[0. 0. 0.]","[0. 0. 0.]"
"78","[46.953 0. -24.0]","[0. 0. 0.]","[0. 0. 0.]"
"79","[46.953 0. -24.0]","[0. 0. 0.]","[0. 0. 0.]"
"80","[46.953 0. -24.0]","[0. 0. 0.]","[0. 0. 0.]"
"81","[46.953 0. -24.0]","[0. 0. 0.]","[0. 0. 0.]"
"82","[46.953 0. -24.0]","[0. 0. 0.]","[0. 0. 0.]"
"83","[46.953 0. -24.0]","[0. 0. 0.]","[0. 0. 0.]"
"84","[46.953 0. -24.0]","[0. 0. 0.]","[0. 0. 0.]"
"85","[46.953 0. -24.0]","[0. 0. 0.]","[0. 0. 0.]"
"86","[46.953 0. -24.0]","[0. 0. 0.]","[0. 0. 0.]"
"87","[46.953 0. -24.0]","[0. 0. 0.]","[0. 0. 0.]"
"88","[46.953 0. -24.0]","[0. 0. 0.]","[0. 0. 0.]"
"89","[46.953 0. -24.0]","[0. 0. 0.]","[0. 0. 0.]"
"90","[46.953 0. -24.0]","[0. 0. 0.]","[0. 0. 0.]"
"91","[46.953 0. -24.0]","[0. 0. 0.]","[0. 0. 0.]"
"92","[46.953 0. -24.0]","[0. 0. 0.]","[0. 0. 0.]"
"93","[46.953 0. -24.0]","[0. 0. 0.]","[0. 0. 0.]"
"94","[46.953 0. -24.0]","[0. 0. 0.]","[0. 0. 0.]"
"95","[46.953 0. -24.0]","[0. 0. 0.]","[0. 0. 0.]"
"96","[46.953 0. -24.0]","[0. 0. 0.]","[0. 0. 0.]"
"97","[46.953 0. -24.0]","[0. 0. 0.]","[0. 0. 0.]"
"98","[46.953 0. -24.0]","[0. 0. 0.]","[0. 0. 0.]"
"99","[46.953 0. -24.0]","[0. 0. 0.]","[0. 0. 0.]"
"100","[46.953 0. -24.0]","[0. 0. 0.]","[0. 0. 0.]"
"101","[46.953 0. -24.0]","[0. 0. 0.]","[0. 0. 0.]"
"102","[46.953 0. -24.0]","[0. 0. 0.]","[0. 0. 0.]"
"103","[46.953 0. -24.0]","[0. 0. 0.]","[0. 0. 0.]"
"104","[46.953 0. -24.0]","[0. 0. 0.]","[0. 0. 0.]"
"105","[46.953 0. -24.0]","[0. 0. 0.]","[0. 0. 0.]"
"106","[46.953 0. -24.0]","[0. 0. 0.]","[0. 0. 0.]"
"107","[46.953 0. -24.0]","[0. 0. 0.]","[0. 0. 0.]"
"108","[46.953 0. -24.0]","[0. 0. 0.]","[0. 0. 0.]"
"109","[46.953 0. -24.0]","[0. 0. 0.]","[0. 0. 0.]"
"110","[46.953 0. -24.0]","[0. 0. 0.]","[0. 0. 0.]"
"111","[46.953 0. -24.0]","[0. 0. 0.]","[0. 0. 0.]"
"112","[46.953 0. -24.0]","[0. 0. 0.]","[0. 0. 0.]"
"113","[46.953 0. -24.0]","[0. 0. 0.]","[0. 0. 0.]"
"114","[46.953 0. -24.0]","[0. 0. 0.]","[0. 0. 0.]"
"115","[46.953 0. -24.0]","[0. 0. 0.]","[0. 0. 0.]"
"116","[46.953 0. -24.0]","[0. 0. 0.]","[0. 0. 0.]"
"117","[46.953 0. -24.0]","[0. 0. 0.]","[0. 0. 0.]"
"118","[46.953 0. -24.0]","[0. 0. 0.]","[0. 0. 0.]"
"119","[46.953 0. -24.0]","[0. 0. 0.]","[0. 0. 0.]"
"120","[46.953 0. -24.0]","[0. 0. 0.]","[0. 0. 0.]"
"121","[46.953 0. -24.0]","[0. 0. 0.]","[0. 0. 0.]"
"122","[46.953 0. -24.0]","[0. 0. 0.]","[0. 0. 0.]"
"123","[46.953 0. -24.0]","[0. 0. 0.]","[0. 0. 0.]"
"124","[46.953 0. -24.0]","[0. 0. 0.]","[0. 0. 0.]"
"125","[46.953 0. -24.0]","[0. 0. 0.]","[0. 0. 0.]"
"126","[46.953 0. -24.0]","[0. 0. 0.]","[0. 0. 0.]"
"127","[46.953 0. -24.0]","[0. 0. 0.]","[0. 0. 0.]"
"128","[46.953 0. -24.0]","[0. 0. 0.]","[0. 0. 0.]"
"129","[46.953 0. -24.0]","[0. 0. 0.]","[0. 0. 0.]"
"130","[46.953 0. -24.0]","[0. 0. 0.]","[0. 0. 0.]"
"131","[46.953 0. -24.0]","[0. 0. 0.]","[0. 0. 0.]"
"132","[46.953 0. -24.0]","[0. 0. 0.]","[0. 0. 0.]"
"133","[46.953 0. -24.0]","[0. 0. 0.]","[0. 0. 0.]"
"134","[46.953 0. -24.0]","[0. 0. 0.]","[0. 0. 0.]"
"135","[46.953 0. -24.0]","[0. 0. 0.]","[0. 0. 0.]"
"136","[46.953 0. -24.0]","[0. 0. 0.]","[0. 0. 0.]"
"137","[46.953 0. -24.0]","[0. 0. 0.]","[0. 0. 0.]"
"138","[46.953 0. -24.0]","[0. 0. 0.]","[0. 0. 0.]"
"139","[46.953 0. -24.0]","[0. 0. 0.]","[0. 0. 0.]"
"140","[46.953 0. -24.0]","[0. 0. 0.]","[0. 0. 0.]"
"141","[46.953 0. -24.0]","[0. 0. 0.]","[0. 0. 0.]"
"142","[46.953 0. -24.0]","[0. 0. 0.]","[0. 0. 0.]"
"143","[46.953 0. -24.0]","[0. 0. 0.]","[0. 0. 0.]"
"144","[46.953 0. -24.0]","[0. 0. 0.]","[0. 0. 0.]"
"145","[46.953 0. -24.0]","[0. 0. 0.]","[0. 0. 0.]"
"146","[46.953 0. -24.0]","[0. 0. 0.]","[0. 0. 0.]"
"147","[46.953 0. -24.0]","[0. 0. 0.]","[0. 0. 0.]"
"148","[46.953 0. -24.0]","[0. 0. 0.]","[0. 0. 0.]"
"149","[46.953 0. -24.0]","[0. 0. 0.]","[0. 0. 0.]"
"150","[46.953 0. -24.0]","[0. 0. 0.]","[0. 0. 0.]"
"151","[46.953 0. -24.0]","[0. 0. 0.]","[0. 0. 0.]"
"152","[46.953 0. -24.0]","[0. 0. 0.]","[0. 0. 0.]"
"153","[46.953 0. -24.0]","[0. 0. 0.]","[0. 0. 0.]"
"154","[46.953 0. -24.0]","[0. 0. 0.]","[0. 0. 0.]"
"155","[46.953 0. -24.0]","[0. 0. 0.]","[0. 0. 0.]"
"156","[46.953 0. -24.0]","[0. 0. 0.]","[0. 0. 0.]"
"157","[46.953 0. -24.0]","[0. 0. 0.]","[0. 0. 0.]"
"158","[46.953 0. -24.0]","[0. 0. 0.]","[0. 0. 0.]"
"159","[46.953 0. -24.0]","[0. 0. 0.]","[0. 0. 0.]"
"160","[46.953 0. -24.0]","[0. 0. 0.]","[0. 0. 0.]"
"161","[46.953 0. -24.0]","[0. 0. 0.]","[0. 0. 0.]"
"162","[46.953 0. -24.0]","[0. 0. 0.]","[0. 0. 0.]"
"163","[46.953 0. -24.0]","[0. 0. 0.]","[0. 0. 0.]"
"164","[46.953 0. -24.0]","[0. 0. 0.]","[0. 0. 0.]"
"165","[46.953 0. -24.0]","[0. 0. 0.]","[0. 0. 0.]"
"166","[46.953 0. -24.0]","[0. 0. 0.]","[0. 0. 0.]"
"167","[46.953 0. -24.0]","[0. 0. 0.]","[0. 0. 0.]"
"168","[46.953 0. -24.0]","[0. 0. 0.]","[0. 0. 0.]"
"169","[46.953 0. -24.0]","[0. 0. 0.]","[0. 0. 0.]"
"170","[46.953 0. -24.0]","[0. 0. 0.]","[0. 0. 0.]"
"171","[46.953 0. -24.0]","[0. 0. 0.]","[0. 0. 0.]"
"172","[46.953 0. -24.0]","[0. 0. 0.]","[0. 0. 0.]"
"173","[46.953 0. -24.0]","[0. 0. 0.]","[0. 0. 0.]"
"174","[46.953 0. -24.0]","[0. 0. 0.]","[0. 0. 0.]"
"175","[46.953 0. -24.0]","[0. 0. 0.]","[0. 0. 0.]"
"176","[46.953 0. -24.0]","[0. 0. 0.]","[0. 0. 0.]"
"177","[46.953 0. -24.0]","[0. 0. 0.]","[0. 0. 0.]"
"178","[46.953 0. -24.0]","[0. 0. 0.]","[0. 0. 0.]"
"179","[46.953 0. -24.0]","[0. 0. 0.]","[0. 0. 0.]"
"180","[46.953 0. -24.0]","[0. 0. 0.]","[0. 0. 0.]"
"181","[46.953 0. -24.0]","[0. 0. 0.]","[0. 0. 0.]"
"182","[46.953 0. -24.0]","[0. 0. 0.]","[0. 0. 0.]"
"183","[46.953 0. -24.0]","[0. 0. 0.]","[0. 0. 0.]"
"184","[46.953 0. -24.0]","[0. 0. 0.]","[0. 0. 0.]"
"185","[46.953 0. -24.0]","[0. 0. 0.]","[0. 0. 0.]"
"186","[46.953 0. -24.0]","[0. 0. 0.]","[0. 0. 0.]"
"187","[46.953 0. -24.0]","[0. 0. 0.]","[0. 0. 0.]"
"188","[46.953 0. -24.0]","[0. 0. 0.]","[0. 0. 0.]"
"189","[46.953 0. -24.0]","[0. 0. 0.]","[0. 0. 0.]"
"190","[46.953 0. -24.0]","[0. 0. 0.]","[0. 0. 0.]"
"191","[46.953 0. -24.0]","[0. 0. 0.]","[0. 0. 0.]"
"192","[46.953 0. -24.0]","[0. 0. 0.]","[0. 0. 0.]"
"193","[46.953 0. -24.0]","[0. 0. 0.]","[0. 0. 0.]"
"194","[46.953 0. -24.0]","[0. 0. 0.]","[0. 0. 0.]"
"195","[46.953 0. -24.0]","[0. 0. 0.]","[0. 0. 0.]"
"196","[46.953 0. -24.0]","[0. 0. 0.]","[0. 0. 0.]"
"197","[46.953 0. -24.0]","[0. 0. 0.]","[0. 0. 0.]"
"198","[46.953 0. -24.0]","[0. 0. 0.]","[0. 0. 0.]"
"199","[46.953 0. -24.0]","[0. 0. 0.]","[0. 0. 0.]"
"200","[46.953 0. -24.0]","[0. 0. 0.]","[0. 0. 0.]"
"201","[46.953 0. -24.0]","[0. 0. 0.]","[0. 0. 0.]"
"202","[46.953 0. -24.0]","[0. 0. 0.]","[0. 0. 0.]"
"203","[46.953 0. -24.0]","[0. 0. 0.]","[0. 0. 0.]"
"204","[46.953 0. -24.0]","[0. 0. 0.]","[0. 0. 0.]"
"205","[46.953 0. -24.0]","[0. 0. 0.]","[0. 0. 0.]"
"206","[46.953 0. -24.0]","[0. 0. 0.]","[0. 0. 0.]"
"207","[46.953 0. -24.0]","[0. 0. 0.]","[0. 0. 0.]"
"208","[46.953 0. -24.0]","[0. 0. 0.]","[0. 0. 0.]"
"209","[46.953 0. -24.0]","[0. 0. 0.]","[0. 0. 0.]"
"210","[46.953 0. -24.0]","[0. 0. 0.]","[0. 0. 0.]"
"211","[46.953 0. -24.0]","[0. 0. 0.]","[0. 0. 0.]"
"212","[46.953 0. -24.0]","[0. 0. 0.]","[0. 0. 0.]"
"213","[46.953 0. -24.0]","[0. 0. 0.]","[0. 0. 0.]"
"214","[46.953 0. -24.0]","[0. 0. 0.]","[0. 0. 0.]"
"215","[46.953 0. -24.0]","[0. 0. 0.]","[0. 0. 0.]"
"216","[46.953 0. -24.0]","[0. 0. 0.]","[0. 0. 0.]"
"217","[46.953 0. -24.0]","[0. 0. 0.]","[0. 0. 0.]"
"218","[46.953 0. -24.0]","[0. 0. 0.]","[0. 0. 0.]"
"219","[46.953 0. -24.0]","[0. 0. 0.]","[0. 0. 0.]"
"220","[46.953 0. -24.0]","[0. 0. 0.]","[0. 0. 0.]"
"221","[46.953 0. -24.0]","[0. 0. 0.]","[0. 0. 0.]"
"222","[46.953 0. -24.0]","[0. 0. 0.]","[0. 0. 0.]"
"223","[46.953 0. -24.0]","[0. 0. 0.]","[0. 0. 0.]"
"224","[46.953 0. -24.0]","[0. 0. 0.]","[0. 0. 0.]"
"225","[46.953 0. -24.0]","[0. 0. 0.]","[0. 0. 0.]"
"226","[46.953 0. -24.0]","[0. 0. 0.]","[0. 0. 0.]"
"227","[46.953 0. -24.0]","[0. 0. 0.]","[0. 0. 0.]"
"228","[46.953 0. -24.0]","[0. 0. 0.]","[0. 0. 0.]"
"229","[46.953 0. -24.0]","[0. 0. 0.]","[0. 0. 0.]"
"230","[46.953 0. -24.0]","[0. 0. 0.]","[0. 0. 0.]"
"231","[46.953 0. -24.0]","[0. 0. 0.]","[0. 0. 0.]"
"232","[46.953 0. -24.0]","[0. 0. 0.]","[0. 0. 0.]"
"233","[46.953 0. -24.0]","[0. 0. 0.]","[0. 0. 0.]"
"234","[46.953 0. -24.0]","[0. 0. 0.]","[0. 0. 0.]"
"235","[46.953 0. -24.0]","[0. 0. 0.]","[0. 0. 0.]"
"236","[46.953 0. -24.0]","[0. 0. 0.]","[0. 0. 0.]"
"237","[46.953 0. -24.0]","[0. 0. 0.]","[0. 0. 0.]"
"238","[46.953 0. -24.0]","[0. 0. 0.]","[0. 0. 0.]"
"239","[46.953 0. -24.0]","[0. 0. 0.]","[0. 0. 0.]"
"240","[46.953 0. -24.0]","[0. 0. 0.]","[0. 0. 0.]"
"241","[46.953 0. -24.0]","[0. 0. 0.]","[0. 0. 0.]"
"242","[46.953 0. -24.0]","[0. 0. 0.]","[0. 0. 0.]"
"243","[46.953 0. -24.0]","[0. 0. 0.]","[0. 0. 0.]"
"244","[46.953 0. -24.0]","[0. 0. 0.]","[0. 0. 0.]"
"245","[46.953 0. -24.0]","[0. 0. 0.]","[0. 0. 0.]"
"246","[46.953 0. -24.0]","[0. 0. 0.]","[0. 0. 0.]"
"247","[46.953 0. -24.0]","[0. 0. 0.]","[0. 0. 0.]"
"248","[46.953 0. -24.0]","[0. 0. 0.]","[0. 0. 0.]"
"249","[46.953 0. -24.0]","[0. 0. 0.]","[0. 0. 0.]"
"250","[46.953 0. -24.0]","[0. 0. 0.]","[0. 0. 0.]"
"251","[46.953 0. -24.0]","[0. 0. 0.]","[0. 0. 0.]"
"252","[46.953 0. -24.0]","[0. 0. 0.]","[0. 0. 0.]"
"253","[46.953 0. -24.0]","[0. 0. 0.]","[0. 0. 0.]"
"254","[46.953 0. -24.0]","[0. 0. 0.]","[0. 0. 0.]"
"255","[46.953 0. -24.0]","[0. 0. 0.]","[0. 0. 0.]"
"256","[46.953 0. -24.0]","[0. 0. 0.]","[0. 0. 0.]"
"257","[46.953 0. -24.0]","[0. 0. 0.]","[0. 0. 0.]"
"258","[46.953 0. -24.0]","[0. 0. 0.]","[0. 0. 0.]"
"259","[46.953 0. -24.0]","[0. 0. 0.]","[0. 0. 0.]"
"260","[46.953 0. -24.0]","[0. 0. 0.]","[0. 0. 0.]"
"261","[46.953 0. -24.0]","[0. 0. 0.]","[0. 0. 0.]"
"262","[46.953 0. -24.0]","[0. 0. 0.]","[0. 0. 0.]"
"263","[46.953 0. -24.0]","[0. 0. 0.]","[0. 0. 0.]"
"264","[46.953 0. -24.0]","[0. 0. 0.]","[0. 0. 0.]"
"265","[46.953 0. -24.0]","[0. 0. 0.]","[0. 0. 0.]"
"266","[46.953 0. -24.0]","[0. 0. 0.]","[0. 0. 0.]"
"267","[46.953 0. -24.0]","[0. 0. 0.]","[0. 0. 0.]"
"268","[46.953 0. -24.0]","[0. 0. 0.]","[0. 0. 0.]"
"269","[46.953 0. -24.0]","[0. 0. 0.]","[0. 0. 0.]"
"270","[46.953 0. -24.0]","[0. 0. 0.]","[0. 0. 0.]"
"271","[46.953 0. -24.0]","[0. 0. 0.]","[0. 0. 0.]"
"272","[46.953 0. -24.0]","[0. 0. 0.]","[0. 0. 0.]"
"273","[46.953 0. -24.0]","[0. 0. 0.]","[0. 0. 0.]"
"274","[46.953 0. -24.0]","[0. 0. 0.]","[0. 0. 0.]"
"275","[46.953 0. -24.0]","[0. 0. 0.]","[0. 0. 0.]"
"276","[46.953 0. -24.0]","[0. 0. 0.]","[0. 0. 0.]"
"277","[46.953 0. -24.0]","[0. 0. 0.]","[0. 0. 0.]"
"278","[46.953 0. -24.0]","[0. 0. 0.]","[0. 0. 0.]"
"279","[46.953 0. -24.0]","[0. 0. 0.]","[0. 0. 0.]"
"280","[46.953 0. -24.0]","[0. 0. 0.]","[0. 0. 0.]"
"281","[46.953 0. -24.0]","[0. 0. 0.]","[0. 0. 0.]"
"282","[46.953 0. -24.0]","[0. 0. 0.]","[0. 0. 0.]"
"283","[46.953 0. -24.0]","[0. 0. 0.]","[0. 0. 0.]"
"284","[46.953 0. -24.0]","[0. 0. 0.]","[0. 0. 0.]"
"285","[46.953 0. -24.0]","[0. 0. 0.]","[0. 0. 0.]"
"286","[46.953 0. -24.0]","[0. 0. 0.]","[0. 0. 0.]"
"287","[46.953 0. -24.0]","[0. 0. 0.]","[0. 0. 0.]"
"288","[46.953 0. -24.0]","[0. 0. 0.]","[0. 0. 0.]"
"289","[46.953 0. -24.0]","[0. 0. 0.]","[0. 0. 0.]"
"290","[46.953 0. -24.0]","[0. 0. 0.]","[0. 0. 0.]"
"291","[46.953 0. -24.0]","[0. 0. 0.]","[0. 0. 0.]"
"292","[46.953 0. -24.0]","[0. 0. 0.]","[0. 0. 0.]"
"293","[46.953 0. -24.0]","[0. 0. 0.]","[0. 0. 0.]"
"294","[46.953 0. -24.0]","[0. 0. 0.]","[0. 0. 0.]"
"295","[46.953 0. -24.0]","[0. 0. 0.]","[0. 0. 0.]"
"296","[46.953 0. -24.0]","[0. 0. 0.]","[0. 0. 0.]"
"297","[46.953 0. -24.0]","[0. 0. 0.]","[0. 0. 0.]"
"298","[46.953 0. -24.0]","[0. 0. 0.]","[0. 0. 0.]"
"299","[46.953 0. -24.0]","[0. 0. 0.]","[0. 0. 0.]"
"300","[46.953 0. -24.0]","[0. 0. 0.]","[0. 0. 0.]"
"301","[46.953 0. -24.0]","[0. 0. 0.]","[0. 0. 0.]"
"302","[46.953 0. -24.0]","[0. 0. 0.]","[0. 0. 0.]"
"303","[46.953 0. -24.0]","[0. 0. 0.]","[0. 0. 0.]"
"304","[46.953 0. -24.0]","[0. 0. 0.]","[0. 0. 0.]"
"305","[46.953 0. -24.0]","[0. 0. 0.]","[0. 0. 0.]"
"306","[46.953 0. -24.0]","[0. 0. 0.]","[0. 0. 0.]"
"307","[46.953 0. -24.0]","[0. 0. 0.]","[0. 0. 0.]"
"308","[46.953 0. -24.0]","[0. 0. 0.]","[0. 0. 0.]"
"309","[46.953 0. -24.0]","[0. 0. 0.]","[0. 0. 0.]"
"310","[46.953 0. -24.0]","[0. 0. 0.]","[0. 0. 0.]"
"311","[46.953 0. -24.0]","[0. 0. 0.]","[0. 0. 0.]"
"312","[46.953 0. -24.0]","[0. 0. 0.]","[0. 0. 0.]"
"313","[46.953 0. -24.0]","[0. 0. 0.]","[0. 0. 0.]"
"314","[46.953 0. -24.0]","[0. 0. 0.]","[0. 0. 0.]"
"315","[46.953 0. -24.0]","[0. 0. 0.]","[0. 0. 0.]"
"316","[46.953 0. -24.0]","[0. 0. 0.]","[0. 0. 0.]"
"317","[46.953 0. -24.0]","[0. 0. 0.]","[0. 0. 0.]"
"318","[46.953 0. -24.0]","[0. 0. 0.]","[0. 0. 0.]"
"319","[46.953 0. -24.0]","[0. 0. 0.]","[0. 0. 0.]"
"320","[46.953 0. -24.0]","[0. 0. 0.]","[0. 0. 0.]"
"321","[46.953 0. -24.0]","[0. 0. 0.]","[0. 0. 0.]"
"322","[46.953 0. -24.0]","[0. 0. 0.]","[0. 0. 0.]"
"323","[46.953 0. -24.0]","[0. 0. 0.]","[0. 0. 0.]"
"324","[46.953 0. -24.0]","[0. 0. 0.]","[0. 0. 0.]"
"325","[46.953 0. -24.0]","[0. 0. 0.]","[0. 0. 0.]"
"326","[46.953 0. -24.0]","[0. 0. 0.]","[0. 0. 0.]"
"327","[46.953 0. -24.0]","[0. 0. 0.]","[0. 0. 0.]"
"328","[46.953 0. -24.0]","[0. 0. 0.]","[0. 0. 0.]"
"329","[46.953 0. -24.0]","[0. 0. 0.]","[0. 0. 0.]"
"330","[46.953 0. -24.0]","[0. 0. 0.]","[0. 0. 0.]"
"331","[46.953 0. -24.0]","[0. 0. 0.]","[0. 0. 0.]"
"332","[46.953 0. -24.0]","[0. 0. 0.]","[0. 0. 0.]"
"333","[46.953 0. -24.0]","[0. 0. 0.]","[0. 0. 0.]"
"334","[46.953 0. -24.0]","[0. 0. 0.]","[0. 0. 0.]"
"335","[46.953 0. -24.0]","[0. 0. 0.]","[0. 0. 0.]"
"336","[46.953 0. -24.0]","[0. 0. 0.]","[0. 0. 0.]"
"337","[46.953 0. -24.0]","[0. 0. 0.]","[0. 0. 0.]"
"338","[46.953 0. -24.0]","[0. 0. 0.]","[0. 0. 0.]"
"339","[46.953 0. -24.0]","[0. 0. 0.]","[0. 0. 0.]"
"340","[46.953 0. -24.0]","[0. 0. 0.]","[0. 0. 0.]"
"341","[46.953 0. -24.0]","[0. 0. 0.]","[0. 0. 0.]"
"342","[46.953 0. -24.0]","[0. 0. 0.]","[0. 0. 0.]"
"343","[46.953 0. -24.0]","[0. 0. 0.]","[0. 0. 0.]"
"344","[46.953 0. -24.0]","[0. 0. 0.]","[0. 0. 0.]"
"345","[46.953 0. -24.0]","[0. 0. 0.]","[0. 0. 0.]"
"346","[46.953 0. -24.0]","[0. 0. 0.]","[0. 0. 0.]"
"347","[46.953 0. -24.0]","[0. 0. 0.]","[0. 0. 0.]"
"348","[46.953 0. -24.0]","[0. 0. 0.]","[0. 0. 0.]"
"349","[46.953 0. -24.0]","[0. 0. 0.]","[0. 0. 0.]"
"350","[46.953 0. -24.0]","[0. 0. 0.]","[0. 0. 0.]"
"351","[46.953 0. -24.0]","[0. 0. 0.]","[0. 0. 0.]"
"352","[46.953 0. -24.0]","[0. 0. 0.]","[0. 0. 0.]"
"353","[46.953 0. -24.0]","[0. 0. 0.]","[0. 0. 0.]"
"354","[46.953 0. -24.0]","[0. 0. 0.]","[0. 0. 0.]"
"355","[46.953 0. -24.0]","[0. 0. 0.]","[0. 0. 0.]"
"356","[46.953 0. -24.0]","[0. 0. 0.]","[0. 0. 0.]"
"357","[46.953 0. -24.0]","[0. 0. 0.]","[0. 0. 0.]"
"358","[46.953 0. -24.0]","[0. 0. 0.]","[0. 0. 0.]"
"359","[46.953 0. -24.0]","[0. 0. 0.]","[0. 0. 0.]"
"360","[46.953 0. -24.0]","[0. 0. 0.]","[0. 0. 0.]"
"361","[46.953 0. -24.0]","[0. 0. 0.]","[0. 0. 0.]"
"362","[46.953 0. -24.0]","[0. 0. 0.]","[0. 0. 0.]"
"363","[46.953 0. -24.0]","[0. 0. 0.]","[0. 0. 0.]"
"364","[46.953 0. -24.0]","[0. 0. 0.]","[0. 0. 0.]"
"365","[46.953 0. -24.0]","[0. 0. 0.]","[0. 0. 0.]"
"366","[46.953 0. -24.0]","[0. 0. 0.]","[0. 0. 0.]"
"367","[46.953 0. -24.0]","[0. 0. 0.]","[0. 0. 0.]"
"368","[46.953 0. -24.0]","[0. 0. 0.]","[0. 0. 0.]"
"369","[46.953 0. -24.0]","[0. 0. 0.]","[0. 0. 0.]"
"370","[46.953 0. -24.0]","[0. 0. 0.]","[0. 0. 0.]"
"371","[46.953 0. -24.0]","[0. 0. 0.]","[0. 0. 0.]"
"372","[46.953 0. -24.0]","[0. 0. 0.]","[0. 0. 0.]"
"373","[46.953 0. -24.0]","[0. 0. 0.]","[0. 0. 0.]"
"374","[46.953 0. -24.0]","[0. 0. 0.]","[0. 0. 0.]"
"375","[46.953 0. -24.0]","[0. 0. 0.]","[0. 0. 0.]"
"376","[46.953 0. -24.0]","[0. 0. 0.]","[0. 0. 0.]"
"377","[46.953 0. -24.0]","[0. 0. 0.]","[0. 0. 0.]"
"378","[46.953 0. -24.0]","[0. 0. 0.]","[0. 0. 0.]"
"379","[46.953 0. -24.0]","[0. 0. 0.]","[0. 0. 0.]"
"380","[46.953 0. -24.0]","[0. 0. 0.]","[0. 0. 0.]"
"381","[46.953 0. -24.0]","[0. 0. 0.]","[0. 0. 0.]"
"382","[46.953 0. -24.0]","[0. 0. 0.]","[0. 0. 0.]"
"383","[46.953 0. -24.0]","[0. 0. 0.]","[0. 0. 0.]"
"384","[46.953 0. -24.0]","[0. 0. 0.]","[0. 0. 0.]"
"385","[46.953 0. -24.0]","[0. 0. 0.]","[0. 0. 0.]"
"386","[46.953 0. -24.0]","[0. 0. 0.]","[0. 0. 0.]"
"387","[46.953 0. -24.0]","[0. 0. 0.]","[0. 0. 0.]"
"388","[46.953 0. -24.0]","[0. 0. 0.]","[0. 0. 0.]"
"389","[46.953 0. -24.0]","[0. 0. 0.]","[0. 0. 0.]"
"390","[46.953 0. -24.0]","[0. 0. 0.]","[0. 0. 0.]"
"391","[46.953 0. -24.0]","[0. 0. 0.]","[0. 0. 0.]"
"392","[46.953 0. -24.0]","[0. 0. 0.]","[0. 0. 0.]"
"393","[46.953 0. -24.0]","[0. 0. 0.]","[0. 0. 0.]"
"394","[46.953 0. -24.0]","[0. 0. 0.]","[0. 0. 0.]"
"395","[46.953 0. -24.0]","[0. 0. 0.]","[0. 0. 0.]"
"396","[46.953 0. -24.0]","[0. 0. 0.]","[0. 0. 0.]"
"397","[46.953 0. -24.0]","[0. 0. 0.]","[0. 0. 0.]"
"398","[46.953 0. -24.0]","[0. 0. 0.]","[0. 0. 0.]"
"399","[46.953 0. -24.0]","[0. 0. 0.]","[0. 0. 0.]"
"400","[46.953 0. -24.0]","[0. 0. 0.]","[0. 0. 0.]"
"401","[46.953 0. -24.0]","[0. 0. 0.]","[0. 0. 0.]"
"402","[46.953 0. -24.0]","[0. 0. 0.]","[0. 0. 0.]"
"403","[46.953 0. -24.0]","[0. 0. 0.]","[0. 0. 0.]"
"404","[46.953 0. -24.0]","[0. 0. 0.]","[0. 0. 0.]"
"405","[46.953 0. -24.0]","[0. 0. 0.]","[0. 0. 0.]"
"406","[46.953 0. -24.0]","[0. 0. 0.]","[0. 0. 0.]"
"407","[46.953 0. -24.0]","[0. 0. 0.]","[0. 0. 0.]"
"408","[46.953 0. -24.0]","[0. 0. 0.]","[0. 0. 0.]"
"409","[46.953 0. -24.0]","[0. 0. 0.]","[0. 0. 0.]"
"410","[46.953 0. -24.0]","[0. 0. 0.]","[0. 0. 0.]"
"411","[46.953 0. -24.0]","[0. 0. 0.]","[0. 0. 0.]"
"412","[46.953 0. -24.0]","[0. 0. 0.]","[0. 0. 0.]"
"413","[46.953 0. -24.0]","[0. 0. 0.]","[0. 0. 0.]"
"414","[46.953 0. -24.0]","[0. 0. 0.]","[0. 0. 0.]"
"415","[46.953 0. -24.0]","[0. 0. 0.]","[0. 0. 0.]"
"416","[46.953 0. -24.0]","[0. 0. 0.]","[0. 0. 0.]"
"417","[46.953 0. -24.0]","[0. 0. 0.]","[0. 0. 0.]"
"418","[46.953 0. -24.0]","[0. 0. 0.]","[0. 0. 0.]"
"419","[46.953 0. -24.0]","[0. 0. 0.]","[0. 0. 0.]"
"420","[46.953 0. -24.0]","[0. 0. 0.]","[0. 0. 0.]"
"421","[46.953 0. -24.0]","[0. 0. 0.]","[0. 0. 0.]"
"422","[46.953 0. -24.0]","[0. 0. 0.]","[0. 0. 0.]"
"423","[46.953 0. -24.0]","[0. 0. 0.]","[0. 0. 0.]"
"424","[46.953 0. -24.0]","[0. 0. 0.]","[0. 0. 0.]"
"425","[46.953 0. -24.0]","[0. 0. 0.]","[0. 0. 0.]"
"426","[46.953 0. -24.0]","[0. 0. 0.]","[0. 0. 0.]"
"427","[46.953 0. -24.0]","[0. 0. 0.]","[0. 0. 0.]"
"428","[46.953 0. -24.0]","[0. 0. 0.]","[0. 0. 0.]"
"429","[46.953 0. -24.0]","[0. 0. 0.]","[0. 0. 0.]"
"430","[46.953 0. -24.0]","[0. 0. 0.]","[0. 0. 0.]"
"431","[46.953 0. -24.0]","[0. 0. 0.]","[0. 0. 0.]"
"432","[46.953 0. -24.0]","[0. 0. 0.]","[0. 0. 0.]"
"433","[46.953 0. -24.0]","[0. 0. 0.]","[0. 0. 0.]"
"434","[46.953 0. -24.0]","[0. 0. 0.]","[0. 0. 0.]"
"435","[46.953 0. -24.0]","[0. 0. 0.]","[0. 0. 0.]"
"436","[46.953 0. -24.0]","[0. 0. 0.]","[0. 0. 0.]"
"437","[46.953 0. -24.0]","[0. 0. 0.]","[0. 0. 0.]"
"438","[46.953 0. -24.0]","[0. 0. 0.]","[0. 0. 0.]"
"439","[46.953 0. -24.0]","[0. 0. 0.]","[0. 0. 0.]"
"440","[46.953 0. -24.0]","[0. 0. 0.]","[0. 0. 0.]"
"441","[46.953 0. -24.0]","[0. 0. 0.]","[0. 0. 0.]"
"442","[46.953 0. -24.0]","[0. 0. 0.]","[0. 0. 0.]"
"443","[46.953 0. -24.0]","[0. 0. 0.]","[0. 0. 0.]"
"444","[46.953 0. -24.0]","[0. 0. 0.]","[0. 0. 0.]"
"445","[46.953 0. -24.0]","[0. 0. 0.]","[0. 0. 0.]"
"446","[46.953 0. -24.0]","[0. 0. 0.]","[0. 0. 0.]"
"447","[46.953 0. -24.0]","[0. 0. 0.]","[0. 0. 0.]"
"448","[46.953 0. -24.0]","[0. 0. 0.]","[0. 0. 0.]"
"449","[46.953 0. -24.0]","[0. 0. 0.]","[0. 0. 0.]"
"450","[46.953 0. -24.0]","[0. 0. 0.]","[0. 0. 0.]"
"451","[46.953 0. -24.0]","[0. 0. 0.]","[0. 0. 0.]"
"452","[46.953 0. -24.0]","[0. 0. 0.]","[0. 0. 0.]"
"453","[46.953 0. -24.0]","[0. 0. 0.]","[0. 0. 0.]"
"454","[46.953 0. -24.0]","[0. 0. 0.]","[0. 0. 0.]"
"455","[46.953 0. -24.0]","[0. 0. 0.]","[0. 0. 0.]"
"456","[46.953 0. -24.0]","[0. 0. 0.]","[0. 0. 0.]"
"457","[46.953 0. -24.0]","[0. 0. 0.]","[0. 0. 0.]"
"458","[46.953 0. -24.0]","[0. 0. 0.]","[0. 0. 0.]"
"459","[46.953 0. -24.0]","[0. 0. 0.]","[0. 0. 0.]"
"460","[46.953 0. -24.0]","[0. 0. 0.]","[0. 0. 0.]"
"461","[46.953 0. -24.0]","[0. 0. 0.]","[0. 0. 0.]"
"462","[46.953 0. -24.0]","[0. 0. 0.]","[0. 0. 0.]"
"463","[46.953 0. -24.0]","[0. 0. 0.]","[0. 0. 0.]"
"464","[46.953 0. -24.0]","[0. 0. 0.]","[0. 0. 0.]"
"465","[46.953 0. -24.0]","[0. 0. 0.]","[0. 0. 0.]"
"466","[46.953 0. -24.0]","[0. 0. 0.]","[0. 0. 0.]"
"467","[46.953 0. -24.0]","[0. 0. 0.]","[0. 0. 0.]"
"468","[46.953 0. -24.0]","[0. 0. 0.]","[0. 0. 0.]"
"469","[46.953 0. -24.0]","[0. 0. 0.]","[0. 0. 0.]"
"470","[46.953 0. -24.0]","[0. 0. 0.]","[0. 0. 0.]"
"471","[46.953 0. -24.0]","[0. 0. 0.]","[0. 0. 0.]"
"472","[46.953 0. -24.0]","[0. 0. 0.]","[0. 0. 0.]"
"473","[46.953 0. -24.0]","[0. 0. 0.]","[0. 0. 0.]"
"474","[46.953 0. -24.0]","[0. 0. 0.]","[0. 0. 0.]"
"475","[46.953 0. -24.0]","[0. 0. 0.]","[0. 0. 0.]"
"476","[46.953 0. -24.0]","[0. 0. 0.]","[0. 0. 0.]"
"477","[46.953 0. -24.0]","[0. 0. 0.]","[0. 0. 0.]"
"478","[46.953 0. -24.0]","[0. 0. 0.]","[0. 0. 0.]"
"479","[46.953 0. -24.0]","[0. 0. 0.]","[0. 0. 0.]"
"480","[46.953 0. -24.0]","[0. 0. 0.]","[0. 0. 0.]"
"481","[46.953 0. -24.0]","[0. 0. 0.]","[0. 0. 0.]"
"482","[46.953 0. -24.0]","[0. 0. 0.]","[0. 0. 0.]"
"483","[46.953 0. -24.0]","[0. 0. 0.]","[0. 0. 0.]"
"484","[46.953 0. -24.0]","[0. 0. 0.]","[0. 0. 0.]"
"485","[46.953 0. -24.0]","[0. 0. 0.]","[0. 0. 0.]"
"486","[46.953 0. -24.0]","[0. 0. 0.]","[0. 0. 0.]"
"487","[46.953 0. -24.0]","[0. 0. 0.]","[0. 0. 0.]"
"488","[46.953 0. -24.0]","[0. 0. 0.]","[0. 0. 0.]"
"489","[46.953 0. -24.0]","[0. 0. 0.]","[0. 0. 0.]"
"490","[46.953 0. -24.0]","[0. 0. 0.]","[0. 0. 0.]"
"491","[46.953 0. -24.0]","[0. 0. 0.]","[0. 0. 0.]"
"492","[46.953 0. -24.0]","[0. 0. 0.]","[0. 0. 0.]"
"493","[46.953 0. -24.0]","[0. 0. 0.]","[0. 0. 0.]"
"494","[46.953 0. -24.0]","[0. 0. 0.]","[0. 0. 0.]"
"495","[46.953 0. -24.0]","[0. 0. 0.]","[0. 0. 0.]"
"496","[46.953 0. -24.0]","[0. 0. 0.]","[0. 0. 0.]"
"497","[46.953 0. -24.0]","[0. 0. 0.]","[0. 0. 0.]"
"498","[46.953 0. -24.0]","[0. 0. 0.]","[0. 0. 0.]"
"499","[46.953 0. -24.0]","[0. 0. 0.]","[0. 0. 0.]"
